<?xml version="1.0" encoding="utf-8"?>
<!-- Generator: Adobe Illustrator 16.0.3, SVG Export Plug-In . SVG Version: 6.00 Build 0)  -->
<!DOCTYPE svg PUBLIC "-//W3C//DTD SVG 1.1//EN" "http://www.w3.org/Graphics/SVG/1.1/DTD/svg11.dtd">
<svg version="1.1" xmlns="http://www.w3.org/2000/svg" xmlns:xlink="http://www.w3.org/1999/xlink" x="0px" y="0px" width="24px"
	 height="24px" viewBox="0 0 24 24" enable-background="new 0 0 24 24" xml:space="preserve">
<g id="Outline_Icons">
	<g>
		<path d="M18.5,12.5c-1.416,0-2.747,0.531-3.772,1.5H9.271c-1.023-0.969-2.354-1.5-3.771-1.5C2.468,12.5,0,14.968,0,18
			s2.468,5.5,5.5,5.5c1.415,0,2.746-0.531,3.771-1.5h5.456c1.027,0.969,2.358,1.5,3.772,1.5c3.032,0,5.5-2.468,5.5-5.5
			S21.532,12.5,18.5,12.5z M18.5,22.5c-1.215,0-2.355-0.479-3.212-1.351C15.194,21.054,15.065,21,14.932,21H9.067
			c-0.134,0-0.263,0.054-0.356,0.149C7.855,22.021,6.715,22.5,5.5,22.5C3.019,22.5,1,20.481,1,18s2.019-4.5,4.5-4.5
			c1.217,0,2.357,0.479,3.21,1.35C8.805,14.946,8.933,15,9.067,15h5.864c0.134,0,0.263-0.054,0.356-0.149
			c0.854-0.871,1.995-1.351,3.212-1.351c2.481,0,4.5,2.019,4.5,4.5S20.981,22.5,18.5,22.5z"/>
		<path d="M17.793,15.293c-0.39,0.39-0.39,1.024,0,1.414C17.981,16.896,18.233,17,18.5,17s0.519-0.104,0.707-0.293
			c0.39-0.39,0.39-1.024,0-1.414C18.83,14.916,18.17,14.916,17.793,15.293z"/>
		<path d="M19.793,17.293c-0.39,0.39-0.39,1.024,0,1.414C19.981,18.896,20.233,19,20.5,19s0.519-0.104,0.707-0.293
			c0.39-0.39,0.39-1.024,0-1.414C20.83,16.916,20.17,16.916,19.793,17.293z"/>
		<path d="M15.793,17.293c-0.189,0.189-0.294,0.441-0.293,0.709c0,0.267,0.104,0.518,0.293,0.705C15.981,18.896,16.233,19,16.5,19
			s0.519-0.104,0.707-0.293c0.39-0.39,0.39-1.024-0.001-1.415C16.826,16.914,16.167,16.917,15.793,17.293z"/>
		<path d="M17.793,19.293c-0.39,0.39-0.39,1.024,0,1.414C17.981,20.896,18.233,21,18.5,21s0.519-0.104,0.707-0.293
			c0.39-0.39,0.39-1.024,0-1.414C18.83,18.916,18.17,18.916,17.793,19.293z"/>
		<path d="M7.5,17H6v-1.5C6,15.224,5.776,15,5.5,15S5,15.224,5,15.5V17H3.5C3.224,17,3,17.224,3,17.5S3.224,18,3.5,18H5v1.5
			C5,19.776,5.224,20,5.5,20S6,19.776,6,19.5V18h1.5C7.776,18,8,17.776,8,17.5S7.776,17,7.5,17z"/>
		<path d="M11,19h-1c-0.276,0-0.5,0.224-0.5,0.5S9.724,20,10,20h1c0.276,0,0.5-0.224,0.5-0.5S11.276,19,11,19z"/>
		<path d="M14,19h-1c-0.276,0-0.5,0.224-0.5,0.5S12.724,20,13,20h1c0.276,0,0.5-0.224,0.5-0.5S14.276,19,14,19z"/>
		<path d="M3.495,4.557c4.691-4.689,12.321-4.688,17.009,0c0.098,0.098,0.226,0.146,0.354,0.146s0.256-0.049,0.354-0.146
			c0.195-0.195,0.195-0.512,0-0.707c-5.077-5.077-13.342-5.08-18.423,0c-0.195,0.195-0.195,0.512,0,0.707S3.3,4.752,3.495,4.557z"/>
		<path d="M7.85,8.699c-0.195,0.195-0.195,0.512,0,0.707s0.512,0.195,0.707,0C9.507,8.458,10.754,7.984,12,7.984
			c1.247,0,2.494,0.474,3.443,1.422c0.098,0.098,0.226,0.146,0.354,0.146s0.256-0.049,0.354-0.146c0.195-0.195,0.195-0.512,0-0.707
			C13.863,6.412,10.139,6.412,7.85,8.699z"/>
		<path d="M18.327,7.129c0.128,0,0.256-0.049,0.354-0.146c0.195-0.195,0.195-0.512,0-0.707c-1.749-1.75-4.065-2.723-6.533-2.761
			c-0.048,0-0.096-0.007-0.145-0.007h-0.001c0,0-0.001,0-0.002,0s-0.002,0-0.002,0c-0.093,0-0.184,0.011-0.276,0.014
			C9.303,3.592,7.038,4.557,5.32,6.275c-0.195,0.195-0.195,0.512,0,0.707s0.512,0.195,0.707,0c1.163-1.163,2.607-1.939,4.178-2.279
			c0.045-0.01,0.089-0.023,0.134-0.033c0.089-0.018,0.18-0.024,0.27-0.039c0.456-0.076,0.92-0.123,1.392-0.123
			c0.001,0,0.001,0,0.002,0c2.255,0,4.376,0.879,5.972,2.475C18.071,7.08,18.199,7.129,18.327,7.129z"/>
	</g>
</g>
<g id="invisible_shape">
	<rect fill="none" width="24" height="24"/>
</g>
</svg>
