<?xml version="1.0" encoding="utf-8"?>
<!-- Generator: Adobe Illustrator 16.0.3, SVG Export Plug-In . SVG Version: 6.00 Build 0)  -->
<!DOCTYPE svg PUBLIC "-//W3C//DTD SVG 1.1//EN" "http://www.w3.org/Graphics/SVG/1.1/DTD/svg11.dtd">
<svg version="1.1" xmlns="http://www.w3.org/2000/svg" xmlns:xlink="http://www.w3.org/1999/xlink" x="0px" y="0px" width="24px"
	 height="24px" viewBox="0 0 24 24" enable-background="new 0 0 24 24" xml:space="preserve">
<g id="Outline_Icons">
	<g>
		<g>
			<path d="M19.5,19.5c-0.276,0-0.5,0.224-0.5,0.5s0.224,0.5,0.5,0.5S20,20.276,20,20S19.776,19.5,19.5,19.5L19.5,19.5z"/>
		</g>
		<g>
			<path d="M19.5,22.5c-0.276,0-0.5,0.224-0.5,0.5s0.224,0.5,0.5,0.5S20,23.276,20,23S19.776,22.5,19.5,22.5L19.5,22.5z"/>
		</g>
		<g>
			<path d="M17.5,21c-0.276,0-0.5,0.224-0.5,0.5s0.224,0.5,0.5,0.5s0.5-0.224,0.5-0.5S17.776,21,17.5,21L17.5,21z"/>
		</g>
		<g>
			<path d="M17.5,18c-0.276,0-0.5,0.224-0.5,0.5s0.224,0.5,0.5,0.5s0.5-0.224,0.5-0.5S17.776,18,17.5,18L17.5,18z"/>
		</g>
		<g>
			<path d="M9.5,21C9.224,21,9,21.224,9,21.5S9.224,22,9.5,22s0.5-0.224,0.5-0.5S9.776,21,9.5,21L9.5,21z"/>
		</g>
		<g>
			<path d="M7.5,22.5C7.224,22.5,7,22.724,7,23s0.224,0.5,0.5,0.5S8,23.276,8,23S7.776,22.5,7.5,22.5L7.5,22.5z"/>
		</g>
		<g>
			<path d="M9.5,18C9.224,18,9,18.224,9,18.5S9.224,19,9.5,19s0.5-0.224,0.5-0.5S9.776,18,9.5,18L9.5,18z"/>
		</g>
		<g>
			<path d="M7.5,19.5C7.224,19.5,7,19.724,7,20s0.224,0.5,0.5,0.5S8,20.276,8,20S7.776,19.5,7.5,19.5L7.5,19.5z"/>
		</g>
		<path d="M12.5,24c-0.128,0-0.257-0.049-0.354-0.147c-0.195-0.196-0.194-0.513,0.002-0.707l1.641-1.631H12.5
			c-0.202,0-0.384-0.122-0.462-0.309c-0.077-0.187-0.035-0.401,0.108-0.545l2.5-2.507c0.195-0.194,0.512-0.194,0.707-0.001
			c0.196,0.195,0.196,0.512,0.001,0.708l-1.649,1.653H15c0.203,0,0.385,0.122,0.462,0.31c0.077,0.187,0.034,0.402-0.11,0.545
			l-2.5,2.485C12.755,23.951,12.627,24,12.5,24z"/>
		<path d="M3,3.5c-0.128,0-0.256-0.049-0.354-0.146L1.87,2.576c-0.195-0.195-0.195-0.512,0-0.707s0.512-0.195,0.708,0l0.776,0.777
			c0.195,0.195,0.195,0.512,0,0.707C3.256,3.451,3.128,3.5,3,3.5z"/>
		<path d="M12,3.5c-0.128,0-0.256-0.049-0.354-0.146c-0.195-0.195-0.195-0.512,0-0.707l0.776-0.777c0.195-0.195,0.512-0.195,0.708,0
			s0.195,0.512,0,0.707l-0.776,0.777C12.256,3.451,12.128,3.5,12,3.5z"/>
		<path d="M5.952,20.304c-0.087,0-0.175-0.022-0.255-0.07C4.033,19.246,3,17.433,3,15.5c0-2.716,1.939-4.979,4.574-5.421
			C8.022,7.2,10.55,5,13.5,5c2.335,0,4.48,1.393,5.45,3.502c1.139,0.001,2.165,0.487,2.849,1.4c0.683,0.913,0.878,2.052,0.551,3.115
			C23.39,13.87,24,15.145,24,16.5c0,1.38-0.62,2.665-1.701,3.524c-0.217,0.172-0.531,0.135-0.702-0.08
			c-0.172-0.217-0.136-0.531,0.08-0.703C22.518,18.573,23,17.573,23,16.5c0-1.156-0.572-2.238-1.53-2.893
			c-0.198-0.136-0.272-0.393-0.176-0.612c0.361-0.831,0.25-1.764-0.295-2.493c-0.543-0.726-1.411-1.095-2.308-0.98
			c-0.223,0.032-0.445-0.102-0.528-0.316C17.411,7.258,15.581,6,13.5,6c-2.571,0-4.758,2.006-4.979,4.567
			C8.501,10.808,8.311,11,8.07,11.022C5.75,11.241,4,13.166,4,15.5c0,1.581,0.846,3.065,2.208,3.874
			c0.237,0.141,0.315,0.447,0.175,0.685C6.289,20.217,6.123,20.304,5.952,20.304z"/>
		<path d="M4.174,10.223c-0.161,0-0.319-0.078-0.416-0.222C3.262,9.26,3,8.396,3,7.5C3,5.019,5.019,3,7.5,3
			c1.036,0,2.047,0.361,2.849,1.017c0.214,0.175,0.246,0.489,0.071,0.703c-0.175,0.214-0.49,0.245-0.704,0.07
			C9.083,4.273,8.317,4,7.5,4C5.57,4,4,5.57,4,7.5c0,0.696,0.204,1.369,0.589,1.944c0.154,0.229,0.092,0.54-0.137,0.693
			C4.367,10.195,4.27,10.223,4.174,10.223z"/>
		<path d="M1.5,7h-1C0.224,7,0,6.776,0,6.5S0.224,6,0.5,6h1C1.776,6,2,6.224,2,6.5S1.776,7,1.5,7z"/>
		<path d="M7.5,2C7.224,2,7,1.776,7,1.5v-1C7,0.224,7.224,0,7.5,0S8,0.224,8,0.5v1C8,1.776,7.776,2,7.5,2z"/>
	</g>
</g>
<g id="Invisible_Shape">
	<rect fill="none" width="24" height="24"/>
</g>
</svg>
