<?xml version="1.0" encoding="utf-8"?>
<!-- Generator: Adobe Illustrator 16.0.3, SVG Export Plug-In . SVG Version: 6.00 Build 0)  -->
<!DOCTYPE svg PUBLIC "-//W3C//DTD SVG 1.1//EN" "http://www.w3.org/Graphics/SVG/1.1/DTD/svg11.dtd">
<svg version="1.1" xmlns="http://www.w3.org/2000/svg" xmlns:xlink="http://www.w3.org/1999/xlink" x="0px" y="0px" width="24px"
	 height="24px" viewBox="0 0 24 24" enable-background="new 0 0 24 24" xml:space="preserve">
<g id="Outline_Icons">
	<g>
		<path d="M13.5,22h-4C9.224,22,9,21.776,9,21.5V17H7c-0.208,0-0.394-0.128-0.467-0.322s-0.02-0.413,0.135-0.552l4.5-4
			c0.189-0.168,0.475-0.168,0.664,0l4.5,4c0.155,0.139,0.209,0.357,0.135,0.552S16.208,17,16,17h-2v4.5C14,21.776,13.776,22,13.5,22
			z M10,21h3v-4.5c0-0.276,0.224-0.5,0.5-0.5h1.185L11.5,13.169L8.315,16H9.5c0.276,0,0.5,0.224,0.5,0.5V21z"/>
		<path d="M22.488,24H0.5C0.224,24,0,23.776,0,23.5S0.224,23,0.5,23h21.988c0.276,0,0.5,0.224,0.5,0.5S22.765,24,22.488,24z"/>
		<path d="M18.467,16.541c-0.129,0-0.257-0.05-0.355-0.148c-0.194-0.196-0.192-0.513,0.004-0.707
			c0.777-0.77,1.391-1.694,1.796-2.704c-2.603-0.145-4.975-1.411-6.592-3.545c-1.625-2.146-2.2-4.805-1.617-7.393
			c-2.528,0.244-4.77,1.659-6.085,3.873c-1.433,2.412-1.513,5.328-0.214,7.802c0.128,0.244,0.034,0.547-0.21,0.675
			c-0.244,0.13-0.547,0.033-0.675-0.21C3.055,11.4,3.145,8.119,4.757,5.406c1.609-2.708,4.45-4.353,7.597-4.399
			c0.147-0.021,0.311,0.072,0.407,0.199c0.096,0.128,0.125,0.294,0.078,0.447c-0.761,2.486-0.296,5.104,1.277,7.179
			c1.567,2.068,3.921,3.227,6.486,3.161c0.151,0.005,0.313,0.069,0.41,0.198c0.097,0.128,0.126,0.295,0.08,0.448
			c-0.433,1.413-1.219,2.712-2.274,3.757C18.721,16.493,18.594,16.541,18.467,16.541z"/>
	</g>
</g>
<g id="Invisible_Shape">
	<rect fill="none" width="24" height="24"/>
</g>
</svg>
