<?xml version="1.0" encoding="utf-8"?>
<!-- Generator: Adobe Illustrator 16.0.3, SVG Export Plug-In . SVG Version: 6.00 Build 0)  -->
<!DOCTYPE svg PUBLIC "-//W3C//DTD SVG 1.1//EN" "http://www.w3.org/Graphics/SVG/1.1/DTD/svg11.dtd">
<svg version="1.1" xmlns="http://www.w3.org/2000/svg" xmlns:xlink="http://www.w3.org/1999/xlink" x="0px" y="0px" width="24px"
	 height="24px" viewBox="0 0 24 24" enable-background="new 0 0 24 24" xml:space="preserve">
<g id="Outline_Icons">
	<path d="M19.709,5.467C17.684,3.351,14.96,2.147,12,2.024V0.5C12,0.224,11.776,0,11.5,0S11,0.224,11,0.5v1.524
		C8.042,2.148,5.319,3.352,3.294,5.467C1.05,7.812-0.15,11.113,0,14.522c0.012,0.272,0.21,0.51,0.512,0.478
		C0.785,14.993,1.002,14.77,1,14.497c-0.002-0.369,0.122-0.683,0.37-0.932c0.358-0.36,0.965-0.575,1.624-0.575
		c0.962,0,2,0.474,2.008,1.514c0.002,0.252,0.191,0.463,0.441,0.492c0.25,0.039,0.483-0.13,0.544-0.375
		c0.281-1.121,1.465-1.623,2.515-1.623c1.034,0,2.195,0.49,2.498,1.577V22c0,1.066,0.88,1.625,1.75,1.625S14.5,23.066,14.5,22
		c0-0.276-0.224-0.5-0.5-0.5s-0.5,0.224-0.5,0.5c0,0.607-0.673,0.625-0.75,0.625S12,22.607,12,22v-7.414
		c0.298-1.095,1.464-1.588,2.502-1.588c1.05,0,2.234,0.502,2.515,1.623C17.073,14.846,17.275,15,17.501,15
		c0.02,0,0.04-0.001,0.06-0.004c0.25-0.029,0.439-0.24,0.441-0.492c0.008-1.04,1.046-1.514,2.008-1.514
		c0.659,0,1.266,0.215,1.624,0.575c0.248,0.249,0.372,0.562,0.37,0.932c-0.002,0.272,0.215,0.496,0.487,0.503
		c0.307,0.025,0.5-0.206,0.512-0.478C23.154,11.113,21.954,7.812,19.709,5.467z M17.389,13.211c-0.709-0.83-1.849-1.213-2.887-1.213
		c-1.095,0-2.304,0.426-3,1.354c-0.696-0.929-1.905-1.354-3-1.354c-1.038,0-2.177,0.383-2.887,1.213
		c-0.928-1.373-3.282-1.521-4.548-0.682c0.281-2.429,1.297-4.643,2.95-6.371C5.966,4.122,8.624,3,11.502,3s5.536,1.122,7.485,3.158
		c1.653,1.729,2.669,3.941,2.95,6.371C20.669,11.69,18.316,11.838,17.389,13.211z"/>
</g>
<g id="Invisible_Shape">
	<rect fill="none" width="24" height="24"/>
</g>
</svg>
