<?xml version="1.0" encoding="utf-8"?>
<!-- Generator: Adobe Illustrator 19.2.1, SVG Export Plug-In . SVG Version: 6.00 Build 0)  -->
<svg version="1.1" xmlns="http://www.w3.org/2000/svg" xmlns:xlink="http://www.w3.org/1999/xlink" x="0px" y="0px" width="24px"
	 height="24px" viewBox="0 0 24 24" enable-background="new 0 0 24 24" xml:space="preserve">
<g id="Outline_Icons_1_">
	<g id="Outline_Icons">
		<g>
			<path d="M18.5,7h-4C14.224,7,14,7.224,14,7.5S14.224,8,14.5,8h4c1.93,0,3.5,1.57,3.5,3.5v1c0,1.93-1.57,3.5-3.5,3.5h-4
				c-0.276,0-0.5,0.224-0.5,0.5s0.224,0.5,0.5,0.5h4c2.481,0,4.5-2.019,4.5-4.5v-1C23,9.019,20.981,7,18.5,7z"/>
			<path d="M4.5,8h4C8.776,8,9,7.776,9,7.5S8.776,7,8.5,7h-4C2.019,7,0,9.019,0,11.5v1C0,14.981,2.019,17,4.5,17h4
				C8.776,17,9,16.776,9,16.5S8.776,16,8.5,16h-4C2.57,16,1,14.43,1,12.5v-1C1,9.57,2.57,8,4.5,8z"/>
			<path d="M11.5,2C11.224,2,11,2.224,11,2.5v3C11,5.776,11.224,6,11.5,6S12,5.776,12,5.5v-3C12,2.224,11.776,2,11.5,2z"/>
			<path d="M14.854,5.353l1.5-1.5c0.195-0.195,0.195-0.512,0-0.707c-0.195-0.195-0.512-0.195-0.707,0l-1.5,1.5
				c-0.195,0.195-0.195,0.512,0,0.707S14.658,5.549,14.854,5.353z"/>
			<path d="M7.353,3.147c-0.195-0.195-0.512-0.195-0.707,0c-0.195,0.195-0.195,0.512,0,0.707l1.5,1.5
				c0.195,0.195,0.512,0.195,0.707,0s0.195-0.512,0-0.707L7.353,3.147z"/>
			<path d="M11.5,18c-0.276,0-0.5,0.224-0.5,0.5v3c0,0.276,0.224,0.5,0.5,0.5s0.5-0.224,0.5-0.5v-3C12,18.224,11.776,18,11.5,18z"/>
			<path d="M14.854,18.646c-0.195-0.195-0.512-0.195-0.707,0c-0.195,0.195-0.195,0.512,0,0.707l1.5,1.5
				c0.195,0.195,0.512,0.195,0.707,0c0.195-0.195,0.195-0.512,0-0.707L14.854,18.646z"/>
			<path d="M8.146,18.646l-1.5,1.5c-0.195,0.195-0.195,0.512,0,0.707c0.195,0.195,0.512,0.195,0.707,0l1.5-1.5
				c0.195-0.195,0.195-0.512,0-0.707C8.658,18.451,8.342,18.451,8.146,18.646z"/>
		</g>
	</g>
	<g id="New_icons_1_">
	</g>
</g>
<g id="Invisible_Shape">
	<rect fill="none" width="24" height="24"/>
</g>
</svg>
