<?xml version="1.0" encoding="utf-8"?>
<!-- Generator: Adobe Illustrator 19.2.1, SVG Export Plug-In . SVG Version: 6.00 Build 0)  -->
<svg version="1.1" xmlns="http://www.w3.org/2000/svg" xmlns:xlink="http://www.w3.org/1999/xlink" x="0px" y="0px" width="24px"
	 height="24px" viewBox="0 0 24 24" enable-background="new 0 0 24 24" xml:space="preserve">
<g id="Outline_Icons_1_">
	<g id="Outline_Icons">
		<g>
			<path d="M8.5,18.5C8.5,18.224,8.276,18,8,18H7c-0.276,0-0.5,0.224-0.5,0.5S6.724,19,7,19h1C8.276,19,8.5,18.776,8.5,18.5z"/>
			<path d="M11.5,18.5c0-0.276-0.224-0.5-0.5-0.5h-1c-0.276,0-0.5,0.224-0.5,0.5S9.724,19,10,19h1C11.276,19,11.5,18.776,11.5,18.5z
				"/>
			<path d="M14.5,18.5c0-0.276-0.224-0.5-0.5-0.5h-1c-0.276,0-0.5,0.224-0.5,0.5S12.724,19,13,19h1C14.276,19,14.5,18.776,14.5,18.5
				z"/>
			<path d="M17.5,18.5c0-0.276-0.224-0.5-0.5-0.5h-1c-0.276,0-0.5,0.224-0.5,0.5S15.724,19,16,19h1C17.276,19,17.5,18.776,17.5,18.5
				z"/>
			<path d="M6.5,20h-1C5.224,20,5,20.224,5,20.5S5.224,21,5.5,21h1C6.776,21,7,20.776,7,20.5S6.776,20,6.5,20z"/>
			<path d="M9.5,20h-1C8.224,20,8,20.224,8,20.5S8.224,21,8.5,21h1c0.276,0,0.5-0.224,0.5-0.5S9.776,20,9.5,20z"/>
			<path d="M12.5,20h-1c-0.276,0-0.5,0.224-0.5,0.5s0.224,0.5,0.5,0.5h1c0.276,0,0.5-0.224,0.5-0.5S12.776,20,12.5,20z"/>
			<path d="M15.5,20h-1c-0.276,0-0.5,0.224-0.5,0.5s0.224,0.5,0.5,0.5h1c0.276,0,0.5-0.224,0.5-0.5S15.776,20,15.5,20z"/>
			<path d="M18.5,20h-1c-0.276,0-0.5,0.224-0.5,0.5s0.224,0.5,0.5,0.5h1c0.276,0,0.5-0.224,0.5-0.5S18.776,20,18.5,20z"/>
			<path d="M23.5,13H23v-2.5c0-0.276-0.224-0.5-0.5-0.5S22,10.224,22,10.5V11h-3V3.5c0-0.133-0.053-0.26-0.146-0.353l-2-2
				C16.76,1.053,16.633,1,16.5,1h-11C5.224,1,5,1.224,5,1.5V11H2v-0.5C2,10.224,1.776,10,1.5,10S1,10.224,1,10.5V13H0.5
				C0.224,13,0,13.224,0,13.5S0.224,14,0.5,14H1v2.5C1,16.776,1.224,17,1.5,17S2,16.776,2,16.5V16h1.05
				C3.018,16.162,3,16.329,3,16.5V22H2.5C2.224,22,2,22.224,2,22.5S2.224,23,2.5,23h19c0.276,0,0.5-0.224,0.5-0.5S21.776,22,21.5,22
				H21v-5.5c0-0.171-0.018-0.338-0.051-0.5H22v0.5c0,0.276,0.224,0.5,0.5,0.5s0.5-0.224,0.5-0.5V14h0.5c0.276,0,0.5-0.224,0.5-0.5
				S23.776,13,23.5,13z M6,2h10.293L18,3.707V11H6V2z M4,22v-5.5C4,15.673,4.673,15,5.5,15h3.691l0.862,1.724
				C10.138,16.893,10.311,17,10.5,17h3c0.189,0,0.362-0.107,0.447-0.276L14.809,15H18.5c0.827,0,1.5,0.673,1.5,1.5V22H4z M10.309,15
				h3.382l-0.5,1h-2.382L10.309,15z M20.487,15c-0.457-0.604-1.174-1-1.987-1h-13c-0.813,0-1.53,0.396-1.987,1H2v-3h20v3H20.487z"/>
		</g>
	</g>
	<g id="New_icons_1_">
	</g>
</g>
<g id="Invisible_Shape">
	<rect fill="none" width="24" height="24"/>
</g>
</svg>
