<?xml version="1.0" encoding="utf-8"?>
<!-- Generator: Adobe Illustrator 16.0.3, SVG Export Plug-In . SVG Version: 6.00 Build 0)  -->
<!DOCTYPE svg PUBLIC "-//W3C//DTD SVG 1.1//EN" "http://www.w3.org/Graphics/SVG/1.1/DTD/svg11.dtd">
<svg version="1.1" xmlns="http://www.w3.org/2000/svg" xmlns:xlink="http://www.w3.org/1999/xlink" x="0px" y="0px" width="24px"
	 height="24px" viewBox="0 0 24 24" enable-background="new 0 0 24 24" xml:space="preserve">
<g id="Outline_Icons_1_">
	<g>
		<g>
			<path d="M14.661,23.854L0.154,9.348C0.061,9.254,0.008,9.127,0.008,8.994L0,0.5C0,0.226,0.223,0,0.5,0h8.492
				c0.133,0,0.26,0.053,0.354,0.146l14.508,14.516c0.265,0.265,0.154,0.721-0.208,0.832L17.4,17.4l-1.907,6.246
				C15.382,24.006,14.928,24.12,14.661,23.854z M1.008,8.787l13.771,13.771l1.742-5.704c0.049-0.158,0.174-0.283,0.333-0.332
				l5.703-1.741L8.785,1H1L1.008,8.787z"/>
		</g>
		<g>
			<path d="M5.5,8C4.121,8,3,6.879,3,5.5S4.121,3,5.5,3S8,4.121,8,5.5S6.879,8,5.5,8z M5.5,4C4.673,4,4,4.673,4,5.5S4.673,7,5.5,7
				S7,6.327,7,5.5S6.327,4,5.5,4z"/>
		</g>
	</g>
</g>
<g id="Invisible_Shape">
	<rect fill="none" width="24" height="24"/>
</g>
</svg>
