<?xml version="1.0" encoding="utf-8"?>
<!-- Generator: Adobe Illustrator 16.0.3, SVG Export Plug-In . SVG Version: 6.00 Build 0)  -->
<!DOCTYPE svg PUBLIC "-//W3C//DTD SVG 1.1//EN" "http://www.w3.org/Graphics/SVG/1.1/DTD/svg11.dtd">
<svg version="1.1" xmlns="http://www.w3.org/2000/svg" xmlns:xlink="http://www.w3.org/1999/xlink" x="0px" y="0px" width="24px"
	 height="24px" viewBox="0 0 24 24" enable-background="new 0 0 24 24" xml:space="preserve">
<g id="Outline_Icons_1_">
	<path d="M18.5,0h-13C5.224,0,5,0.224,5,0.5v23c0,0.446,0.541,0.666,0.854,0.354L12,17.707l6.146,6.146
		C18.46,24.167,19,23.944,19,23.5v-23C19,0.224,18.776,0,18.5,0z M6,1h2v19.293l-2,2V1z M11.646,16.646L9,19.293V1h6v18.293
		l-2.646-2.646C12.158,16.451,11.842,16.451,11.646,16.646z M18,22.293l-2-2V1h2V22.293z"/>
</g>
<g id="Invisible_Shape">
	<rect fill="none" width="24" height="24"/>
</g>
</svg>
