<?xml version="1.0" encoding="utf-8"?>
<!-- Generator: Adobe Illustrator 16.0.3, SVG Export Plug-In . SVG Version: 6.00 Build 0)  -->
<!DOCTYPE svg PUBLIC "-//W3C//DTD SVG 1.1//EN" "http://www.w3.org/Graphics/SVG/1.1/DTD/svg11.dtd">
<svg version="1.1" xmlns="http://www.w3.org/2000/svg" xmlns:xlink="http://www.w3.org/1999/xlink" x="0px" y="0px" width="24px"
	 height="24px" viewBox="0 0 24 24" enable-background="new 0 0 24 24" xml:space="preserve">
<g id="Outline_Icons_1_">
	<g>
		<path d="M18.5,17.523c-0.861,0-1.562-0.701-1.562-1.562s0.701-1.562,1.562-1.562s1.562,0.701,1.562,1.562
			c0,0.276,0.224,0.5,0.5,0.5s0.5-0.224,0.5-0.5c0-1.242-0.889-2.278-2.062-2.512v-0.926c0-0.276-0.224-0.5-0.5-0.5
			s-0.5,0.224-0.5,0.5v0.926c-1.174,0.233-2.062,1.27-2.062,2.512c0,1.413,1.149,2.562,2.562,2.562c0.861,0,1.562,0.701,1.562,1.562
			s-0.701,1.562-1.562,1.562s-1.562-0.701-1.562-1.562c0-0.276-0.224-0.5-0.5-0.5s-0.5,0.224-0.5,0.5
			c0,1.242,0.889,2.278,2.062,2.512v0.926c0,0.276,0.224,0.5,0.5,0.5s0.5-0.224,0.5-0.5v-0.926c1.174-0.233,2.062-1.27,2.062-2.512
			C21.062,18.673,19.913,17.523,18.5,17.523z"/>
		<path d="M20,6.57V0.5C20,0.224,19.776,0,19.5,0h-6.274c-0.133,0-0.261,0.053-0.354,0.147L0.629,12.434
			c-0.194,0.194-0.194,0.51,0,0.705l6.25,6.284c0.192,0.194,0.515,0.199,0.711-0.002l12.267-12.5C19.948,6.827,20,6.701,20,6.57z
			 M19,6.366L7.231,18.358l-5.543-5.572L13.434,1H19V6.366z"/>
		<path d="M15.967,6.07c1.103,0,2-0.897,2-2s-0.897-2-2-2s-2,0.897-2,2S14.864,6.07,15.967,6.07z M15.967,3.07c0.552,0,1,0.448,1,1
			s-0.448,1-1,1s-1-0.448-1-1S15.415,3.07,15.967,3.07z"/>
	</g>
</g>
<g id="Invisible_Shape">
	<rect fill="none" width="24" height="24"/>
</g>
</svg>
