<?xml version="1.0" encoding="utf-8"?>
<!-- Generator: Adobe Illustrator 16.0.3, SVG Export Plug-In . SVG Version: 6.00 Build 0)  -->
<!DOCTYPE svg PUBLIC "-//W3C//DTD SVG 1.1//EN" "http://www.w3.org/Graphics/SVG/1.1/DTD/svg11.dtd">
<svg version="1.1" xmlns="http://www.w3.org/2000/svg" xmlns:xlink="http://www.w3.org/1999/xlink" x="0px" y="0px" width="24px"
	 height="24px" viewBox="0 0 24 24" enable-background="new 0 0 24 24" xml:space="preserve">
<g id="Outline_Icons_1_">
	<g>
		<path d="M18.854,15.146c-0.195-0.195-0.512-0.195-0.707,0l-2,2c-0.195,0.195-0.195,0.512,0,0.707s0.512,0.195,0.707,0L18,16.707
			V21.5c0,0.276,0.224,0.5,0.5,0.5s0.5-0.224,0.5-0.5v-4.793l1.146,1.146c0.195,0.195,0.512,0.195,0.707,0s0.195-0.512,0-0.707
			L18.854,15.146z"/>
		<path d="M18.5,13c-3.032,0-5.5,2.468-5.5,5.5s2.468,5.5,5.5,5.5s5.5-2.468,5.5-5.5S21.532,13,18.5,13z M18.5,23
			c-2.481,0-4.5-2.019-4.5-4.5s2.019-4.5,4.5-4.5s4.5,2.019,4.5,4.5S20.981,23,18.5,23z"/>
		<path d="M20,6.5v-6C20,0.224,19.776,0,19.5,0h-6.258c-0.133,0-0.26,0.053-0.354,0.146L0.646,12.396
			c-0.195,0.195-0.195,0.512,0,0.707l6.25,6.25c0.172,0.172,0.489,0.225,0.711-0.004l12.25-12.5C19.948,6.757,20,6.631,20,6.5z
			 M19,6.296L7.246,18.289L1.707,12.75L13.449,1H19V6.296z"/>
		<path d="M16,6c1.103,0,2-0.897,2-2s-0.897-2-2-2s-2,0.897-2,2S14.897,6,16,6z M16,3c0.552,0,1,0.448,1,1s-0.448,1-1,1
			s-1-0.448-1-1S15.448,3,16,3z"/>
	</g>
</g>
<g id="Invisible_Shape">
	<rect fill="none" width="24" height="24"/>
</g>
</svg>
