<?xml version="1.0" encoding="utf-8"?>
<!-- Generator: Adobe Illustrator 16.0.3, SVG Export Plug-In . SVG Version: 6.00 Build 0)  -->
<!DOCTYPE svg PUBLIC "-//W3C//DTD SVG 1.1//EN" "http://www.w3.org/Graphics/SVG/1.1/DTD/svg11.dtd">
<svg version="1.1" xmlns="http://www.w3.org/2000/svg" xmlns:xlink="http://www.w3.org/1999/xlink" x="0px" y="0px" width="24px"
	 height="24px" viewBox="0 0 24 24" enable-background="new 0 0 24 24" xml:space="preserve">
<g id="Outline_Icons_1_">
	<g>
		<path d="M23.5,1H12V0.5C12,0.224,11.776,0,11.5,0h-8C3.224,0,3,0.224,3,0.5V1H0.5C0.224,1,0,1.224,0,1.5v22
			C0,23.776,0.224,24,0.5,24h23c0.276,0,0.5-0.224,0.5-0.5v-22C24,1.224,23.776,1,23.5,1z M4,1h7v11.293L7.854,9.146
			c-0.195-0.195-0.512-0.195-0.707,0L4,12.293V1z M23,23H1V2h2v11.5c0,0.446,0.542,0.668,0.854,0.354L7.5,10.207l3.646,3.646
			C11.459,14.166,12,13.948,12,13.5V2h11V23z"/>
		<path d="M14.5,8h6C20.776,8,21,7.776,21,7.5S20.776,7,20.5,7h-6C14.224,7,14,7.224,14,7.5S14.224,8,14.5,8z"/>
		<path d="M14.5,11h6c0.276,0,0.5-0.224,0.5-0.5S20.776,10,20.5,10h-6c-0.276,0-0.5,0.224-0.5,0.5S14.224,11,14.5,11z"/>
		<path d="M20.5,13h-6c-0.276,0-0.5,0.224-0.5,0.5s0.224,0.5,0.5,0.5h6c0.276,0,0.5-0.224,0.5-0.5S20.776,13,20.5,13z"/>
		<path d="M20.5,16h-17C3.224,16,3,16.224,3,16.5S3.224,17,3.5,17h17c0.276,0,0.5-0.224,0.5-0.5S20.776,16,20.5,16z"/>
		<path d="M16.5,19h-13C3.224,19,3,19.224,3,19.5S3.224,20,3.5,20h13c0.276,0,0.5-0.224,0.5-0.5S16.776,19,16.5,19z"/>
	</g>
</g>
<g id="Invisible_Shape">
	<rect fill="none" width="24" height="24"/>
</g>
</svg>
