<?xml version="1.0" encoding="utf-8"?>
<!-- Generator: Adobe Illustrator 16.0.3, SVG Export Plug-In . SVG Version: 6.00 Build 0)  -->
<!DOCTYPE svg PUBLIC "-//W3C//DTD SVG 1.1//EN" "http://www.w3.org/Graphics/SVG/1.1/DTD/svg11.dtd">
<svg version="1.1" xmlns="http://www.w3.org/2000/svg" xmlns:xlink="http://www.w3.org/1999/xlink" x="0px" y="0px" width="24px"
	 height="24px" viewBox="0 0 24 24" enable-background="new 0 0 24 24" xml:space="preserve">
<g id="Outline_Icons_1_">
	<g>
		<g>
			<g>
				<path d="M17.646,20.354l-2-2c-0.195-0.195-0.195-0.512,0-0.707s0.512-0.195,0.707,0L18,19.293l2.646-2.646
					c0.195-0.195,0.512-0.195,0.707,0s0.195,0.512,0,0.707l-3,3C18.158,20.549,17.842,20.549,17.646,20.354z"/>
			</g>
			<g>
				<path d="M18.5,24c-3.032,0-5.5-2.468-5.5-5.5s2.468-5.5,5.5-5.5s5.5,2.468,5.5,5.5S21.532,24,18.5,24z M18.5,14
					c-2.481,0-4.5,2.019-4.5,4.5s2.019,4.5,4.5,4.5s4.5-2.019,4.5-4.5S20.981,14,18.5,14z"/>
			</g>
		</g>
		<g>
			<g>
				<path d="M6.896,19.354l-6.25-6.25c-0.195-0.195-0.195-0.512,0-0.707l12.242-12.25C12.982,0.053,13.109,0,13.242,0H19.5
					C19.776,0,20,0.224,20,0.5v6c0,0.131-0.052,0.257-0.143,0.35l-12.25,12.5C7.417,19.544,7.097,19.554,6.896,19.354z M1.707,12.75
					l5.539,5.539L19,6.296V1h-5.551L1.707,12.75z"/>
			</g>
			<g>
				<path d="M16,6c-1.103,0-2-0.897-2-2s0.897-2,2-2s2,0.897,2,2S17.103,6,16,6z M16,3c-0.552,0-1,0.448-1,1s0.448,1,1,1
					s1-0.448,1-1S16.552,3,16,3z"/>
			</g>
		</g>
	</g>
</g>
<g id="Invisible_Shape">
	<rect fill="none" width="24" height="24"/>
</g>
</svg>
