<?xml version="1.0" encoding="utf-8"?>
<!-- Generator: Adobe Illustrator 16.0.3, SVG Export Plug-In . SVG Version: 6.00 Build 0)  -->
<!DOCTYPE svg PUBLIC "-//W3C//DTD SVG 1.1//EN" "http://www.w3.org/Graphics/SVG/1.1/DTD/svg11.dtd">
<svg version="1.1" xmlns="http://www.w3.org/2000/svg" xmlns:xlink="http://www.w3.org/1999/xlink" x="0px" y="0px" width="24px"
	 height="24px" viewBox="0 0 24 24" enable-background="new 0 0 24 24" xml:space="preserve">
<g id="Outline_Icons_1_">
	<g id="Outline_Icons">
		<path d="M22.5,1c-4.669,0-9.47,1.021-11,2.786C9.97,2.021,5.169,1,0.5,1C0.224,1,0,1.224,0,1.5V18c0,0.276,0.224,0.5,0.5,0.5
			c5.913,0,10.5,1.613,10.5,3c0,0.276,0.224,0.5,0.5,0.5s0.5-0.224,0.5-0.5c0-1.387,4.587-3,10.5-3c0.276,0,0.5-0.224,0.5-0.5V1.5
			C23,1.224,22.776,1,22.5,1z M1,17.504v-15.5C6.67,2.091,11,3.652,11,5v14.829C9.171,18.405,5.085,17.567,1,17.504z M22,17.504
			c-4.085,0.063-8.171,0.901-10,2.325V5c0-1.348,4.33-2.909,10-2.996V17.504z"/>
	</g>
	<g id="New_icons_1_">
	</g>
</g>
<g id="Invisible_Shape">
	<rect fill="none" width="24" height="24"/>
</g>
</svg>
