<?xml version="1.0" encoding="utf-8"?>
<!-- Generator: Adobe Illustrator 16.0.3, SVG Export Plug-In . SVG Version: 6.00 Build 0)  -->
<!DOCTYPE svg PUBLIC "-//W3C//DTD SVG 1.1//EN" "http://www.w3.org/Graphics/SVG/1.1/DTD/svg11.dtd">
<svg version="1.1" xmlns="http://www.w3.org/2000/svg" xmlns:xlink="http://www.w3.org/1999/xlink" x="0px" y="0px" width="24px"
	 height="24px" viewBox="0 0 24 24" enable-background="new 0 0 24 24" xml:space="preserve">
<g id="Outline_Icons_1_">
	<g id="Outline_Icons">
		<g>
			<path d="M23.5,14H21V1.5C21,1.224,20.776,1,20.5,1h-11C9.224,1,9,1.224,9,1.5V3H3.5C3.224,3,3,3.224,3,3.5V14H0.5
				C0.224,14,0,14.224,0,14.5v8C0,22.776,0.224,23,0.5,23h23c0.276,0,0.5-0.224,0.5-0.5v-8C24,14.224,23.776,14,23.5,14z M10,2h10
				v12h-3.5c-0.276,0-0.5,0.224-0.5,0.5V16h-6V2z M4,4h5v12H8v-1.5C8,14.224,7.776,14,7.5,14H4V4z M23,22H1v-7h6v1.5
				C7,16.776,7.224,17,7.5,17h9c0.276,0,0.5-0.224,0.5-0.5V15h6V22z"/>
			<path d="M13.5,5h5C18.776,5,19,4.776,19,4.5S18.776,4,18.5,4h-5C13.224,4,13,4.224,13,4.5S13.224,5,13.5,5z"/>
			<path d="M11.5,7h7C18.776,7,19,6.776,19,6.5S18.776,6,18.5,6h-7C11.224,6,11,6.224,11,6.5S11.224,7,11.5,7z"/>
			<path d="M11.5,9h7C18.776,9,19,8.776,19,8.5S18.776,8,18.5,8h-7C11.224,8,11,8.224,11,8.5S11.224,9,11.5,9z"/>
			<path d="M11.5,11h7c0.276,0,0.5-0.224,0.5-0.5S18.776,10,18.5,10h-7c-0.276,0-0.5,0.224-0.5,0.5S11.224,11,11.5,11z"/>
			<path d="M11.5,13h7c0.276,0,0.5-0.224,0.5-0.5S18.776,12,18.5,12h-7c-0.276,0-0.5,0.224-0.5,0.5S11.224,13,11.5,13z"/>
		</g>
	</g>
	<g id="New_icons_1_">
	</g>
</g>
<g id="Invisible_Shape">
	<rect fill="none" width="24" height="24"/>
</g>
</svg>
