<?xml version="1.0" encoding="utf-8"?>
<!-- Generator: Adobe Illustrator 16.0.3, SVG Export Plug-In . SVG Version: 6.00 Build 0)  -->
<!DOCTYPE svg PUBLIC "-//W3C//DTD SVG 1.1//EN" "http://www.w3.org/Graphics/SVG/1.1/DTD/svg11.dtd">
<svg version="1.1" xmlns="http://www.w3.org/2000/svg" xmlns:xlink="http://www.w3.org/1999/xlink" x="0px" y="0px" width="24px"
	 height="24px" viewBox="0 0 24 24" enable-background="new 0 0 24 24" xml:space="preserve">
<g id="Outline_Icons_1_">
	<g id="Outline_Icons">
		<g>
			<path d="M5.5,2h-3C2.224,2,2,2.224,2,2.5v12C2,14.776,2.224,15,2.5,15h3C5.776,15,6,14.776,6,14.5v-12C6,2.224,5.776,2,5.5,2z
				 M5,3v2H3V3H5z M3,14V6h2v8H3z"/>
			<path d="M13.5,2h-3C10.224,2,10,2.224,10,2.5v12c0,0.276,0.224,0.5,0.5,0.5h3c0.276,0,0.5-0.224,0.5-0.5v-12
				C14,2.224,13.776,2,13.5,2z M13,3v2h-2V3H13z M11,14V6h2v8H11z"/>
			<path d="M23.5,0H16H8H0.5C0.224,0,0,0.224,0,0.5v23C0,23.776,0.224,24,0.5,24H8h8h7.5c0.276,0,0.5-0.224,0.5-0.5v-23
				C24,0.224,23.776,0,23.5,0z M1,1h6.5v22H1V1z M8.5,1h7v22h-7V1z M23,23h-6.5V1H23V23z"/>
			<path d="M18.5,15h3c0.276,0,0.5-0.224,0.5-0.5v-12C22,2.224,21.776,2,21.5,2h-3C18.224,2,18,2.224,18,2.5v12
				C18,14.776,18.224,15,18.5,15z M19,14V6h2v8H19z M21,3v2h-2V3H21z"/>
			<path d="M4,17c-1.103,0-2,0.897-2,2s0.897,2,2,2s2-0.897,2-2S5.103,17,4,17z M4,20c-0.552,0-1-0.449-1-1s0.448-1,1-1s1,0.449,1,1
				S4.552,20,4,20z"/>
			<path d="M12,17c-1.103,0-2,0.897-2,2s0.897,2,2,2s2-0.897,2-2S13.103,17,12,17z M12,20c-0.552,0-1-0.449-1-1s0.448-1,1-1
				s1,0.449,1,1S12.552,20,12,20z"/>
			<path d="M20,21c1.103,0,2-0.897,2-2s-0.897-2-2-2s-2,0.897-2,2S18.897,21,20,21z M20,18c0.552,0,1,0.449,1,1s-0.448,1-1,1
				s-1-0.449-1-1S19.448,18,20,18z"/>
		</g>
	</g>
	<g id="New_icons_1_">
	</g>
</g>
<g id="Invisible_Shape">
	<rect fill="none" width="24" height="24"/>
</g>
</svg>
