<?xml version="1.0" encoding="utf-8"?>
<!-- Generator: Adobe Illustrator 16.0.3, SVG Export Plug-In . SVG Version: 6.00 Build 0)  -->
<!DOCTYPE svg PUBLIC "-//W3C//DTD SVG 1.1//EN" "http://www.w3.org/Graphics/SVG/1.1/DTD/svg11.dtd">
<svg version="1.1" xmlns="http://www.w3.org/2000/svg" xmlns:xlink="http://www.w3.org/1999/xlink" x="0px" y="0px" width="24px"
	 height="24px" viewBox="0 0 24 24" enable-background="new 0 0 24 24" xml:space="preserve">
<g id="Outline_Icons">
	<g>
		<path d="M19.5,2h-16C2.121,2,1,3.121,1,4.5v16C1,21.879,2.121,23,3.5,23h16c1.379,0,2.5-1.121,2.5-2.5v-16
			C22,3.121,20.879,2,19.5,2z M21,4.5V7h-4V3h2.5C20.327,3,21,3.673,21,4.5z M12,7V3h4v4H12z M16,8v4h-4V8H16z M11,7H7V3h4V7z M11,8
			v4H7V8H11z M6,12H2V8h4V12z M6,13v4H2v-4H6z M7,13h4v4H7V13z M11,18v4H7v-4H11z M12,18h4v4h-4V18z M12,17v-4h4v4H12z M17,13h4v4
			h-4V13z M17,12V8h4v4H17z M3.5,3H6v4H2V4.5C2,3.673,2.673,3,3.5,3z M2,20.5V18h4v4H3.5C2.673,22,2,21.327,2,20.5z M19.5,22H17v-4
			h4v2.5C21,21.327,20.327,22,19.5,22z"/>
		<circle cx="4" cy="20" r="1"/>
		<circle cx="9" cy="15" r="1"/>
		<circle cx="4" cy="10" r="1"/>
		<circle cx="9" cy="5" r="1"/>
		<circle cx="19" cy="5" r="1"/>
		<circle cx="14" cy="10" r="1"/>
		<circle cx="14" cy="20" r="1"/>
		<circle cx="19" cy="15" r="1"/>
	</g>
</g>
<g id="invisble_shape">
	<rect fill="none" width="24" height="24"/>
</g>
</svg>
