<?xml version="1.0" encoding="utf-8"?>
<!-- Generator: Adobe Illustrator 16.0.3, SVG Export Plug-In . SVG Version: 6.00 Build 0)  -->
<!DOCTYPE svg PUBLIC "-//W3C//DTD SVG 1.1//EN" "http://www.w3.org/Graphics/SVG/1.1/DTD/svg11.dtd">
<svg version="1.1" xmlns="http://www.w3.org/2000/svg" xmlns:xlink="http://www.w3.org/1999/xlink" x="0px" y="0px" width="24px"
	 height="24px" viewBox="0 0 24 24" enable-background="new 0 0 24 24" xml:space="preserve">
<g id="Outline_Icons">
	<path d="M22.475,2.369L20.68,0.216c-0.163-0.197-0.449-0.237-0.661-0.096c-0.021,0.014-2.059,1.352-4.747,1.352
		c-1.339,0-2.167-0.331-3.044-0.682c-0.927-0.371-1.885-0.754-3.417-0.754c-1.796,0-3.074,0.528-3.833,0.975
		C4.868,0.436,4.379,0,3.793,0H2.357C1.729,0,1,0.548,1,1.254V8.43C1,9.035,1.621,10,2.357,10h1.497
		c0.611,0,1.098-0.614,1.198-1.183c0.247-1.401,1.566-2.04,2.687-2.04c0.586,0,1.38,0.304,2.222,0.625
		c1.043,0.398,2.122,0.811,3.161,0.811c0.309,0,0.604-0.02,0.891-0.058C8.496,14.113,7.718,20.7,7.614,22.72
		c-0.017,0.331,0.104,0.659,0.333,0.901C8.177,23.862,8.498,24,8.83,24h6.477c0.629,0,1.161-0.491,1.212-1.119
		c0.443-5.478,5.982-19.866,6.039-20.011C22.623,2.7,22.591,2.509,22.475,2.369z M15.522,22.8c-0.01,0.112-0.104,0.2-0.216,0.2H8.83
		c-0.061,0-0.116-0.024-0.157-0.067c-0.042-0.044-0.063-0.103-0.061-0.163c0.109-2.118,0.998-9.505,7.794-15.57
		c0.247-0.182,0.464-0.375,0.657-0.568c0.189-0.189,0.196-0.494,0.015-0.691c-0.098-0.107-0.232-0.162-0.368-0.162
		c-0.114,0-0.229,0.039-0.321,0.117c-0.209,0.175-0.413,0.352-0.575,0.5c-0.748,0.551-1.629,0.818-2.691,0.818
		c-0.854,0-1.846-0.379-2.805-0.745c-0.93-0.354-1.808-0.69-2.578-0.69c-1.524,0-3.323,0.896-3.671,2.866
		C4.038,8.814,3.898,8.982,3.854,9l-1.47,0.003C2.248,8.959,2,8.589,2,8.43V1.254C2,1.181,2.19,1,2.357,1h1.436
		C3.899,1,4,1.123,4,1.254v0.718c0,0.201,0.121,0.382,0.307,0.46c0.187,0.079,0.401,0.036,0.545-0.104
		c0.013-0.014,1.354-1.292,3.959-1.292c1.34,0,2.168,0.331,3.046,0.682c0.926,0.371,1.884,0.754,3.415,0.754
		c2.298,0,4.142-0.861,4.913-1.288l1.334,1.601C20.72,4.875,15.947,17.539,15.522,22.8z"/>
</g>
<g id="invisble_shape">
	<rect fill="none" width="24" height="24"/>
</g>
</svg>
