<?xml version="1.0" encoding="utf-8"?>
<!-- Generator: Adobe Illustrator 16.0.3, SVG Export Plug-In . SVG Version: 6.00 Build 0)  -->
<!DOCTYPE svg PUBLIC "-//W3C//DTD SVG 1.1//EN" "http://www.w3.org/Graphics/SVG/1.1/DTD/svg11.dtd">
<svg version="1.1" xmlns="http://www.w3.org/2000/svg" xmlns:xlink="http://www.w3.org/1999/xlink" x="0px" y="0px" width="24px"
	 height="24px" viewBox="0 0 24 24" enable-background="new 0 0 24 24" xml:space="preserve">
<g id="Outline_Icons">
	<path d="M22.949,23.28l-11-22.5c-0.168-0.344-0.73-0.344-0.898,0l-11,22.5c-0.076,0.155-0.066,0.338,0.025,0.484
		C0.167,23.911,0.327,24,0.5,24h22c0.173,0,0.333-0.089,0.424-0.235C23.016,23.618,23.025,23.436,22.949,23.28z M16.321,12H6.679
		l1.467-3h6.709L16.321,12z M11.5,2.139L14.365,8h-5.73L11.5,2.139z M12,16.445L15.606,23H12V16.445z M11,23H7.467L11,16.475V23z
		 M16.749,23l-4.811-8.741C11.851,14.1,11.683,14,11.5,14c-0.193,0.035-0.353,0.101-0.439,0.262L6.33,23H1.301l4.889-10h10.621
		l4.889,10H16.749z"/>
</g>
<g id="invisble_shape">
	<rect fill="none" width="24" height="24"/>
</g>
</svg>
