<?xml version="1.0" encoding="utf-8"?>
<!-- Generator: Adobe Illustrator 16.0.3, SVG Export Plug-In . SVG Version: 6.00 Build 0)  -->
<!DOCTYPE svg PUBLIC "-//W3C//DTD SVG 1.1//EN" "http://www.w3.org/Graphics/SVG/1.1/DTD/svg11.dtd">
<svg version="1.1" xmlns="http://www.w3.org/2000/svg" xmlns:xlink="http://www.w3.org/1999/xlink" x="0px" y="0px" width="24px"
	 height="24px" viewBox="0 0 24 24" enable-background="new 0 0 24 24" xml:space="preserve">
<g id="Outline_Icons">
	<g>
		<path d="M21.5,10h-2c-0.276,0-0.5,0.224-0.5,0.5V12h-3v-1.396c0.982-0.373,1.861-0.996,2.541-1.841L18.89,8.33
			C18.961,8.241,19,8.131,19,8.017V5c0-0.113-0.039-0.224-0.109-0.312l-0.349-0.436C17.396,2.821,15.688,2,13.856,2H12.5h-8
			C2.019,2,0,4.019,0,6.5c0,1.582,0.824,2.969,2.062,3.771C2.025,10.342,2,10.416,2,10.5v4C2,14.776,2.224,15,2.5,15h3.241
			L3.04,21.303c-0.065,0.155-0.05,0.332,0.043,0.473C3.175,21.916,3.332,22,3.5,22h6c0.2,0,0.381-0.119,0.46-0.303l2.628-6.131
			c0.113,0.611,0.367,1.364,0.929,1.96C14.126,18.173,14.962,18.5,16,18.5c0.276,0,0.5-0.224,0.5-0.5s-0.224-0.5-0.5-0.5
			c-0.75,0-1.34-0.221-1.753-0.656C13.723,16.291,13.564,15.5,13.518,15H15.5c0.276,0,0.5-0.224,0.5-0.5V13h3v1.5
			c0,0.276,0.224,0.5,0.5,0.5h2c1.379,0,2.5-1.121,2.5-2.5S22.879,10,21.5,10z M17.761,4.877L18,5.176V7.84l-0.238,0.296
			C16.809,9.32,15.389,10,13.867,10H13V3h0.856C15.384,3,16.807,3.684,17.761,4.877z M1,6.5C1,4.57,2.57,3,4.5,3H12v7H4.5
			C2.57,10,1,8.43,1,6.5z M9.17,21H4.258l2.572-6h4.912L9.17,21z M15,14h-2.5h-6H3v-3h1.5h8h1.367H15V14z M21.5,14H20v-3h1.5
			c0.827,0,1.5,0.673,1.5,1.5S22.327,14,21.5,14z"/>
		<path d="M20,7h2c0.276,0,0.5-0.224,0.5-0.5S22.276,6,22,6h-2c-0.276,0-0.5,0.224-0.5,0.5S19.724,7,20,7z"/>
	</g>
</g>
<g id="invisble_shape">
	<rect fill="none" width="24" height="24"/>
</g>
</svg>
