<?xml version="1.0" encoding="utf-8"?>
<!-- Generator: Adobe Illustrator 16.0.3, SVG Export Plug-In . SVG Version: 6.00 Build 0)  -->
<!DOCTYPE svg PUBLIC "-//W3C//DTD SVG 1.1//EN" "http://www.w3.org/Graphics/SVG/1.1/DTD/svg11.dtd">
<svg version="1.1" xmlns="http://www.w3.org/2000/svg" xmlns:xlink="http://www.w3.org/1999/xlink" x="0px" y="0px" width="24px"
	 height="24px" viewBox="0 0 24 24" enable-background="new 0 0 24 24" xml:space="preserve">
<g id="Outline_Icons">
	<path d="M21.5,7h-1.862l-4.881-2.929c-0.003-0.002-0.008-0.001-0.011-0.003C14.877,3.734,15,3.332,15,3c0-1.654-1.346-3-3-3
		S9,1.346,9,3c0,0.331,0.123,0.734,0.254,1.068C9.251,4.07,9.246,4.069,9.243,4.071L4.362,7H2.5C2.224,7,2,7.224,2,7.5v2
		C2,9.776,2.224,10,2.5,10h1.576L5.91,21H4.5C4.224,21,4,21.224,4,21.5v2C4,23.776,4.224,24,4.5,24h15c0.276,0,0.5-0.224,0.5-0.5v-2
		c0-0.276-0.224-0.5-0.5-0.5h-1.41l1.834-11H21.5c0.276,0,0.5-0.224,0.5-0.5v-2C22,7.224,21.776,7,21.5,7z M12,1
		c1.103,0,2,0.897,2,2c0,0.234-0.156,0.659-0.312,1h-3.377C10.167,3.685,10,3.248,10,3C10,1.897,10.897,1,12,1z M9.639,5h4.723
		l3.334,2H6.305L9.639,5z M19,23H5v-1h1.5h11H19V23z M12.175,12.519C13.86,13.548,15,15.462,15,17.5c0,1.654-1.346,3-3,3
		s-3-1.346-3-3c0-1.022,0.485-1.845,1.379-2.361c0.201,0.408,0.528,0.72,0.866,0.998c0.109,0.09,0.254,0.129,0.392,0.109
		c0.141-0.022,0.265-0.102,0.343-0.219C12.514,15.218,12.684,13.772,12.175,12.519z M17.076,21h-3.18
		C15.143,20.322,16,19.016,16,17.5c0-3.087-2.235-5.93-5.2-6.613c-0.236-0.056-0.468,0.063-0.566,0.279
		c-0.1,0.215-0.033,0.471,0.158,0.611c1.059,0.78,1.222,2.183,0.997,3.101c-0.112-0.154-0.184-0.313-0.204-0.497
		c-0.018-0.155-0.106-0.292-0.24-0.373c-0.132-0.08-0.296-0.093-0.441-0.036C8.912,14.603,8,15.889,8,17.5
		c0,1.516,0.857,2.822,2.104,3.5h-3.18L5.09,10h13.82L17.076,21z M21,9h-1.5h-15H3V8h1.5h15H21V9z"/>
</g>
<g id="invisible_shape">
	<rect fill="none" width="24" height="24"/>
</g>
</svg>
