<?xml version="1.0" encoding="utf-8"?>
<!-- Generator: Adobe Illustrator 16.0.3, SVG Export Plug-In . SVG Version: 6.00 Build 0)  -->
<!DOCTYPE svg PUBLIC "-//W3C//DTD SVG 1.1//EN" "http://www.w3.org/Graphics/SVG/1.1/DTD/svg11.dtd">
<svg version="1.1" xmlns="http://www.w3.org/2000/svg" xmlns:xlink="http://www.w3.org/1999/xlink" x="0px" y="0px" width="24px"
	 height="24px" viewBox="0 0 24 24" enable-background="new 0 0 24 24" xml:space="preserve">
<g id="Outline_Icons">
	<g>
		<path d="M10.658,0.026c-0.178-0.061-0.373-0.015-0.507,0.116c-0.135,0.13-0.185,0.325-0.13,0.504l0.038,0.122
			c0.449,1.465,1.171,3.817,0.352,5.813C10.056,6.11,9.614,5.499,9.406,5.209C9.312,5.078,9.161,5,9,5H8.999
			C8.838,5,8.687,5.079,8.593,5.21C8.43,5.44,7,7.493,7,9c0,2.757,2.243,5,5,5s5-2.243,5-5C17,5.093,14.273,1.235,10.658,0.026z
			 M12,13c-2.206,0-4-1.794-4-4c0-0.755,0.57-1.872,1.021-2.616c0.38,0.521,0.899,1.223,1.109,1.454
			c0.105,0.115,0.251,0.179,0.415,0.16c0.155-0.014,0.296-0.1,0.378-0.232c1.315-2.107,0.844-4.65,0.355-6.4
			C14.027,2.74,16,5.851,16,9C16,11.206,14.206,13,12,13z"/>
		<path d="M15,15H9c-0.154,0-0.3,0.071-0.395,0.192c-0.095,0.121-0.128,0.279-0.091,0.429l2,8C10.57,23.844,10.771,24,11,24h2
			c0.229,0,0.43-0.156,0.485-0.379l2-8c0.037-0.149,0.004-0.308-0.091-0.429C15.3,15.071,15.154,15,15,15z M12.609,23h-1.219
			l-1.75-7h4.719L12.609,23z"/>
	</g>
</g>
<g id="invisible_shape">
	<rect fill="none" width="24" height="24"/>
</g>
</svg>
