<?xml version="1.0" encoding="utf-8"?>
<!-- Generator: Adobe Illustrator 16.0.3, SVG Export Plug-In . SVG Version: 6.00 Build 0)  -->
<!DOCTYPE svg PUBLIC "-//W3C//DTD SVG 1.1//EN" "http://www.w3.org/Graphics/SVG/1.1/DTD/svg11.dtd">
<svg version="1.1" xmlns="http://www.w3.org/2000/svg" xmlns:xlink="http://www.w3.org/1999/xlink" x="0px" y="0px" width="24px"
	 height="24px" viewBox="0 0 24 24" enable-background="new 0 0 24 24" xml:space="preserve">
<g id="Outline_Icons">
	<g>
		<path d="M23.462,16.33c-0.072-0.198-0.26-0.33-0.47-0.33h-3.19l-1.854-3.723c-0.17-0.34-0.726-0.34-0.896,0L15.198,16h-3.206
			c-0.211,0-0.399,0.132-0.47,0.33c-0.072,0.198-0.011,0.42,0.151,0.555l2.751,2.281l-1.406,4.175c-0.069,0.203,0,0.428,0.172,0.558
			c0.171,0.13,0.406,0.134,0.584,0.015l3.725-2.546l3.71,2.545C21.295,23.971,21.394,24,21.492,24c0.106,0,0.212-0.033,0.301-0.101
			c0.172-0.129,0.242-0.354,0.173-0.558l-1.392-4.176l2.738-2.282C23.474,16.749,23.534,16.527,23.462,16.33z M19.672,18.616
			c-0.158,0.132-0.219,0.347-0.154,0.542l1.029,3.087l-2.764-1.896c-0.085-0.059-0.184-0.088-0.283-0.088s-0.197,0.029-0.282,0.087
			l-2.775,1.897l1.039-3.086c0.066-0.195,0.005-0.412-0.154-0.544L13.379,17h2.129c0.189,0,0.363-0.107,0.448-0.277l1.544-3.102
			l1.544,3.102C19.129,16.893,19.303,17,19.492,17h2.119L19.672,18.616z"/>
		<path d="M11,22H1V1h7v1.5C8,2.776,8.224,3,8.5,3H9v4H7V6h1V5H7V2.5C7,2.224,6.776,2,6.5,2S6,2.224,6,2.5v5C6,7.776,6.224,8,6.5,8
			h3C9.776,8,10,7.776,10,7.5v-5C10,2.224,9.776,2,9.5,2H9V1h4.293L17,4.706V10c0,0.276,0.224,0.5,0.5,0.5S18,10.276,18,10V4.499
			c0-0.133-0.053-0.26-0.146-0.354l-4-3.999C13.76,0.053,13.633,0,13.5,0h-13C0.224,0,0,0.224,0,0.5v22C0,22.776,0.224,23,0.5,23H11
			c0.276,0,0.5-0.224,0.5-0.5S11.276,22,11,22z"/>
		<path d="M9,9.5C9,9.224,8.776,9,8.5,9h-1C7.224,9,7,9.224,7,9.5S7.224,10,7.5,10h1C8.776,10,9,9.776,9,9.5z"/>
		<path d="M7,11.5C7,11.776,7.224,12,7.5,12h1C8.776,12,9,11.776,9,11.5S8.776,11,8.5,11h-1C7.224,11,7,11.224,7,11.5z"/>
		<path d="M7,13.5C7,13.776,7.224,14,7.5,14h1C8.776,14,9,13.776,9,13.5S8.776,13,8.5,13h-1C7.224,13,7,13.224,7,13.5z"/>
		<path d="M7,15.5C7,15.776,7.224,16,7.5,16h1C8.776,16,9,15.776,9,15.5S8.776,15,8.5,15h-1C7.224,15,7,15.224,7,15.5z"/>
		<path d="M7,17.5C7,17.776,7.224,18,7.5,18h1C8.776,18,9,17.776,9,17.5S8.776,17,8.5,17h-1C7.224,17,7,17.224,7,17.5z"/>
		<path d="M7,19.5C7,19.776,7.224,20,7.5,20h1C8.776,20,9,19.776,9,19.5S8.776,19,8.5,19h-1C7.224,19,7,19.224,7,19.5z"/>
		<path d="M10,10.5c0-0.276-0.224-0.5-0.5-0.5h-1C8.224,10,8,10.224,8,10.5S8.224,11,8.5,11h1C9.776,11,10,10.776,10,10.5z"/>
		<path d="M8,12.5C8,12.776,8.224,13,8.5,13h1c0.276,0,0.5-0.224,0.5-0.5S9.776,12,9.5,12h-1C8.224,12,8,12.224,8,12.5z"/>
		<path d="M8,14.5C8,14.776,8.224,15,8.5,15h1c0.276,0,0.5-0.224,0.5-0.5S9.776,14,9.5,14h-1C8.224,14,8,14.224,8,14.5z"/>
		<path d="M8,16.5C8,16.776,8.224,17,8.5,17h1c0.276,0,0.5-0.224,0.5-0.5S9.776,16,9.5,16h-1C8.224,16,8,16.224,8,16.5z"/>
		<path d="M8,18.5C8,18.776,8.224,19,8.5,19h1c0.276,0,0.5-0.224,0.5-0.5S9.776,18,9.5,18h-1C8.224,18,8,18.224,8,18.5z"/>
	</g>
</g>
<g id="Invisible_Shape">
	<rect fill="none" width="24" height="24"/>
</g>
</svg>
