<?xml version="1.0" encoding="utf-8"?>
<!-- Generator: Adobe Illustrator 16.0.3, SVG Export Plug-In . SVG Version: 6.00 Build 0)  -->
<!DOCTYPE svg PUBLIC "-//W3C//DTD SVG 1.1//EN" "http://www.w3.org/Graphics/SVG/1.1/DTD/svg11.dtd">
<svg version="1.1" xmlns="http://www.w3.org/2000/svg" xmlns:xlink="http://www.w3.org/1999/xlink" x="0px" y="0px" width="24px"
	 height="24px" viewBox="0 0 24 24" enable-background="new 0 0 24 24" xml:space="preserve">
<g id="Outline_Icons">
	<g>
		<path d="M17.5,11c-3.584,0-6.5,2.916-6.5,6.5s2.916,6.5,6.5,6.5s6.5-2.916,6.5-6.5S21.084,11,17.5,11z M17.5,23
			c-3.033,0-5.5-2.468-5.5-5.5s2.467-5.5,5.5-5.5s5.5,2.468,5.5,5.5S20.533,23,17.5,23z"/>
		<path d="M17.5,15.146c0.491,0,0.891,0.399,0.891,0.891c0,0.276,0.224,0.5,0.5,0.5s0.5-0.224,0.5-0.5
			c0-0.869-0.592-1.594-1.391-1.814v-0.504c0-0.276-0.224-0.5-0.5-0.5s-0.5,0.224-0.5,0.5v0.504
			c-0.799,0.221-1.391,0.945-1.391,1.814c0,1.043,0.848,1.891,1.891,1.891c0.491,0,0.891,0.4,0.891,0.893
			c0,0.491-0.399,0.891-0.891,0.891s-0.891-0.399-0.891-0.891c0-0.276-0.224-0.5-0.5-0.5s-0.5,0.224-0.5,0.5
			c0,0.868,0.592,1.594,1.391,1.814v0.502c0,0.276,0.224,0.5,0.5,0.5s0.5-0.224,0.5-0.5v-0.502c0.799-0.221,1.391-0.946,1.391-1.814
			c0-1.044-0.848-1.893-1.891-1.893c-0.491,0-0.891-0.399-0.891-0.891S17.009,15.146,17.5,15.146z"/>
		<path d="M10.5,22H1V1h7v1.5C8,2.776,8.224,3,8.5,3H9v4H7V6h1V5H7V2.5C7,2.224,6.776,2,6.5,2S6,2.224,6,2.5v5
			C6,7.776,6.224,8,6.5,8h3C9.776,8,10,7.776,10,7.5v-5C10,2.224,9.776,2,9.5,2H9V1h4.293L17,4.706V9.5c0,0.276,0.224,0.5,0.5,0.5
			S18,9.776,18,9.5V4.499c0-0.133-0.053-0.26-0.146-0.354l-4-3.999C13.76,0.053,13.633,0,13.5,0h-13C0.224,0,0,0.224,0,0.5v22
			C0,22.776,0.224,23,0.5,23h10c0.276,0,0.5-0.224,0.5-0.5S10.776,22,10.5,22z"/>
		<path d="M9,9.5C9,9.224,8.776,9,8.5,9h-1C7.224,9,7,9.224,7,9.5S7.224,10,7.5,10h1C8.776,10,9,9.776,9,9.5z"/>
		<path d="M7,11.5C7,11.776,7.224,12,7.5,12h1C8.776,12,9,11.776,9,11.5S8.776,11,8.5,11h-1C7.224,11,7,11.224,7,11.5z"/>
		<path d="M7,13.5C7,13.776,7.224,14,7.5,14h1C8.776,14,9,13.776,9,13.5S8.776,13,8.5,13h-1C7.224,13,7,13.224,7,13.5z"/>
		<path d="M7,15.5C7,15.776,7.224,16,7.5,16h1C8.776,16,9,15.776,9,15.5S8.776,15,8.5,15h-1C7.224,15,7,15.224,7,15.5z"/>
		<path d="M7,17.5C7,17.776,7.224,18,7.5,18h1C8.776,18,9,17.776,9,17.5S8.776,17,8.5,17h-1C7.224,17,7,17.224,7,17.5z"/>
		<path d="M7,19.5C7,19.776,7.224,20,7.5,20h1C8.776,20,9,19.776,9,19.5S8.776,19,8.5,19h-1C7.224,19,7,19.224,7,19.5z"/>
		<path d="M10,10.5c0-0.276-0.224-0.5-0.5-0.5h-1C8.224,10,8,10.224,8,10.5S8.224,11,8.5,11h1C9.776,11,10,10.776,10,10.5z"/>
		<path d="M8,12.5C8,12.776,8.224,13,8.5,13h1c0.276,0,0.5-0.224,0.5-0.5S9.776,12,9.5,12h-1C8.224,12,8,12.224,8,12.5z"/>
		<path d="M8,14.5C8,14.776,8.224,15,8.5,15h1c0.276,0,0.5-0.224,0.5-0.5S9.776,14,9.5,14h-1C8.224,14,8,14.224,8,14.5z"/>
		<path d="M8,16.5C8,16.776,8.224,17,8.5,17h1c0.276,0,0.5-0.224,0.5-0.5S9.776,16,9.5,16h-1C8.224,16,8,16.224,8,16.5z"/>
		<path d="M8,18.5C8,18.776,8.224,19,8.5,19h1c0.276,0,0.5-0.224,0.5-0.5S9.776,18,9.5,18h-1C8.224,18,8,18.224,8,18.5z"/>
	</g>
</g>
<g id="Invisible_Shape">
	<rect fill="none" width="24" height="24"/>
</g>
</svg>
