<?xml version="1.0" encoding="utf-8"?>
<!-- Generator: Adobe Illustrator 16.0.3, SVG Export Plug-In . SVG Version: 6.00 Build 0)  -->
<!DOCTYPE svg PUBLIC "-//W3C//DTD SVG 1.1//EN" "http://www.w3.org/Graphics/SVG/1.1/DTD/svg11.dtd">
<svg version="1.1" xmlns="http://www.w3.org/2000/svg" xmlns:xlink="http://www.w3.org/1999/xlink" x="0px" y="0px" width="24px"
	 height="24px" viewBox="0 0 24 24" enable-background="new 0 0 24 24" xml:space="preserve">
<g id="Outline_Icons">
	<g>
		<path d="M23.777,20.468c-0.276-0.607-0.772-1.072-1.397-1.307c-1.101-0.413-2.374,0.054-2.993,1.012l-3.426-1.283
			C15.98,18.762,16,18.633,16,18.5c0-0.224-0.039-0.438-0.095-0.645l3.645-1.821C20.018,16.631,20.72,17,21.501,17
			c0.39,0,0.765-0.089,1.115-0.264c0.598-0.298,1.043-0.812,1.254-1.445c0.211-0.633,0.164-1.311-0.135-1.908
			c-0.601-1.2-2.144-1.725-3.354-1.119c-1.08,0.539-1.599,1.761-1.297,2.885l-3.629,1.814C14.998,16.381,14.296,16,13.5,16
			c-1.378,0-2.5,1.121-2.5,2.5s1.122,2.5,2.5,2.5c0.891,0,1.668-0.472,2.111-1.175l3.42,1.281c-0.183,1.149,0.46,2.31,1.59,2.734
			c0.283,0.106,0.578,0.16,0.877,0.16c1.037,0,1.978-0.651,2.342-1.621C24.075,21.755,24.053,21.075,23.777,20.468z M20.83,13.158
			C21.04,13.054,21.265,13,21.498,13c0.573,0,1.088,0.318,1.344,0.83c0.179,0.358,0.208,0.765,0.081,1.145
			c-0.126,0.381-0.394,0.688-0.752,0.867c-0.725,0.363-1.646,0.051-2.008-0.665c-0.001-0.002-0.001-0.005-0.002-0.007
			s-0.003-0.004-0.004-0.006C19.791,14.427,20.092,13.527,20.83,13.158z M13.5,20c-0.827,0-1.5-0.673-1.5-1.5s0.673-1.5,1.5-1.5
			s1.5,0.673,1.5,1.5S14.327,20,13.5,20z M22.904,22.028c-0.281,0.75-1.171,1.162-1.931,0.877c-0.773-0.291-1.167-1.157-0.877-1.931
			c0-0.001,0.001-0.001,0.001-0.001c0.001-0.001,0-0.003,0.001-0.003C20.316,20.39,20.879,20,21.499,20
			c0.18,0,0.357,0.033,0.528,0.097c0.375,0.142,0.673,0.42,0.839,0.784S23.045,21.653,22.904,22.028z"/>
		<path d="M10.5,22H1V1h7v1.5C8,2.776,8.224,3,8.5,3H9v4H7V6h1V5H7V2.5C7,2.224,6.776,2,6.5,2S6,2.224,6,2.5v5
			C6,7.776,6.224,8,6.5,8h3C9.776,8,10,7.776,10,7.5v-5C10,2.224,9.776,2,9.5,2H9V1h4.293L17,4.706V11.5c0,0.276,0.224,0.5,0.5,0.5
			s0.5-0.224,0.5-0.5V4.499c0-0.133-0.053-0.26-0.146-0.354l-4-3.999C13.76,0.053,13.633,0,13.5,0h-13C0.224,0,0,0.224,0,0.5v22
			C0,22.776,0.224,23,0.5,23h10c0.276,0,0.5-0.224,0.5-0.5S10.776,22,10.5,22z"/>
		<path d="M9,9.5C9,9.224,8.776,9,8.5,9h-1C7.224,9,7,9.224,7,9.5S7.224,10,7.5,10h1C8.776,10,9,9.776,9,9.5z"/>
		<path d="M7,11.5C7,11.776,7.224,12,7.5,12h1C8.776,12,9,11.776,9,11.5S8.776,11,8.5,11h-1C7.224,11,7,11.224,7,11.5z"/>
		<path d="M7,13.5C7,13.776,7.224,14,7.5,14h1C8.776,14,9,13.776,9,13.5S8.776,13,8.5,13h-1C7.224,13,7,13.224,7,13.5z"/>
		<path d="M7,15.5C7,15.776,7.224,16,7.5,16h1C8.776,16,9,15.776,9,15.5S8.776,15,8.5,15h-1C7.224,15,7,15.224,7,15.5z"/>
		<path d="M7,17.5C7,17.776,7.224,18,7.5,18h1C8.776,18,9,17.776,9,17.5S8.776,17,8.5,17h-1C7.224,17,7,17.224,7,17.5z"/>
		<path d="M7,19.5C7,19.776,7.224,20,7.5,20h1C8.776,20,9,19.776,9,19.5S8.776,19,8.5,19h-1C7.224,19,7,19.224,7,19.5z"/>
		<path d="M10,10.5c0-0.276-0.224-0.5-0.5-0.5h-1C8.224,10,8,10.224,8,10.5S8.224,11,8.5,11h1C9.776,11,10,10.776,10,10.5z"/>
		<path d="M8,12.5C8,12.776,8.224,13,8.5,13h1c0.276,0,0.5-0.224,0.5-0.5S9.776,12,9.5,12h-1C8.224,12,8,12.224,8,12.5z"/>
		<path d="M8,14.5C8,14.776,8.224,15,8.5,15h1c0.276,0,0.5-0.224,0.5-0.5S9.776,14,9.5,14h-1C8.224,14,8,14.224,8,14.5z"/>
		<path d="M8,16.5C8,16.776,8.224,17,8.5,17h1c0.276,0,0.5-0.224,0.5-0.5S9.776,16,9.5,16h-1C8.224,16,8,16.224,8,16.5z"/>
		<path d="M8,18.5C8,18.776,8.224,19,8.5,19h1c0.276,0,0.5-0.224,0.5-0.5S9.776,18,9.5,18h-1C8.224,18,8,18.224,8,18.5z"/>
	</g>
</g>
<g id="Invisible_Shape">
	<rect fill="none" width="24" height="24"/>
</g>
</svg>
