<?xml version="1.0" encoding="utf-8"?>
<!-- Generator: Adobe Illustrator 16.0.3, SVG Export Plug-In . SVG Version: 6.00 Build 0)  -->
<!DOCTYPE svg PUBLIC "-//W3C//DTD SVG 1.1//EN" "http://www.w3.org/Graphics/SVG/1.1/DTD/svg11.dtd">
<svg version="1.1" xmlns="http://www.w3.org/2000/svg" xmlns:xlink="http://www.w3.org/1999/xlink" x="0px" y="0px" width="24px"
	 height="24px" viewBox="0 0 24 24" enable-background="new 0 0 24 24" xml:space="preserve">
<g id="Outline_Icons">
	<g>
		<path d="M20.5,2h-2C18.224,2,18,2.224,18,2.5S18.224,3,18.5,3H20v20H3V3h1.5C4.776,3,5,2.776,5,2.5S4.776,2,4.5,2h-2
			C2.224,2,2,2.224,2,2.5v21C2,23.776,2.224,24,2.5,24h18c0.276,0,0.5-0.224,0.5-0.5v-21C21,2.224,20.776,2,20.5,2z"/>
		<path d="M6.5,5h10C16.776,5,17,4.776,17,4.5v-2C17,2.224,16.776,2,16.5,2h-2.55c-0.232-1.14-1.242-2-2.45-2S9.283,0.86,9.05,2H6.5
			C6.224,2,6,2.224,6,2.5v2C6,4.776,6.224,5,6.5,5z M7,3h2.5C9.776,3,10,2.776,10,2.5C10,1.673,10.673,1,11.5,1S13,1.673,13,2.5
			C13,2.776,13.224,3,13.5,3H16v1H7V3z"/>
		<path d="M5,4.5C5,4.224,4.776,4,4.5,4S4,4.224,4,4.5v17C4,21.776,4.224,22,4.5,22h14c0.276,0,0.5-0.224,0.5-0.5v-17
			C19,4.224,18.776,4,18.5,4S18,4.224,18,4.5V21H5V4.5z"/>
		<path d="M9.5,9h6C15.776,9,16,8.776,16,8.5S15.776,8,15.5,8h-6C9.224,8,9,8.224,9,8.5S9.224,9,9.5,9z"/>
		<path d="M9.5,12h6c0.276,0,0.5-0.224,0.5-0.5S15.776,11,15.5,11h-6C9.224,11,9,11.224,9,11.5S9.224,12,9.5,12z"/>
		<path d="M9.5,15h6c0.276,0,0.5-0.224,0.5-0.5S15.776,14,15.5,14h-6C9.224,14,9,14.224,9,14.5S9.224,15,9.5,15z"/>
		<path d="M9.5,18h6c0.276,0,0.5-0.224,0.5-0.5S15.776,17,15.5,17h-6C9.224,17,9,17.224,9,17.5S9.224,18,9.5,18z"/>
		<path d="M7,9h0.5C7.776,9,8,8.776,8,8.5S7.776,8,7.5,8H7C6.724,8,6.5,8.224,6.5,8.5S6.724,9,7,9z"/>
		<path d="M7,12h0.5C7.776,12,8,11.776,8,11.5S7.776,11,7.5,11H7c-0.276,0-0.5,0.224-0.5,0.5S6.724,12,7,12z"/>
		<path d="M7,15h0.5C7.776,15,8,14.776,8,14.5S7.776,14,7.5,14H7c-0.276,0-0.5,0.224-0.5,0.5S6.724,15,7,15z"/>
		<path d="M7,18h0.5C7.776,18,8,17.776,8,17.5S7.776,17,7.5,17H7c-0.276,0-0.5,0.224-0.5,0.5S6.724,18,7,18z"/>
	</g>
</g>
<g id="Invisible_Shape">
	<rect fill="none" width="24" height="24"/>
</g>
</svg>
