<?xml version="1.0" encoding="utf-8"?>
<!-- Generator: Adobe Illustrator 16.0.3, SVG Export Plug-In . SVG Version: 6.00 Build 0)  -->
<!DOCTYPE svg PUBLIC "-//W3C//DTD SVG 1.1//EN" "http://www.w3.org/Graphics/SVG/1.1/DTD/svg11.dtd">
<svg version="1.1" xmlns="http://www.w3.org/2000/svg" xmlns:xlink="http://www.w3.org/1999/xlink" x="0px" y="0px" width="24px"
	 height="24px" viewBox="0 0 24 24" enable-background="new 0 0 24 24" xml:space="preserve">
<g id="Outline_Icons_1_">
	<g id="Outline_Icons">
		<g>
			<path d="M23.5,0h-5C18.224,0,18,0.224,18,0.5S18.224,1,18.5,1h3.793l-4.662,4.662c-0.195,0.195-0.195,0.512,0,0.707
				c0.098,0.098,0.226,0.146,0.354,0.146s0.256-0.049,0.354-0.146L23,1.707V5.5C23,5.776,23.224,6,23.5,6S24,5.776,24,5.5v-5
				C24,0.224,23.772,0,23.5,0z"/>
			<path d="M5.631,17.662L1,22.293V18.5C1,18.224,0.776,18,0.5,18S0,18.224,0,18.5v5C0,23.777,0.228,24,0.5,24h5
				C5.776,24,6,23.776,6,23.5S5.776,23,5.5,23H1.707l4.631-4.631c0.195-0.195,0.195-0.512,0-0.707S5.826,17.467,5.631,17.662z"/>
			<path d="M1.707,1H5.5C5.776,1,6,0.776,6,0.5S5.776,0,5.5,0h-5C0.228,0,0,0.224,0,0.5v5C0,5.776,0.224,6,0.5,6S1,5.776,1,5.5
				V1.707l4.631,4.631c0.098,0.098,0.226,0.146,0.354,0.146S6.24,6.436,6.338,6.338c0.195-0.195,0.195-0.512,0-0.707L1.707,1z"/>
			<path d="M23.5,18c-0.276,0-0.5,0.224-0.5,0.5v3.793l-4.662-4.662c-0.195-0.195-0.512-0.195-0.707,0s-0.195,0.512,0,0.707
				L22.293,23H18.5c-0.276,0-0.5,0.224-0.5,0.5s0.224,0.5,0.5,0.5h5c0.272,0,0.5-0.223,0.5-0.5v-5C24,18.224,23.776,18,23.5,18z"/>
			<path d="M11.969,10c1.93,0,3.5-1.57,3.5-3.5s-1.57-3.5-3.5-3.5s-3.5,1.57-3.5,3.5S10.039,10,11.969,10z M11.969,4
				c1.378,0,2.5,1.122,2.5,2.5S13.347,9,11.969,9s-2.5-1.122-2.5-2.5S10.59,4,11.969,4z"/>
			<path d="M16.469,11h-9c-0.276,0-0.5,0.224-0.5,0.5c0,2.298,1.048,5.1,3,6.034V21.5c0,0.276,0.224,0.5,0.5,0.5h3
				c0.276,0,0.5-0.224,0.5-0.5v-3.966c1.952-0.934,3-3.736,3-6.034C16.969,11.224,16.745,11,16.469,11z M13.304,16.729
				c-0.201,0.07-0.335,0.259-0.335,0.472V21h-2v-3.8c0-0.212-0.134-0.401-0.335-0.472c-1.516-0.53-2.5-2.765-2.646-4.729h7.962
				C15.803,13.963,14.819,16.198,13.304,16.729z"/>
		</g>
	</g>
	<g id="New_icons_1_">
	</g>
</g>
<g id="Invisible_Shape">
	<rect fill="none" width="24" height="24"/>
</g>
</svg>
