<?xml version="1.0" encoding="utf-8"?>
<!-- Generator: Adobe Illustrator 16.0.3, SVG Export Plug-In . SVG Version: 6.00 Build 0)  -->
<!DOCTYPE svg PUBLIC "-//W3C//DTD SVG 1.1//EN" "http://www.w3.org/Graphics/SVG/1.1/DTD/svg11.dtd">
<svg version="1.1" xmlns="http://www.w3.org/2000/svg" xmlns:xlink="http://www.w3.org/1999/xlink" x="0px" y="0px" width="24px"
	 height="24px" viewBox="0 0 24 24" enable-background="new 0 0 24 24" xml:space="preserve">
<g id="Outline_Icons_1_">
	<g id="Outline_Icons">
		<g>
			<path d="M21.63,4.518c-0.074-0.02-7.398-2.017-9.769-4.391c-0.188-0.189-0.537-0.189-0.725,0C8.77,2.5,1.443,4.498,1.37,4.518
				C1.151,4.576,1,4.774,1,5c0,8.569,0.76,15.405,10.326,18.948c0.056,0.021,0.115,0.031,0.174,0.031s0.118-0.01,0.174-0.031
				C21.24,20.405,22,13.569,22,5C22,4.774,21.849,4.576,21.63,4.518z M11.5,22.945C2.818,19.654,2.022,13.581,2,5.379
				C3.498,4.951,9.024,3.27,11.5,1.151c2.476,2.118,8.002,3.8,9.5,4.228C20.978,13.581,20.182,19.654,11.5,22.945z"/>
			<path d="M8,8.16c0,1.184,0.594,2.228,1.496,2.861C7.262,11.842,5.66,13.984,5.66,16.5c0,0.276,0.224,0.5,0.5,0.5h10.68
				c0.276,0,0.5-0.224,0.5-0.5c0-2.516-1.602-4.658-3.836-5.479C14.406,10.388,15,9.344,15,8.16c0-1.93-1.57-3.5-3.5-3.5
				S8,6.23,8,8.16z M16.314,16H6.686C6.937,13.565,9,11.66,11.5,11.66S16.063,13.565,16.314,16z M11.5,5.66
				c1.378,0,2.5,1.122,2.5,2.5s-1.122,2.5-2.5,2.5S9,9.539,9,8.16S10.122,5.66,11.5,5.66z"/>
		</g>
	</g>
	<g id="New_icons_1_">
	</g>
</g>
<g id="Invisible_Shape">
	<rect fill="none" width="24" height="24"/>
</g>
</svg>
