<?xml version="1.0" encoding="utf-8"?>
<!-- Generator: Adobe Illustrator 16.0.3, SVG Export Plug-In . SVG Version: 6.00 Build 0)  -->
<!DOCTYPE svg PUBLIC "-//W3C//DTD SVG 1.1//EN" "http://www.w3.org/Graphics/SVG/1.1/DTD/svg11.dtd">
<svg version="1.1" xmlns="http://www.w3.org/2000/svg" xmlns:xlink="http://www.w3.org/1999/xlink" x="0px" y="0px" width="24px"
	 height="24px" viewBox="0 0 24 24" enable-background="new 0 0 24 24" xml:space="preserve">
<g id="Outline_Icons_1_">
	<g id="Outline_Icons">
	</g>
	<g id="New_icons_1_">
		<g>
			<path d="M23.5,16.001H21v-0.5c0-0.827-0.673-1.5-1.5-1.5h-1c-0.827,0-1.5,0.673-1.5,1.5v0.5h-2.5c-0.276,0-0.5,0.224-0.5,0.5v7
				c0,0.276,0.224,0.5,0.5,0.5h9c0.276,0,0.5-0.224,0.5-0.5v-7C24,16.225,23.776,16.001,23.5,16.001z M18,15.501
				c0-0.275,0.224-0.5,0.5-0.5h1c0.276,0,0.5,0.225,0.5,0.5v0.5h-2V15.501z M23,17.001v2h-8v-2H23z M15,23.001v-3h3.5v0.5
				c0,0.276,0.224,0.5,0.5,0.5s0.5-0.224,0.5-0.5v-0.5H23v3H15z"/>
			<path d="M6.5,8c2.206,0,4-1.794,4-4s-1.794-4-4-4s-4,1.794-4,4S4.294,8,6.5,8z M6.5,1c1.654,0,3,1.346,3,3s-1.346,3-3,3
				s-3-1.346-3-3S4.846,1,6.5,1z"/>
			<path d="M6.5,8.5c-3.252,0-6,4.58-6,10C0.5,18.776,0.724,19,1,19h3v4.5C4,23.776,4.224,24,4.5,24h4C8.776,24,9,23.776,9,23.5V19
				h3c0.276,0,0.5-0.224,0.5-0.5C12.5,13.08,9.752,8.5,6.5,8.5z M8.291,10.149L6.5,12.644l-1.791-2.494
				C5.271,9.734,5.876,9.5,6.5,9.5S7.729,9.734,8.291,10.149z M5,23v-4h3v4H5z M1.508,18c0.1-2.962,1.085-5.639,2.461-7.167
				l2.125,2.959C6.188,13.922,6.339,14,6.5,14s0.312-0.078,0.406-0.208l2.125-2.958c1.376,1.528,2.36,4.204,2.46,7.166H1.508z"/>
		</g>
	</g>
</g>
<g id="Invisible_Shape">
	<rect fill="none" width="24" height="24"/>
</g>
</svg>
