<?xml version="1.0" encoding="utf-8"?>
<!-- Generator: Adobe Illustrator 16.0.3, SVG Export Plug-In . SVG Version: 6.00 Build 0)  -->
<!DOCTYPE svg PUBLIC "-//W3C//DTD SVG 1.1//EN" "http://www.w3.org/Graphics/SVG/1.1/DTD/svg11.dtd">
<svg version="1.1" xmlns="http://www.w3.org/2000/svg" xmlns:xlink="http://www.w3.org/1999/xlink" x="0px" y="0px" width="24px"
	 height="24px" viewBox="0 0 24 24" enable-background="new 0 0 24 24" xml:space="preserve">
<g id="Outline_Icons_1_">
	<g id="Outline_Icons">
		<g>
			<path d="M6.5,8c2.206,0,4-1.794,4-4s-1.794-4-4-4s-4,1.794-4,4S4.294,8,6.5,8z M6.5,1c1.654,0,3,1.346,3,3s-1.346,3-3,3
				s-3-1.346-3-3S4.846,1,6.5,1z"/>
			<path d="M12,9H1C0.724,9,0.5,9.224,0.5,9.5c0,3.554,1.271,6.37,3.5,7.783V23.5C4,23.776,4.224,24,4.5,24h4
				C8.776,24,9,23.776,9,23.5v-6.217c2.229-1.414,3.5-4.23,3.5-7.783C12.5,9.224,12.276,9,12,9z M6.54,10l0.442,5.311L6.5,15.793
				l-0.482-0.482L6.46,10H6.54z M8.253,16.565C8.097,16.654,8,16.82,8,17v6H5v-6c0-0.18-0.097-0.346-0.253-0.435
				C2.789,15.452,1.623,13.075,1.509,10h3.948l-0.455,5.458c-0.012,0.146,0.041,0.292,0.145,0.395l1,1C6.244,16.951,6.372,17,6.5,17
				s0.256-0.049,0.354-0.146l1-1c0.104-0.104,0.157-0.249,0.145-0.395L7.543,10h3.948C11.377,13.074,10.211,15.451,8.253,16.565z"/>
			<path d="M23.5,7h-1.352C21.909,4.271,19.729,2.091,17,1.852V0.5C17,0.224,16.776,0,16.5,0S16,0.224,16,0.5v1.366
				c-2.279,0.199-4.22,1.72-4.915,3.936c-0.083,0.263,0.064,0.544,0.328,0.626c0.264,0.082,0.543-0.065,0.626-0.328
				c0.563-1.797,2.122-3.039,3.96-3.234v1.286c0,0.276,0.224,0.5,0.5,0.5s0.5-0.224,0.5-0.5V2.877
				c2.173,0.235,3.888,1.95,4.123,4.123h-1.275c-0.276,0-0.5,0.224-0.5,0.5s0.224,0.5,0.5,0.5h1.275
				c-0.235,2.173-1.95,3.888-4.123,4.123v-1.275c0-0.276-0.224-0.5-0.5-0.5s-0.5,0.224-0.5,0.5v1.295
				c-0.615-0.066-1.213-0.249-1.753-0.546c-0.241-0.133-0.545-0.045-0.679,0.197c-0.133,0.242-0.045,0.546,0.197,0.679
				c0.687,0.378,1.452,0.601,2.235,0.67V14.5c0,0.276,0.224,0.5,0.5,0.5s0.5-0.224,0.5-0.5v-1.352
				c2.729-0.239,4.909-2.419,5.148-5.148H23.5C23.776,8,24,7.776,24,7.5S23.776,7,23.5,7z"/>
		</g>
	</g>
	<g id="New_icons_1_">
	</g>
</g>
<g id="Invisible_Shape">
	<rect fill="none" width="24" height="24"/>
</g>
</svg>
