<?xml version="1.0" encoding="utf-8"?>
<!-- Generator: Adobe Illustrator 16.0.3, SVG Export Plug-In . SVG Version: 6.00 Build 0)  -->
<!DOCTYPE svg PUBLIC "-//W3C//DTD SVG 1.1//EN" "http://www.w3.org/Graphics/SVG/1.1/DTD/svg11.dtd">
<svg version="1.1" xmlns="http://www.w3.org/2000/svg" xmlns:xlink="http://www.w3.org/1999/xlink" x="0px" y="0px" width="24px"
	 height="24px" viewBox="0 0 24 24" enable-background="new 0 0 24 24" xml:space="preserve">
<g id="Outline_Icons_1_">
	<g id="Outline_Icons">
		<g>
			<path d="M21.111,19.819c0.516-0.458,0.848-1.119,0.848-1.861c0-1.378-1.122-2.5-2.5-2.5s-2.5,1.122-2.5,2.5
				c0,0.742,0.332,1.403,0.848,1.861c-0.932,0.42-1.68,1.176-2.077,2.12c-0.397-0.944-1.146-1.7-2.077-2.12
				c0.516-0.458,0.848-1.119,0.848-1.861c0-1.378-1.122-2.5-2.5-2.5s-2.5,1.122-2.5,2.5c0,0.743,0.332,1.403,0.848,1.861
				c-0.973,0.439-1.736,1.25-2.118,2.252c-0.382-1.002-1.145-1.814-2.119-2.252c0.516-0.458,0.848-1.119,0.848-1.861
				c0-1.378-1.122-2.5-2.5-2.5s-2.5,1.122-2.5,2.5c0,0.742,0.332,1.403,0.848,1.861c-1.407,0.634-2.393,2.042-2.393,3.683
				c0,0.276,0.224,0.5,0.5,0.5h22.09c0.276,0,0.5-0.224,0.5-0.5C23.504,21.862,22.519,20.453,21.111,19.819z M17.959,17.958
				c0-0.827,0.673-1.5,1.5-1.5s1.5,0.673,1.5,1.5s-0.673,1.5-1.5,1.5S17.959,18.785,17.959,17.958z M10.5,17.958
				c0-0.827,0.673-1.5,1.5-1.5s1.5,0.673,1.5,1.5s-0.673,1.5-1.5,1.5S10.5,18.785,10.5,17.958z M2.959,17.958
				c0-0.827,0.673-1.5,1.5-1.5s1.5,0.673,1.5,1.5s-0.673,1.5-1.5,1.5S2.959,18.785,2.959,17.958z M1.455,23.002
				c0.239-1.441,1.495-2.544,3.004-2.544s2.765,1.103,3.004,2.544H1.455z M8.997,23.002c0.239-1.441,1.495-2.544,3.003-2.544
				c1.509,0,2.765,1.103,3.004,2.544H8.997z M16.455,23.002c0.239-1.441,1.495-2.544,3.004-2.544s2.765,1.103,3.004,2.544H16.455z"
				/>
			<path d="M4.5,13.979c0.276,0,0.5-0.224,0.5-0.5V13h6.5v0.479c0,0.276,0.224,0.5,0.5,0.5s0.5-0.224,0.5-0.5V13H19v0.479
				c0,0.276,0.224,0.5,0.5,0.5s0.5-0.224,0.5-0.5V12.5c0-0.276-0.224-0.5-0.5-0.5h-7v-1h3.938c0.276,0,0.5-0.224,0.5-0.5
				c0-2.05-1.256-3.81-3.039-4.556c0.829-0.594,1.375-1.56,1.375-2.655c0-1.805-1.469-3.273-3.274-3.273
				c-1.805,0-3.273,1.469-3.273,3.273c0,1.095,0.545,2.061,1.374,2.655C8.318,6.689,7.062,8.45,7.062,10.5
				c0,0.276,0.224,0.5,0.5,0.5H11.5v1h-7C4.224,12,4,12.224,4,12.5v0.979C4,13.756,4.224,13.979,4.5,13.979z M9.727,3.289
				c0-1.253,1.02-2.273,2.273-2.273c1.254,0,2.274,1.02,2.274,2.273c0,1.253-1.021,2.272-2.274,2.272
				C10.747,5.562,9.727,4.542,9.727,3.289z M12,6.562c2.002,0,3.661,1.502,3.907,3.438H8.094C8.34,8.063,9.998,6.562,12,6.562z"/>
		</g>
	</g>
	<g id="New_icons_1_">
	</g>
</g>
<g id="Invisible_Shape">
	<rect fill="none" width="24" height="24"/>
</g>
</svg>
