<?xml version="1.0" encoding="utf-8"?>
<!-- Generator: Adobe Illustrator 16.0.3, SVG Export Plug-In . SVG Version: 6.00 Build 0)  -->
<!DOCTYPE svg PUBLIC "-//W3C//DTD SVG 1.1//EN" "http://www.w3.org/Graphics/SVG/1.1/DTD/svg11.dtd">
<svg version="1.1" xmlns="http://www.w3.org/2000/svg" xmlns:xlink="http://www.w3.org/1999/xlink" x="0px" y="0px" width="24px"
	 height="24px" viewBox="0 0 24 24" enable-background="new 0 0 24 24" xml:space="preserve">
<g id="Outline_Icons">
	<g>
		<path d="M14.5,23H4V12.5C4,12.224,3.776,12,3.5,12S3,12.224,3,12.5v11C3,23.776,3.223,24,3.5,24h11c0.276,0,0.5-0.224,0.5-0.5
			S14.776,23,14.5,23z"/>
		<path d="M23.836,11.631l-11.5-10.5c-0.19-0.175-0.483-0.175-0.674,0l-11.5,10.5c-0.204,0.186-0.219,0.502-0.032,0.706
			c0.187,0.205,0.503,0.219,0.706,0.032L12,2.177l11.163,10.192c0.096,0.088,0.216,0.131,0.337,0.131
			c0.135,0,0.271-0.055,0.369-0.163C24.055,12.133,24.041,11.817,23.836,11.631z"/>
		<path d="M16,3h3v3c0,0.276,0.224,0.5,0.5,0.5S20,6.276,20,6V2.5C20,2.224,19.776,2,19.5,2H16c-0.276,0-0.5,0.224-0.5,0.5
			S15.723,3,16,3z"/>
		<path d="M13.5,10c0.276,0,0.5-0.224,0.5-0.5v-3C14,6.224,13.776,6,13.5,6h-3C10.223,6,10,6.224,10,6.5v3
			c0,0.276,0.224,0.5,0.5,0.5H13.5z M11,7h2v2h-2V7z"/>
		<path d="M18.995,14.5c-1.48,0-2.706,1.083-2.945,2.498H10c-0.276,0-0.5,0.224-0.5,0.5s0.224,0.5,0.5,0.5h1v3.382
			c0,0.276,0.224,0.5,0.5,0.5s0.5-0.224,0.5-0.5v-3.382h1v2.382c0,0.276,0.224,0.5,0.5,0.5s0.5-0.224,0.5-0.5v-2.382h2.05
			c0.24,1.416,1.467,2.5,2.949,2.5h0.005c0.8,0,1.553-0.312,2.119-0.879C21.689,19.052,22,18.299,22,17.5
			C22,15.846,20.656,14.5,18.995,14.5z M20.416,18.912c-0.377,0.378-0.879,0.586-1.412,0.586H19c-1.103,0-2-0.896-2-2
			c0-1.102,0.895-1.998,2.004-1.998c1.101,0,1.996,0.897,1.996,2C21,18.033,20.792,18.535,20.416,18.912z"/>
	</g>
</g>
<g id="invisible_shape">
	<rect fill="none" width="24" height="24"/>
</g>
</svg>
