<?xml version="1.0" encoding="utf-8"?>
<!-- Generator: Adobe Illustrator 16.0.3, SVG Export Plug-In . SVG Version: 6.00 Build 0)  -->
<!DOCTYPE svg PUBLIC "-//W3C//DTD SVG 1.1//EN" "http://www.w3.org/Graphics/SVG/1.1/DTD/svg11.dtd">
<svg version="1.1" xmlns="http://www.w3.org/2000/svg" xmlns:xlink="http://www.w3.org/1999/xlink" x="0px" y="0px" width="24px"
	 height="24px" viewBox="0 0 24 24" enable-background="new 0 0 24 24" xml:space="preserve">
<g id="Outline_Icons">
	<g>
		<path d="M23.5,0H2.437c-0.276,0-0.5,0.224-0.5,0.5S2.161,1,2.437,1H5v3H2.5C2.223,4,2,4.224,2,4.5v12C2,16.776,2.223,17,2.5,17h17
			c0.276,0,0.5-0.224,0.5-0.5v-12C20,4.224,19.776,4,19.5,4H17V1h6v22.5c0,0.276,0.224,0.5,0.5,0.5s0.5-0.224,0.5-0.5v-23
			C24,0.224,23.776,0,23.5,0z M19,16H3V5h16V16z M16,4H6V1h10V4z"/>
		<path d="M15.5,8C15.223,8,15,8.224,15,8.5v4c0,0.276,0.224,0.5,0.5,0.5H16c1.122,0,2-1.098,2-2.5C18,9.098,17.121,8,16,8H15.5z
			 M17,10.5c0,0.827-0.449,1.5-1,1.5V9C16.551,9,17,9.673,17,10.5z"/>
		<path d="M14,12h-1V8.5C13,8.224,12.776,8,12.5,8S12,8.224,12,8.5v4c0,0.276,0.224,0.5,0.5,0.5H14c0.276,0,0.5-0.224,0.5-0.5
			S14.276,12,14,12z"/>
		<path d="M9.5,8C8,8,8,9.565,8,10.5C8,11.436,8,13,9.5,13s1.5-1.564,1.5-2.5C11,9.565,11,8,9.5,8z M9.5,12
			C9.189,12,9,11.928,9,10.5S9.189,9,9.5,9S10,9.072,10,10.5S9.81,12,9.5,12z"/>
		<path d="M6.017,10.004C5.635,9.904,5.5,9.772,5.5,9.5C5.5,9.224,5.695,9,5.935,9c0.229,0,0.422,0.205,0.438,0.465
			c0.016,0.276,0.26,0.488,0.529,0.469c0.276-0.017,0.486-0.253,0.469-0.529C7.324,8.618,6.693,8,5.935,8C5.144,8,4.5,8.673,4.5,9.5
			c0,0.521,0.219,1.198,1.354,1.496c0.382,0.098,0.518,0.23,0.518,0.503C6.372,11.775,6.175,12,5.934,12
			c-0.229,0-0.42-0.205-0.436-0.465c-0.016-0.276-0.259-0.487-0.528-0.47c-0.276,0.016-0.486,0.252-0.47,0.528
			C4.546,12.382,5.176,13,5.934,13c0.792,0,1.438-0.673,1.438-1.501C7.372,11.071,7.207,10.31,6.017,10.004z"/>
	</g>
</g>
<g id="invisible_shape">
	<rect fill="none" width="24" height="24"/>
</g>
</svg>
