<?xml version="1.0" encoding="utf-8"?>
<!-- Generator: Adobe Illustrator 16.0.3, SVG Export Plug-In . SVG Version: 6.00 Build 0)  -->
<!DOCTYPE svg PUBLIC "-//W3C//DTD SVG 1.1//EN" "http://www.w3.org/Graphics/SVG/1.1/DTD/svg11.dtd">
<svg version="1.1" xmlns="http://www.w3.org/2000/svg" xmlns:xlink="http://www.w3.org/1999/xlink" x="0px" y="0px" width="24px"
	 height="24px" viewBox="0 0 24 24" enable-background="new 0 0 24 24" xml:space="preserve">
<g id="Outline_Icons">
	<g>
		<path d="M16.5,12h4c0.276,0,0.5-0.224,0.5-0.5v-2C21,8.122,19.879,7,18.5,7S16,8.122,16,9.5v2C16,11.776,16.224,12,16.5,12z
			 M17,9.5C17,8.673,17.673,8,18.5,8S20,8.673,20,9.5V11h-3V9.5z"/>
		<path d="M23.5,0h-2C21.224,0,21,0.224,21,0.5v1C21,1.776,20.775,2,20.5,2S20,1.776,20,1.5v-1C20,0.224,19.776,0,19.5,0h-2
			C17.224,0,17,0.224,17,0.5v1C17,1.776,16.775,2,16.5,2S16,1.776,16,1.5v-1C16,0.224,15.776,0,15.5,0h-2C13.224,0,13,0.224,13,0.5
			v3c0,0.814,0.397,1.532,1.002,1.989C14.002,5.493,14,5.496,14,5.5v0.191L1.478,11.952c-0.229-0.063-0.479,0.036-0.585,0.261
			l-0.846,1.812c-0.056,0.12-0.062,0.258-0.017,0.382c0.045,0.125,0.138,0.226,0.259,0.283l12.457,5.81H12.5
			c-0.276,0-0.5,0.224-0.5,0.5v0.955c-0.642-0.096-1.215-0.368-1.643-0.805c-0.189-0.191-0.527-0.192-0.715,0
			C9.106,21.699,8.346,22,7.5,22c-0.844,0-1.605-0.301-2.144-0.85c-0.188-0.191-0.525-0.191-0.713,0
			c-0.932,0.949-2.665,1.145-3.857,0.313c-0.228-0.156-0.538-0.103-0.696,0.125c-0.158,0.227-0.103,0.538,0.124,0.696
			C1.66,23.29,3.715,23.178,5,22.17c1.375,1.078,3.63,1.075,5,0c0.562,0.441,1.251,0.706,2,0.791V23.5c0,0.276,0.224,0.5,0.5,0.5
			s0.5-0.224,0.5-0.5v-2h1.5h8h1c0.276,0,0.5-0.224,0.5-0.5s-0.224-0.5-0.5-0.5H23v-15c0-0.004-0.002-0.007-0.002-0.011
			C23.603,5.032,24,4.314,24,3.5v-3C24,0.224,23.776,0,23.5,0z M14,17.775L2.653,12.482L14,6.809V17.775z M1.587,13.089L14,18.878
			v1.104L1.165,13.995L1.587,13.089z M22,6v14.5h-7V6h0.5h6H22z M23,3.5C23,4.327,22.327,5,21.5,5h-6C14.673,5,14,4.327,14,3.5V1h1
			v0.5C15,2.327,15.673,3,16.5,3S18,2.327,18,1.5V1h1v0.5C19,2.327,19.673,3,20.5,3S22,2.327,22,1.5V1h1V3.5z"/>
	</g>
</g>
<g id="invisible_shape">
	<rect fill="none" width="24" height="24"/>
</g>
</svg>
