<?xml version="1.0" encoding="utf-8"?>
<!-- Generator: Adobe Illustrator 16.0.3, SVG Export Plug-In . SVG Version: 6.00 Build 0)  -->
<!DOCTYPE svg PUBLIC "-//W3C//DTD SVG 1.1//EN" "http://www.w3.org/Graphics/SVG/1.1/DTD/svg11.dtd">
<svg version="1.1" xmlns="http://www.w3.org/2000/svg" xmlns:xlink="http://www.w3.org/1999/xlink" x="0px" y="0px" width="24px"
	 height="24px" viewBox="0 0 24 24" enable-background="new 0 0 24 24" xml:space="preserve">
<g id="Outline_Icons">
	<g>
		<path d="M13,4.5C13,4.224,12.776,4,12.5,4h-2C10.224,4,10,4.224,10,4.5V7H7.5C7.224,7,7,7.224,7,7.5v2C7,9.776,7.224,10,7.5,10H10
			v8.5c0,0.276,0.224,0.5,0.5,0.5h2c0.276,0,0.5-0.224,0.5-0.5V10h2.5c0.276,0,0.5-0.224,0.5-0.5v-2C16,7.224,15.776,7,15.5,7H13
			V4.5z M15,8v1h-2.5C12.224,9,12,9.224,12,9.5V18h-1V9.5C11,9.224,10.776,9,10.5,9H8V8h2.5C10.776,8,11,7.776,11,7.5V5h1v2.5
			C12,7.776,12.224,8,12.5,8H15z"/>
		<path d="M20.407,7.209l-5-7C15.313,0.078,15.161,0,15,0H8C7.839,0,7.687,0.078,7.593,0.209l-5,7
			c-0.085,0.12-0.113,0.27-0.078,0.412l4,16C6.57,23.844,6.771,24,7,24h9c0.229,0,0.43-0.156,0.485-0.379l4-16
			C20.521,7.479,20.492,7.329,20.407,7.209z M15.609,23H7.391L3.541,7.603L8.257,1h6.486l4.716,6.603L15.609,23z"/>
	</g>
</g>
<g id="invisible_shape">
	<rect fill="none" width="24" height="24"/>
</g>
</svg>
