<?xml version="1.0" encoding="utf-8"?>
<!-- Generator: Adobe Illustrator 16.0.3, SVG Export Plug-In . SVG Version: 6.00 Build 0)  -->
<!DOCTYPE svg PUBLIC "-//W3C//DTD SVG 1.1//EN" "http://www.w3.org/Graphics/SVG/1.1/DTD/svg11.dtd">
<svg version="1.1" xmlns="http://www.w3.org/2000/svg" xmlns:xlink="http://www.w3.org/1999/xlink" x="0px" y="0px" width="24px"
	 height="24px" viewBox="0 0 24 24" enable-background="new 0 0 24 24" xml:space="preserve">
<g id="Outline_Icons">
	<path d="M20,0c-0.95,0-1.811,0.383-2.441,1H6.417c-0.106,0-0.21,0.034-0.295,0.097C2.724,3.583-1.66,11.781,1.696,19.268
		c0.111,0.249,0.406,0.366,0.66,0.251c0.252-0.113,0.365-0.409,0.252-0.661C-0.441,12.056,3.523,4.369,6.584,2H9v2H8.5
		C8.35,4,8.208,4.067,8.113,4.184c-5.552,6.788-5.25,13.449,0.006,19.64C8.214,23.936,8.354,24,8.5,24h6
		c0.146,0,0.284-0.064,0.38-0.175c5.427-6.333,5.507-12.997,0.005-19.644C14.79,4.066,14.649,4,14.5,4H14V2h2.852
		C16.633,2.457,16.5,2.961,16.5,3.5C16.5,5.43,18.07,7,20,7s3.5-1.57,3.5-3.5S21.93,0,20,0z M14.269,23H8.732
		c-0.833-1.001-1.514-2-2.066-3h9.69C15.798,21,15.11,21.999,14.269,23z M16.865,19H6.162C4.645,15.693,4.664,12.378,6.22,9h10.591
		C18.382,12.376,18.4,15.691,16.865,19z M16.303,8h-9.58C7.268,7.006,7.93,6.007,8.738,5h5.525C15.081,6.007,15.752,7.006,16.303,8z
		 M13,4h-3V2h3V4z M20,6c-1.379,0-2.5-1.122-2.5-2.5S18.621,1,20,1s2.5,1.122,2.5,2.5S21.379,6,20,6z"/>
</g>
<g id="invisible_shape">
	<rect fill="none" width="24" height="24"/>
</g>
</svg>
