<?xml version="1.0" encoding="utf-8"?>
<!-- Generator: Adobe Illustrator 16.0.3, SVG Export Plug-In . SVG Version: 6.00 Build 0)  -->
<!DOCTYPE svg PUBLIC "-//W3C//DTD SVG 1.1//EN" "http://www.w3.org/Graphics/SVG/1.1/DTD/svg11.dtd">
<svg version="1.1" xmlns="http://www.w3.org/2000/svg" xmlns:xlink="http://www.w3.org/1999/xlink" x="0px" y="0px" width="24px"
	 height="24px" viewBox="0 0 24 24" enable-background="new 0 0 24 24" xml:space="preserve">
<g id="Outline_Icons">
	<g>
		<path d="M13.504,23.438l1.415-11.229c0.028-0.226,0.205-0.403,0.431-0.433c0.894-0.118,1.783-0.282,2.65-0.488V9.232
			c-1.454,0.374-2.963,0.611-4.5,0.707v2.943l0.447,0.895c0.076,0.153,0.069,0.334-0.019,0.481l-1.5,2.5
			c-0.18,0.301-0.678,0.301-0.857,0l-1.5-2.5c-0.088-0.146-0.095-0.328-0.019-0.481l0.447-0.895V9.938
			C8.963,9.843,7.454,9.605,6,9.232v2.055c0.867,0.206,1.757,0.37,2.65,0.488c0.226,0.03,0.402,0.208,0.431,0.433l1.415,11.229
			c0.053,0.412-0.398,0.707-0.755,0.49c-2.83-1.715-5.6-3.657-6.701-6.231C3.014,17.634,3,17.567,3,17.5V9c0-4.962,4.037-9,9-9
			s9,4.038,9,9v8.5c0,0.067-0.014,0.134-0.04,0.197c-1.102,2.574-3.871,4.516-6.701,6.231C13.906,24.143,13.45,23.854,13.504,23.438
			z M15.863,12.714l-1.236,9.811c2.325-1.468,4.468-3.113,5.373-5.129V9c0-4.411-3.589-8-8-8S4,4.589,4,9v8.396
			c0.905,2.017,3.048,3.662,5.373,5.129l-1.236-9.811c-0.934-0.137-1.859-0.322-2.76-0.55C5.155,12.107,5,11.908,5,11.679V8.577
			c0-0.333,0.319-0.571,0.639-0.48c1.721,0.496,3.532,0.788,5.383,0.868c0.268,0.011,0.479,0.232,0.479,0.5V13
			c0,0.078-0.019,0.154-0.053,0.224l-0.377,0.754l0.93,1.55l0.93-1.55l-0.377-0.754C12.519,13.154,12.5,13.078,12.5,13V9.464
			c0-0.268,0.211-0.488,0.479-0.5c1.851-0.08,3.662-0.372,5.383-0.868C18.684,8.006,19,8.247,19,8.577v3.102
			c0,0.229-0.155,0.428-0.377,0.485C17.723,12.392,16.797,12.577,15.863,12.714z"/>
	</g>
</g>
<g id="invisible_shape">
	<rect fill="none" width="24" height="24"/>
</g>
</svg>
