<?xml version="1.0" encoding="utf-8"?>
<!-- Generator: Adobe Illustrator 16.0.3, SVG Export Plug-In . SVG Version: 6.00 Build 0)  -->
<!DOCTYPE svg PUBLIC "-//W3C//DTD SVG 1.1//EN" "http://www.w3.org/Graphics/SVG/1.1/DTD/svg11.dtd">
<svg version="1.1" xmlns="http://www.w3.org/2000/svg" xmlns:xlink="http://www.w3.org/1999/xlink" x="0px" y="0px" width="24px"
	 height="24px" viewBox="0 0 24 24" enable-background="new 0 0 24 24" xml:space="preserve">
<g id="Outline_Icons">
	<g>
		<path d="M13.479,16H12v-2c0-0.276-0.224-0.5-0.5-0.5S11,13.724,11,14v2.5c0,0.276,0.224,0.5,0.5,0.5h1.979
			c0.276,0,0.5-0.224,0.5-0.5S13.756,16,13.479,16z"/>
		<path d="M11.5,2.979c0.276,0,0.5-0.224,0.5-0.5V0.5C12,0.224,11.776,0,11.5,0S11,0.224,11,0.5v1.979
			C11,2.755,11.224,2.979,11.5,2.979z"/>
		<path d="M13.72,3.705l1.482-1.311c0.207-0.183,0.227-0.499,0.044-0.706c-0.185-0.208-0.502-0.226-0.706-0.043l-1.482,1.311
			c-0.207,0.183-0.227,0.499-0.044,0.706C13.199,3.871,13.515,3.887,13.72,3.705z"/>
		<path d="M13.506,5.249c-0.034,0.274,0.161,0.524,0.435,0.558l1.964,0.242c0.265,0.036,0.523-0.155,0.558-0.434
			c0.034-0.274-0.161-0.524-0.435-0.558l-1.964-0.243C13.782,4.772,13.539,4.975,13.506,5.249z"/>
		<path d="M9.197,3.705c0.206,0.183,0.523,0.164,0.706-0.043c0.183-0.207,0.163-0.523-0.044-0.706L8.376,1.646
			C8.17,1.463,7.853,1.481,7.67,1.689C7.487,1.896,7.507,2.212,7.714,2.395L9.197,3.705z"/>
		<path d="M7.013,6.049l1.964-0.242C9.25,5.772,9.445,5.523,9.411,5.249C9.377,4.975,9.135,4.772,8.854,4.814L6.89,5.057
			C6.616,5.09,6.421,5.34,6.455,5.615C6.49,5.894,6.748,6.085,7.013,6.049z"/>
		<path d="M18.5,15H18V8.5C18,8.224,17.776,8,17.5,8H12V5c0-0.276-0.224-0.5-0.5-0.5S11,4.724,11,5v3H5.5C5.224,8,5,8.224,5,8.5V15
			H4.5C4.224,15,4,15.224,4,15.5v2C4,17.776,4.224,18,4.5,18H5v5.5C5,23.776,5.224,24,5.5,24h12c0.276,0,0.5-0.224,0.5-0.5V18h0.5
			c0.276,0,0.5-0.224,0.5-0.5v-2C19,15.224,18.776,15,18.5,15z M17,15h-0.755c-0.379-1.192-1.183-2.185-2.245-2.805V9h3V15z
			 M11.5,20.5c-2.206,0-4-1.794-4-4s1.794-4,4-4s4,1.794,4,4S13.706,20.5,11.5,20.5z M13,11.755c-0.477-0.151-0.974-0.255-1.5-0.255
			s-1.023,0.104-1.5,0.255V9h3V11.755z M6,9h3v3.195C7.938,12.815,7.134,13.808,6.755,15H6V9z M5,16h1.551
			c-0.07,0.688-0.07,0.309,0,1H5V16z M6,18h0.755C7.134,19.192,7.938,20.185,9,20.805V23H6V18z M10,21.245
			c0.477,0.151,0.974,0.255,1.5,0.255s1.023-0.104,1.5-0.255V23h-3V21.245z M17,23h-3v-2.195c1.062-0.62,1.866-1.612,2.245-2.805H17
			V23z M18,17h-1.551c0.07-0.688,0.07-0.309,0-1H18V17z"/>
	</g>
</g>
<g id="invisible_shape">
	<rect fill="none" width="24" height="24"/>
</g>
</svg>
