<?xml version="1.0" encoding="utf-8"?>
<!-- Generator: Adobe Illustrator 16.0.3, SVG Export Plug-In . SVG Version: 6.00 Build 0)  -->
<!DOCTYPE svg PUBLIC "-//W3C//DTD SVG 1.1//EN" "http://www.w3.org/Graphics/SVG/1.1/DTD/svg11.dtd">
<svg version="1.1" xmlns="http://www.w3.org/2000/svg" xmlns:xlink="http://www.w3.org/1999/xlink" x="0px" y="0px" width="24px"
	 height="24px" viewBox="0 0 24 24" enable-background="new 0 0 24 24" xml:space="preserve">
<g id="Outline_Icons">
	<g>
		<circle cx="6.5" cy="16" r="0.5"/>
		<circle cx="8.5" cy="16" r="0.5"/>
		<path d="M7.5,13C5.57,13,4,14.57,4,16.5c0,0.905,0.362,1.78,1,2.434V20.5C5,20.776,5.224,21,5.5,21h4c0.276,0,0.5-0.224,0.5-0.5
			v-1.566c0.638-0.654,1-1.529,1-2.434C11,14.57,9.43,13,7.5,13z M9.165,18.35C9.06,18.445,9,18.58,9,18.722V20H6v-1.278
			c0-0.142-0.06-0.276-0.165-0.372C5.297,17.865,5,17.208,5,16.5C5,15.122,6.121,14,7.5,14s2.5,1.122,2.5,2.5
			C10,17.208,9.703,17.865,9.165,18.35z"/>
		<path d="M20.5,17c-0.536,0-1.045,0.122-1.5,0.338C18.545,17.122,18.036,17,17.5,17c-0.979,0-1.864,0.407-2.5,1.058V11.5
			c0-0.276-0.224-0.5-0.5-0.5H12V9.5C12,9.224,11.776,9,11.5,9H8V3h4.5C12.776,3,13,2.776,13,2.5v-2C13,0.224,12.776,0,12.5,0h-10
			C2.224,0,2,0.224,2,0.5v2C2,2.776,2.224,3,2.5,3H7v6H3.5C3.224,9,3,9.224,3,9.5V11H0.5C0.224,11,0,11.224,0,11.5v12
			C0,23.776,0.224,24,0.5,24h14c0.276,0,0.5-0.224,0.5-0.5v-3c0-1.378,1.121-2.5,2.5-2.5c0.172,0,0.34,0.018,0.502,0.051
			C17.383,18.683,17,19.547,17,20.5c0,1.097,0.504,3.5,2,3.5s2-2.403,2-3.5c0-0.953-0.383-1.817-1.002-2.449
			C20.16,18.018,20.328,18,20.5,18c1.379,0,2.5,1.122,2.5,2.5c0,0.276,0.224,0.5,0.5,0.5s0.5-0.224,0.5-0.5
			C24,18.57,22.43,17,20.5,17z M3,1h9v1H3V1z M4,10h7v1H4V10z M14,23H1V12h2.5h8H14V23z M20,20.5c0,1.068-0.494,2.5-1,2.5
			s-1-1.432-1-2.5c0-0.816,0.394-1.542,1-1.999C19.606,18.958,20,19.684,20,20.5z"/>
	</g>
</g>
<g id="invisible_shape">
	<rect fill="none" width="24" height="24"/>
</g>
</svg>
