<?xml version="1.0" encoding="utf-8"?>
<!-- Generator: Adobe Illustrator 16.0.3, SVG Export Plug-In . SVG Version: 6.00 Build 0)  -->
<!DOCTYPE svg PUBLIC "-//W3C//DTD SVG 1.1//EN" "http://www.w3.org/Graphics/SVG/1.1/DTD/svg11.dtd">
<svg version="1.1" xmlns="http://www.w3.org/2000/svg" xmlns:xlink="http://www.w3.org/1999/xlink" x="0px" y="0px" width="24px"
	 height="24px" viewBox="0 0 24 24" enable-background="new 0 0 24 24" xml:space="preserve">
<g id="Outline_Icons">
	<g>
		<path d="M12,0C5.383,0,0,5.383,0,12s5.383,12,12,12s12-5.383,12-12S18.617,0,12,0z M12,23C5.935,23,1,18.066,1,12
			C1,5.935,5.935,1,12,1s11,4.935,11,11C23,18.066,18.065,23,12,23z"/>
		<path d="M12,9c1.654,0,3-1.346,3-3s-1.346-3-3-3S9,4.346,9,6S10.346,9,12,9z M12,4c1.103,0,2,0.897,2,2s-0.897,2-2,2s-2-0.897-2-2
			S10.897,4,12,4z"/>
		<path d="M17.384,5.949c-0.206,0.206-0.598,0.573-1.149,1.078l-0.381-0.381c-0.195-0.195-0.512-0.195-0.707,0s-0.195,0.512,0,0.707
			l0.348,0.348c-0.349,0.316-0.735,0.664-1.164,1.049c-1.284,1.154-3.384,1.157-4.672,0.004C9.234,8.375,8.854,8.032,8.499,7.708
			l0.354-0.355c0.195-0.195,0.195-0.512,0-0.707s-0.512-0.195-0.707,0L7.76,7.033C7.259,6.571,6.867,6.2,6.616,5.949
			c-0.58-0.58-1.591-0.579-2.167,0C4.153,6.245,3.99,6.654,4,7.074c0.012,0.418,0.196,0.819,0.486,1.079l1.072,1.082L5.146,9.646
			c-0.195,0.195-0.195,0.512,0,0.707C5.244,10.451,5.372,10.5,5.5,10.5s0.256-0.049,0.354-0.146l0.409-0.409L9,12.706v1.16
			l-1.565,2.687l-0.644-0.459c-0.227-0.16-0.537-0.109-0.698,0.116c-0.16,0.225-0.108,0.537,0.116,0.697l0.72,0.514l-0.473,0.811
			c-0.494,0.778-0.304,1.82,0.434,2.375c0.381,0.285,0.875,0.409,1.345,0.332c0.473-0.075,0.901-0.343,1.196-0.768l0.422-0.717
			C9.902,19.469,9.949,19.5,10,19.5c0.155,0,0.31-0.073,0.407-0.209c0.148-0.208,0.108-0.486-0.076-0.654l1.259-2.143
			c0.191-0.27,0.625-0.277,0.824,0.006l1.438,1.991l-0.144,0.103c-0.225,0.161-0.276,0.473-0.116,0.697
			C13.69,19.427,13.845,19.5,14,19.5c0.101,0,0.202-0.03,0.291-0.093l0.147-0.105l0.652,0.902c0.273,0.392,0.702,0.66,1.173,0.735
			c0.095,0.015,0.188,0.022,0.282,0.022c0.381,0,0.759-0.126,1.064-0.355c0.737-0.554,0.928-1.596,0.423-2.391l-0.688-0.99
			l0.445-0.318c0.225-0.16,0.276-0.473,0.116-0.697c-0.161-0.225-0.473-0.276-0.698-0.116l-0.434,0.31L15,13.844v-1.138l2.737-2.761
			l0.409,0.409c0.098,0.098,0.226,0.146,0.354,0.146s0.256-0.049,0.354-0.146c0.195-0.195,0.195-0.512,0-0.707l-0.412-0.413
			l1.052-1.062c0.311-0.279,0.495-0.68,0.507-1.1c0.01-0.418-0.153-0.827-0.449-1.123C18.972,5.369,17.961,5.37,17.384,5.949z
			 M5.177,7.429C5.068,7.332,5.004,7.192,5,7.048C4.996,6.902,5.054,6.759,5.156,6.656c0.2-0.201,0.551-0.202,0.753,0
			C6.191,6.939,6.6,7.323,7.053,7.741L6.266,8.527L5.177,7.429z M8.076,19.951c-0.203,0.033-0.42-0.021-0.587-0.145
			c-0.322-0.243-0.405-0.699-0.18-1.055l0.436-0.748l1.269,0.907l-0.423,0.72C8.471,19.801,8.284,19.918,8.076,19.951z M17.2,18.768
			c0.216,0.34,0.133,0.796-0.189,1.038c-0.167,0.125-0.377,0.179-0.589,0.146c-0.206-0.033-0.393-0.15-0.517-0.327l-0.653-0.904
			l1.28-0.915L17.2,18.768z M14.145,12.148C14.052,12.242,14,12.368,14,12.5V14c0,0.102,0.031,0.201,0.089,0.285l1.873,2.699
			l-1.296,0.926l-1.438-1.99c-0.28-0.401-0.739-0.64-1.229-0.64s-0.948,0.238-1.25,0.673l-1.228,2.091l-1.271-0.908l1.681-2.883
			C9.977,14.176,10,14.09,10,14.001V12.5c0-0.132-0.052-0.258-0.145-0.352L6.97,9.237l0.82-0.82C8.202,8.792,8.619,9.166,8.991,9.5
			c1.654,1.481,4.354,1.479,6.007-0.005c0.381-0.342,0.798-0.717,1.204-1.085l0.828,0.828L14.145,12.148z M18.803,7.449
			l-1.068,1.078l-0.792-0.792c0.494-0.453,0.918-0.849,1.148-1.079c0.2-0.201,0.551-0.202,0.753,0
			c0.103,0.103,0.16,0.246,0.156,0.39C18.996,7.192,18.932,7.332,18.803,7.449z"/>
	</g>
</g>
<g id="invisible_shape">
	<rect fill="none" width="24" height="24"/>
</g>
</svg>
