<?xml version="1.0" encoding="utf-8"?>
<!-- Generator: Adobe Illustrator 16.0.3, SVG Export Plug-In . SVG Version: 6.00 Build 0)  -->
<!DOCTYPE svg PUBLIC "-//W3C//DTD SVG 1.1//EN" "http://www.w3.org/Graphics/SVG/1.1/DTD/svg11.dtd">
<svg version="1.1" xmlns="http://www.w3.org/2000/svg" xmlns:xlink="http://www.w3.org/1999/xlink" x="0px" y="0px" width="24px"
	 height="24px" viewBox="0 0 24 24" enable-background="new 0 0 24 24" xml:space="preserve">
<g id="Outline_Icons">
	<path d="M21.132,3.983c-0.168-0.128-0.399-0.138-0.576-0.021c-0.178,0.116-0.263,0.332-0.212,0.537
		C20.447,4.925,20.5,5.346,20.5,5.75c0,1.837-0.965,3.524-2.523,4.475c-0.95-1.079-2.181-1.909-3.612-2.353l0.022-0.223
		c0.043-0.421-0.096-0.843-0.379-1.156C13.724,6.18,13.318,6,12.895,6h-1.789c-0.424,0-0.829,0.18-1.113,0.494
		C9.709,6.807,9.57,7.229,9.613,7.65l0.022,0.223c-1.432,0.444-2.661,1.273-3.611,2.353C4.466,9.273,3.5,7.587,3.5,5.75
		c0-0.404,0.053-0.825,0.156-1.25c0.051-0.206-0.034-0.421-0.212-0.537C3.268,3.846,3.035,3.855,2.868,3.983
		C1.045,5.371,0,7.473,0,9.75c0,2.745,1.565,5.238,4,6.464V16.5v3C4,19.776,4.224,20,4.5,20h15c0.276,0,0.5-0.224,0.5-0.5v-3v-0.286
		c2.435-1.226,4-3.719,4-6.464C24,7.473,22.955,5.371,21.132,3.983z M19,15.5v0.425c0,0.001,0,0.002,0,0.003V16h-5.448l0.71-7.103
		C17.065,9.858,19,12.503,19,15.5z M10.734,7.165C10.829,7.06,10.964,7,11.105,7h1.789c0.142,0,0.276,0.06,0.371,0.165
		c0.095,0.104,0.141,0.244,0.127,0.385L12.548,16h-1.096l-0.845-8.451C10.594,7.409,10.64,7.269,10.734,7.165z M9.738,8.897
		L10.448,16H5v-0.072c0-0.001,0-0.002,0-0.003V15.5C5,12.504,6.934,9.859,9.738,8.897z M1,9.75c0-1.512,0.535-2.935,1.5-4.056
		c0,0.019,0,0.037,0,0.056c0,2.148,1.109,4.122,2.908,5.265c-0.81,1.189-1.299,2.59-1.375,4.084C2.173,13.979,1,11.958,1,9.75z
		 M5,19v-2h6h2h6v2H5z M19.967,15.1c-0.076-1.494-0.565-2.896-1.374-4.084C20.391,9.873,21.5,7.898,21.5,5.75
		c0-0.019,0-0.037,0-0.056C22.465,6.815,23,8.238,23,9.75C23,11.958,21.827,13.979,19.967,15.1z"/>
</g>
<g id="invisible_shape">
	<rect fill="none" width="24" height="24"/>
</g>
</svg>
