<?xml version="1.0" encoding="utf-8"?>
<!-- Generator: Adobe Illustrator 16.0.3, SVG Export Plug-In . SVG Version: 6.00 Build 0)  -->
<!DOCTYPE svg PUBLIC "-//W3C//DTD SVG 1.1//EN" "http://www.w3.org/Graphics/SVG/1.1/DTD/svg11.dtd">
<svg version="1.1" xmlns="http://www.w3.org/2000/svg" xmlns:xlink="http://www.w3.org/1999/xlink" x="0px" y="0px" width="24px"
	 height="24px" viewBox="0 0 24 24" enable-background="new 0 0 24 24" xml:space="preserve">
<g id="Outline_Icons">
	<g>
		<path d="M13,5.025V1h3.5C16.776,1,17,0.776,17,0.5S16.776,0,16.5,0h-8C8.224,0,8,0.224,8,0.5S8.224,1,8.5,1H12v4.037
			c-0.467,0.024-0.928,0.083-1.384,0.176C10.86,4.349,11,3.441,11,2.5C11,2.224,10.776,2,10.5,2c-5.514,0-10,4.486-10,10
			c0,0.276,0.224,0.5,0.5,0.5c0.788,0,1.551-0.102,2.287-0.274C3.099,12.977,3,13.737,3,14.5c0,5.238,4.262,9.5,9.5,9.5
			s9.5-4.262,9.5-9.5C22,9.431,18.005,5.288,13,5.025z M9.985,3.015c-0.258,4.554-3.917,8.213-8.471,8.471
			C1.772,6.932,5.432,3.272,9.985,3.015z M12.5,23C7.813,23,4,19.187,4,14.5c0-0.88,0.148-1.759,0.429-2.618
			c2.625-0.964,4.741-2.988,5.81-5.562C10.813,6.161,11.403,6.072,12,6.037v2.654l-1.276-0.639
			c-0.247-0.122-0.547-0.023-0.671,0.224c-0.123,0.247-0.023,0.547,0.224,0.671l2,1c0.004,0.002,0.01,0.001,0.014,0.003
			C12.354,9.98,12.424,10,12.5,10s0.146-0.02,0.21-0.05c0.004-0.002,0.01-0.001,0.014-0.003l2-1
			c0.247-0.124,0.347-0.424,0.224-0.671c-0.124-0.247-0.424-0.347-0.671-0.224L13,8.691V6.025c4.453,0.261,8,3.957,8,8.475
			C21,19.187,17.187,23,12.5,23z"/>
	</g>
</g>
<g id="invisible_shape">
	<rect fill="none" width="24" height="24"/>
</g>
</svg>
