<?xml version="1.0" encoding="utf-8"?>
<!-- Generator: Adobe Illustrator 16.0.3, SVG Export Plug-In . SVG Version: 6.00 Build 0)  -->
<!DOCTYPE svg PUBLIC "-//W3C//DTD SVG 1.1//EN" "http://www.w3.org/Graphics/SVG/1.1/DTD/svg11.dtd">
<svg version="1.1" xmlns="http://www.w3.org/2000/svg" xmlns:xlink="http://www.w3.org/1999/xlink" x="0px" y="0px" width="24px"
	 height="24px" viewBox="0 0 24 24" enable-background="new 0 0 24 24" xml:space="preserve">
<g id="Outline_Icons">
	<g>
		<path d="M23.5,13.006h-1.785l1.083-1.083c0.195-0.195,0.195-0.512,0-0.707s-0.512-0.195-0.707,0L21,12.307v-1.801
			c0-0.276-0.224-0.5-0.5-0.5s-0.5,0.224-0.5,0.5v2.801l-1,1v-1.801c0-0.276-0.224-0.5-0.5-0.5s-0.5,0.224-0.5,0.5v2.801l-1,1
			v-1.801c0-0.276-0.224-0.5-0.5-0.5s-0.5,0.224-0.5,0.5v2.801l-1,1v-1.801c0-0.276-0.224-0.5-0.5-0.5s-0.5,0.224-0.5,0.5v2.801
			l-1.798,1.798c-0.195,0.195-0.195,0.512,0,0.707c0.098,0.098,0.226,0.146,0.354,0.146s0.256-0.049,0.354-0.146l1.806-1.806H17.5
			c0.276,0,0.5-0.224,0.5-0.5s-0.224-0.5-0.5-0.5h-1.785l1-1H19.5c0.276,0,0.5-0.224,0.5-0.5s-0.224-0.5-0.5-0.5h-1.785l1-1H21.5
			c0.276,0,0.5-0.224,0.5-0.5s-0.224-0.5-0.5-0.5h-1.785l1-1H23.5c0.276,0,0.5-0.224,0.5-0.5S23.776,13.006,23.5,13.006z"/>
		<path d="M5.141,12.18L3.805,23.447c-0.018,0.142,0.027,0.284,0.122,0.391s0.231,0.168,0.374,0.168h14c0.276,0,0.5-0.224,0.5-0.5
			s-0.224-0.5-0.5-0.5H4.863l1.333-11.241c0.018-0.142-0.027-0.284-0.122-0.391S5.843,11.206,5.7,11.206c-2.724,0-4.7-2.145-4.7-5.1
			c0-2.812,2.262-5.101,5.041-5.101H15.9c2.812,0,5.1,2.288,5.1,5.101c0,0.639-0.116,1.26-0.345,1.847
			c-0.101,0.258,0.027,0.547,0.284,0.647c0.256,0.1,0.547-0.027,0.647-0.284C21.861,7.613,22,6.869,22,6.106
			c0-3.364-2.736-6.101-6.1-6.101H6.041C2.71,0.006,0,2.742,0,6.106C0,9.381,2.173,11.897,5.141,12.18z"/>
	</g>
</g>
<g id="invisible_shape">
	<rect fill="none" width="24" height="24"/>
</g>
</svg>
