<?xml version="1.0" encoding="utf-8"?>
<!-- Generator: Adobe Illustrator 16.0.3, SVG Export Plug-In . SVG Version: 6.00 Build 0)  -->
<!DOCTYPE svg PUBLIC "-//W3C//DTD SVG 1.1//EN" "http://www.w3.org/Graphics/SVG/1.1/DTD/svg11.dtd">
<svg version="1.1" xmlns="http://www.w3.org/2000/svg" xmlns:xlink="http://www.w3.org/1999/xlink" x="0px" y="0px" width="24px"
	 height="24px" viewBox="0 0 24 24" enable-background="new 0 0 24 24" xml:space="preserve">
<g id="Outline_Icons">
	<g>
		<path d="M8.032,7.488c-1.985,1.986-2.268,5.022-0.882,7.328c-0.437-0.168-0.913-0.256-1.433-0.256
			c-2.197,0-4.366,1.531-4.458,1.596c-0.201,0.145-0.267,0.414-0.154,0.634c0.111,0.221,0.37,0.326,0.604,0.248
			c0.75-0.251,1.577,0.051,2.053,0.711c0.346,0.479,0.44,1.063,0.261,1.603c-0.06,0.18-0.013,0.378,0.121,0.512
			c0.135,0.135,0.333,0.18,0.512,0.121c0.748-0.253,1.578,0.051,2.053,0.711c0.346,0.479,0.44,1.063,0.261,1.603
			c-0.078,0.234,0.027,0.491,0.248,0.604c0.072,0.037,0.149,0.055,0.227,0.055c0.157,0,0.311-0.074,0.407-0.209
			c0.11-0.155,2.32-3.315,1.344-5.872c0.923,0.555,1.978,0.856,3.081,0.856c1.603,0,3.109-0.624,4.242-1.758
			c1.134-1.133,1.758-2.64,1.758-4.242c0-1.103-0.302-2.157-0.855-3.079c0.431,0.163,0.901,0.25,1.414,0.25
			c2.196,0,4.365-1.531,4.457-1.596c0.201-0.145,0.267-0.414,0.154-0.634c-0.112-0.221-0.367-0.327-0.604-0.248
			c-0.746,0.249-1.577-0.052-2.053-0.712c-0.346-0.479-0.44-1.063-0.261-1.602c0.06-0.18,0.013-0.378-0.121-0.512
			c-0.132-0.134-0.33-0.177-0.512-0.121c-0.746,0.249-1.576-0.052-2.053-0.712c-0.346-0.479-0.44-1.063-0.261-1.603
			c0.078-0.234-0.027-0.491-0.248-0.604c-0.22-0.112-0.49-0.047-0.634,0.154c-0.11,0.156-2.321,3.316-1.344,5.874
			c-0.922-0.555-1.978-0.857-3.081-0.857C10.673,5.731,9.166,6.355,8.032,7.488z M12.275,6.731c1.335,0,2.591,0.52,3.535,1.464
			c0.149,0.148,0.269,0.318,0.396,0.481c-2.445,1.388-5.417,1.388-7.861,0.001C8.473,8.514,8.59,8.346,8.739,8.195
			C9.684,7.251,10.939,6.731,12.275,6.731z M7.814,9.521c1.386,0.795,2.919,1.216,4.462,1.216s3.077-0.421,4.463-1.217
			c0.338,0.682,0.536,1.428,0.536,2.211c0,0.087-0.021,0.171-0.025,0.257c-2.91,2.321-7.033,2.326-9.947,0.004
			C7.258,11.146,7.432,10.299,7.814,9.521z M7.849,20.7c-0.085-0.205-0.194-0.402-0.329-0.589c-0.55-0.763-1.415-1.218-2.317-1.218
			c-0.03,0-0.061,0.001-0.091,0.002c0.021-0.606-0.163-1.21-0.538-1.73c-0.329-0.457-0.772-0.804-1.27-1.008
			c0.699-0.313,1.566-0.597,2.414-0.597c0.804,0,1.445,0.25,1.962,0.767C8.903,17.551,8.426,19.41,7.849,20.7z M15.811,15.267
			c-0.944,0.944-2.2,1.465-3.535,1.465c-1.336,0-2.592-0.521-3.536-1.465c-0.543-0.542-0.918-1.184-1.158-1.863
			c1.438,0.884,3.064,1.333,4.694,1.333s3.256-0.449,4.695-1.332C16.725,14.094,16.344,14.733,15.811,15.267z M16.702,2.762
			c0.085,0.205,0.194,0.402,0.329,0.589c0.567,0.787,1.436,1.236,2.408,1.217c-0.021,0.605,0.163,1.209,0.538,1.729
			c0.329,0.457,0.772,0.804,1.269,1.008c-0.699,0.313-1.567,0.598-2.412,0.598c-0.804,0-1.446-0.251-1.963-0.768
			C15.647,5.911,16.125,4.052,16.702,2.762z"/>
	</g>
</g>
<g id="invisible_shape">
	<rect fill="none" width="24" height="24"/>
</g>
</svg>
