<?xml version="1.0" encoding="utf-8"?>
<!-- Generator: Adobe Illustrator 16.0.3, SVG Export Plug-In . SVG Version: 6.00 Build 0)  -->
<!DOCTYPE svg PUBLIC "-//W3C//DTD SVG 1.1//EN" "http://www.w3.org/Graphics/SVG/1.1/DTD/svg11.dtd">
<svg version="1.1" xmlns="http://www.w3.org/2000/svg" xmlns:xlink="http://www.w3.org/1999/xlink" x="0px" y="0px" width="24px"
	 height="24px" viewBox="0 0 24 24" enable-background="new 0 0 24 24" xml:space="preserve">
<g id="Outline_Icons">
	<g>
		<path d="M12.5,24.006c1.379,0,2.5-1.121,2.5-2.5s-1.121-2.5-2.5-2.5s-2.5,1.121-2.5,2.5S11.121,24.006,12.5,24.006z M12.5,20.006
			c0.827,0,1.5,0.673,1.5,1.5s-0.673,1.5-1.5,1.5s-1.5-0.673-1.5-1.5S11.673,20.006,12.5,20.006z"/>
		<path d="M12.5,8.006c-1.379,0-2.5,1.121-2.5,2.5s1.121,2.5,2.5,2.5s2.5-1.121,2.5-2.5S13.879,8.006,12.5,8.006z M12.5,12.006
			c-0.827,0-1.5-0.673-1.5-1.5s0.673-1.5,1.5-1.5s1.5,0.673,1.5,1.5S13.327,12.006,12.5,12.006z"/>
		<path d="M9,11.006c0-1.379-1.121-2.5-2.5-2.5S4,9.627,4,11.006s1.121,2.5,2.5,2.5S9,12.385,9,11.006z M6.5,12.506
			c-0.827,0-1.5-0.673-1.5-1.5s0.673-1.5,1.5-1.5s1.5,0.673,1.5,1.5S7.327,12.506,6.5,12.506z"/>
		<path d="M21,11.006c0-1.379-1.121-2.5-2.5-2.5s-2.5,1.121-2.5,2.5s1.121,2.5,2.5,2.5S21,12.385,21,11.006z M18.5,12.506
			c-0.827,0-1.5-0.673-1.5-1.5s0.673-1.5,1.5-1.5s1.5,0.673,1.5,1.5S19.327,12.506,18.5,12.506z"/>
		<path d="M18,16.506c0-1.379-1.121-2.5-2.5-2.5s-2.5,1.121-2.5,2.5s1.121,2.5,2.5,2.5S18,17.885,18,16.506z M14,16.506
			c0-0.827,0.673-1.5,1.5-1.5s1.5,0.673,1.5,1.5s-0.673,1.5-1.5,1.5S14,17.333,14,16.506z"/>
		<path d="M9.5,19.006c1.379,0,2.5-1.121,2.5-2.5s-1.121-2.5-2.5-2.5S7,15.127,7,16.506S8.121,19.006,9.5,19.006z M9.5,15.006
			c0.827,0,1.5,0.673,1.5,1.5s-0.673,1.5-1.5,1.5S8,17.333,8,16.506S8.673,15.006,9.5,15.006z"/>
		<path d="M12.5,0.006c-0.276,0-0.5,0.224-0.5,0.5v6c0,0.276,0.224,0.5,0.5,0.5s0.5-0.224,0.5-0.5v-6
			C13,0.229,12.776,0.006,12.5,0.006z"/>
		<path d="M22.988,1.613c0.028-0.13,0.004-0.266-0.067-0.377s-0.185-0.19-0.313-0.219c-0.587-0.129-1.177-0.194-1.754-0.194
			c-3.414,0-6.1,2.188-6.842,5.575c-0.06,0.271,0.111,0.537,0.381,0.596c0.587,0.129,1.177,0.194,1.754,0.194
			c0.001,0,0.001,0,0.001,0C19.559,7.188,22.244,5,22.988,1.613z M16.146,6.188c-0.339,0-0.683-0.026-1.028-0.077
			c0.781-2.622,2.982-4.288,5.735-4.288c0.339,0,0.683,0.026,1.028,0.077C21.1,4.522,18.898,6.188,16.146,6.188z"/>
		<path d="M8.853,7.188c0.578,0,1.168-0.065,1.755-0.194c0.129-0.028,0.242-0.107,0.313-0.219s0.096-0.247,0.067-0.377
			c-0.744-3.387-3.43-5.575-6.842-5.575c-0.577,0-1.167,0.065-1.754,0.194c-0.27,0.059-0.44,0.325-0.381,0.596
			C2.754,5,5.439,7.188,8.853,7.188z M4.146,1.823c2.752,0,4.953,1.666,5.735,4.288c-0.346,0.051-0.69,0.077-1.029,0.077
			C6.1,6.188,3.898,4.522,3.118,1.9C3.464,1.85,3.808,1.823,4.146,1.823z"/>
	</g>
</g>
<g id="invisible_shape">
	<rect fill="none" width="24" height="24"/>
</g>
</svg>
