<?xml version="1.0" encoding="utf-8"?>
<!-- Generator: Adobe Illustrator 16.0.3, SVG Export Plug-In . SVG Version: 6.00 Build 0)  -->
<!DOCTYPE svg PUBLIC "-//W3C//DTD SVG 1.1//EN" "http://www.w3.org/Graphics/SVG/1.1/DTD/svg11.dtd">
<svg version="1.1" xmlns="http://www.w3.org/2000/svg" xmlns:xlink="http://www.w3.org/1999/xlink" x="0px" y="0px" width="24px"
	 height="24px" viewBox="0 0 24 24" enable-background="new 0 0 24 24" xml:space="preserve">
<g id="Outline_Icons">
	<g>
		<path d="M15.75,2.506c-1.305,0-2.596,0.311-3.75,0.902c-1.156-0.591-2.446-0.902-3.75-0.902C3.701,2.506,0,6.207,0,10.756
			c0,3.371,1.345,6.211,3.888,8.213C6.053,20.672,8.934,21.61,12,21.61c5.963,0,12-3.729,12-10.854
			C24,6.207,20.299,2.506,15.75,2.506z M12,20.61c-2.843,0-5.504-0.862-7.493-2.428C2.213,16.378,1,13.81,1,10.756
			c0-3.997,3.252-7.25,7.25-7.25c1.227,0,2.439,0.313,3.508,0.906c0.15,0.084,0.333,0.084,0.485,0
			c1.066-0.592,2.279-0.906,3.507-0.906c3.998,0,7.25,3.253,7.25,7.25C23,17.226,17.466,20.61,12,20.61z"/>
		<path d="M15.75,5.506c-0.47,0-0.937,0.062-1.386,0.187c-0.158,0.043-0.285,0.161-0.34,0.317c-0.054,0.155-0.027,0.328,0.07,0.461
			c0.919,1.25,1.405,2.731,1.405,4.285c0,1.522-0.052,2.383-1.168,3.802c-0.083,0.104-0.12,0.237-0.104,0.37
			s0.085,0.254,0.191,0.335c0.758,0.583,1.615,1.112,2.549,1.573c0.07,0.035,0.146,0.052,0.222,0.052
			c0.077,0,0.154-0.018,0.225-0.053C19.995,15.536,21,13.832,21,10.756C21,7.861,18.645,5.506,15.75,5.506z M17.188,15.827
			c-0.63-0.324-1.221-0.681-1.762-1.064c1.019-1.449,1.074-2.495,1.074-4.007c0-1.506-0.401-2.953-1.168-4.229
			c0.139-0.014,0.278-0.021,0.418-0.021c2.344,0,4.25,1.907,4.25,4.25C20,13.714,19.014,14.862,17.188,15.827z"/>
		<path d="M9.717,14.938c0.017-0.132-0.021-0.266-0.103-0.37C8.547,13.203,8.5,12.368,8.5,10.756c0-1.554,0.486-3.035,1.405-4.285
			c0.098-0.133,0.124-0.306,0.07-0.461c-0.055-0.156-0.182-0.274-0.34-0.317C9.187,5.568,8.72,5.506,8.25,5.506
			C5.355,5.506,3,7.861,3,10.756c0,3.124,0.96,4.771,3.541,6.077c0.07,0.036,0.148,0.054,0.226,0.054c0.075,0,0.15-0.017,0.22-0.052
			c0.929-0.455,1.783-0.98,2.539-1.562C9.631,15.191,9.7,15.071,9.717,14.938z M6.771,15.826C4.972,14.869,4,13.722,4,10.756
			c0-2.343,1.906-4.25,4.25-4.25c0.14,0,0.279,0.007,0.418,0.021C7.901,7.803,7.5,9.25,7.5,10.756c0,1.592,0.051,2.618,1.021,4.015
			C7.982,15.153,7.396,15.506,6.771,15.826z"/>
		<path d="M11.988,13.883c0.001,0,0.001,0,0.002,0c0.162,0,0.313-0.079,0.407-0.21c0.722-1.015,1.103-2.024,1.103-2.917
			c0-1.178-0.382-2.291-1.105-3.219c-0.189-0.243-0.6-0.243-0.789,0C10.882,8.465,10.5,9.578,10.5,10.756
			c0,0.897,0.374,1.905,1.081,2.914C11.674,13.803,11.826,13.883,11.988,13.883z M12,8.755c0.329,0.611,0.5,1.292,0.5,2
			c0,0.497-0.177,1.078-0.506,1.683c-0.322-0.601-0.494-1.182-0.494-1.683C11.5,10.047,11.671,9.366,12,8.755z"/>
		<path d="M12.305,15.819c-0.166-0.104-0.378-0.104-0.542,0.004c-0.019,0.013-1.934,1.267-2.966,1.833
			c-0.177,0.098-0.278,0.29-0.257,0.49c0.021,0.201,0.16,0.369,0.353,0.427c1.048,0.317,2.116,0.478,3.174,0.478
			c1.034,0,2.068-0.153,3.073-0.456c0.188-0.057,0.325-0.217,0.352-0.411s-0.062-0.385-0.228-0.491L12.305,15.819z M10.358,17.898
			c0.654-0.4,1.321-0.829,1.683-1.063l1.688,1.07C12.616,18.102,11.485,18.1,10.358,17.898z"/>
	</g>
</g>
<g id="invisible_shape">
	<rect fill="none" width="24" height="24"/>
</g>
</svg>
