<?xml version="1.0" encoding="utf-8"?>
<!-- Generator: Adobe Illustrator 16.0.3, SVG Export Plug-In . SVG Version: 6.00 Build 0)  -->
<!DOCTYPE svg PUBLIC "-//W3C//DTD SVG 1.1//EN" "http://www.w3.org/Graphics/SVG/1.1/DTD/svg11.dtd">
<svg version="1.1" xmlns="http://www.w3.org/2000/svg" xmlns:xlink="http://www.w3.org/1999/xlink" x="0px" y="0px" width="24px"
	 height="24px" viewBox="0 0 24 24" enable-background="new 0 0 24 24" xml:space="preserve">
<g id="Outline_Icons">
	<g>
		<path d="M19.074,2.162c-0.55-0.12-1.103-0.182-1.644-0.182c-2.313,0-4.26,1.084-5.431,2.878V1.5C12,1.224,11.776,1,11.5,1
			S11,1.224,11,1.5v3.358C9.829,3.064,7.883,1.98,5.569,1.98c-0.541,0-1.094,0.062-1.644,0.182C3.797,2.19,3.684,2.27,3.612,2.381
			S3.517,2.628,3.545,2.758C4.027,4.956,5.394,6.596,7.243,7.41C5.104,8.043,4,9.399,4,11.5c0,3.576,4.062,6.243,6.128,7.369
			c0.325,0.617,0.093,0.811-0.452,1.238c-0.552,0.434-1.475,1.158-0.653,2.571c0.093,0.16,0.261,0.249,0.433,0.249
			c0.086,0,0.172-0.021,0.251-0.067c0.239-0.14,0.32-0.445,0.182-0.684c-0.385-0.662-0.17-0.831,0.405-1.282
			c0.223-0.175,0.501-0.4,0.707-0.695V23.5c0,0.276,0.224,0.5,0.5,0.5s0.5-0.224,0.5-0.5v-3.301
			c0.206,0.295,0.484,0.521,0.707,0.695c0.575,0.451,0.79,0.62,0.405,1.282c-0.139,0.238-0.058,0.544,0.182,0.684
			c0.079,0.046,0.165,0.067,0.251,0.067c0.172,0,0.34-0.089,0.433-0.249c0.821-1.413-0.102-2.138-0.653-2.571
			c-0.544-0.428-0.777-0.621-0.452-1.238C14.938,17.743,19,15.076,19,11.5c0-2.101-1.104-3.457-3.243-4.09
			c1.849-0.814,3.216-2.455,3.698-4.652c0.028-0.13,0.004-0.266-0.067-0.377S19.203,2.19,19.074,2.162z M4.653,3.046
			c2.895-0.404,5.405,1.178,6.227,3.877C7.98,7.324,5.476,5.744,4.653,3.046z M18,11.5c0,3.638-5.382,6.411-6.5,6.948
			C10.382,17.911,5,15.138,5,11.5c0-2.396,1.754-3.511,5.519-3.511L11.5,8l0.981-0.011C16.246,7.989,18,9.104,18,11.5z M12.12,6.923
			c0.821-2.699,3.326-4.281,6.227-3.877C17.523,5.744,15.019,7.324,12.12,6.923z"/>
	</g>
</g>
<g id="invisible_shape">
	<rect fill="none" width="24" height="24"/>
</g>
</svg>
