<?xml version="1.0" encoding="utf-8"?>
<!-- Generator: Adobe Illustrator 16.0.3, SVG Export Plug-In . SVG Version: 6.00 Build 0)  -->
<!DOCTYPE svg PUBLIC "-//W3C//DTD SVG 1.1//EN" "http://www.w3.org/Graphics/SVG/1.1/DTD/svg11.dtd">
<svg version="1.1" xmlns="http://www.w3.org/2000/svg" xmlns:xlink="http://www.w3.org/1999/xlink" x="0px" y="0px" width="24px"
	 height="24px" viewBox="0 0 24 24" enable-background="new 0 0 24 24" xml:space="preserve">
<g id="Outline_Icons">
	<g>
		<path d="M0.262,23.744c0.098,0.098,0.226,0.146,0.354,0.146s0.256-0.049,0.354-0.146l8.203-8.203l6.803,6.803
			c0.851,0.851,1.98,1.318,3.183,1.318c1.201,0,2.332-0.468,3.182-1.318c0.85-0.849,1.317-1.979,1.317-3.181
			s-0.468-2.332-1.317-3.183l-4.683-4.683l2.006-2.005c0.195-0.195,0.195-0.512,0-0.707s-0.512-0.195-0.707,0l-2.006,2.005
			l-1.414-1.414l2.006-2.006c0.195-0.195,0.195-0.512,0-0.707s-0.512-0.195-0.707,0L14.828,8.47l-1.414-1.414l2.006-2.005
			c0.195-0.195,0.195-0.512,0-0.707s-0.512-0.195-0.707,0l-2.006,2.005L8.025,1.667c-0.85-0.85-1.98-1.318-3.182-1.318
			c-1.202,0-2.333,0.468-3.183,1.318c-0.851,0.85-1.318,1.979-1.318,3.182s0.468,2.333,1.318,3.183l6.804,6.803l-8.203,8.203
			C0.066,23.232,0.066,23.549,0.262,23.744z M1.343,4.849c0-0.935,0.364-1.813,1.025-2.475s1.54-1.025,2.476-1.025
			c0.935,0,1.813,0.364,2.475,1.025l14.313,14.313c0.661,0.661,1.024,1.54,1.024,2.476c0,0.935-0.363,1.813-1.024,2.474
			c-1.322,1.324-3.628,1.322-4.95,0L2.368,7.324C1.707,6.663,1.343,5.784,1.343,4.849z"/>
		<path d="M8.5,5.5C8.5,5.224,8.276,5,8,5H4C3.724,5,3.5,5.224,3.5,5.5S3.724,6,4,6h4C8.276,6,8.5,5.776,8.5,5.5z"/>
		<path d="M12.5,9.5C12.5,9.224,12.276,9,12,9H8C7.724,9,7.5,9.224,7.5,9.5S7.724,10,8,10h4C12.276,10,12.5,9.776,12.5,9.5z"/>
		<path d="M16.5,13.5c0-0.276-0.224-0.5-0.5-0.5h-4c-0.276,0-0.5,0.224-0.5,0.5S11.724,14,12,14h4C16.276,14,16.5,13.776,16.5,13.5z
			"/>
		<path d="M20.5,17.5c0-0.276-0.224-0.5-0.5-0.5h-4c-0.276,0-0.5,0.224-0.5,0.5S15.724,18,16,18h4C20.276,18,20.5,17.776,20.5,17.5z
			"/>
	</g>
</g>
<g id="invisible_shape">
	<rect fill="none" width="24" height="24"/>
</g>
</svg>
