<?xml version="1.0" encoding="utf-8"?>
<!-- Generator: Adobe Illustrator 16.0.3, SVG Export Plug-In . SVG Version: 6.00 Build 0)  -->
<!DOCTYPE svg PUBLIC "-//W3C//DTD SVG 1.1//EN" "http://www.w3.org/Graphics/SVG/1.1/DTD/svg11.dtd">
<svg version="1.1" xmlns="http://www.w3.org/2000/svg" xmlns:xlink="http://www.w3.org/1999/xlink" x="0px" y="0px" width="24px"
	 height="24px" viewBox="0 0 24 24" enable-background="new 0 0 24 24" xml:space="preserve">
<g id="Outline_Icons">
	<g>
		<path d="M23.5,7C23.776,7,24,6.776,24,6.5S23.776,6,23.5,6H22c0-0.827-0.673-1.5-1.5-1.5c-0.386,0-0.734,0.15-1,0.391
			c-0.266-0.24-0.614-0.391-1-0.391s-0.734,0.15-1,0.391c-0.266-0.24-0.614-0.391-1-0.391C15.673,4.5,15,5.173,15,6h-2.5
			c-2.022,0-3.731,1.19-4.37,3H0.5C0.224,9,0,9.224,0,9.5v3C0,12.776,0.224,13,0.5,13h7.63c0.639,1.81,2.348,3,4.37,3h2.408
			c-0.207,0.581-0.757,1-1.408,1h-2C9.019,17,7,19.019,7,21.5C7,22.327,7.673,23,8.5,23s1.5-0.673,1.5-1.5s0.673-1.5,1.5-1.5h2
			c1.824,0,3.445-1.085,4.149-2.768C17.891,17.4,18.184,17.5,18.5,17.5c0.386,0,0.734-0.15,1-0.39c0.266,0.239,0.614,0.39,1,0.39
			c0.827,0,1.5-0.673,1.5-1.5h1.5c0.276,0,0.5-0.224,0.5-0.5S23.776,15,23.5,15H22v-2h1.5c0.276,0,0.5-0.224,0.5-0.5
			S23.776,12,23.5,12H22v-2h1.5c0.276,0,0.5-0.224,0.5-0.5S23.776,9,23.5,9H22V7H23.5z M16,6c0-0.275,0.225-0.5,0.5-0.5
			S17,5.725,17,6v10c0,0.275-0.225,0.5-0.5,0.5S16,16.275,16,16V6z M15,12h-2v-2h2V12z M13,13h2v2h-2V13z M15,9h-2V7h2V9z
			 M8.984,12.375C8.927,12.154,8.728,12,8.5,12H1v-2h7.5c0.228,0,0.427-0.154,0.484-0.375C9.351,8.212,10.531,7.217,12,7.031v7.938
			C10.531,14.783,9.351,13.788,8.984,12.375z M13.5,19h-2C10.121,19,9,20.121,9,21.5C9,21.775,8.775,22,8.5,22S8,21.775,8,21.5
			c0-1.93,1.57-3.5,3.5-3.5h2c0.786,0,1.48-0.372,1.938-0.94c0.243,0.242,0.57,0.396,0.932,0.427C15.726,18.422,14.669,19,13.5,19z
			 M17.493,17.116c0.002-0.003,0.005-0.005,0.007-0.006c0.007,0.006,0.015,0.011,0.021,0.018L17.493,17.116z M18.5,16.5
			c-0.275,0-0.5-0.225-0.5-0.5V6c0-0.275,0.225-0.5,0.5-0.5S19,5.725,19,6v10C19,16.275,18.775,16.5,18.5,16.5z M21,16
			c0,0.275-0.225,0.5-0.5,0.5S20,16.275,20,16V6c0-0.275,0.225-0.5,0.5-0.5S21,5.725,21,6V16z"/>
	</g>
</g>
<g id="invisible_shape">
	<rect fill="none" width="24" height="24"/>
</g>
</svg>
