<?xml version="1.0" encoding="utf-8"?>
<!-- Generator: Adobe Illustrator 16.0.3, SVG Export Plug-In . SVG Version: 6.00 Build 0)  -->
<!DOCTYPE svg PUBLIC "-//W3C//DTD SVG 1.1//EN" "http://www.w3.org/Graphics/SVG/1.1/DTD/svg11.dtd">
<svg version="1.1" xmlns="http://www.w3.org/2000/svg" xmlns:xlink="http://www.w3.org/1999/xlink" x="0px" y="0px" width="24px"
	 height="24px" viewBox="0 0 24 24" enable-background="new 0 0 24 24" xml:space="preserve">
<g id="Outline_Icons">
	<g>
		<path d="M16.5,0h-6C4.71,0,0,4.71,0,10.5V19c0,2.757,2.243,5,5,5s5-2.243,5-5c0-2.206,1.794-4,4-4h2.5c4.136,0,7.5-3.364,7.5-7.5
			S20.636,0,16.5,0z M16.5,14H14c-2.757,0-5,2.243-5,5c0,2.206-1.794,4-4,4s-4-1.794-4-4v-8.5C1,5.262,5.262,1,10.5,1h6
			C20.084,1,23,3.916,23,7.5S20.084,14,16.5,14z"/>
		<path d="M16.5,3h-5C6.813,3,3,6.813,3,11.5V13c0,2.284,1.742,3.5,3,3.5c1.037,0,1.378-0.84,1.68-1.581
			C8.208,13.618,8.865,12,13,12h3.5c2.481,0,4.5-2.019,4.5-4.5S18.981,3,16.5,3z M16.5,11H13c-4.808,0-5.674,2.132-6.247,3.542
			C6.442,15.307,6.328,15.5,6,15.5c-0.697,0-2-0.733-2-2.5v-1.5C4,7.364,7.364,4,11.5,4h5C18.43,4,20,5.57,20,7.5S18.43,11,16.5,11z
			"/>
		<path d="M5,17.5c-0.827,0-1.5,0.673-1.5,1.5s0.673,1.5,1.5,1.5s1.5-0.673,1.5-1.5S5.827,17.5,5,17.5z M5,19.5
			c-0.275,0-0.5-0.225-0.5-0.5s0.225-0.5,0.5-0.5s0.5,0.225,0.5,0.5S5.275,19.5,5,19.5z"/>
	</g>
</g>
<g id="invisible_shape">
	<rect fill="none" width="24" height="24"/>
</g>
</svg>
