<?xml version="1.0" encoding="utf-8"?>
<!-- Generator: Adobe Illustrator 16.0.3, SVG Export Plug-In . SVG Version: 6.00 Build 0)  -->
<!DOCTYPE svg PUBLIC "-//W3C//DTD SVG 1.1//EN" "http://www.w3.org/Graphics/SVG/1.1/DTD/svg11.dtd">
<svg version="1.1" xmlns="http://www.w3.org/2000/svg" xmlns:xlink="http://www.w3.org/1999/xlink" x="0px" y="0px" width="24px"
	 height="24px" viewBox="0 0 24 24" enable-background="new 0 0 24 24" xml:space="preserve">
<g id="Outline_Icons_1_">
	<g id="Outline_Icons">
		<g>
			<path d="M11.806,4.5c-4.128,0-7.487,3.364-7.487,7.5s3.376,7.5,7.526,7.5c1.333,0,2.684-0.356,3.802-1.004
				c0.239-0.138,0.321-0.444,0.182-0.684c-0.139-0.238-0.444-0.321-0.683-0.182c-0.969,0.561-2.141,0.869-3.301,0.869
				c-3.599,0-6.526-2.916-6.526-6.5s2.91-6.5,6.487-6.5c2.391,0,4.337,0.71,5.628,2.054c1.042,1.085,1.64,2.582,1.64,4.11
				c0,1.658-0.746,3.336-2.171,3.336c-0.357,0-0.613-0.068-0.74-0.196c-0.155-0.158-0.151-0.459-0.148-0.702
				c0-0.002,0.001-0.1,0.001-0.103V9c0-0.276-0.224-0.5-0.5-0.5s-0.5,0.224-0.5,0.5v0.401C14.281,8.551,13.209,8,12,8
				c-2.206,0-4,1.794-4,4c0,2.206,1.794,4,4,4c1.222,0,2.305-0.562,3.039-1.43c0.034,0.307,0.128,0.648,0.412,0.937
				C15.774,15.834,16.262,16,16.902,16c1.838,0,3.171-1.823,3.171-4.336c0-1.783-0.699-3.534-1.919-4.803
				C16.671,5.316,14.476,4.5,11.806,4.5z M12,15c-1.654,0-3-1.346-3-3s1.346-3,3-3s3,1.346,3,3S13.654,15,12,15z"/>
			<path d="M23,5h0.5C23.776,5,24,4.776,24,4.5v-3C24,0.673,23.327,0,22.5,0h-3C19.224,0,19,0.224,19,0.5V1c0,0.551-0.449,1-1,1
				s-1-0.449-1-1V0.5C17,0.224,16.776,0,16.5,0h-3C13.224,0,13,0.224,13,0.5V1c0,0.551-0.449,1-1,1s-1-0.449-1-1V0.5
				C11,0.224,10.776,0,10.5,0h-3C7.224,0,7,0.224,7,0.5V1c0,0.551-0.449,1-1,1S5,1.551,5,1V0.5C5,0.224,4.776,0,4.5,0h-3
				C0.673,0,0,0.673,0,1.5v3C0,4.776,0.224,5,0.5,5H1c0.551,0,1,0.449,1,1c0,0.551-0.449,1-1,1H0.5C0.224,7,0,7.224,0,7.5v3
				C0,10.776,0.224,11,0.5,11H1c0.551,0,1,0.449,1,1c0,0.551-0.449,1-1,1H0.5C0.224,13,0,13.224,0,13.5v3C0,16.776,0.224,17,0.5,17
				H1c0.551,0,1,0.449,1,1c0,0.551-0.449,1-1,1H0.5C0.224,19,0,19.224,0,19.5v3C0,23.327,0.673,24,1.5,24h3
				C4.776,24,5,23.776,5,23.5V23c0-0.551,0.449-1,1-1s1,0.449,1,1v0.5C7,23.776,7.224,24,7.5,24h3c0.276,0,0.5-0.224,0.5-0.5V23
				c0-0.551,0.449-1,1-1s1,0.449,1,1v0.5c0,0.276,0.224,0.5,0.5,0.5h3c0.276,0,0.5-0.224,0.5-0.5V23c0-0.551,0.449-1,1-1
				s1,0.449,1,1v0.5c0,0.276,0.224,0.5,0.5,0.5h3c0.827,0,1.5-0.673,1.5-1.5v-3c0-0.276-0.224-0.5-0.5-0.5H23c-0.551,0-1-0.449-1-1
				c0-0.551,0.449-1,1-1h0.5c0.276,0,0.5-0.224,0.5-0.5v-3c0-0.276-0.224-0.5-0.5-0.5H23c-0.551,0-1-0.449-1-1c0-0.551,0.449-1,1-1
				h0.5c0.276,0,0.5-0.224,0.5-0.5v-3C24,7.224,23.776,7,23.5,7H23c-0.551,0-1-0.449-1-1C22,5.449,22.449,5,23,5z M23,8v2
				c-1.103,0-2,0.896-2,2c0,1.103,0.897,2,2,2v2c-1.103,0-2,0.896-2,2c0,1.103,0.897,2,2,2v2.5c0,0.276-0.224,0.5-0.5,0.5H20
				c0-1.104-0.897-2-2-2s-2,0.896-2,2h-2c0-1.104-0.897-2-2-2s-2,0.896-2,2H8c0-1.104-0.897-2-2-2s-2,0.896-2,2H1.5
				C1.224,23,1,22.776,1,22.5V20c1.103,0,2-0.897,2-2c0-1.104-0.897-2-2-2v-2c1.103,0,2-0.897,2-2c0-1.104-0.897-2-2-2V8
				c1.103,0,2-0.897,2-2c0-1.104-0.897-2-2-2V1.5C1,1.224,1.224,1,1.5,1H4c0,1.103,0.897,2,2,2s2-0.897,2-2h2c0,1.103,0.897,2,2,2
				s2-0.897,2-2h2c0,1.103,0.897,2,2,2s2-0.897,2-2h2.5C22.776,1,23,1.224,23,1.5V4c-1.103,0-2,0.896-2,2C21,7.103,21.897,8,23,8z"
				/>
		</g>
	</g>
	<g id="New_icons_1_">
	</g>
</g>
<g id="Invisible_Shape">
	<rect fill="none" width="24" height="24"/>
</g>
</svg>
