<?xml version="1.0" encoding="utf-8"?>
<!-- Generator: Adobe Illustrator 16.0.3, SVG Export Plug-In . SVG Version: 6.00 Build 0)  -->
<!DOCTYPE svg PUBLIC "-//W3C//DTD SVG 1.1//EN" "http://www.w3.org/Graphics/SVG/1.1/DTD/svg11.dtd">
<svg version="1.1" xmlns="http://www.w3.org/2000/svg" xmlns:xlink="http://www.w3.org/1999/xlink" x="0px" y="0px" width="24px"
	 height="24px" viewBox="0 0 24 24" enable-background="new 0 0 24 24" xml:space="preserve">
<g id="Outline_Icons_1_">
	<g id="Outline_Icons">
		<g>
			<path d="M15.5,16h-7c-0.114,0-0.224,0.039-0.312,0.109l-5,4c-0.215,0.173-0.25,0.487-0.078,0.703
				c0.173,0.214,0.487,0.251,0.703,0.078L8.675,17h6.649l4.863,3.891C20.28,20.965,20.39,21,20.5,21
				c0.147,0,0.292-0.064,0.391-0.188c0.172-0.216,0.137-0.53-0.078-0.703l-5-4C15.724,16.039,15.614,16,15.5,16z"/>
			<path d="M23.775,11.083C23.775,11.083,23.775,11.083,23.775,11.083L20,8.487V0.5C20,0.224,19.776,0,19.5,0h-15
				C4.224,0,4,0.224,4,0.5v7.987l-3.774,2.595C0.072,11.197,0,11.361,0,11.5V22c0,1.103,0.897,2,2,2h20c1.103,0,2-0.897,2-2V11.5
				C24,11.361,23.919,11.182,23.775,11.083z M20,9.701l2.608,1.792L20,13.232V9.701z M4,13.232l-2.608-1.739L4,9.701V13.232z M23,22
				c0,0.551-0.449,1-1,1H2c-0.551,0-1-0.449-1-1v-9.565l5.223,3.481c0.234,0.155,0.543,0.088,0.693-0.139
				c0.153-0.23,0.091-0.54-0.139-0.693L5,13.899V1h14v12.899l-1.777,1.185c-0.23,0.153-0.292,0.463-0.139,0.693
				c0.15,0.227,0.459,0.294,0.693,0.139L23,12.435V22z"/>
			<path d="M7.625,12h8.833c0.167,0,0.323-0.083,0.416-0.222s0.11-0.314,0.047-0.469l-2.143-5.2
				c-0.07-0.171-0.229-0.289-0.413-0.307c-0.18-0.016-0.363,0.065-0.465,0.219l-2.008,3L9.88,7.369
				C9.763,7.273,9.609,7.236,9.462,7.266c-0.148,0.03-0.274,0.126-0.343,0.259L7.181,11.27c-0.081,0.155-0.074,0.341,0.017,0.49
				C7.289,11.909,7.451,12,7.625,12z M9.723,8.534l1.96,1.61c0.109,0.091,0.255,0.129,0.39,0.109c0.14-0.02,0.264-0.099,0.343-0.216
				l1.794-2.681L15.711,11H8.447L9.723,8.534z"/>
			<path d="M9.684,5.584c0.755,0,1.369-0.613,1.369-1.368s-0.614-1.369-1.369-1.369c-0.754,0-1.368,0.614-1.368,1.369
				S8.929,5.584,9.684,5.584z M9.684,3.847c0.204,0,0.369,0.166,0.369,0.369c0,0.203-0.166,0.368-0.369,0.368
				c-0.203,0-0.368-0.165-0.368-0.368C9.315,4.012,9.48,3.847,9.684,3.847z"/>
		</g>
	</g>
	<g id="New_icons_1_">
	</g>
</g>
<g id="Invisible_Shape">
	<rect fill="none" width="24" height="24"/>
</g>
</svg>
