<?xml version="1.0" encoding="utf-8"?>
<!-- Generator: Adobe Illustrator 16.0.3, SVG Export Plug-In . SVG Version: 6.00 Build 0)  -->
<!DOCTYPE svg PUBLIC "-//W3C//DTD SVG 1.1//EN" "http://www.w3.org/Graphics/SVG/1.1/DTD/svg11.dtd">
<svg version="1.1" xmlns="http://www.w3.org/2000/svg" xmlns:xlink="http://www.w3.org/1999/xlink" x="0px" y="0px" width="24px"
	 height="24px" viewBox="0 0 24 24" enable-background="new 0 0 24 24" xml:space="preserve">
<g id="Outline_Icons_1_">
	<g id="Outline_Icons">
		<g>
			<path d="M23.774,11.082L20,8.487V0.5C20,0.224,19.776,0,19.5,0h-15C4.224,0,4,0.224,4,0.5v7.987l-3.774,2.595
				C0.075,11.194,0,11.357,0,11.5V22c0,1.103,0.897,2,2,2h20c1.103,0,2-0.897,2-2V11.5C24,11.354,23.911,11.173,23.774,11.082z
				 M22.608,11.494L20,13.232V9.701L22.608,11.494z M4,13.232l-2.608-1.739L4,9.701V13.232z M22,23H2c-0.551,0-1-0.449-1-1v-9.565
				l5.223,3.481C6.308,15.973,6.404,16,6.5,16c0.162,0,0.32-0.078,0.417-0.223c0.153-0.23,0.091-0.54-0.139-0.693L5,13.899V1h14
				v12.899l-1.777,1.185c-0.23,0.153-0.292,0.463-0.139,0.693C17.18,15.922,17.339,16,17.5,16c0.095,0,0.191-0.027,0.277-0.084
				L23,12.435V22C23,22.551,22.551,23,22,23z"/>
			<path d="M15.812,16.109C15.724,16.039,15.614,16,15.5,16h-7c-0.114,0-0.224,0.039-0.312,0.109l-5,4
				c-0.215,0.173-0.25,0.487-0.078,0.703c0.173,0.214,0.487,0.251,0.703,0.078L8.675,17h6.649l4.863,3.891
				C20.28,20.965,20.39,21,20.5,21c0.147,0,0.292-0.064,0.391-0.188c0.172-0.216,0.137-0.53-0.078-0.703L15.812,16.109z"/>
			<path d="M12.001,10.284c-0.551,0-1-0.449-1-1c0-0.276-0.224-0.5-0.5-0.5s-0.5,0.224-0.5,0.5c0,0.93,0.64,1.706,1.5,1.929v0.571
				c0,0.276,0.224,0.5,0.5,0.5s0.5-0.224,0.5-0.5v-0.571c0.86-0.224,1.5-1,1.5-1.929c0-1.103-0.897-2-2-2c-0.551,0-1-0.449-1-1
				c0-0.551,0.449-1,1-1s1,0.449,1,1c0,0.276,0.224,0.5,0.5,0.5s0.5-0.224,0.5-0.5c0-0.929-0.64-1.706-1.5-1.929V3.784
				c0-0.276-0.224-0.5-0.5-0.5s-0.5,0.224-0.5,0.5v0.571c-0.86,0.223-1.5,1-1.5,1.929c0,1.103,0.897,2,2,2c0.551,0,1,0.449,1,1
				C13.001,9.835,12.552,10.284,12.001,10.284z"/>
		</g>
	</g>
	<g id="New_icons_1_">
	</g>
</g>
<g id="Invisible_Shape">
	<rect fill="none" width="24" height="24"/>
</g>
</svg>
