<?xml version="1.0" encoding="utf-8"?>
<!-- Generator: Adobe Illustrator 16.0.3, SVG Export Plug-In . SVG Version: 6.00 Build 0)  -->
<!DOCTYPE svg PUBLIC "-//W3C//DTD SVG 1.1//EN" "http://www.w3.org/Graphics/SVG/1.1/DTD/svg11.dtd">
<svg version="1.1" xmlns="http://www.w3.org/2000/svg" xmlns:xlink="http://www.w3.org/1999/xlink" x="0px" y="0px" width="24px"
	 height="24px" viewBox="0 0 24 24" enable-background="new 0 0 24 24" xml:space="preserve">
<g id="Outline_Icons_1_">
	<g id="Outline_Icons">
	</g>
	<g id="New_icons_1_">
		<g>
			<path d="M23.776,11.083c0,0-3.746-2.576-3.776-2.596V0.5C20,0.224,19.776,0,19.5,0h-15C4.224,0,4,0.224,4,0.5v7.987l-3.774,2.595
				C0.089,11.173,0,11.354,0,11.5V22c0,1.103,0.897,2,2,2h20c1.103,0,2-0.897,2-2V11.5C24,11.362,23.92,11.182,23.776,11.083z
				 M22.608,11.494L20,13.232V9.701L22.608,11.494z M4,13.232l-2.608-1.739L4,9.701V13.232z M22,23H2c-0.551,0-1-0.449-1-1v-9.565
				l5.223,3.481C6.308,15.973,6.404,16,6.5,16c0.162,0,0.32-0.078,0.417-0.223c0.153-0.23,0.091-0.54-0.139-0.693L5,13.899V1h14
				v12.899l-1.777,1.185c-0.23,0.153-0.292,0.463-0.139,0.693C17.18,15.922,17.339,16,17.5,16c0.095,0,0.191-0.027,0.277-0.084
				L23,12.435V22C23,22.551,22.551,23,22,23z"/>
			<path d="M15.812,16.109C15.724,16.039,15.614,16,15.5,16h-7c-0.114,0-0.224,0.039-0.312,0.109l-5,4
				c-0.215,0.173-0.25,0.487-0.078,0.703c0.173,0.214,0.487,0.251,0.703,0.078L8.675,17h6.649l4.863,3.891
				C20.28,20.965,20.39,21,20.5,21c0.147,0,0.292-0.064,0.391-0.188c0.172-0.216,0.137-0.53-0.078-0.703L15.812,16.109z"/>
			<path d="M9,14c0.748,0,2,0,2-1.268V6.783l4-2.4V8h-1.35c-0.944,0-1.96,0.699-1.96,2.232c0,1.449,1.09,2.23,2.116,2.23
				c0.767,0,2.193,0,2.193-1.27V3.5c0-0.18-0.097-0.346-0.253-0.435s-0.35-0.086-0.504,0.006l-5,3C10.092,6.162,10,6.324,10,6.5V10
				H9.037c-1.268,0-2.056,0.767-2.056,2S7.755,14,9,14z M15,11.193c0,0.201-0.301,0.27-1.193,0.27c-0.538,0-1.116-0.385-1.116-1.23
				C12.69,9.472,13.058,9,13.65,9H15V11.193z M9.037,11H10v1.732C10,12.905,10,13,9,13c-0.903,0-1.019-0.534-1.019-1
				C7.981,11.571,8.091,11,9.037,11z"/>
		</g>
	</g>
</g>
<g id="Invisible_Shape">
	<rect fill="none" width="24" height="24"/>
</g>
</svg>
