<?xml version="1.0" encoding="utf-8"?>
<!-- Generator: Adobe Illustrator 16.0.3, SVG Export Plug-In . SVG Version: 6.00 Build 0)  -->
<!DOCTYPE svg PUBLIC "-//W3C//DTD SVG 1.1//EN" "http://www.w3.org/Graphics/SVG/1.1/DTD/svg11.dtd">
<svg version="1.1" xmlns="http://www.w3.org/2000/svg" xmlns:xlink="http://www.w3.org/1999/xlink" x="0px" y="0px" width="24px"
	 height="24px" viewBox="0 0 24 24" enable-background="new 0 0 24 24" xml:space="preserve">
<g id="Outline_Icons_1_">
	<g id="Outline_Icons">
		<g>
			<path d="M23.932,16.248l-3.5-6C20.342,10.095,20.178,10,20,10h-1V1.5C19,1.224,18.776,1,18.5,1h-13C5.224,1,5,1.224,5,1.5V10H4
				c-0.178,0-0.342,0.095-0.432,0.248l-3.5,6C0.045,16.287,0,16.459,0,16.5v7C0,23.776,0.224,24,0.5,24h23
				c0.276,0,0.5-0.224,0.5-0.5v-7C24,16.459,23.955,16.287,23.932,16.248z M4.287,11H5v3.484c0,0.276,0.224,0.5,0.5,0.5
				s0.5-0.224,0.5-0.5V2h12v12.484c0,0.276,0.224,0.5,0.5,0.5s0.5-0.224,0.5-0.5V11h0.713l2.917,5H16.5c-0.276,0-0.5,0.224-0.5,0.5
				v1c0,0.827-0.673,1.5-1.5,1.5H10c-0.827,0-1.5-0.673-1.5-1.5v-1C8.5,16.224,8.276,16,8,16H1.371L4.287,11z M23,23H1v-6h6.5v0.5
				c0,1.378,1.122,2.5,2.5,2.5h4.5c1.378,0,2.5-1.122,2.5-2.5V17h6V23z"/>
			<path d="M7.625,13h8.833c0.167,0,0.323-0.083,0.416-0.222s0.11-0.314,0.047-0.469l-2.143-5.2
				c-0.07-0.171-0.229-0.289-0.413-0.307c-0.178-0.016-0.362,0.065-0.465,0.219l-2.009,2.999L9.88,8.369
				C9.764,8.273,9.608,8.235,9.462,8.266c-0.148,0.03-0.274,0.126-0.343,0.259L7.181,12.27c-0.081,0.155-0.074,0.341,0.017,0.49
				C7.289,12.909,7.451,13,7.625,13z M9.723,9.534l1.96,1.61c0.109,0.089,0.255,0.129,0.39,0.108c0.14-0.021,0.264-0.1,0.343-0.217
				l1.794-2.68L15.711,12H8.447L9.723,9.534z"/>
			<path d="M9.685,6.584c0.754,0,1.368-0.613,1.368-1.368s-0.614-1.369-1.368-1.369c-0.755,0-1.369,0.614-1.369,1.369
				S8.93,6.584,9.685,6.584z M9.685,4.847c0.203,0,0.368,0.166,0.368,0.369c0,0.203-0.165,0.368-0.368,0.368
				c-0.204,0-0.369-0.165-0.369-0.368C9.315,5.012,9.481,4.847,9.685,4.847z"/>
		</g>
	</g>
	<g id="New_icons_1_">
	</g>
</g>
<g id="Invisible_Shape">
	<rect fill="none" width="24" height="24"/>
</g>
</svg>
