<?xml version="1.0" encoding="utf-8"?>
<!-- Generator: Adobe Illustrator 16.0.3, SVG Export Plug-In . SVG Version: 6.00 Build 0)  -->
<!DOCTYPE svg PUBLIC "-//W3C//DTD SVG 1.1//EN" "http://www.w3.org/Graphics/SVG/1.1/DTD/svg11.dtd">
<svg version="1.1" xmlns="http://www.w3.org/2000/svg" xmlns:xlink="http://www.w3.org/1999/xlink" x="0px" y="0px" width="24px"
	 height="24px" viewBox="0 0 24 24" enable-background="new 0 0 24 24" xml:space="preserve">
<g id="Outline_Icons_1_">
	<g id="Outline_Icons">
		<g>
			<path d="M20.5,4h-1.793l-2.854-2.854C15.76,1.053,15.633,1,15.5,1h-3V0.5C12.5,0.224,12.276,0,12,0s-0.5,0.224-0.5,0.5V1h-3
				C8.367,1,8.24,1.053,8.146,1.146L5.293,4H3.5C3.224,4,3,4.224,3,4.5v2C3,6.776,3.224,7,3.5,7h0.793L5,7.707V23.5
				C5,23.776,5.224,24,5.5,24h13c0.276,0,0.5-0.224,0.5-0.5V7.707L19.707,7H20.5C20.776,7,21,6.776,21,6.5v-2
				C21,4.224,20.776,4,20.5,4z M8.707,2h6.586l2,2H6.707L8.707,2z M6,23v-1h12v1H6z M18.146,7.146C18.053,7.24,18,7.367,18,7.5V21H6
				V7.5c0-0.133-0.053-0.26-0.146-0.354L5.707,7h12.586L18.146,7.146z M20,6H4V5h16V6z"/>
			<path d="M8,10h8c0.276,0,0.5-0.224,0.5-0.5S16.276,9,16,9H8C7.724,9,7.5,9.224,7.5,9.5S7.724,10,8,10z"/>
			<path d="M15.5,12h-7C8.253,12,8,12.223,8,12.5v4C8,16.776,8.224,17,8.5,17h7c0.276,0,0.5-0.224,0.5-0.5v-4
				C16,12.224,15.746,12,15.5,12z M13.617,13L12,13.925L10.383,13H13.617z M9,16v-2.639l2.752,1.573C11.829,14.978,11.915,15,12,15
				s0.171-0.022,0.248-0.066L15,13.361V16H9z"/>
		</g>
	</g>
	<g id="New_icons_1_">
	</g>
</g>
<g id="Invisible_Shape">
	<rect fill="none" width="24" height="24"/>
</g>
</svg>
