<?xml version="1.0" encoding="utf-8"?>
<!-- Generator: Adobe Illustrator 16.0.3, SVG Export Plug-In . SVG Version: 6.00 Build 0)  -->
<!DOCTYPE svg PUBLIC "-//W3C//DTD SVG 1.1//EN" "http://www.w3.org/Graphics/SVG/1.1/DTD/svg11.dtd">
<svg version="1.1" xmlns="http://www.w3.org/2000/svg" xmlns:xlink="http://www.w3.org/1999/xlink" x="0px" y="0px" width="24px"
	 height="24px" viewBox="0 0 24 24" enable-background="new 0 0 24 24" xml:space="preserve">
<g id="Outline_Icons_1_">
	<g id="Outline_Icons">
		<g>
			<path d="M20.85,11.035C18.085,8.394,14.364,8.037,13,8V4.5c0-0.193-0.112-0.369-0.287-0.452
				c-0.174-0.082-0.381-0.057-0.531,0.066l-8.5,7C3.567,11.209,3.5,11.351,3.5,11.5s0.067,0.291,0.182,0.386l8.5,7
				c0.15,0.123,0.357,0.15,0.531,0.066C12.888,18.87,13,18.693,13,18.5v-3.63c1.394-0.378,6.745-1.347,10.059,4.866
				c0.11,0.206,0.346,0.305,0.562,0.25C23.844,19.929,24,19.729,24,19.5C24,15.881,22.94,13.033,20.85,11.035z M15.197,13.617
				c-1.663,0-2.835,0.401-2.865,0.412C12.133,14.1,12,14.289,12,14.5v2.94L4.787,11.5L12,5.56V8.5c0,0.136,0.056,0.267,0.154,0.361
				C12.252,8.955,12.392,9.008,12.522,9c0.044-0.001,4.586-0.164,7.644,2.764c1.503,1.44,2.415,3.392,2.72,5.82
				C20.471,14.323,17.402,13.617,15.197,13.617z"/>
			<path d="M1.287,11.5l8.031-6.614c0.213-0.175,0.244-0.49,0.068-0.704c-0.175-0.213-0.49-0.244-0.704-0.068l-8.5,7
				C0.067,11.209,0,11.351,0,11.5s0.067,0.291,0.182,0.386l8.5,7C8.775,18.963,8.888,19,9,19c0.145,0,0.288-0.062,0.386-0.182
				c0.176-0.214,0.146-0.528-0.068-0.704L1.287,11.5z"/>
		</g>
	</g>
	<g id="New_icons_1_">
	</g>
</g>
<g id="Invisible_Shape">
	<rect fill="none" width="24" height="24"/>
</g>
</svg>
