<?xml version="1.0" encoding="utf-8"?>
<!-- Generator: Adobe Illustrator 16.0.3, SVG Export Plug-In . SVG Version: 6.00 Build 0)  -->
<!DOCTYPE svg PUBLIC "-//W3C//DTD SVG 1.1//EN" "http://www.w3.org/Graphics/SVG/1.1/DTD/svg11.dtd">
<svg version="1.1" xmlns="http://www.w3.org/2000/svg" xmlns:xlink="http://www.w3.org/1999/xlink" x="0px" y="0px" width="24px"
	 height="24px" viewBox="0 0 24 24" enable-background="new 0 0 24 24" xml:space="preserve">
<g id="Outline_Icons">
	<path d="M12.529,4.537L12.5,3.486C12.492,3.215,12.271,3,12,3c-0.551,0-1-0.449-1-1c0-0.551,0.449-1,1-1s1,0.449,1,1
		c0,0.276,0.224,0.5,0.5,0.5S14,2.276,14,2c0-1.104-0.897-2-2-2s-2,0.896-2,2c0,0.935,0.644,1.721,1.512,1.94l0.016,0.592
		C6.654,4.864,0.025,9.771,0.025,11.899c0,0.361,0.164,0.667,0.461,0.86C0.735,12.922,1.067,13,1.5,13H5v10.5
		C5,23.776,5.224,24,5.5,24h13c0.276,0,0.5-0.224,0.5-0.5V13h3.5c0.432,0,0.763-0.076,1.011-0.232
		c0.302-0.19,0.468-0.493,0.468-0.852C23.979,9.176,16.164,4.909,12.529,4.537z M18,20H6V10h12V20z M6,23v-2h12v2H6z M22.5,12H19
		V9.5C19,9.224,18.776,9,18.5,9h-13C5.224,9,5,9.224,5,9.5V12H1.5c-0.364,0-0.468-0.077-0.473-0.077
		c-0.016-0.054,0.023-0.317,0.393-0.816C3.052,8.901,8.349,5.5,12.042,5.5c3.48,0,8.761,3.381,10.486,5.574
		c0.472,0.6,0.453,0.839,0.459,0.841C22.977,11.923,22.869,12,22.5,12z"/>
</g>
<g id="invisible_shape">
	<rect fill="none" width="24" height="24"/>
</g>
</svg>
