<?xml version="1.0" encoding="utf-8"?>
<!-- Generator: Adobe Illustrator 16.0.3, SVG Export Plug-In . SVG Version: 6.00 Build 0)  -->
<!DOCTYPE svg PUBLIC "-//W3C//DTD SVG 1.1//EN" "http://www.w3.org/Graphics/SVG/1.1/DTD/svg11.dtd">
<svg version="1.1" xmlns="http://www.w3.org/2000/svg" xmlns:xlink="http://www.w3.org/1999/xlink" x="0px" y="0px" width="24px"
	 height="24px" viewBox="0 0 24 24" enable-background="new 0 0 24 24" xml:space="preserve">
<g id="Outline_Icons">
	<g>
		<path d="M23.202,12.902c0.152,0.112,0.354,0.129,0.523,0.044C23.894,12.861,24,12.688,24,12.5V9c0-0.159-0.075-0.308-0.203-0.402
			l-11.5-8.5c-0.177-0.131-0.418-0.131-0.595,0l-11.5,8.5C0.075,8.692,0,8.841,0,9v3.5c0,0.188,0.106,0.361,0.274,0.446
			C0.346,12.982,0.423,13,0.5,13c0.105,0,0.209-0.033,0.297-0.098L2,12.016V23H0.5C0.224,23,0,23.224,0,23.5S0.224,24,0.5,24h23
			c0.276,0,0.5-0.224,0.5-0.5S23.776,23,23.5,23H22V12.011L23.202,12.902z M1,9.252l11-8.13l11,8.13v2.255L12.328,3.598
			c-0.177-0.131-0.418-0.131-0.595,0L1,11.511V9.252z M21,23H3v-1h9.484c0.276,0,0.5-0.224,0.5-0.5s-0.224-0.5-0.5-0.5H3v-1h9.484
			c0.276,0,0.5-0.224,0.5-0.5s-0.224-0.5-0.5-0.5H3v-1h3.5C6.776,18,7,17.776,7,17.5S6.776,17,6.5,17H3v-1h3.5
			C6.776,16,7,15.776,7,15.5S6.776,15,6.5,15H3v-1h3.5C6.776,14,7,13.776,7,13.5S6.776,13,6.5,13H3v-1.722l9.029-6.657L21,11.27V23z
			"/>
		<path d="M14.745,16.156c-0.02,0.281-0.242,0.605-0.661,0.964c-0.209,0.18-0.234,0.495-0.055,0.705
			C14.128,17.94,14.269,18,14.409,18c0.115,0,0.231-0.04,0.325-0.12c0.638-0.546,0.968-1.087,1.008-1.653
			c0.058-0.814-0.499-1.445-0.99-2.002c-0.401-0.456-0.779-0.885-0.75-1.292c0.021-0.296,0.253-0.635,0.691-1.01
			c0.21-0.18,0.234-0.495,0.055-0.705s-0.496-0.232-0.705-0.055c-0.658,0.563-0.998,1.119-1.039,1.699
			c-0.058,0.826,0.503,1.462,0.998,2.024C14.398,15.335,14.773,15.759,14.745,16.156z"/>
		<path d="M17.745,16.156c-0.02,0.281-0.242,0.605-0.661,0.964c-0.209,0.18-0.234,0.495-0.055,0.705
			C17.128,17.94,17.269,18,17.409,18c0.115,0,0.231-0.04,0.325-0.12c0.638-0.546,0.968-1.087,1.008-1.653
			c0.058-0.814-0.499-1.445-0.99-2.002c-0.401-0.456-0.779-0.885-0.75-1.292c0.021-0.296,0.253-0.635,0.691-1.01
			c0.21-0.18,0.234-0.495,0.055-0.705c-0.18-0.21-0.495-0.232-0.705-0.055c-0.658,0.563-0.998,1.119-1.039,1.699
			c-0.058,0.826,0.503,1.462,0.998,2.024C17.398,15.335,17.773,15.759,17.745,16.156z"/>
	</g>
</g>
<g id="invisible_shape">
	<rect fill="none" width="24" height="24"/>
</g>
</svg>
