<?xml version="1.0" encoding="utf-8"?>
<!-- Generator: Adobe Illustrator 16.0.3, SVG Export Plug-In . SVG Version: 6.00 Build 0)  -->
<!DOCTYPE svg PUBLIC "-//W3C//DTD SVG 1.1//EN" "http://www.w3.org/Graphics/SVG/1.1/DTD/svg11.dtd">
<svg version="1.1" xmlns="http://www.w3.org/2000/svg" xmlns:xlink="http://www.w3.org/1999/xlink" x="0px" y="0px" width="24px"
	 height="24px" viewBox="0 0 24 24" enable-background="new 0 0 24 24" xml:space="preserve">
<g id="Outline_Icons">
	<g>
		<path d="M23.462,16.33c-0.071-0.197-0.259-0.33-0.47-0.33h-3.19l-1.854-3.723c-0.168-0.339-0.727-0.339-0.895,0L15.198,16h-3.206
			c-0.211,0-0.398,0.132-0.471,0.331c-0.071,0.198-0.011,0.42,0.151,0.554l2.752,2.281l-1.406,4.174
			c-0.068,0.204,0,0.428,0.172,0.558c0.171,0.13,0.407,0.136,0.584,0.015l3.725-2.546l3.71,2.545C21.295,23.971,21.394,24,21.492,24
			c0.106,0,0.212-0.034,0.301-0.101c0.172-0.129,0.241-0.354,0.174-0.558l-1.393-4.176l2.738-2.281
			C23.474,16.75,23.534,16.528,23.462,16.33z M19.672,18.616c-0.158,0.132-0.219,0.347-0.154,0.543l1.029,3.086l-2.764-1.896
			c-0.086-0.059-0.185-0.088-0.283-0.088s-0.197,0.029-0.282,0.087l-2.775,1.897l1.039-3.085c0.066-0.196,0.005-0.412-0.154-0.544
			L13.379,17h2.129c0.189,0,0.363-0.107,0.447-0.277l1.545-3.102l1.545,3.102C19.129,16.893,19.303,17,19.492,17h2.119
			L19.672,18.616z"/>
		<path d="M5.765,7.076C5.61,6.98,5.417,6.976,5.258,7.062C5.099,7.151,5,7.318,5,7.5v6.75c0,0.182,0.099,0.349,0.258,0.438
			C5.333,14.729,5.417,14.75,5.5,14.75c0.092,0,0.184-0.025,0.265-0.076l5.4-3.375c0.146-0.091,0.235-0.251,0.235-0.424
			s-0.089-0.333-0.235-0.424L5.765,7.076z M6,13.348V8.402l3.957,2.473L6,13.348z"/>
		<path d="M16,9.5c0,0.276,0.224,0.5,0.5,0.5S17,9.776,17,9.5v-4c0-0.067-0.014-0.132-0.039-0.192
			c-0.025-0.061-0.062-0.116-0.108-0.162l-4.998-4.999c-0.046-0.046-0.101-0.083-0.162-0.107C11.632,0.014,11.566,0,11.5,0h-11
			C0.224,0,0,0.224,0,0.5v21C0,21.776,0.224,22,0.5,22h9c0.276,0,0.5-0.224,0.5-0.5S9.776,21,9.5,21H1V1h10v4.5
			C11,5.776,11.224,6,11.5,6H16V9.5z M12,1.707L15.293,5H12V1.707z"/>
	</g>
</g>
<g id="Invisible_Shape">
	<rect fill="none" width="24" height="24"/>
</g>
</svg>
