<?xml version="1.0" encoding="utf-8"?>
<!-- Generator: Adobe Illustrator 16.0.3, SVG Export Plug-In . SVG Version: 6.00 Build 0)  -->
<!DOCTYPE svg PUBLIC "-//W3C//DTD SVG 1.1//EN" "http://www.w3.org/Graphics/SVG/1.1/DTD/svg11.dtd">
<svg version="1.1" xmlns="http://www.w3.org/2000/svg" xmlns:xlink="http://www.w3.org/1999/xlink" x="0px" y="0px" width="24px"
	 height="24px" viewBox="0 0 24 24" enable-background="new 0 0 24 24" xml:space="preserve">
<g id="Outline_Icons">
	<g>
		<path d="M10.5,4h-10C0.224,4,0,4.224,0,4.5v2C0,6.776,0.224,7,0.5,7S1,6.776,1,6.5V5h4v13H4c-0.276,0-0.5,0.224-0.5,0.5
			S3.724,19,4,19h3c0.276,0,0.5-0.224,0.5-0.5S7.276,18,7,18H6V5h4v1.5C10,6.776,10.224,7,10.5,7S11,6.776,11,6.5v-2
			C11,4.224,10.776,4,10.5,4z"/>
		<path d="M23.5,4h-10C13.224,4,13,4.224,13,4.5v2C13,6.776,13.224,7,13.5,7S14,6.776,14,6.5V5h4v13h-1c-0.276,0-0.5,0.224-0.5,0.5
			S16.724,19,17,19h3c0.276,0,0.5-0.224,0.5-0.5S20.276,18,20,18h-1V5h4v1.5C23,6.776,23.224,7,23.5,7S24,6.776,24,6.5v-2
			C24,4.224,23.776,4,23.5,4z"/>
	</g>
</g>
<g id="Invisible_Shape">
	<rect fill="none" width="24" height="24"/>
</g>
</svg>
