<?xml version="1.0" encoding="utf-8"?>
<!-- Generator: Adobe Illustrator 16.0.3, SVG Export Plug-In . SVG Version: 6.00 Build 0)  -->
<!DOCTYPE svg PUBLIC "-//W3C//DTD SVG 1.1//EN" "http://www.w3.org/Graphics/SVG/1.1/DTD/svg11.dtd">
<svg version="1.1" xmlns="http://www.w3.org/2000/svg" xmlns:xlink="http://www.w3.org/1999/xlink" x="0px" y="0px" width="24px"
	 height="24px" viewBox="0 0 24 24" enable-background="new 0 0 24 24" xml:space="preserve">
<g id="Outline_Icons">
	<g>
		<path d="M8.146,16.146L6,18.293V4.5C6,4.224,5.776,4,5.5,4S5,4.224,5,4.5v13.793l-2.146-2.146c-0.195-0.195-0.512-0.195-0.707,0
			s-0.195,0.512,0,0.707l2.999,3c0.047,0.046,0.103,0.082,0.163,0.107C5.37,19.986,5.435,20,5.5,20s0.13-0.014,0.191-0.039
			c0.061-0.025,0.116-0.062,0.163-0.107l2.999-3c0.195-0.195,0.195-0.512,0-0.707S8.342,15.951,8.146,16.146z"/>
		<path d="M21.807,10.364l-2.825-10C18.92,0.148,18.724,0,18.5,0s-0.42,0.148-0.481,0.364l-2.826,10
			c-0.075,0.266,0.08,0.542,0.346,0.617c0.263,0.074,0.541-0.08,0.617-0.346L16.617,9h3.765l0.462,1.636
			C20.906,10.856,21.106,11,21.325,11c0.045,0,0.091-0.006,0.136-0.019C21.727,10.906,21.882,10.63,21.807,10.364z M16.9,8
			l1.6-5.661L20.1,8H16.9z"/>
		<path d="M21,23h-4.126l4.557-7.746c0.091-0.155,0.093-0.347,0.003-0.502C21.345,14.596,21.18,14.5,21,14.5h-5
			c-0.276,0-0.5,0.224-0.5,0.5s0.224,0.5,0.5,0.5h4.126l-4.557,7.746c-0.091,0.155-0.093,0.347-0.003,0.502
			C15.655,23.904,15.82,24,16,24h5c0.276,0,0.5-0.224,0.5-0.5S21.276,23,21,23z"/>
	</g>
</g>
<g id="Invisible_Shape">
	<rect fill="none" width="24" height="24"/>
</g>
</svg>
