<?xml version="1.0" encoding="utf-8"?>
<!-- Generator: Adobe Illustrator 16.0.3, SVG Export Plug-In . SVG Version: 6.00 Build 0)  -->
<!DOCTYPE svg PUBLIC "-//W3C//DTD SVG 1.1//EN" "http://www.w3.org/Graphics/SVG/1.1/DTD/svg11.dtd">
<svg version="1.1" xmlns="http://www.w3.org/2000/svg" xmlns:xlink="http://www.w3.org/1999/xlink" x="0px" y="0px" width="24px"
	 height="24px" viewBox="0 0 24 24" enable-background="new 0 0 24 24" xml:space="preserve">
<g id="Outline_Icons">
	<g>
		<path d="M3.731,20.439C4.606,21.314,6.262,22,7.5,22h2c1.237,0,2.893-0.686,3.768-1.561l9.171-9.171
			c0.975-0.975,0.975-2.562,0-3.536l-5.171-5.171c-0.939-0.94-2.593-0.941-3.536,0L1.561,14.732c-0.975,0.975-0.975,2.562,0,3.536
			L3.731,20.439z M14.438,3.269c0.282-0.282,0.659-0.438,1.061-0.438c0.402,0,0.779,0.155,1.062,0.438l5.171,5.171
			c0.585,0.585,0.585,1.537,0,2.122L17.5,14.793L10.207,7.5L14.438,3.269z M2.268,15.439L9.5,8.207l7.293,7.293l-4.232,4.232
			C11.873,20.42,10.472,21,9.5,21h-2c-0.973,0-2.374-0.58-3.062-1.268l-2.171-2.171C1.683,16.977,1.683,16.024,2.268,15.439z"/>
		<path d="M23.5,23h-23C0.224,23,0,23.224,0,23.5S0.224,24,0.5,24h23c0.276,0,0.5-0.224,0.5-0.5S23.776,23,23.5,23z"/>
	</g>
</g>
<g id="Invisible_Shape">
	<rect fill="none" width="24" height="24"/>
</g>
</svg>
