<?xml version="1.0" encoding="utf-8"?>
<!-- Generator: Adobe Illustrator 16.0.3, SVG Export Plug-In . SVG Version: 6.00 Build 0)  -->
<!DOCTYPE svg PUBLIC "-//W3C//DTD SVG 1.1//EN" "http://www.w3.org/Graphics/SVG/1.1/DTD/svg11.dtd">
<svg version="1.1" xmlns="http://www.w3.org/2000/svg" xmlns:xlink="http://www.w3.org/1999/xlink" x="0px" y="0px" width="24px"
	 height="24px" viewBox="0 0 24 24" enable-background="new 0 0 24 24" xml:space="preserve">
<g id="Outline_Icons">
	<g>
		<path d="M17.854,0.146c-0.195-0.195-0.512-0.195-0.707,0L9.5,7.793L1.854,0.146c-0.195-0.195-0.512-0.195-0.707,0
			s-0.195,0.512,0,0.707L8.793,8.5l-7.646,7.646c-0.195,0.195-0.195,0.512,0,0.707C1.244,16.951,1.372,17,1.5,17
			s0.256-0.049,0.354-0.146L9.5,9.207l7.646,7.646C17.244,16.951,17.372,17,17.5,17s0.256-0.049,0.354-0.146
			c0.195-0.195,0.195-0.512,0-0.707L10.207,8.5l7.646-7.646C18.049,0.658,18.049,0.342,17.854,0.146z"/>
		<path d="M22.484,23h-1.52l1.711-2.443c0.383-0.566,0.43-1.247,0.125-1.82c-0.303-0.57-0.893-0.924-1.541-0.924
			c-0.937,0-1.701,0.73-1.74,1.664c-0.011,0.275,0.203,0.509,0.479,0.521c0.283,0.004,0.509-0.204,0.521-0.479
			c0.016-0.396,0.342-0.705,0.74-0.705c0.277,0,0.529,0.15,0.658,0.393c0.076,0.144,0.169,0.438-0.065,0.784l-2.258,3.224
			c-0.107,0.153-0.12,0.353-0.034,0.518c0.086,0.166,0.257,0.27,0.443,0.27h2.48c0.276,0,0.5-0.224,0.5-0.5S22.761,23,22.484,23z"/>
	</g>
</g>
<g id="Invisible_Shape">
	<rect fill="none" width="24" height="24"/>
</g>
</svg>
