<?xml version="1.0" encoding="utf-8"?>
<!-- Generator: Adobe Illustrator 19.2.1, SVG Export Plug-In . SVG Version: 6.00 Build 0)  -->
<svg version="1.1" xmlns="http://www.w3.org/2000/svg" xmlns:xlink="http://www.w3.org/1999/xlink" x="0px" y="0px" width="24px"
	 height="24px" viewBox="0 0 24 24" enable-background="new 0 0 24 24" xml:space="preserve">
<g id="Outline_Icons">
	<path d="M18.354,23.146L13,17.793v-5.586l2.553-2.553C15.813,9.867,16.14,10,16.5,10c0.827,0,1.5-0.673,1.5-1.5S17.327,7,16.5,7
		C15.673,7,15,7.673,15,8.5c0,0.091,0.012,0.179,0.027,0.266L13,10.793V5.207l2.553-2.553C15.813,2.867,16.14,3,16.5,3
		C17.327,3,18,2.327,18,1.5S17.327,0,16.5,0C15.673,0,15,0.673,15,1.5c0,0.091,0.012,0.179,0.027,0.266L13,3.793V0.5
		C13,0.224,12.777,0,12.5,0h-2C10.224,0,10,0.224,10,0.5v6.293L7.973,4.766C7.989,4.679,8,4.591,8,4.5C8,3.673,7.327,3,6.5,3
		S5,3.673,5,4.5S5.673,6,6.5,6c0.36,0,0.688-0.133,0.947-0.346L10,8.207v5.586l-2.027-2.027C7.989,11.679,8,11.591,8,11.5
		C8,10.673,7.327,10,6.5,10S5,10.673,5,11.5S5.673,13,6.5,13c0.36,0,0.688-0.133,0.947-0.346L10,15.207v2.586l-5.354,5.354
		c-0.143,0.143-0.186,0.358-0.108,0.545C4.615,23.878,4.798,24,5,24h2.5c0.133,0,0.26-0.053,0.354-0.146L10,21.707V23.5
		c0,0.276,0.224,0.5,0.5,0.5h2c0.276,0,0.5-0.224,0.5-0.5v-1.793l2.146,2.146C15.24,23.947,15.367,24,15.5,24H18
		c0.202,0,0.385-0.122,0.462-0.309C18.539,23.504,18.496,23.29,18.354,23.146z M16.5,8C16.776,8,17,8.224,17,8.5S16.776,9,16.5,9
		S16,8.776,16,8.5S16.225,8,16.5,8z M16.5,1C16.776,1,17,1.224,17,1.5S16.776,2,16.5,2S16,1.776,16,1.5S16.225,1,16.5,1z M6.5,5
		C6.225,5,6,4.776,6,4.5S6.225,4,6.5,4C6.776,4,7,4.224,7,4.5S6.776,5,6.5,5z M6.5,12C6.225,12,6,11.776,6,11.5S6.225,11,6.5,11
		C6.776,11,7,11.224,7,11.5S6.776,12,6.5,12z M7.293,23H6.207L10,19.207v1.086L7.293,23z M12,23h-1v-2.5V18V1h1v17v2.5V23z
		 M15.707,23L13,20.293v-1.086L16.793,23H15.707z"/>
</g>
<g id="invisible_shape">
	<rect fill="none" width="24" height="24"/>
</g>
</svg>
