<?xml version="1.0" encoding="utf-8"?>
<!-- Generator: Adobe Illustrator 19.2.1, SVG Export Plug-In . SVG Version: 6.00 Build 0)  -->
<svg version="1.1" xmlns="http://www.w3.org/2000/svg" xmlns:xlink="http://www.w3.org/1999/xlink" x="0px" y="0px" width="24px"
	 height="24px" viewBox="0 0 24 24" enable-background="new 0 0 24 24" xml:space="preserve">
<g id="Outline_Icons">
	<path d="M21.933,8.465C21.982,7.357,22,6.216,22,5.039c0-0.226-0.151-0.424-0.37-0.483c-0.073-0.02-7.399-2.016-9.769-4.391
		c-0.188-0.188-0.535-0.188-0.723,0C8.769,2.539,1.443,4.536,1.37,4.556C1.151,4.615,1,4.812,1,5.039
		c0,1.177,0.018,2.318,0.067,3.426C1.066,8.477,1.061,8.487,1.061,8.5c0,0.021,0.01,0.04,0.013,0.061
		c0.293,6.276,1.754,11.361,8.171,14.521c0.029,0.018,0.058,0.036,0.091,0.047c0.622,0.302,1.274,0.592,1.991,0.857
		c0.057,0.021,0.115,0.031,0.174,0.031s0.117-0.01,0.174-0.031c0.717-0.266,1.369-0.556,1.991-0.857
		c0.033-0.012,0.062-0.029,0.091-0.047c6.417-3.16,7.878-8.245,8.171-14.521C21.93,8.54,21.94,8.521,21.94,8.5
		C21.94,8.487,21.934,8.477,21.933,8.465z M20.952,8H14V2.775c2.64,1.34,5.901,2.329,6.999,2.643
		C20.997,6.306,20.982,7.163,20.952,8z M9,2.775V8H2.048c-0.03-0.837-0.045-1.694-0.047-2.582C3.099,5.103,6.36,4.115,9,2.775z
		 M2.577,13H9v8.83C5.077,19.683,3.334,16.702,2.577,13z M11.5,22.984c-0.529-0.201-1.027-0.413-1.5-0.634V12.5
		c0-0.276-0.224-0.5-0.5-0.5H2.397c-0.148-0.956-0.243-1.957-0.302-3H9.5C9.776,9,10,8.776,10,8.5V2.229
		c0.564-0.332,1.077-0.678,1.499-1.039C11.921,1.551,12.436,1.898,13,2.23V8.5C13,8.776,13.224,9,13.5,9h7.405
		c-0.059,1.043-0.154,2.044-0.302,3H13.5c-0.276,0-0.5,0.224-0.5,0.5v9.85C12.527,22.571,12.029,22.783,11.5,22.984z M14,21.83V13
		h6.423C19.666,16.702,17.923,19.683,14,21.83z"/>
</g>
<g id="invisible_shape">
	<rect fill="none" width="24" height="24"/>
</g>
</svg>
