<?xml version="1.0" encoding="utf-8"?>
<!-- Generator: Adobe Illustrator 19.2.1, SVG Export Plug-In . SVG Version: 6.00 Build 0)  -->
<svg version="1.1" xmlns="http://www.w3.org/2000/svg" xmlns:xlink="http://www.w3.org/1999/xlink" x="0px" y="0px" width="24px"
	 height="24px" viewBox="0 0 24 24" enable-background="new 0 0 24 24" xml:space="preserve">
<g id="Outline_Icons">
	<path d="M18.996,8.438l-1-8C17.965,0.188,17.752,0,17.5,0h-12C5.248,0,5.035,0.188,5.004,0.438L4,8.5c0,3.967,3.098,7.215,7,7.475
		V23H7.5C7.224,23,7,23.224,7,23.5S7.224,24,7.5,24h8c0.276,0,0.5-0.224,0.5-0.5S15.776,23,15.5,23H12v-7.025
		C15.902,15.715,19,12.464,18.996,8.438z M4.996,8.562L5.941,1h6.352L8.146,5.147C8.004,5.29,7.961,5.504,8.038,5.691
		C8.115,5.878,8.298,6,8.5,6h3.793l-4.147,4.146c-0.195,0.195-0.195,0.512,0,0.707C8.244,10.951,8.372,11,8.5,11
		s0.256-0.049,0.354-0.146l5-5c0.143-0.143,0.186-0.358,0.108-0.545C13.885,5.122,13.702,5,13.5,5H9.707l4-4h3.352L18,8.5
		c0,3.584-2.916,6.5-6.5,6.5S5,12.084,4.996,8.562z"/>
</g>
<g id="invisible_shape">
	<rect fill="none" width="24" height="24"/>
</g>
</svg>
