<?xml version="1.0" encoding="utf-8"?>
<!-- Generator: Adobe Illustrator 19.2.1, SVG Export Plug-In . SVG Version: 6.00 Build 0)  -->
<svg version="1.1" xmlns="http://www.w3.org/2000/svg" xmlns:xlink="http://www.w3.org/1999/xlink" x="0px" y="0px" width="24px"
	 height="24px" viewBox="0 0 24 24" enable-background="new 0 0 24 24" xml:space="preserve">
<g id="Outline_Icons">
	<g>
		<path d="M19.983,0h-12c-2.243,0-4,2.855-4,6.5v12.861l-1.477,0.591l-1.799-0.899c-0.155-0.077-0.34-0.069-0.486,0.022
			c-0.148,0.091-0.237,0.252-0.237,0.425c0,2.607,1.683,4.5,4,4.5h9c2.206,0,4-1.794,4-4v-7h3c2.243,0,4-2.855,4-6.5
			S22.226,0,19.983,0z M3.983,23c-1.513,0-2.635-1.056-2.926-2.654l1.202,0.601c0.127,0.064,0.275,0.071,0.409,0.017l2.315-0.926
			l2.314,0.926c0.133,0.054,0.282,0.047,0.409-0.017l1.329-0.665C9.189,21.4,9.67,22.343,10.38,23H3.983z M12.983,23
			c-1.767,0-3-1.44-3-3.5c0-0.173-0.09-0.334-0.237-0.425c-0.148-0.091-0.331-0.1-0.486-0.022L7.46,19.952l-2.292-0.917
			C5.109,19.012,5.045,19,4.983,19v-4h1c0.276,0,0.5-0.224,0.5-0.5S6.259,14,5.983,14h-1V7h1c0.276,0,0.5-0.224,0.5-0.5
			S6.259,6,5.983,6H4.997C5.14,3.243,6.448,1,7.983,1h9.847c-1.036,1.059-1.736,2.87-1.832,5h-1.515c-0.276,0-0.5,0.224-0.5,0.5
			s0.224,0.5,0.5,0.5h1.5v7h-1.5c-0.276,0-0.5,0.224-0.5,0.5s0.224,0.5,0.5,0.5h1.5v5C15.983,21.654,14.637,23,12.983,23z
			 M16.983,10.843c0.246,0.449,0.532,0.835,0.848,1.157h-0.848V10.843z M19.983,12c-1.626,0-3-2.519-3-5.5s1.374-5.5,3-5.5
			c1.626,0,3,2.519,3,5.5S21.609,12,19.983,12z"/>
		<path d="M19.983,4c-0.855,0-1.5,1.075-1.5,2.5s0.645,2.5,1.5,2.5c0.856,0,1.5-1.075,1.5-2.5S20.838,4,19.983,4z M19.983,8
			c-0.124,0-0.5-0.532-0.5-1.5s0.376-1.5,0.5-1.5c0.124,0,0.5,0.532,0.5,1.5S20.107,8,19.983,8z"/>
		<path d="M9.483,14h-2c-0.276,0-0.5,0.224-0.5,0.5s0.224,0.5,0.5,0.5h2c0.276,0,0.5-0.224,0.5-0.5S9.759,14,9.483,14z"/>
		<path d="M12.983,14h-2c-0.276,0-0.5,0.224-0.5,0.5s0.224,0.5,0.5,0.5h2c0.276,0,0.5-0.224,0.5-0.5S13.259,14,12.983,14z"/>
		<path d="M9.483,6h-2c-0.276,0-0.5,0.224-0.5,0.5S7.206,7,7.483,7h2c0.276,0,0.5-0.224,0.5-0.5S9.759,6,9.483,6z"/>
		<path d="M12.983,6h-2c-0.276,0-0.5,0.224-0.5,0.5s0.224,0.5,0.5,0.5h2c0.276,0,0.5-0.224,0.5-0.5S13.259,6,12.983,6z"/>
	</g>
</g>
<g id="invisible_shape">
	<rect fill="none" width="24" height="24"/>
</g>
</svg>
