<?xml version="1.0" encoding="utf-8"?>
<!-- Generator: Adobe Illustrator 19.2.1, SVG Export Plug-In . SVG Version: 6.00 Build 0)  -->
<svg version="1.1" xmlns="http://www.w3.org/2000/svg" xmlns:xlink="http://www.w3.org/1999/xlink" x="0px" y="0px" width="24px"
	 height="24px" viewBox="0 0 24 24" enable-background="new 0 0 24 24" xml:space="preserve">
<g id="Outline_Icons">
	<g>
		<path d="M19.5,0h-15C3.121,0,2,1.122,2,2.5v19C2,22.878,3.121,24,4.5,24h15c1.379,0,2.5-1.122,2.5-2.5v-19
			C22,1.122,20.879,0,19.5,0z M4.5,1h15C20.327,1,21,1.673,21,2.5V6H3V2.5C3,1.673,3.673,1,4.5,1z M19.5,23h-15
			C3.673,23,3,22.327,3,21.5V7h18v14.5C21,22.327,20.327,23,19.5,23z"/>
		<path d="M12,9c-3.309,0-6,2.691-6,6s2.691,6,6,6s6-2.691,6-6S15.309,9,12,9z M11,10.101v2.611C10.118,13.099,9.5,13.977,9.5,15
			c0,0.374,0.088,0.726,0.236,1.045l-2.01,1.512C7.275,16.806,7,15.938,7,15C7,12.585,8.721,10.566,11,10.101z M12,16.5
			c-0.827,0-1.5-0.673-1.5-1.5s0.673-1.5,1.5-1.5s1.5,0.673,1.5,1.5S12.827,16.5,12,16.5z M12,20c-1.459,0-2.763-0.64-3.678-1.64
			l2.01-1.511c0.443,0.4,1.024,0.651,1.668,0.651s1.225-0.251,1.668-0.651l2.009,1.512C14.762,19.361,13.459,20,12,20z
			 M16.272,17.558l-2.009-1.513C14.411,15.727,14.5,15.375,14.5,15c0-1.378-1.121-2.5-2.5-2.5V10c2.757,0,5,2.243,5,5
			C17,15.939,16.725,16.807,16.272,17.558z"/>
		<circle cx="18.5" cy="2.5" r="0.5"/>
		<circle cx="16.5" cy="2.5" r="0.5"/>
		<circle cx="14.5" cy="2.5" r="0.5"/>
		<circle cx="14.5" cy="4.5" r="0.5"/>
		<circle cx="16.5" cy="4.5" r="0.5"/>
		<circle cx="18.5" cy="4.5" r="0.5"/>
		<path d="M5.553,4.724C5.638,4.893,5.811,5,6,5h4c0.189,0,0.362-0.107,0.447-0.276l1-2c0.077-0.155,0.069-0.339-0.021-0.486
			C11.334,2.09,11.173,2,11,2H5C4.827,2,4.666,2.09,4.574,2.237C4.483,2.385,4.476,2.569,4.553,2.724L5.553,4.724z M10.191,3l-0.5,1
			H6.309l-0.5-1H10.191z"/>
	</g>
</g>
<g id="invisible_shape">
	<rect fill="none" width="24" height="24"/>
</g>
</svg>
