<?xml version="1.0" encoding="utf-8"?>
<!-- Generator: Adobe Illustrator 16.0.3, SVG Export Plug-In . SVG Version: 6.00 Build 0)  -->
<!DOCTYPE svg PUBLIC "-//W3C//DTD SVG 1.1//EN" "http://www.w3.org/Graphics/SVG/1.1/DTD/svg11.dtd">
<svg version="1.1" xmlns="http://www.w3.org/2000/svg" xmlns:xlink="http://www.w3.org/1999/xlink" x="0px" y="0px" width="24px"
	 height="24px" viewBox="0 0 24 24" enable-background="new 0 0 24 24" xml:space="preserve">
<g id="Outline_Icons_1_">
	<g id="Outline_Icons">
		<g>
			<path d="M23.9,23.183L21,19.315v-4.392c0-1.788-1.8-3.312-3.706-4.924L17,9.75V1.982c0-1.103-0.897-2-2-2H2c-1.103,0-2,0.897-2,2
				v18c0,1.102,0.896,2.001,2,2.005h14.829c0.508,0.819,1.092,1.572,1.28,1.808c0.099,0.123,0.244,0.188,0.391,0.188
				c0.109,0,0.22-0.036,0.312-0.109c0.215-0.173,0.25-0.487,0.078-0.703C17.981,22.033,17,20.491,17,19.982v-1
				c0-0.118-0.042-0.232-0.118-0.323l-2.775-3.276c-0.096-0.116-0.185-0.615-0.003-0.797c0.219-0.219,0.574-0.219,0.793,0l2.25,2.25
				c0.195,0.195,0.512,0.195,0.707,0s0.195-0.512,0-0.707L17,15.275v-4.213c1.529,1.3,3,2.632,3,3.861v4.559
				c0,0.108,0.035,0.214,0.1,0.3l3,4c0.098,0.131,0.248,0.2,0.4,0.2c0.104,0,0.209-0.032,0.299-0.1
				C24.021,23.717,24.066,23.403,23.9,23.183z M14.152,16.982H3v-14h11V13.51c-0.22,0.075-0.429,0.193-0.604,0.369
				c-0.63,0.63-0.434,1.773-0.028,2.177L14.152,16.982z M15.604,13.879C15.429,13.703,15.22,13.585,15,13.51V2.482
				c0-0.276-0.224-0.5-0.5-0.5h-12c-0.276,0-0.5,0.224-0.5,0.5v15c0,0.276,0.224,0.5,0.5,0.5h12.438
				c0.019,0,0.034-0.009,0.052-0.011L16,19.166v0.816c0,0.279,0.11,0.63,0.28,1.005H2.002C1.449,20.985,1,20.534,1,19.982v-18
				c0-0.552,0.449-1,1-1h13c0.551,0,1,0.448,1,1v12.293L15.604,13.879z"/>
			<rect x="6.031" y="18.982" width="3.938" height="1"/>
			<circle cx="4.5" cy="19.482" r="0.5"/>
			<circle cx="11.5" cy="19.482" r="0.5"/>
			<rect x="5" y="12.982" width="7" height="1"/>
			<rect x="5" y="10.982" width="7" height="1"/>
			<rect x="5" y="8.982" width="7" height="1"/>
			<rect x="5" y="6.982" width="7" height="1"/>
			<rect x="5" y="4.982" width="4" height="1"/>
		</g>
	</g>
	<g id="New_icons_1_">
	</g>
</g>
<g id="Invisible_Shape">
	<rect fill="none" width="24" height="24"/>
</g>
</svg>
