<?xml version="1.0" encoding="utf-8"?>
<!-- Generator: Adobe Illustrator 16.0.3, SVG Export Plug-In . SVG Version: 6.00 Build 0)  -->
<!DOCTYPE svg PUBLIC "-//W3C//DTD SVG 1.1//EN" "http://www.w3.org/Graphics/SVG/1.1/DTD/svg11.dtd">
<svg version="1.1" xmlns="http://www.w3.org/2000/svg" xmlns:xlink="http://www.w3.org/1999/xlink" x="0px" y="0px" width="24px"
	 height="24px" viewBox="0 0 24 24" enable-background="new 0 0 24 24" xml:space="preserve">
<g id="Outline_Icons_1_">
	<g id="Outline_Icons">
	</g>
	<g id="New_icons_1_">
		<g>
			<path d="M19.5,12c0-2.664-1.4-5.003-3.5-6.333V0.5C16,0.224,15.776,0,15.5,0h-7C8.224,0,8,0.224,8,0.5v5.167
				C5.9,6.997,4.5,9.336,4.5,12s1.4,5.003,3.5,6.333V23.5C8,23.776,8.224,24,8.5,24h7c0.276,0,0.5-0.224,0.5-0.5v-5.167
				C18.1,17.003,19.5,14.664,19.5,12z M9,1h6v4.131C14.08,4.728,13.067,4.5,12,4.5S9.92,4.728,9,5.131V1z M15,23H9v-4.131
				c0.92,0.403,1.933,0.631,3,0.631s2.08-0.228,3-0.631V23z M12,18.5c-3.584,0-6.5-2.916-6.5-6.5S8.416,5.5,12,5.5
				s6.5,2.916,6.5,6.5S15.584,18.5,12,18.5z"/>
			<path d="M16.237,11.56l-6.5-3.5C9.583,7.976,9.395,7.98,9.244,8.07C9.092,8.161,9,8.324,9,8.5v7c0,0.176,0.092,0.339,0.244,0.43
				C9.322,15.977,9.411,16,9.5,16c0.082,0,0.163-0.02,0.237-0.06l6.5-3.5C16.399,12.354,16.5,12.184,16.5,12
				S16.399,11.646,16.237,11.56z M10,14.663V9.337L14.945,12L10,14.663z"/>
		</g>
	</g>
</g>
<g id="Invisible_Shape">
	<rect fill="none" width="24" height="24"/>
</g>
</svg>
