<?xml version="1.0" encoding="utf-8"?>
<!-- Generator: Adobe Illustrator 16.0.3, SVG Export Plug-In . SVG Version: 6.00 Build 0)  -->
<!DOCTYPE svg PUBLIC "-//W3C//DTD SVG 1.1//EN" "http://www.w3.org/Graphics/SVG/1.1/DTD/svg11.dtd">
<svg version="1.1" xmlns="http://www.w3.org/2000/svg" xmlns:xlink="http://www.w3.org/1999/xlink" x="0px" y="0px" width="24px"
	 height="24px" viewBox="0 0 24 24" enable-background="new 0 0 24 24" xml:space="preserve">
<g id="Outline_Icons_1_">
	<g id="Outline_Icons">
	</g>
	<g id="New_icons_1_">
		<g>
			<path d="M14.017,9.014C13.364,8.937,12.556,9.183,12,10.01c-0.555-0.827-1.364-1.073-2.017-0.996C8.998,9.132,8,10.025,8,11.504
				c0,2.147,3.327,4.625,3.706,4.9C11.794,16.468,11.897,16.5,12,16.5s0.206-0.032,0.294-0.096c0.379-0.275,3.706-2.753,3.706-4.9
				C16,10.025,15.002,9.132,14.017,9.014z M12,15.373c-1.048-0.82-3-2.608-3-3.869c0-0.896,0.554-1.432,1.102-1.497
				c0.042-0.005,0.082-0.008,0.122-0.008c0.59,0,1.078,0.523,1.291,1.398c0.108,0.447,0.863,0.447,0.972,0
				c0.227-0.935,0.767-1.47,1.413-1.391C14.446,10.072,15,10.607,15,11.504C15,12.765,13.048,14.553,12,15.373z"/>
			<path d="M19.5,12c0-2.664-1.4-5.003-3.5-6.333V0.5C16,0.224,15.776,0,15.5,0h-7C8.224,0,8,0.224,8,0.5v5.167
				C5.9,6.997,4.5,9.336,4.5,12s1.4,5.003,3.5,6.333V23.5C8,23.776,8.224,24,8.5,24h7c0.276,0,0.5-0.224,0.5-0.5v-5.167
				C18.1,17.003,19.5,14.664,19.5,12z M9,1h6v4.131C14.08,4.728,13.067,4.5,12,4.5S9.92,4.728,9,5.131V1z M15,23H9v-4.131
				c0.92,0.403,1.933,0.631,3,0.631s2.08-0.228,3-0.631V23z M12,18.5c-3.584,0-6.5-2.916-6.5-6.5S8.416,5.5,12,5.5
				s6.5,2.916,6.5,6.5S15.584,18.5,12,18.5z"/>
		</g>
	</g>
</g>
<g id="Invisible_Shape">
	<rect fill="none" width="24" height="24"/>
</g>
</svg>
