<?xml version="1.0" encoding="utf-8"?>
<!-- Generator: Adobe Illustrator 16.0.3, SVG Export Plug-In . SVG Version: 6.00 Build 0)  -->
<!DOCTYPE svg PUBLIC "-//W3C//DTD SVG 1.1//EN" "http://www.w3.org/Graphics/SVG/1.1/DTD/svg11.dtd">
<svg version="1.1" xmlns="http://www.w3.org/2000/svg" xmlns:xlink="http://www.w3.org/1999/xlink" x="0px" y="0px" width="24px"
	 height="24px" viewBox="0 0 24 24" enable-background="new 0 0 24 24" xml:space="preserve">
<g id="Outline_Icons_1_">
	<g id="Outline_Icons">
	</g>
	<g id="New_icons_1_">
		<g>
			<path d="M19.5,12c0-2.664-1.4-5.003-3.5-6.333V0.5C16,0.224,15.776,0,15.5,0h-7C8.224,0,8,0.224,8,0.5v5.167
				C5.9,6.997,4.5,9.336,4.5,12s1.4,5.003,3.5,6.333V23.5C8,23.776,8.224,24,8.5,24h7c0.276,0,0.5-0.224,0.5-0.5v-5.167
				C18.1,17.003,19.5,14.664,19.5,12z M9,1h6v4.131C14.08,4.728,13.067,4.5,12,4.5S9.92,4.728,9,5.131V1z M15,23H9v-4.131
				c0.92,0.403,1.933,0.631,3,0.631s2.08-0.228,3-0.631V23z M12,18.5c-3.584,0-6.5-2.916-6.5-6.5S8.416,5.5,12,5.5
				s6.5,2.916,6.5,6.5S15.584,18.5,12,18.5z"/>
			<path d="M9.891,7.688C9.886,7.682,9.877,7.68,9.872,7.673C9.78,7.569,9.65,7.5,9.5,7.5S9.22,7.569,9.128,7.673
				C9.123,7.68,9.114,7.682,9.109,7.688l-2,2.5c-0.172,0.216-0.137,0.53,0.078,0.703c0.216,0.173,0.531,0.137,0.703-0.078L9,9.426
				V15c0,0.276,0.224,0.5,0.5,0.5S10,15.276,10,15V9.426l1.109,1.387C11.208,10.936,11.354,11,11.5,11
				c0.109,0,0.22-0.036,0.312-0.109c0.215-0.173,0.25-0.487,0.078-0.703L9.891,7.688z"/>
			<path d="M16.812,12.609c-0.215-0.171-0.53-0.136-0.703,0.078L15,14.074V9c0-0.276-0.224-0.5-0.5-0.5S14,8.724,14,9v5.074
				l-1.109-1.387c-0.173-0.215-0.487-0.249-0.703-0.078c-0.215,0.173-0.25,0.487-0.078,0.703l2,2.5
				c0.005,0.007,0.014,0.01,0.02,0.016c0.033,0.038,0.073,0.066,0.116,0.092c0.017,0.011,0.031,0.024,0.049,0.033
				C14.357,15.981,14.426,16,14.5,16s0.143-0.019,0.206-0.047c0.018-0.009,0.032-0.022,0.049-0.033
				c0.043-0.025,0.083-0.054,0.116-0.092c0.006-0.006,0.015-0.009,0.02-0.016l2-2.5C17.063,13.097,17.028,12.782,16.812,12.609z"/>
		</g>
	</g>
</g>
<g id="Invisible_Shape">
	<rect fill="none" width="24" height="24"/>
</g>
</svg>
