<?xml version="1.0" encoding="utf-8"?>
<!-- Generator: Adobe Illustrator 16.0.3, SVG Export Plug-In . SVG Version: 6.00 Build 0)  -->
<!DOCTYPE svg PUBLIC "-//W3C//DTD SVG 1.1//EN" "http://www.w3.org/Graphics/SVG/1.1/DTD/svg11.dtd">
<svg version="1.1" xmlns="http://www.w3.org/2000/svg" xmlns:xlink="http://www.w3.org/1999/xlink" x="0px" y="0px" width="24px"
	 height="24px" viewBox="0 0 24 24" enable-background="new 0 0 24 24" xml:space="preserve">
<g id="Outline_Icons">
	<g>
		<path d="M12,5.5C12,5.224,11.776,5,11.5,5H10V2.5C10,2.224,9.776,2,9.5,2h-9C0.224,2,0,2.224,0,2.5v3C0,5.776,0.224,6,0.5,6H2v2
			H1.5C1.224,8,1,8.224,1,8.5V11H0.5C0.224,11,0,11.224,0,11.5v3C0,14.776,0.224,15,0.5,15H1v2H0.5C0.224,17,0,17.224,0,17.5v3
			C0,20.776,0.224,21,0.5,21H1v2.5C1,23.776,1.224,24,1.5,24h9c0.276,0,0.5-0.224,0.5-0.5v-3c0-0.276-0.224-0.5-0.5-0.5H10v-2h0.5
			c0.276,0,0.5-0.224,0.5-0.5v-3c0-0.276-0.224-0.5-0.5-0.5H10v-2h0.5c0.276,0,0.5-0.224,0.5-0.5V9h0.5C11.776,9,12,8.776,12,8.5
			V5.5z M8,21v2H4v-2H8z M3,20v-2h4v2H3z M4,17v-2h4v2H4z M3,14v-2h4v2H3z M4,11V9h4v2H4z M5,8V6h4v2H5z M3,3h4v2H3V3z M9,5H8V3h1V5
			z M1,3h1v2H1V3z M3,6h1v2H3V6z M2,9h0.5H3v2H2V9z M1,12h0.5H2v2H1.5H1V12z M2,15h1v2H2V15z M1,18h0.5H2v2H1.5H1V18z M2,21h1v2H2
			V21z M10,23H9v-2h0.5H10V23z M9,20H8v-2h1V20z M10,17H9.5H9v-2h0.5H10V17z M9,14H8v-2h1V14z M10,11H9.5H9V9h1V11z M11,8h-0.5H10V6
			h1V8z"/>
		<path d="M22.5,17H22v-2.5c0-0.276-0.224-0.5-0.5-0.5h-9c-0.276,0-0.5,0.224-0.5,0.5v3c0,0.276,0.224,0.5,0.5,0.5H13v2h-0.5
			c-0.276,0-0.5,0.224-0.5,0.5v3c0,0.276,0.224,0.5,0.5,0.5h9c0.276,0,0.5-0.224,0.5-0.5V21h0.5c0.276,0,0.5-0.224,0.5-0.5v-3
			C23,17.224,22.776,17,22.5,17z M21,17h-1v-2h1V17z M19,21v2h-4v-2H19z M16,20v-2h4v2H16z M15,17v-2h4v2H15z M13,15h1v2h-0.5H13V15
			z M14,18h1v2h-1V18z M13,21h0.5H14v2h-1V21z M21,23h-1v-2h1V23z M22,20h-0.5H21v-2h0.5H22V20z"/>
	</g>
</g>
<g id="Invisible_Shape">
	<rect fill="none" width="24" height="24"/>
</g>
</svg>
