<?xml version="1.0" encoding="utf-8"?>
<!-- Generator: Adobe Illustrator 16.0.3, SVG Export Plug-In . SVG Version: 6.00 Build 0)  -->
<!DOCTYPE svg PUBLIC "-//W3C//DTD SVG 1.1//EN" "http://www.w3.org/Graphics/SVG/1.1/DTD/svg11.dtd">
<svg version="1.1" xmlns="http://www.w3.org/2000/svg" xmlns:xlink="http://www.w3.org/1999/xlink" x="0px" y="0px" width="24px"
	 height="24px" viewBox="0 0 24 24" enable-background="new 0 0 24 24" xml:space="preserve">
<g id="Outline_Icons">
	<g>
		<path d="M16,0c-4.411,0-8,3.589-8,8c0,0.006,0.001,0.011,0.001,0.017c-2.039-0.002-3.969,0.741-5.462,2.136
			C0.926,11.662,0,13.792,0,16c0,4.411,3.589,8,8,8c2.207,0,4.338-0.925,5.847-2.538c1.396-1.492,2.137-3.416,2.136-5.463
			C15.988,15.999,15.994,16,16,16c4.411,0,8-3.589,8-8S20.411,0,16,0z M13.116,20.779C11.796,22.19,9.932,23,8,23
			c-3.859,0-7-3.14-7-7c0-1.932,0.81-3.796,2.222-5.116C4.544,9.647,6.261,9,8.072,9.018c0.46,3.597,3.312,6.45,6.91,6.91
			C15.001,17.747,14.353,19.457,13.116,20.779z M16,15c-3.859,0-7-3.14-7-7s3.141-7,7-7s7,3.14,7,7S19.859,15,16,15z"/>
		<path d="M15.5,5.5c0.552,0,1,0.449,1,1C16.5,6.776,16.724,7,17,7s0.5-0.224,0.5-0.5c0-0.929-0.64-1.706-1.5-1.929V4
			c0-0.276-0.224-0.5-0.5-0.5S15,3.724,15,4v0.571c-0.86,0.223-1.5,1-1.5,1.929c0,1.103,0.897,2,2,2c0.552,0,1,0.449,1,1
			s-0.448,1-1,1s-1-0.449-1-1C14.5,9.224,14.276,9,14,9s-0.5,0.224-0.5,0.5c0,0.929,0.64,1.706,1.5,1.929V12
			c0,0.276,0.224,0.5,0.5,0.5S16,12.276,16,12v-0.571c0.86-0.223,1.5-1,1.5-1.929c0-1.103-0.897-2-2-2c-0.552,0-1-0.449-1-1
			S14.948,5.5,15.5,5.5z"/>
		<path d="M7.5,13.5c0.552,0,1,0.449,1,1C8.5,14.776,8.724,15,9,15s0.5-0.224,0.5-0.5c0-0.929-0.64-1.706-1.5-1.929V12
			c0-0.276-0.224-0.5-0.5-0.5S7,11.724,7,12v0.571c-0.86,0.223-1.5,1-1.5,1.929c0,1.103,0.897,2,2,2c0.552,0,1,0.449,1,1
			s-0.448,1-1,1s-1-0.449-1-1C6.5,17.224,6.276,17,6,17s-0.5,0.224-0.5,0.5c0,0.929,0.64,1.706,1.5,1.929V20
			c0,0.276,0.224,0.5,0.5,0.5S8,20.276,8,20v-0.571c0.86-0.223,1.5-1,1.5-1.929c0-1.103-0.897-2-2-2c-0.552,0-1-0.449-1-1
			S6.948,13.5,7.5,13.5z"/>
	</g>
</g>
<g id="Invisible_Shape">
	<rect fill="none" width="24" height="24"/>
</g>
</svg>
