<?xml version="1.0" encoding="utf-8"?>
<!-- Generator: Adobe Illustrator 16.0.3, SVG Export Plug-In . SVG Version: 6.00 Build 0)  -->
<!DOCTYPE svg PUBLIC "-//W3C//DTD SVG 1.1//EN" "http://www.w3.org/Graphics/SVG/1.1/DTD/svg11.dtd">
<svg version="1.1" xmlns="http://www.w3.org/2000/svg" xmlns:xlink="http://www.w3.org/1999/xlink" x="0px" y="0px" width="24px"
	 height="24px" viewBox="0 0 24 24" enable-background="new 0 0 24 24" xml:space="preserve">
<g id="Outline_Icons_1_">
	<g>
		<path d="M18.5,0.001h-13c-2.481,0-4.5,2.019-4.5,4.5v10.015c0,2.481,2.019,4.5,4.5,4.5h6.793l-3.146,3.146
			c-0.195,0.195-0.195,0.512,0,0.707s0.512,0.195,0.707,0l4-4c0.195-0.195,0.195-0.512,0-0.707l-4-4
			c-0.195-0.195-0.512-0.195-0.707,0s-0.195,0.512,0,0.707l3.146,3.146H5.5c-1.93,0-3.5-1.57-3.5-3.5V4.501c0-1.93,1.57-3.5,3.5-3.5
			h13c1.93,0,3.5,1.57,3.5,3.5v3c0,0.276,0.224,0.5,0.5,0.5s0.5-0.224,0.5-0.5v-3C23,2.02,20.981,0.001,18.5,0.001z"/>
		<path d="M13.854,14.162c-0.195-0.195-0.512-0.195-0.707,0s-0.195,0.512,0,0.707l3.646,3.646l-3.646,3.646
			c-0.195,0.195-0.195,0.512,0,0.707s0.512,0.195,0.707,0l4-4c0.195-0.195,0.195-0.512,0-0.707L13.854,14.162z"/>
	</g>
</g>
<g id="Invisible_Shape">
	<rect fill="none" width="24" height="24"/>
</g>
</svg>
