<?xml version="1.0" encoding="utf-8"?>
<!-- Generator: Adobe Illustrator 16.0.3, SVG Export Plug-In . SVG Version: 6.00 Build 0)  -->
<!DOCTYPE svg PUBLIC "-//W3C//DTD SVG 1.1//EN" "http://www.w3.org/Graphics/SVG/1.1/DTD/svg11.dtd">
<svg version="1.1" xmlns="http://www.w3.org/2000/svg" xmlns:xlink="http://www.w3.org/1999/xlink" x="0px" y="0px" width="24px"
	 height="24px" viewBox="0 0 24 24" enable-background="new 0 0 24 24" xml:space="preserve">
<g id="Outline_Icons_1_">
	<path d="M21.916,14.224c-0.154-0.23-0.466-0.291-0.693-0.139c-0.229,0.153-0.292,0.464-0.139,0.693l1.482,2.223H18
		c-2.232,0-3.091-1.287-4.084-2.777c-0.676-1.014-1.424-2.105-2.672-2.723c1.248-0.617,1.996-1.709,2.672-2.723
		c0.993-1.49,1.852-2.777,4.084-2.777h4.566l-1.482,2.223c-0.153,0.229-0.091,0.54,0.139,0.693c0.228,0.151,0.539,0.093,0.693-0.139
		l2-3c0.112-0.168,0.112-0.387,0-0.555l-2-3c-0.154-0.23-0.466-0.291-0.693-0.139c-0.229,0.153-0.292,0.464-0.139,0.693l1.482,2.223
		H18c-2.768,0-3.909,1.712-4.916,3.223c-0.993,1.49-1.852,2.777-4.084,2.777H0.5c-0.276,0-0.5,0.224-0.5,0.5s0.224,0.5,0.5,0.5H9
		c2.232,0,3.091,1.287,4.084,2.777c1.007,1.511,2.148,3.223,4.916,3.223h4.566l-1.482,2.223c-0.153,0.229-0.091,0.54,0.139,0.693
		c0.228,0.151,0.539,0.093,0.693-0.139l2-3c0.112-0.168,0.112-0.387,0-0.555L21.916,14.224z"/>
</g>
<g id="Invisible_Shape">
	<rect fill="none" width="24" height="24"/>
</g>
</svg>
