<?xml version="1.0" encoding="utf-8"?>
<!-- Generator: Adobe Illustrator 16.0.3, SVG Export Plug-In . SVG Version: 6.00 Build 0)  -->
<!DOCTYPE svg PUBLIC "-//W3C//DTD SVG 1.1//EN" "http://www.w3.org/Graphics/SVG/1.1/DTD/svg11.dtd">
<svg version="1.1" xmlns="http://www.w3.org/2000/svg" xmlns:xlink="http://www.w3.org/1999/xlink" x="0px" y="0px" width="24px"
	 height="24px" viewBox="0 0 24 24" enable-background="new 0 0 24 24" xml:space="preserve">
<g id="Outline_Icons">
	<g>
		<path d="M21.475,9.858c-0.299-0.526-0.709-1.246-0.72-1.452C20.755,3.145,15.893,0,11.191,0C5.53,0,1.095,4.42,1.095,10.062
			c0,3.687,1.278,6.293,3.904,7.958V23.5C5,23.776,5.223,24,5.5,24h10c0.276,0,0.5-0.224,0.5-0.5v-2.977
			c1.764-0.019,2.888-0.201,3.669-0.982c0.835-0.835,0.982-3.344,1.004-4.528c0.31,0.004,0.707,0.007,1.046-0.007
			c1.078-0.048,1.139-0.905,1.174-1.4C22.973,12.489,22.177,11.092,21.475,9.858z M21.84,13.977c0,0.001-0.039,0.024-0.164,0.029
			C21.049,14.033,20.198,14,20.193,14c-0.153,0-0.27,0.046-0.367,0.142c-0.098,0.096-0.153,0.227-0.151,0.363
			c0.015,1.486-0.197,3.812-0.713,4.329c-0.51,0.51-1.369,0.69-3.282,0.69h-0.178c-0.153-0.014-0.261,0.052-0.355,0.146
			S15,19.892,15,20.024V23H6v-5.26c0-0.177-0.093-0.34-0.245-0.43c-2.462-1.461-3.659-3.831-3.659-7.248
			C2.095,4.98,6.091,1,11.191,1c4.209,0,8.563,2.771,8.563,7.406c0,0.432,0.308,0.992,0.851,1.946c0.569,1,1.348,2.368,1.287,3.217
			C21.882,13.714,21.867,13.933,21.84,13.977z"/>
		<path d="M14.605,3.904c-0.147-0.029-0.302,0.011-0.418,0.109c-0.863,0.73-1.85,1.027-2.804,1.314
			c-1.062,0.319-2.162,0.65-2.952,1.583c-0.848,0.998-1.177,1.94-0.978,2.8c0.158,0.684,0.665,1.258,1.47,1.73
			c-1.369,2.393-1.809,4.36-1.837,4.489C7.029,16.2,7.2,16.467,7.47,16.524c0.036,0.008,0.071,0.012,0.106,0.012
			c0.23,0,0.438-0.16,0.488-0.395c0.006-0.028,0.4-1.769,1.589-3.936c0.655,1.021,1.412,1.259,1.972,1.259
			c1.096,0,2.055-0.858,2.666-1.579c1.276-1.504,1.826-5.52,0.661-7.724C14.882,4.028,14.754,3.934,14.605,3.904z M13.529,11.239
			c-0.661,0.778-1.354,1.226-1.903,1.226c-0.523,0-0.986-0.433-1.38-1.264c0.729-1.146,1.676-2.352,2.9-3.454
			c0.205-0.186,0.222-0.501,0.037-0.707c-0.186-0.205-0.501-0.222-0.706-0.037c-1.282,1.153-2.272,2.403-3.038,3.593
			c-0.571-0.328-0.917-0.699-1.012-1.11C8.274,8.819,8.759,8.069,9.194,7.558c0.6-0.707,1.47-0.969,2.478-1.271
			c0.832-0.25,1.755-0.528,2.629-1.108C14.943,7.094,14.473,10.128,13.529,11.239z"/>
	</g>
</g>
<g id="invisible_shape">
	<rect fill="none" width="24" height="24"/>
</g>
</svg>
