<?xml version="1.0" encoding="utf-8"?>
<!-- Generator: Adobe Illustrator 16.0.3, SVG Export Plug-In . SVG Version: 6.00 Build 0)  -->
<!DOCTYPE svg PUBLIC "-//W3C//DTD SVG 1.1//EN" "http://www.w3.org/Graphics/SVG/1.1/DTD/svg11.dtd">
<svg version="1.1" xmlns="http://www.w3.org/2000/svg" xmlns:xlink="http://www.w3.org/1999/xlink" x="0px" y="0px" width="24px"
	 height="24px" viewBox="0 0 24 24" enable-background="new 0 0 24 24" xml:space="preserve">
<g id="Outline_Icons">
	<path d="M21.277,4.855c-0.171-0.156-0.429-0.172-0.62-0.041c-3.093,2.142-5.888,3.977-7.366,4.936
		c1.081-2.271,4.599-6.232,7.919-8.346c0.182-0.116,0.269-0.335,0.216-0.544s-0.233-0.361-0.449-0.377
		C15.159,0.077,5.323,7.149,2.658,13.584c-1.263,3.049-0.879,5.713,1.11,7.702c0.049,0.049,0.1,0.09,0.149,0.138
		c0.02,0.021,0.033,0.045,0.054,0.065c0.086,0.086,0.177,0.147,0.264,0.227c0.075,0.065,0.15,0.132,0.227,0.194
		c0.173,0.145,0.348,0.285,0.525,0.404c1.275,0.889,2.689,1.339,4.221,1.339c3.96,0,7.526-2.997,9.376-5.564
		c1.658-2.3,2.319-4.656,1.77-6.304c-0.055-0.164-0.19-0.289-0.359-0.328c-0.168-0.044-0.346,0.011-0.468,0.133
		c-1.354,1.354-2.832,1.921-3.817,2.158c1.377-1.841,4.313-5.841,5.668-8.279C21.492,5.266,21.45,5.011,21.277,4.855z M7.47,17.205
		c0.083,0.104,0.204,0.17,0.335,0.185c2.556,0.275,3.892-1.777,4.449-3.014c0.594,1.127,0.373,2.661-0.105,3.859
		c-0.751,1.881-2.517,3.906-4.617,3.906c-0.671,0-1.327-0.228-1.96-0.644c-0.185-0.127-0.365-0.266-0.543-0.414
		c-0.023-0.02-0.046-0.039-0.068-0.059c-0.113-0.098-0.224-0.203-0.334-0.309c-1.499-1.563-1.486-4.053,0.053-5.592
		c0.565-0.565,1.503-1.17,2.439-1.17c0.192,0,0.379,0.026,0.557,0.079l-0.312,2.803C7.349,16.969,7.387,17.102,7.47,17.205z
		 M14.181,14.114c-0.116,0.151-0.136,0.354-0.051,0.525c0.084,0.17,0.258,0.278,0.448,0.278c0.113,0,2.569-0.024,4.966-1.994
		c0.039,1.278-0.595,2.95-1.77,4.581c-1.654,2.295-4.765,4.954-8.205,5.132c1.607-0.791,2.861-2.409,3.508-4.03
		c0.895-2.242,0.653-4.392-0.63-5.611c-0.127-0.122-0.309-0.168-0.478-0.119c-0.169,0.047-0.302,0.18-0.348,0.349
		c-0.009,0.031-0.873,3.059-3.204,3.187l0.294-2.645c0.023-0.209-0.086-0.409-0.273-0.503c-0.409-0.205-0.854-0.309-1.32-0.309
		c-1.563,0-2.803,1.12-3.146,1.463c-0.396,0.396-0.689,0.85-0.924,1.324c0.106-0.568,0.278-1.158,0.534-1.775
		C5.829,8.543,13.747,2.415,19.25,1.565c-3.502,2.694-7.293,7.157-7.293,9.317c0,0.183,0.1,0.351,0.259,0.438
		c0.16,0.087,0.354,0.081,0.509-0.017c0.033-0.021,2.894-1.844,6.566-4.34C17.236,10.113,14.218,14.065,14.181,14.114z"/>
</g>
<g id="invisible_shape">
	<rect fill="none" width="24" height="24"/>
</g>
</svg>
