<?xml version="1.0" encoding="utf-8"?>
<!-- Generator: Adobe Illustrator 16.0.3, SVG Export Plug-In . SVG Version: 6.00 Build 0)  -->
<!DOCTYPE svg PUBLIC "-//W3C//DTD SVG 1.1//EN" "http://www.w3.org/Graphics/SVG/1.1/DTD/svg11.dtd">
<svg version="1.1" xmlns="http://www.w3.org/2000/svg" xmlns:xlink="http://www.w3.org/1999/xlink" x="0px" y="0px" width="24px"
	 height="24px" viewBox="0 0 24 24" enable-background="new 0 0 24 24" xml:space="preserve">
<g id="Outline_Icons">
	<path d="M15,0H8C5.243,0,3,2.243,3,5v3c0,4.951,3.407,8.717,8,8.975V22H9c-0.276,0-0.5,0.224-0.5,0.5S8.724,23,9,23h2v0.5
		c0,0.276,0.224,0.5,0.5,0.5s0.5-0.224,0.5-0.5V20h2c0.276,0,0.5-0.224,0.5-0.5S14.276,19,14,19h-2v-2.025
		c4.593-0.258,8-4.023,8-8.975V5C20,2.243,17.757,0,15,0z M8,1h5c1.654,0,3,1.346,3,3s-1.346,3-3,3h-2.429
		c0.224-0.859,1-1.5,1.929-1.5C12.776,5.5,13,5.276,13,5s-0.224-0.5-0.5-0.5c-1.654,0-3,1.346-3,3C9.5,7.776,9.724,8,10,8h3
		c2.206,0,4-1.794,4-4c0-1.16-0.504-2.197-1.296-2.929C17.574,1.406,19,3.035,19,5c0,2.206-1.794,4-4,4h-4.75c-1.654,0-3-1.346-3-3
		s1.346-3,3-3h3.25C13.776,3,14,2.776,14,2.5S13.776,2,13.5,2h-3.25c-2.206,0-4,1.794-4,4c0,1.177,0.52,2.225,1.331,2.957
		C5.574,8.744,4,7.062,4,5C4,2.794,5.794,1,8,1z M4,8V7.969C4.912,9.194,6.358,10,8,10h4.053c-2.038,1.06-3.45,2.777-4.171,5.071
		C5.531,13.752,4,11.143,4,8z M19,8c0,4.561-3.224,8-7.5,8c-0.969,0-1.88-0.185-2.716-0.512c1.114-3.711,4.021-5.043,6.313-5.498
		c0,0,0,0,0,0c1.6-0.031,3.009-0.82,3.902-2.021V8z"/>
</g>
<g id="invisible_shape">
	<rect fill="none" width="24" height="24"/>
</g>
</svg>
