<?xml version="1.0" encoding="utf-8"?>
<!-- Generator: Adobe Illustrator 16.0.3, SVG Export Plug-In . SVG Version: 6.00 Build 0)  -->
<!DOCTYPE svg PUBLIC "-//W3C//DTD SVG 1.1//EN" "http://www.w3.org/Graphics/SVG/1.1/DTD/svg11.dtd">
<svg version="1.1" xmlns="http://www.w3.org/2000/svg" xmlns:xlink="http://www.w3.org/1999/xlink" x="0px" y="0px" width="24px"
	 height="24px" viewBox="0 0 24 24" enable-background="new 0 0 24 24" xml:space="preserve">
<g id="Outline_Icons">
	<g>
		<path d="M23.5,1h-4C19.224,1,19,1.224,19,1.5v0.747c-1.002-0.339-1.875-0.646-2.631-0.911c-5.474-1.925-5.574-1.915-10.833,0.915
			c-1.35,0.727-3.03,1.631-5.259,2.745c-0.144,0.072-0.244,0.209-0.27,0.367c-0.025,0.159,0.026,0.32,0.14,0.434
			C1.321,6.97,2.332,7.299,3.67,6.913l5.858-2.121l2.652,0.642c-0.157,0.117-0.323,0.238-0.493,0.363
			C9.963,7.06,8.18,8.365,8.811,9.53c0.278,0.513,0.58,0.739,1.043,0.739c0.6,0,1.469-0.38,2.903-1.007
			c0.685-0.299,1.529-0.668,2.576-1.105L19,9.381V9.5c0,0.276,0.224,0.5,0.5,0.5h4c0.276,0,0.5-0.224,0.5-0.5v-8
			C24,1.224,23.776,1,23.5,1z M15.471,7.149c-0.114-0.038-0.24-0.033-0.35,0.013c-1.134,0.472-2.038,0.867-2.765,1.185
			C9.887,9.425,9.867,9.381,9.69,9.054c-0.143-0.263,0.729-1.088,2.589-2.45c0.524-0.385,1.021-0.748,1.349-1.046
			c0.137-0.125,0.194-0.314,0.148-0.494c-0.046-0.179-0.187-0.318-0.367-0.362L9.618,3.784C9.521,3.763,9.422,3.766,9.33,3.801
			L3.363,5.963C2.703,6.149,2.135,6.14,1.382,5.56C3.301,4.589,4.79,3.788,6.009,3.131c4.919-2.647,4.92-2.647,10.028-0.852
			C16.876,2.574,17.856,2.918,19,3.303v5.023L15.471,7.149z M23,9h-3V2h3V9z"/>
		<path d="M7.178,11.74l-1.953,1.952c-0.195,0.195-0.195,0.512,0,0.707c0.098,0.098,0.226,0.146,0.354,0.146
			s0.256-0.049,0.354-0.146l1.953-1.952c0.195-0.195,0.195-0.512,0-0.707S7.373,11.545,7.178,11.74z"/>
		<path d="M14.898,12.664l-1.995-1.91c-0.198-0.19-0.516-0.184-0.707,0.016c-0.191,0.199-0.184,0.516,0.016,0.707l1.995,1.91
			c0.097,0.093,0.221,0.139,0.346,0.139c0.131,0,0.263-0.052,0.361-0.154C15.104,13.172,15.098,12.855,14.898,12.664z"/>
		<path d="M17.878,13.218c-0.274-0.053-0.531,0.134-0.579,0.406l-0.475,2.721c-0.047,0.272,0.135,0.531,0.407,0.578
			c0.029,0.006,0.058,0.008,0.086,0.008c0.239,0,0.45-0.171,0.492-0.414l0.475-2.721C18.332,13.523,18.15,13.265,17.878,13.218z"/>
		<path d="M12.159,17.408c0.098,0.101,0.228,0.151,0.358,0.151c0.125,0,0.251-0.047,0.349-0.142c0.198-0.192,0.202-0.509,0.01-0.707
			l-1.925-1.98c-0.191-0.197-0.509-0.203-0.707-0.01c-0.198,0.192-0.202,0.509-0.01,0.707L12.159,17.408z"/>
		<path d="M7.443,16.191c-0.276,0.017-0.486,0.253-0.469,0.528l0.165,2.758c0.016,0.266,0.236,0.471,0.499,0.471
			c0.01,0,0.02,0,0.03-0.001c0.276-0.017,0.486-0.253,0.469-0.528l-0.165-2.758C7.956,16.386,7.712,16.154,7.443,16.191z"/>
		<path d="M12.38,19.855l-2.237,1.619c-0.224,0.162-0.274,0.475-0.112,0.698c0.098,0.136,0.251,0.207,0.406,0.207
			c0.102,0,0.204-0.031,0.292-0.095l2.237-1.619c0.224-0.162,0.274-0.475,0.112-0.698C12.916,19.743,12.604,19.695,12.38,19.855z"/>
		<path d="M8.015,21.909l-2.684-0.652c-0.269-0.06-0.539,0.1-0.604,0.368c-0.065,0.269,0.1,0.539,0.368,0.604l2.684,0.652
			c0.04,0.009,0.08,0.014,0.119,0.014c0.225,0,0.43-0.153,0.485-0.382C8.448,22.245,8.283,21.975,8.015,21.909z"/>
		<path d="M15.701,19.609c-0.068-0.269-0.339-0.432-0.607-0.362c-0.268,0.067-0.43,0.339-0.362,0.606l0.677,2.678
			c0.058,0.228,0.261,0.378,0.484,0.378c0.041,0,0.082-0.005,0.123-0.016c0.268-0.067,0.43-0.339,0.362-0.606L15.701,19.609z"/>
		<path d="M2.944,17.653l-1.595,2.256c-0.16,0.226-0.106,0.538,0.12,0.697c0.087,0.062,0.188,0.092,0.288,0.092
			c0.157,0,0.312-0.073,0.409-0.211l1.595-2.256c0.16-0.226,0.106-0.538-0.12-0.697C3.416,17.373,3.103,17.428,2.944,17.653z"/>
		<path d="M2.754,12.936c0.024,0,0.048-0.002,0.073-0.005c0.273-0.04,0.462-0.294,0.422-0.567l-0.4-2.731
			C2.81,9.358,2.557,9.175,2.282,9.209C2.009,9.249,1.82,9.503,1.86,9.776l0.4,2.731C2.296,12.757,2.51,12.936,2.754,12.936z"/>
	</g>
</g>
<g id="invisible_shape">
	<rect fill="none" width="24" height="24"/>
</g>
</svg>
