<?xml version="1.0" encoding="utf-8"?>
<!-- Generator: Adobe Illustrator 16.0.3, SVG Export Plug-In . SVG Version: 6.00 Build 0)  -->
<!DOCTYPE svg PUBLIC "-//W3C//DTD SVG 1.1//EN" "http://www.w3.org/Graphics/SVG/1.1/DTD/svg11.dtd">
<svg version="1.1" xmlns="http://www.w3.org/2000/svg" xmlns:xlink="http://www.w3.org/1999/xlink" x="0px" y="0px" width="24px"
	 height="24px" viewBox="0 0 24 24" enable-background="new 0 0 24 24" xml:space="preserve">
<g id="Outline_Icons">
	<g>
		<path d="M23.5,1h-4C19.224,1,19,1.224,19,1.5v0.747c-1.003-0.339-1.876-0.646-2.633-0.912c-5.473-1.924-5.574-1.916-10.833,0.916
			c-1.35,0.727-3.029,1.631-5.257,2.745c-0.144,0.072-0.244,0.209-0.27,0.367c-0.025,0.159,0.027,0.32,0.141,0.434
			c1.175,1.173,2.185,1.5,3.523,1.116l5.858-2.122l2.652,0.643c-0.157,0.116-0.322,0.237-0.491,0.361
			C9.964,7.059,8.18,8.364,8.811,9.529c0.278,0.513,0.581,0.739,1.043,0.739c0.6,0,1.47-0.38,2.905-1.007
			c0.685-0.3,1.527-0.668,2.573-1.104L19,9.381V9.5c0,0.276,0.224,0.5,0.5,0.5h4c0.276,0,0.5-0.224,0.5-0.5v-8
			C24,1.224,23.776,1,23.5,1z M15.471,7.149c-0.114-0.037-0.24-0.034-0.35,0.013c-1.132,0.471-2.036,0.865-2.762,1.183
			C9.894,9.422,9.867,9.382,9.69,9.053c-0.143-0.264,0.729-1.088,2.59-2.451c0.524-0.384,1.02-0.746,1.348-1.044
			c0.137-0.125,0.194-0.314,0.148-0.494c-0.046-0.179-0.187-0.318-0.367-0.362L9.618,3.783C9.523,3.762,9.423,3.766,9.33,3.8
			L3.363,5.963C2.703,6.149,2.135,6.137,1.382,5.56C3.3,4.589,4.788,3.788,6.008,3.132c4.922-2.649,4.922-2.647,10.028-0.854
			c0.839,0.296,1.82,0.64,2.964,1.024v5.023L15.471,7.149z M23,9h-3V2h3V9z"/>
		<path d="M16.5,12h-2h-10h-2C2.224,12,2,12.224,2,12.5S2.224,13,2.5,13h1.543l0.958,10.545C5.025,23.803,5.241,24,5.5,24h8
			c0.259,0,0.475-0.197,0.498-0.455L14.957,13H16.5c0.276,0,0.5-0.224,0.5-0.5S16.776,12,16.5,12z M13.043,23H5.957L5.047,13h8.905
			L13.043,23z"/>
		<path d="M7.5,21C7.776,21,8,20.776,8,20.5v-5C8,15.224,7.776,15,7.5,15S7,15.224,7,15.5v5C7,20.776,7.224,21,7.5,21z"/>
		<path d="M9.5,21c0.276,0,0.5-0.224,0.5-0.5v-5c0-0.276-0.224-0.5-0.5-0.5S9,15.224,9,15.5v5C9,20.776,9.224,21,9.5,21z"/>
		<path d="M11.5,21c0.276,0,0.5-0.224,0.5-0.5v-5c0-0.276-0.224-0.5-0.5-0.5S11,15.224,11,15.5v5C11,20.776,11.224,21,11.5,21z"/>
	</g>
</g>
<g id="invisible_shape">
	<rect fill="none" width="24" height="24"/>
</g>
</svg>
