<?xml version="1.0" encoding="utf-8"?>
<!-- Generator: Adobe Illustrator 16.0.3, SVG Export Plug-In . SVG Version: 6.00 Build 0)  -->
<!DOCTYPE svg PUBLIC "-//W3C//DTD SVG 1.1//EN" "http://www.w3.org/Graphics/SVG/1.1/DTD/svg11.dtd">
<svg version="1.1" xmlns="http://www.w3.org/2000/svg" xmlns:xlink="http://www.w3.org/1999/xlink" x="0px" y="0px" width="24px"
	 height="24px" viewBox="0 0 24 24" enable-background="new 0 0 24 24" xml:space="preserve">
<g id="Outline_Icons">
	<g>
		<path d="M11.5,16H6.033c0.326-0.458,0.713-0.953,1.192-1.5H9c0.185,0,0.354-0.102,0.441-0.264c0.087-0.163,0.077-0.36-0.025-0.514
			l-3-4.5C6.323,9.084,6.167,9,6,9H0.5C0.297,9,0.115,9.122,0.038,9.309C-0.04,9.495,0.003,9.711,0.146,9.854l1.124,1.124
			C0.919,11.359,0.5,12.021,0.5,13c0,1.356,1.939,5.327,3.286,7.489c0.106,0.232,0.21,0.355,0.276,0.425C4.407,21.416,5.322,22,6,22
			h5.5c0.276,0,0.5-0.224,0.5-0.5v-5C12,16.224,11.776,16,11.5,16z M3.715,18.373C2.524,16.179,1.5,13.752,1.5,13
			c0-1.074,0.734-1.556,0.761-1.573c0.13-0.08,0.217-0.216,0.235-0.368c0.018-0.151-0.035-0.304-0.143-0.412L1.707,10h4.025
			l2.333,3.5H7c-0.143,0-0.278,0.061-0.373,0.167C4.812,15.701,4.009,17.242,3.715,18.373z M11,21H6
			c-0.297,0-0.948-0.383-1.125-0.661L4.874,20.34c-0.001-0.002-0.001-0.005-0.002-0.007l-0.199-0.311
			C4.542,19.688,4.379,18.752,5.386,17H11V21z"/>
		<path d="M23.703,11.982l-3.087-4.607c-0.075-0.111-0.191-0.188-0.322-0.213s-0.268,0.003-0.377,0.08l-4.338,3
			c-0.109,0.075-0.184,0.191-0.208,0.321c-0.024,0.131,0.005,0.266,0.081,0.374l2.926,4.229C17.94,15.15,17.486,15.12,17,15.062V14
			c0-0.221-0.144-0.415-0.355-0.479c-0.211-0.064-0.439,0.019-0.561,0.201l-3,4.5c-0.104,0.156-0.112,0.358-0.02,0.522l2.814,5
			c0.09,0.16,0.258,0.255,0.436,0.255c0.036,0,0.072-0.004,0.107-0.012c0.215-0.047,0.374-0.229,0.391-0.449l0.129-1.64
			c0.204,0.059,0.442,0.102,0.704,0.102h0c0.489,0,0.952-0.148,1.374-0.44c0.762-0.526,2.077-2.567,4.536-7.041
			c0.21-0.288,0.277-0.513,0.289-0.556c0.001-0.005,0-0.011,0.001-0.017C24.059,13.382,24.083,12.531,23.703,11.982z M18.451,20.738
			c-0.252,0.175-0.523,0.263-0.805,0.263c-0.482,0-0.854-0.254-0.854-0.254c-0.147-0.105-0.339-0.122-0.502-0.047
			c-0.164,0.076-0.273,0.234-0.288,0.414l-0.056,0.711l-1.859-3.303l1.93-2.896c0.05,0.19,0.21,0.339,0.414,0.368
			c0.881,0.125,1.706,0.188,2.45,0.188c1.218,0,2.141-0.171,2.838-0.414C20.618,17.717,19.095,20.293,18.451,20.738z M19.587,15.156
			l-3.028-4.376l3.509-2.427l2.809,4.192c0.155,0.223,0.167,0.745,0.028,1.081l-0.191,0.35
			C22.389,14.393,21.562,15.03,19.587,15.156z"/>
		<path d="M4.04,6.925l4.768,2.25c0.067,0.032,0.14,0.048,0.213,0.048c0.057,0,0.114-0.01,0.169-0.029
			c0.125-0.045,0.227-0.138,0.283-0.258l2.086-4.423c0.255,0.458,0.515,0.972,0.775,1.556L11.164,7.13
			c-0.153,0.139-0.205,0.357-0.13,0.55C11.107,7.873,11.293,8,11.5,8H17c0.184,0,0.353-0.101,0.44-0.262l3-5.545
			c0.099-0.184,0.074-0.408-0.062-0.565s-0.356-0.215-0.551-0.142L18.324,2.04c-0.178-0.481-0.573-1.124-1.445-1.536
			C16.49,0.321,15.563,0.07,12,0H8C7.999,0,7.997,0,7.997,0H7.996h0H7.994C7.992,0,7.99,0.001,7.988,0.001
			C7.257,0.008,6.456,0.632,6.192,1.193L3.801,6.26C3.684,6.509,3.791,6.807,4.04,6.925z M11.99,1
			c3.264,0.064,4.197,0.283,4.461,0.408c0.95,0.449,1.017,1.287,1.019,1.317c0.007,0.159,0.09,0.306,0.223,0.394
			c0.132,0.09,0.3,0.111,0.45,0.053l0.786-0.289L16.702,7h-3.906l0.477-0.433c0.158-0.143,0.208-0.371,0.124-0.566
			C12.243,3.304,11.064,1.818,10.102,1H11.99z M7.096,1.619c0.133-0.282,0.62-0.616,0.9-0.618c0.085,0.007,1.365,0.173,2.937,2.496
			l-2.151,4.56L4.919,6.233L7.096,1.619z"/>
	</g>
</g>
<g id="invisible_shape">
	<rect fill="none" width="24" height="24"/>
</g>
</svg>
