<?xml version="1.0" encoding="utf-8"?>
<!-- Generator: Adobe Illustrator 16.0.3, SVG Export Plug-In . SVG Version: 6.00 Build 0)  -->
<!DOCTYPE svg PUBLIC "-//W3C//DTD SVG 1.1//EN" "http://www.w3.org/Graphics/SVG/1.1/DTD/svg11.dtd">
<svg version="1.1" xmlns="http://www.w3.org/2000/svg" xmlns:xlink="http://www.w3.org/1999/xlink" x="0px" y="0px" width="24px"
	 height="24px" viewBox="0 0 24 24" enable-background="new 0 0 24 24" xml:space="preserve">
<g id="Outline_Icons">
	<g>
		<path d="M21.961,6.308c-0.025-0.062-0.062-0.116-0.108-0.161l-5.999-6c-0.046-0.045-0.101-0.082-0.162-0.107
			C15.632,0.014,15.567,0,15.5,0h-13C2.224,0,2,0.224,2,0.5v23C2,23.776,2.224,24,2.5,24h19c0.276,0,0.5-0.224,0.5-0.5v-17
			C22,6.434,21.986,6.368,21.961,6.308z M16,1.707L20.293,6H16V1.707z M3,23V1h12v5.5C15,6.776,15.224,7,15.5,7H21v16H3z"/>
		<path d="M9.354,13.146c-0.195-0.195-0.512-0.195-0.707,0L7,14.793V13.5C7,13.224,6.776,13,6.5,13S6,13.224,6,13.5v5
			C6,18.776,6.224,19,6.5,19S7,18.776,7,18.5v-1.293l1.646,1.646C8.744,18.951,8.872,19,9,19s0.256-0.049,0.354-0.146
			c0.195-0.195,0.195-0.512,0-0.707L7.207,16l2.146-2.146C9.549,13.658,9.549,13.342,9.354,13.146z"/>
		<path d="M18.964,13.082c-0.246-0.124-0.546-0.023-0.671,0.223L17.5,14.886l-0.794-1.581c-0.124-0.246-0.421-0.346-0.671-0.223
			c-0.247,0.124-0.346,0.425-0.222,0.672L17,16.119V18.5c0,0.276,0.224,0.5,0.5,0.5s0.5-0.224,0.5-0.5v-2.381l1.187-2.365
			C19.311,13.507,19.211,13.206,18.964,13.082z"/>
		<path d="M14,14c0.276,0,0.5-0.224,0.5-0.5S14.276,13,14,13h-2.5c-0.276,0-0.5,0.224-0.5,0.5v5c0,0.276,0.224,0.5,0.5,0.5H14
			c0.276,0,0.5-0.224,0.5-0.5S14.276,18,14,18h-2v-2h1c0.276,0,0.5-0.224,0.5-0.5S13.276,15,13,15h-1v-1H14z"/>
	</g>
</g>
<g id="Invisible_Shape">
	<rect fill="none" width="24" height="24"/>
</g>
</svg>
