<?xml version="1.0" encoding="utf-8"?>
<!-- Generator: Adobe Illustrator 16.0.3, SVG Export Plug-In . SVG Version: 6.00 Build 0)  -->
<!DOCTYPE svg PUBLIC "-//W3C//DTD SVG 1.1//EN" "http://www.w3.org/Graphics/SVG/1.1/DTD/svg11.dtd">
<svg version="1.1" xmlns="http://www.w3.org/2000/svg" xmlns:xlink="http://www.w3.org/1999/xlink" x="0px" y="0px" width="24px"
	 height="24px" viewBox="0 0 24 24" enable-background="new 0 0 24 24" xml:space="preserve">
<g id="Outline_Icons">
	<g>
		<path d="M24,15c0-0.276-0.224-0.5-0.5-0.5S23,14.724,23,15v0.77C22.013,14.696,20.538,14,19,14c-2.198,0-4.289,1.402-4.972,3.333
			c-0.092,0.261,0.045,0.547,0.305,0.639c0.263,0.093,0.546-0.044,0.639-0.305C15.509,16.146,17.24,15,19,15
			c1.489,0,2.95,0.826,3.692,2H21c-0.276,0-0.5,0.224-0.5,0.5S20.724,18,21,18h2.5c0.056,0,0.111-0.009,0.167-0.028
			c0.005-0.002,0.009-0.006,0.014-0.008c0.033-0.013,0.061-0.034,0.09-0.054c0.024-0.017,0.053-0.029,0.074-0.05
			c0.022-0.022,0.037-0.05,0.056-0.075c0.019-0.027,0.04-0.051,0.054-0.08c0.012-0.025,0.014-0.055,0.021-0.082
			c0.009-0.036,0.021-0.071,0.021-0.108C23.997,17.51,24,17.506,24,17.5V15z"/>
		<path d="M23.666,20.028c-0.257-0.091-0.546,0.044-0.638,0.306C22.492,21.854,20.76,23,19,23c-1.49,0-2.952-0.826-3.693-2H17
			c0.276,0,0.5-0.224,0.5-0.5S17.276,20,17,20h-2.471c-0.001,0-0.002,0-0.003,0H14.5c-0.025,0-0.047,0.011-0.071,0.015
			c-0.031,0.004-0.063,0.002-0.095,0.014c-0.005,0.002-0.008,0.006-0.013,0.008c-0.036,0.014-0.065,0.036-0.096,0.058
			c-0.023,0.016-0.05,0.027-0.069,0.046c-0.023,0.022-0.039,0.052-0.059,0.078c-0.018,0.026-0.039,0.049-0.052,0.077
			c-0.012,0.025-0.014,0.055-0.021,0.082c-0.009,0.036-0.021,0.071-0.021,0.108c0,0.006-0.003,0.01-0.003,0.015V23
			c0,0.276,0.224,0.5,0.5,0.5S15,23.276,15,23v-0.77c0.987,1.074,2.462,1.77,4,1.77c2.198,0,4.289-1.402,4.972-3.334
			C24.063,20.406,23.927,20.12,23.666,20.028z"/>
		<path d="M5.854,8.146c-0.195-0.195-0.512-0.195-0.707,0l-3,3c-0.195,0.195-0.195,0.512,0,0.707l3,3C5.244,14.951,5.372,15,5.5,15
			s0.256-0.049,0.354-0.146c0.195-0.195,0.195-0.512,0-0.707L3.207,11.5l2.646-2.646C6.049,8.658,6.049,8.342,5.854,8.146z"/>
		<path d="M8.854,8.146c-0.195-0.195-0.512-0.195-0.707,0s-0.195,0.512,0,0.707l2.646,2.646l-2.646,2.646
			c-0.195,0.195-0.195,0.512,0,0.707C8.244,14.951,8.372,15,8.5,15s0.256-0.049,0.354-0.146l3-3c0.195-0.195,0.195-0.512,0-0.707
			L8.854,8.146z"/>
		<path d="M10.5,21H1V1h10v4.5C11,5.776,11.224,6,11.5,6H16v3.5c0,0.276,0.224,0.5,0.5,0.5S17,9.776,17,9.5v-4
			c0-0.066-0.014-0.132-0.039-0.192c-0.025-0.062-0.062-0.115-0.108-0.162l-4.998-4.999c-0.046-0.045-0.101-0.082-0.162-0.107
			C11.632,0.014,11.566,0,11.5,0h-11C0.224,0,0,0.224,0,0.5v21C0,21.776,0.224,22,0.5,22h10c0.276,0,0.5-0.224,0.5-0.5
			S10.776,21,10.5,21z M12,1.707L15.293,5H12V1.707z"/>
	</g>
</g>
<g id="Invisible_Shape">
	<rect fill="none" width="24" height="24"/>
</g>
</svg>
