<?xml version="1.0" encoding="utf-8"?>
<!-- Generator: Adobe Illustrator 16.0.3, SVG Export Plug-In . SVG Version: 6.00 Build 0)  -->
<!DOCTYPE svg PUBLIC "-//W3C//DTD SVG 1.1//EN" "http://www.w3.org/Graphics/SVG/1.1/DTD/svg11.dtd">
<svg version="1.1" xmlns="http://www.w3.org/2000/svg" xmlns:xlink="http://www.w3.org/1999/xlink" x="0px" y="0px" width="24px"
	 height="24px" viewBox="0 0 24 24" enable-background="new 0 0 24 24" xml:space="preserve">
<g id="Outline_Icons">
	<g>
		<path d="M9.642,15.521c-0.04-0.012-0.099-0.024-0.172-0.038c-0.482-0.09-0.712-0.211-0.712-0.657C8.758,14.37,9.091,14,9.5,14
			c0.389,0,0.714,0.338,0.739,0.77c0.017,0.275,0.254,0.499,0.528,0.47c0.276-0.017,0.486-0.253,0.47-0.528
			C11.181,13.751,10.417,13,9.5,13c-0.961,0-1.742,0.818-1.742,1.825c0,0.898,0.515,1.451,1.604,1.656
			c0.038,0.011,0.094,0.021,0.163,0.034c0.484,0.088,0.715,0.209,0.715,0.658C10.24,17.629,9.908,18,9.5,18
			c-0.39,0-0.716-0.339-0.741-0.771c-0.017-0.275-0.255-0.489-0.528-0.47c-0.276,0.017-0.486,0.253-0.47,0.528
			C7.817,18.248,8.581,19,9.5,19c0.96,0,1.74-0.819,1.74-1.826C11.24,16.27,10.724,15.718,9.642,15.521z"/>
		<path d="M4.91,13.999c0.303,0,0.641,0.065,0.808,0.846c0.059,0.271,0.322,0.438,0.595,0.384c0.27-0.059,0.441-0.324,0.384-0.595
			c-0.291-1.352-1.132-1.635-1.786-1.635C3,12.999,3,15.026,3,16s0,3,1.91,3c0.654,0,1.495-0.283,1.786-1.635
			c0.058-0.271-0.114-0.536-0.384-0.595c-0.272-0.05-0.536,0.114-0.595,0.384C5.551,17.935,5.213,18,4.91,18C4.395,18,4,17.853,4,16
			C4,14.146,4.395,13.999,4.91,13.999z"/>
		<path d="M16.144,13.021c-0.262-0.08-0.543,0.07-0.622,0.335L14.5,16.76l-1.021-3.403c-0.079-0.265-0.358-0.416-0.622-0.335
			c-0.265,0.079-0.415,0.357-0.335,0.622l1.5,5C14.085,18.855,14.279,19,14.5,19s0.415-0.145,0.479-0.356l1.5-5
			C16.559,13.379,16.408,13.101,16.144,13.021z"/>
		<path d="M19.961,6.308c-0.025-0.062-0.062-0.115-0.108-0.162l-5.998-5.999c-0.046-0.045-0.101-0.082-0.162-0.107
			C13.632,0.014,13.566,0,13.5,0h-13C0.224,0,0,0.224,0,0.5v23C0,23.776,0.224,24,0.5,24h19c0.276,0,0.5-0.224,0.5-0.5v-17
			C20,6.434,19.986,6.368,19.961,6.308z M14,1.707L18.293,6H14V1.707z M1,23V1h12v5.5C13,6.776,13.224,7,13.5,7H19v16H1z"/>
	</g>
</g>
<g id="Invisible_Shape">
	<rect fill="none" width="24" height="24"/>
</g>
</svg>
