<?xml version="1.0" encoding="utf-8"?>
<!-- Generator: Adobe Illustrator 16.0.3, SVG Export Plug-In . SVG Version: 6.00 Build 0)  -->
<!DOCTYPE svg PUBLIC "-//W3C//DTD SVG 1.1//EN" "http://www.w3.org/Graphics/SVG/1.1/DTD/svg11.dtd">
<svg version="1.1" xmlns="http://www.w3.org/2000/svg" xmlns:xlink="http://www.w3.org/1999/xlink" x="0px" y="0px" width="24px"
	 height="24px" viewBox="0 0 24 24" enable-background="new 0 0 24 24" xml:space="preserve">
<g id="Outline_Icons">
	<g>
		<path d="M9.642,15.521c-0.04-0.012-0.099-0.024-0.172-0.038c-0.482-0.09-0.712-0.211-0.712-0.657C8.758,14.37,9.091,14,9.5,14
			c0.389,0,0.714,0.338,0.739,0.77c0.017,0.275,0.259,0.499,0.528,0.47c0.276-0.017,0.486-0.253,0.47-0.528
			C11.181,13.751,10.417,13,9.5,13c-0.961,0-1.742,0.818-1.742,1.825c0,0.898,0.515,1.451,1.604,1.656
			c0.038,0.011,0.094,0.021,0.163,0.034c0.484,0.088,0.715,0.209,0.715,0.658C10.24,17.629,9.908,18,9.5,18
			c-0.39,0-0.716-0.339-0.741-0.771c-0.016-0.275-0.25-0.489-0.528-0.47c-0.276,0.017-0.486,0.253-0.47,0.528
			C7.817,18.248,8.581,19,9.5,19c0.96,0,1.74-0.819,1.74-1.826C11.24,16.27,10.724,15.718,9.642,15.521z"/>
		<path d="M19.961,6.308c-0.025-0.062-0.062-0.115-0.108-0.162l-5.998-5.999c-0.046-0.045-0.101-0.082-0.162-0.107
			C13.632,0.014,13.566,0,13.5,0h-13C0.224,0,0,0.224,0,0.5v23C0,23.776,0.224,24,0.5,24h19c0.276,0,0.5-0.224,0.5-0.5v-17
			C20,6.434,19.986,6.368,19.961,6.308z M14,1.707L18.293,6H14V1.707z M1,23V1h12v5.5C13,6.776,13.224,7,13.5,7H19v16H1z"/>
		<path d="M14.75,13H13.5c-0.276,0-0.5,0.224-0.5,0.5v4.999c0,0.276,0.224,0.5,0.5,0.5s0.5-0.224,0.5-0.5V16.5h0.75
			c0.965,0,1.75-0.785,1.75-1.75S15.715,13,14.75,13z M14.75,15.5H14V14h0.75c0.413,0,0.75,0.337,0.75,0.75S15.163,15.5,14.75,15.5z
			"/>
		<path d="M5.479,13.356c-0.127-0.424-0.83-0.424-0.957,0l-1.5,5c-0.08,0.265,0.07,0.543,0.335,0.622
			c0.262,0.08,0.544-0.069,0.622-0.335L4.172,18h1.656l0.193,0.644C6.086,18.86,6.285,19,6.5,19c0.048,0,0.096-0.007,0.144-0.021
			c0.265-0.079,0.415-0.357,0.335-0.622L5.479,13.356z M4.472,17L5,15.24L5.528,17H4.472z"/>
	</g>
</g>
<g id="Invisible_Shape">
	<rect fill="none" width="24" height="24"/>
</g>
</svg>
