<?xml version="1.0" encoding="utf-8"?>
<!-- Generator: Adobe Illustrator 16.0.3, SVG Export Plug-In . SVG Version: 6.00 Build 0)  -->
<!DOCTYPE svg PUBLIC "-//W3C//DTD SVG 1.1//EN" "http://www.w3.org/Graphics/SVG/1.1/DTD/svg11.dtd">
<svg version="1.1" xmlns="http://www.w3.org/2000/svg" xmlns:xlink="http://www.w3.org/1999/xlink" x="0px" y="0px" width="24px"
	 height="24px" viewBox="0 0 24 24" enable-background="new 0 0 24 24" xml:space="preserve">
<g id="Outline_Icons">
	<g>
		<path d="M23.623,13.875c-0.27-0.07-0.54,0.094-0.607,0.361l-0.347,1.361c-1.271-2.041-3.788-3.082-6.204-2.381
			c-2.913,0.85-4.592,3.909-3.744,6.819c0.411,1.41,1.348,2.576,2.635,3.284c0.823,0.451,1.727,0.681,2.639,0.681
			c0.517,0,1.036-0.073,1.546-0.223c0.266-0.077,0.418-0.354,0.341-0.619c-0.078-0.266-0.358-0.413-0.62-0.341
			c-1.154,0.339-2.371,0.203-3.424-0.375c-1.054-0.579-1.819-1.533-2.155-2.687c-0.694-2.382,0.68-4.885,3.062-5.579
			c2.067-0.604,4.234,0.361,5.219,2.193l-1.777-0.453c-0.27-0.071-0.54,0.094-0.607,0.361c-0.068,0.268,0.094,0.539,0.361,0.607
			l2.739,0.697c0.018,0.005,0.035,0.004,0.053,0.007c0.007,0.001,0.014,0.002,0.021,0.003c0.017,0.001,0.033,0.006,0.049,0.006
			c0.013,0,0.022-0.012,0.036-0.012c0.034-0.002,0.068,0.002,0.104-0.008c0.057-0.017,0.105-0.047,0.15-0.079
			c0.006-0.004,0.012-0.005,0.018-0.009c0.079-0.062,0.131-0.149,0.161-0.245c0.003-0.01,0.013-0.015,0.016-0.024l0.698-2.74
			C24.053,14.215,23.891,13.943,23.623,13.875z"/>
		<path d="M3.5,9C3.776,9,4,8.776,4,8.5v-2C4,6.224,3.776,6,3.5,6S3,6.224,3,6.5v2C3,8.776,3.224,9,3.5,9z"/>
		<path d="M10,6.5C10,6.224,9.776,6,9.5,6S9,6.224,9,6.5v2C9,8.776,9.224,9,9.5,9S10,8.776,10,8.5V6.5z"/>
		<path d="M7.5,11C7.224,11,7,11.224,7,11.5v2C7,13.776,7.224,14,7.5,14S8,13.776,8,13.5v-2C8,11.224,7.776,11,7.5,11z"/>
		<path d="M10,11.5c0-0.276-0.224-0.5-0.5-0.5S9,11.224,9,11.5v2C9,13.776,9.224,14,9.5,14s0.5-0.224,0.5-0.5V11.5z"/>
		<path d="M8,8.5v-2C8,6.224,7.776,6,7.5,6h-2C5.224,6,5,6.224,5,6.5v2C5,8.776,5.224,9,5.5,9h2C7.776,9,8,8.776,8,8.5z M7,8H6V7h1
			V8z"/>
		<path d="M6,11.5C6,11.224,5.776,11,5.5,11h-2C3.224,11,3,11.224,3,11.5v2C3,13.776,3.224,14,3.5,14h2C5.776,14,6,13.776,6,13.5
			V11.5z M5,13H4v-1h1V13z"/>
		<path d="M7.5,19h2c0.276,0,0.5-0.224,0.5-0.5v-2c0-0.276-0.224-0.5-0.5-0.5h-2C7.224,16,7,16.224,7,16.5v2
			C7,18.776,7.224,19,7.5,19z M8,17h1v1H8V17z"/>
		<path d="M3,16.5v2C3,18.776,3.224,19,3.5,19S4,18.776,4,18.5v-2C4,16.224,3.776,16,3.5,16S3,16.224,3,16.5z"/>
		<path d="M5.5,16C5.224,16,5,16.224,5,16.5v2C5,18.776,5.224,19,5.5,19S6,18.776,6,18.5v-2C6,16.224,5.776,16,5.5,16z"/>
		<path d="M16,9.5c0,0.276,0.224,0.5,0.5,0.5S17,9.776,17,9.5v-4c0-0.066-0.014-0.132-0.039-0.192
			c-0.025-0.062-0.062-0.115-0.108-0.162l-4.998-4.999c-0.046-0.045-0.101-0.082-0.162-0.107C11.632,0.014,11.566,0,11.5,0h-11
			C0.224,0,0,0.224,0,0.5v21C0,21.776,0.224,22,0.5,22h10c0.276,0,0.5-0.224,0.5-0.5S10.776,21,10.5,21H1V1h10v4.5
			C11,5.776,11.224,6,11.5,6H16V9.5z M12,1.707L15.293,5H12V1.707z"/>
	</g>
</g>
<g id="Invisible_Shape">
	<rect fill="none" width="24" height="24"/>
</g>
</svg>
