<?xml version="1.0" encoding="utf-8"?>
<!-- Generator: Adobe Illustrator 16.0.3, SVG Export Plug-In . SVG Version: 6.00 Build 0)  -->
<!DOCTYPE svg PUBLIC "-//W3C//DTD SVG 1.1//EN" "http://www.w3.org/Graphics/SVG/1.1/DTD/svg11.dtd">
<svg version="1.1" xmlns="http://www.w3.org/2000/svg" xmlns:xlink="http://www.w3.org/1999/xlink" x="0px" y="0px" width="24px"
	 height="24px" viewBox="0 0 24 24" enable-background="new 0 0 24 24" xml:space="preserve">
<g id="Outline_Icons">
	<g>
		<path d="M23.5,6h-23C0.224,6,0,6.224,0,6.5v12C0,18.776,0.224,19,0.5,19h23c0.276,0,0.5-0.224,0.5-0.5v-12
			C24,6.224,23.776,6,23.5,6z M23,18H1V7h22V18z"/>
		<path d="M5.5,15.999c0.276,0,0.5-0.224,0.5-0.5v-2.498h0.742c1.552,0,2.258-1.037,2.258-2C9,10.037,8.294,9,6.742,9H5.5
			C5.224,9,5,9.224,5,9.5v5.999C5,15.775,5.224,15.999,5.5,15.999z M6,10h0.742C7.909,10,8,10.767,8,11.001s-0.091,1-1.258,1H6V10z"
			/>
		<path d="M15.5,15.999c0.276,0,0.5-0.224,0.5-0.5v-2.498h0.742c1.552,0,2.258-1.037,2.258-2C19,10.037,18.294,9,16.742,9H15.5
			C15.224,9,15,9.224,15,9.5v5.999C15,15.775,15.224,15.999,15.5,15.999z M16,10h0.742C17.909,10,18,10.767,18,11.001
			s-0.091,1-1.258,1H16V10z"/>
		<path d="M10.5,16c0.276,0,0.5-0.224,0.5-0.5V13h2v2.5c0,0.276,0.224,0.5,0.5,0.5s0.5-0.224,0.5-0.5v-6C14,9.224,13.776,9,13.5,9
			S13,9.224,13,9.5V12h-2V9.5C11,9.224,10.776,9,10.5,9S10,9.224,10,9.5v6C10,15.776,10.224,16,10.5,16z"/>
	</g>
</g>
<g id="Invisible_Shape">
	<rect fill="none" width="24" height="24"/>
</g>
</svg>
