<?xml version="1.0" encoding="utf-8"?>
<!-- Generator: Adobe Illustrator 16.0.3, SVG Export Plug-In . SVG Version: 6.00 Build 0)  -->
<!DOCTYPE svg PUBLIC "-//W3C//DTD SVG 1.1//EN" "http://www.w3.org/Graphics/SVG/1.1/DTD/svg11.dtd">
<svg version="1.1" xmlns="http://www.w3.org/2000/svg" xmlns:xlink="http://www.w3.org/1999/xlink" x="0px" y="0px" width="24px"
	 height="24px" viewBox="0 0 24 24" enable-background="new 0 0 24 24" xml:space="preserve">
<g id="Outline_Icons">
	<g>
		<path d="M23.947,23.276l-6-12c-0.17-0.338-0.725-0.338-0.895,0l-6,12c-0.077,0.155-0.069,0.339,0.021,0.486
			C11.166,23.91,11.327,24,11.5,24h12c0.173,0,0.334-0.09,0.426-0.237C24.017,23.615,24.024,23.432,23.947,23.276z M12.309,23
			L17.5,12.618L22.691,23H12.309z"/>
		<path d="M17,16.5V20c0,0.276,0.224,0.5,0.5,0.5S18,20.276,18,20v-3.5c0-0.276-0.224-0.5-0.5-0.5S17,16.224,17,16.5z"/>
		<circle cx="17.5" cy="21.5" r="0.5"/>
		<path d="M5.854,8.146c-0.195-0.195-0.512-0.195-0.707,0l-3,3c-0.195,0.195-0.195,0.512,0,0.707l3,3C5.244,14.951,5.372,15,5.5,15
			s0.256-0.049,0.354-0.146c0.195-0.195,0.195-0.512,0-0.707L3.207,11.5l2.646-2.646C6.049,8.658,6.049,8.342,5.854,8.146z"/>
		<path d="M8.146,14.854C8.244,14.951,8.372,15,8.5,15s0.256-0.049,0.354-0.146l3-3c0.195-0.195,0.195-0.512,0-0.707l-3-3
			c-0.195-0.195-0.512-0.195-0.707,0s-0.195,0.512,0,0.707l2.646,2.646l-2.646,2.646C7.951,14.342,7.951,14.658,8.146,14.854z"/>
		<path d="M10.5,21H1V1h10v4.5C11,5.776,11.224,6,11.5,6H16v3.5c0,0.276,0.224,0.5,0.5,0.5S17,9.776,17,9.5v-4
			c0-0.066-0.014-0.132-0.039-0.192c-0.025-0.062-0.062-0.115-0.108-0.162l-4.998-4.999c-0.046-0.045-0.101-0.082-0.162-0.107
			C11.632,0.014,11.566,0,11.5,0h-11C0.224,0,0,0.224,0,0.5v21C0,21.776,0.224,22,0.5,22h10c0.276,0,0.5-0.224,0.5-0.5
			S10.776,21,10.5,21z M12,1.707L15.293,5H12V1.707z"/>
	</g>
</g>
<g id="Invisible_Shape">
	<rect fill="none" width="24" height="24"/>
</g>
</svg>
