<?xml version="1.0" encoding="utf-8"?>
<!-- Generator: Adobe Illustrator 16.0.3, SVG Export Plug-In . SVG Version: 6.00 Build 0)  -->
<!DOCTYPE svg PUBLIC "-//W3C//DTD SVG 1.1//EN" "http://www.w3.org/Graphics/SVG/1.1/DTD/svg11.dtd">
<svg version="1.1" xmlns="http://www.w3.org/2000/svg" xmlns:xlink="http://www.w3.org/1999/xlink" x="0px" y="0px" width="24px"
	 height="24px" viewBox="0 0 24 24" enable-background="new 0 0 24 24" xml:space="preserve">
<g id="Outline_Icons">
	<g>
		<path d="M23.5,6h-23C0.224,6,0,6.224,0,6.5v12C0,18.776,0.224,19,0.5,19h23c0.276,0,0.5-0.224,0.5-0.5v-12
			C24,6.224,23.776,6,23.5,6z M23,18H1V7h22V18z"/>
		<path d="M12.5,16c0.276,0,0.5-0.224,0.5-0.5v-6C13,9.224,12.776,9,12.5,9S12,9.224,12,9.5v6C12,15.776,12.224,16,12.5,16z"/>
		<path d="M6.5,16h1.771c1.041,0,1.74-1.034,1.74-2c0-0.731-0.192-1.201-0.464-1.5c0.271-0.299,0.464-0.769,0.464-1.5
			c0-0.966-0.699-2-1.74-2H6.5C6.224,9,6,9.224,6,9.5v6C6,15.776,6.224,16,6.5,16z M7,10h1.271c0.417,0,0.74,0.537,0.74,1
			c0,0.924-0.351,1-0.74,1H7V10z M7,13h1.271c0.39,0,0.74,0.076,0.74,1c0,0.463-0.323,1-0.74,1H7V13z"/>
		<path d="M15.5,16c0.276,0,0.5-0.224,0.5-0.5v-3.882l2.053,4.105C18.139,15.896,18.313,16,18.5,16c0.038,0,0.076-0.004,0.115-0.014
			C18.841,15.934,19,15.731,19,15.5v-6C19,9.224,18.776,9,18.5,9S18,9.224,18,9.5v3.882l-2.053-4.105
			c-0.104-0.207-0.333-0.322-0.562-0.263C15.159,9.066,15,9.269,15,9.5v6C15,15.776,15.224,16,15.5,16z"/>
	</g>
</g>
<g id="Invisible_Shape">
	<rect fill="none" width="24" height="24"/>
</g>
</svg>
