<?xml version="1.0" encoding="utf-8"?>
<!-- Generator: Adobe Illustrator 16.0.3, SVG Export Plug-In . SVG Version: 6.00 Build 0)  -->
<!DOCTYPE svg PUBLIC "-//W3C//DTD SVG 1.1//EN" "http://www.w3.org/Graphics/SVG/1.1/DTD/svg11.dtd">
<svg version="1.1" xmlns="http://www.w3.org/2000/svg" xmlns:xlink="http://www.w3.org/1999/xlink" x="0px" y="0px" width="24px"
	 height="24px" viewBox="0 0 24 24" enable-background="new 0 0 24 24" xml:space="preserve">
<g id="Outline_Icons">
	<g>
		<path d="M23.5,6h-23C0.224,6,0,6.224,0,6.5v12C0,18.776,0.224,19,0.5,19h23c0.276,0,0.5-0.224,0.5-0.5v-12
			C24,6.224,23.776,6,23.5,6z M23,18H1V7h22V18z"/>
		<path d="M13.5,16c0.276,0,0.5-0.224,0.5-0.5v-4.349l1.084,1.626c0.186,0.277,0.646,0.277,0.832,0L17,11.151V15.5
			c0,0.276,0.224,0.5,0.5,0.5s0.5-0.224,0.5-0.5v-6c0-0.221-0.145-0.415-0.355-0.479c-0.214-0.065-0.438,0.019-0.561,0.201
			L15.5,11.599l-1.584-2.376c-0.122-0.183-0.348-0.266-0.561-0.201C13.145,9.085,13,9.279,13,9.5v6C13,15.776,13.224,16,13.5,16z"/>
		<path d="M8,12.653V15.5C8,15.776,8.224,16,8.5,16S9,15.776,9,15.5v-2.847l1.915-2.846c0.154-0.229,0.093-0.54-0.136-0.694
			c-0.228-0.151-0.539-0.095-0.694,0.136L8.5,11.604L6.915,9.249C6.76,9.019,6.448,8.961,6.221,9.113
			c-0.229,0.154-0.29,0.465-0.136,0.694L8,12.653z"/>
	</g>
</g>
<g id="Invisible_Shape">
	<rect fill="none" width="24" height="24"/>
</g>
</svg>
