<?xml version="1.0" encoding="utf-8"?>
<!-- Generator: Adobe Illustrator 16.0.3, SVG Export Plug-In . SVG Version: 6.00 Build 0)  -->
<!DOCTYPE svg PUBLIC "-//W3C//DTD SVG 1.1//EN" "http://www.w3.org/Graphics/SVG/1.1/DTD/svg11.dtd">
<svg version="1.1" xmlns="http://www.w3.org/2000/svg" xmlns:xlink="http://www.w3.org/1999/xlink" x="0px" y="0px" width="24px"
	 height="24px" viewBox="0 0 24 24" enable-background="new 0 0 24 24" xml:space="preserve">
<g id="Outline_Icons">
	<g>
		<path d="M18,16c2,0,2-2.022,2-3.5c0-0.276-0.224-0.5-0.5-0.5H18c-0.276,0-0.5,0.224-0.5,0.5S17.724,13,18,13h0.996
			c-0.03,1.488-0.222,2-0.996,2c-0.542,0-1-1.145-1-2.5c0-2.5,0.753-2.5,1-2.5c0.808,0,0.939,0.288,1.013,0.609
			c0.061,0.269,0.334,0.442,0.597,0.378c0.27-0.061,0.439-0.328,0.378-0.597C19.78,9.468,19.111,9,18,9c-1.327,0-2,1.178-2,3.5
			C16,14.186,16.626,16,18,16z"/>
		<path d="M23.5,6h-23C0.224,6,0,6.224,0,6.5v12C0,18.776,0.224,19,0.5,19h23c0.276,0,0.5-0.224,0.5-0.5v-12
			C24,6.224,23.776,6,23.5,6z M23,18H1V7h22V18z"/>
		<path d="M10.5,16c0.276,0,0.5-0.224,0.5-0.5v-4.349l1.084,1.626c0.186,0.277,0.646,0.277,0.832,0L14,11.151V15.5
			c0,0.276,0.224,0.5,0.5,0.5s0.5-0.224,0.5-0.5v-6c0-0.221-0.145-0.415-0.355-0.479c-0.214-0.065-0.438,0.018-0.561,0.201
			L12.5,11.599l-1.584-2.376c-0.122-0.183-0.348-0.265-0.561-0.201C10.145,9.085,10,9.279,10,9.5v6C10,15.776,10.224,16,10.5,16z"/>
		<path d="M4.5,15.999h1.438c1.892,0,3.062-1.816,3.062-3.5C9,10.816,7.829,9,5.938,9H4.5C4.224,9,4,9.224,4,9.5v5.999
			C4,15.775,4.224,15.999,4.5,15.999z M5,10h0.938C7.171,10,8,11.292,8,12.499s-0.829,2.5-2.062,2.5H5V10z"/>
	</g>
</g>
<g id="Invisible_Shape">
	<rect fill="none" width="24" height="24"/>
</g>
</svg>
