<?xml version="1.0" encoding="utf-8"?>
<!-- Generator: Adobe Illustrator 16.0.3, SVG Export Plug-In . SVG Version: 6.00 Build 0)  -->
<!DOCTYPE svg PUBLIC "-//W3C//DTD SVG 1.1//EN" "http://www.w3.org/Graphics/SVG/1.1/DTD/svg11.dtd">
<svg version="1.1" xmlns="http://www.w3.org/2000/svg" xmlns:xlink="http://www.w3.org/1999/xlink" x="0px" y="0px" width="24px"
	 height="24px" viewBox="0 0 24 24" enable-background="new 0 0 24 24" xml:space="preserve">
<g id="Outline_Icons">
	<g>
		<path d="M23,7.995h-1.593C21.2,7.417,20.65,7,20,7h-2.031C17.723,5.026,16.037,3.495,14,3.495c-0.156,0-0.307,0.026-0.459,0.044
			c-0.014-0.001-0.026-0.008-0.041-0.008c-0.041,0-0.078,0.014-0.116,0.023c-0.819,0.127-1.58,0.493-2.184,1.085L7.795,8H6.75
			L5.398,6.192C4.826,5.432,3.952,4.995,3,4.995H0.5c-0.276,0-0.5,0.224-0.5,0.5c0,0.653,0.206,1.273,0.592,1.79l4.004,5.509
			C4.689,12.924,4.84,13,5,13h1.805L6.14,14.995H2.5c-0.276,0-0.5,0.224-0.5,0.5C2,17.428,3.57,19,5.5,19h13
			c1.93,0,3.5-1.572,3.5-3.505c0-0.276-0.224-0.5-0.5-0.5h-3.64L17.195,13H17.5c0.135,0,0.265-0.055,0.359-0.151l3.316-3.421
			c0.104-0.13,0.183-0.277,0.238-0.433H23c0.276,0,0.5-0.224,0.5-0.5S23.276,7.995,23,7.995z M16.949,7H14V4.495
			C15.483,4.495,16.71,5.581,16.949,7z M18.5,18h-13c-1.208,0-2.218-0.862-2.45-2.005h17.9C20.718,17.138,19.708,18,18.5,18z
			 M16.807,14.995H7.193L7.858,13h8.283L16.807,14.995z M20.424,8.769L17.289,12H5.255L1.396,6.692
			C1.239,6.48,1.126,6.245,1.062,5.995H3c0.635,0,1.218,0.291,1.599,0.798L6.1,8.8C6.194,8.926,6.342,9,6.5,9H8
			c0.131,0,0.258-0.052,0.351-0.145l3.55-3.503C12.217,5.043,12.594,4.82,13,4.677V7.5C13,7.776,13.224,8,13.5,8h4H20
			c0.276,0,0.5,0.222,0.5,0.495C20.5,8.64,20.441,8.744,20.424,8.769z"/>
		<path d="M22.5,9.495c-0.276,0-0.5,0.224-0.5,0.5v2c0,0.276,0.224,0.5,0.5,0.5s0.5-0.224,0.5-0.5v-2
			C23,9.719,22.776,9.495,22.5,9.495z"/>
		<path d="M22.5,7.495c0.276,0,0.5-0.224,0.5-0.5v-2c0-0.276-0.224-0.5-0.5-0.5S22,4.719,22,4.995v2
			C22,7.271,22.224,7.495,22.5,7.495z"/>
		<path d="M15,10H8.5C8.224,10,8,10.224,8,10.5S8.224,11,8.5,11H15c0.276,0,0.5-0.224,0.5-0.5S15.276,10,15,10z"/>
		<path d="M2,21H0.5C0.224,21,0,21.224,0,21.5S0.224,22,0.5,22H2c0.276,0,0.5-0.224,0.5-0.5S2.276,21,2,21z"/>
		<path d="M14.5,21h-10C4.224,21,4,21.224,4,21.5S4.224,22,4.5,22h10c0.276,0,0.5-0.224,0.5-0.5S14.776,21,14.5,21z"/>
		<path d="M5,2h1.5C6.776,2,7,1.776,7,1.5S6.776,1,6.5,1H5C4.724,1,4.5,1.224,4.5,1.5S4.724,2,5,2z"/>
		<path d="M8.5,2H17c0.276,0,0.5-0.224,0.5-0.5S17.276,1,17,1H8.5C8.224,1,8,1.224,8,1.5S8.224,2,8.5,2z"/>
	</g>
</g>
<g id="invisible_shape">
	<rect fill="none" width="24" height="24"/>
</g>
</svg>
