<?xml version="1.0" encoding="utf-8"?>
<!-- Generator: Adobe Illustrator 16.0.3, SVG Export Plug-In . SVG Version: 6.00 Build 0)  -->
<!DOCTYPE svg PUBLIC "-//W3C//DTD SVG 1.1//EN" "http://www.w3.org/Graphics/SVG/1.1/DTD/svg11.dtd">
<svg version="1.1" xmlns="http://www.w3.org/2000/svg" xmlns:xlink="http://www.w3.org/1999/xlink" x="0px" y="0px" width="24px"
	 height="24px" viewBox="0 0 24 24" enable-background="new 0 0 24 24" xml:space="preserve">
<g id="Outline_Icons">
	<g>
		<path d="M23.5,1.995H22c-0.133,0-0.26,0.053-0.354,0.146l-2.854,2.854h-3.844c-0.245-1.691-1.69-3-3.449-3H9
			c-1.759,0-3.204,1.309-3.449,3H5c-1.461,0-1.979,0.725-2.836,1.925C1.997,7.153,1.812,7.412,1.6,7.695
			c-0.133,0.178-0.133,0.422,0,0.6c0.213,0.284,0.397,0.544,0.564,0.778c0.854,1.198,1.37,1.922,2.835,1.922h2v0.592
			c-0.581,0.207-1,0.757-1,1.408c0,0.827,0.673,1.5,1.5,1.5s1.5-0.673,1.5-1.5c0-0.651-0.419-1.201-1-1.408v-0.592h2.4l2.945,3.852
			c0.789,0.74,1.82,1.148,2.905,1.148h3.25c0.173,0,0.334-0.09,0.425-0.237s0.1-0.331,0.022-0.486l-2.138-4.276H18.5
			c3.033,0,5.5-2.468,5.5-5.5v-3C24,2.219,23.776,1.995,23.5,1.995z M7.5,13.495c-0.276,0-0.5-0.225-0.5-0.5s0.224-0.5,0.5-0.5
			S8,12.72,8,12.995S7.776,13.495,7.5,13.495z M13.949,4.995H11v-2h0.5C12.707,2.995,13.717,3.855,13.949,4.995z M9,2.995h1v2H6.551
			C6.783,3.855,7.793,2.995,9,2.995z M2.979,8.492c-0.11-0.154-0.229-0.32-0.357-0.497C2.75,7.82,2.868,7.655,2.978,7.501
			C3.42,6.882,3.703,6.504,4,6.279v3.434C3.703,9.489,3.42,9.111,2.979,8.492z M23,5.495c0,2.481-2.019,4.5-4.5,4.5H17
			c-0.173,0-0.334,0.09-0.425,0.237s-0.1,0.331-0.022,0.486l2.138,4.276H16.25c-0.829,0-1.618-0.312-2.165-0.816L9.897,8.691
			C9.799,8.562,9.65,8.495,9.5,8.495c-0.105,0-0.212,0.033-0.303,0.103c-0.22,0.168-0.262,0.481-0.094,0.701l0.533,0.696H8v-0.5
			c0-0.276-0.224-0.5-0.5-0.5S7,9.219,7,9.495v0.5H5v-4h14c0.133,0,0.26-0.053,0.354-0.146l2.854-2.854H23V5.495z"/>
		<path d="M1.5,6.495c0.276,0,0.5-0.224,0.5-0.5v-2c0-0.276-0.224-0.5-0.5-0.5S1,3.719,1,3.995v2C1,6.271,1.224,6.495,1.5,6.495z"/>
		<path d="M1.5,12.495c0.276,0,0.5-0.224,0.5-0.5v-2c0-0.276-0.224-0.5-0.5-0.5S1,9.719,1,9.995v2C1,12.271,1.224,12.495,1.5,12.495
			z"/>
		<path d="M9.5,19.995c-0.148,0-0.291,0.019-0.434,0.036c-0.625-1.203-1.869-2.036-3.316-2.036c-1.826,0-3.347,1.313-3.679,3.043
			C0.897,21.243,0,22.263,0,23.495c0,0.276,0.224,0.5,0.5,0.5h12c0.276,0,0.5-0.224,0.5-0.5C13,21.565,11.43,19.995,9.5,19.995z
			 M1.085,22.995c0.165-0.463,0.553-0.812,1.032-0.939c0.091,0.113,0.226,0.189,0.382,0.189c0.276,0,0.5-0.224,0.5-0.5
			c0-1.517,1.233-2.75,2.75-2.75s2.75,1.233,2.75,2.75c0,0.276,0.224,0.5,0.5,0.5s0.5-0.224,0.5-0.5
			c0-0.255-0.026-0.503-0.075-0.743c0.025-0.001,0.05-0.007,0.075-0.007c1.208,0,2.217,0.86,2.45,2H1.085z"/>
	</g>
</g>
<g id="invisible_shape">
	<rect fill="none" width="24" height="24"/>
</g>
</svg>
