<?xml version="1.0" encoding="utf-8"?>
<!-- Generator: Adobe Illustrator 16.0.3, SVG Export Plug-In . SVG Version: 6.00 Build 0)  -->
<!DOCTYPE svg PUBLIC "-//W3C//DTD SVG 1.1//EN" "http://www.w3.org/Graphics/SVG/1.1/DTD/svg11.dtd">
<svg version="1.1" xmlns="http://www.w3.org/2000/svg" xmlns:xlink="http://www.w3.org/1999/xlink" x="0px" y="0px" width="24px"
	 height="24px" viewBox="0 0 24 24" enable-background="new 0 0 24 24" xml:space="preserve">
<g id="Outline_Icons">
	<g>
		<path d="M1.916,20.4c0.225-0.161,0.276-0.474,0.115-0.698c-0.577-0.803-0.92-1.729-1.008-2.707h21.955
			c-0.087,0.978-0.432,1.905-1.009,2.708c-0.162,0.225-0.11,0.537,0.114,0.698c0.088,0.063,0.19,0.094,0.292,0.094
			c0.156,0,0.309-0.072,0.406-0.208c0.798-1.11,1.22-2.421,1.22-3.792c0-0.276-0.224-0.5-0.5-0.5H21v-4.5c0-0.276-0.224-0.5-0.5-0.5
			H18v-4.5c0-0.276-0.224-0.5-0.5-0.5h-4c-0.276,0-0.5,0.224-0.5,0.5v4.5h-2v-4.5c0-0.276-0.224-0.5-0.5-0.5h-4
			c-0.276,0-0.5,0.224-0.5,0.5v4.5H3.5c-0.276,0-0.5,0.224-0.5,0.5v4.5H0.5c-0.276,0-0.5,0.224-0.5,0.5
			c0,1.37,0.421,2.681,1.218,3.791C1.378,20.51,1.69,20.561,1.916,20.4z M17,6.995v1h-3v-1H17z M14,8.995h3v2h-3V8.995z M10,6.995v1
			H7v-1H10z M7,8.995h3v2H7V8.995z M4,11.995h16v4H4V11.995z"/>
		<path d="M9,4.995c0.276,0,0.5-0.224,0.5-0.5c0-0.827,0.673-1.5,1.5-1.5c1.103,0,2-0.897,2-2c0-0.276-0.224-0.5-0.5-0.5
			S12,0.719,12,0.995c0,0.552-0.449,1-1,1c-1.378,0-2.5,1.121-2.5,2.5C8.5,4.771,8.724,4.995,9,4.995z"/>
		<path d="M15,4.995c0.276,0,0.5-0.224,0.5-0.5c0-0.827,0.673-1.5,1.5-1.5c1.103,0,2-0.897,2-2c0-0.276-0.224-0.5-0.5-0.5
			S18,0.719,18,0.995c0,0.552-0.449,1-1,1c-1.378,0-2.5,1.121-2.5,2.5C14.5,4.771,14.724,4.995,15,4.995z"/>
		<path d="M23.004,21.995L23.004,21.995c-0.732-0.038-1.432-0.38-1.828-1.018c-0.004-0.006-0.01-0.009-0.014-0.015
			c-0.006-0.009-0.016-0.016-0.022-0.023c-0.079-0.102-0.186-0.166-0.306-0.186c-0.007-0.002-0.014,0-0.021-0.001
			c-0.057-0.008-0.113-0.007-0.17,0.006c-0.008,0.002-0.015,0.006-0.023,0.009c-0.045,0.012-0.091,0.023-0.133,0.049
			c-0.008,0.005-0.013,0.014-0.021,0.02c-0.007,0.004-0.012,0.012-0.019,0.017c-0.046,0.036-0.086,0.075-0.116,0.123
			c-0.001,0.003-0.004,0.003-0.005,0.006c-0.396,0.635-1.078,1.014-1.825,1.014c-0.003-0.001-0.003-0.001-0.005,0
			c-0.747,0-1.429-0.38-1.825-1.018c-0.002-0.003-0.004-0.004-0.006-0.007c-0.016-0.024-0.041-0.043-0.062-0.065
			c-0.027-0.028-0.052-0.059-0.085-0.079c-0.001-0.002-0.002-0.003-0.003-0.004c-0.008-0.005-0.017-0.005-0.025-0.01
			c-0.049-0.027-0.101-0.049-0.157-0.059c-0.008-0.002-0.016,0-0.023-0.001c-0.057-0.008-0.114-0.007-0.172,0.006
			c0,0-0.001,0-0.001,0.001c-0.053,0.012-0.105,0.026-0.154,0.057c-0.069,0.043-0.12,0.103-0.159,0.168
			c-0.396,0.633-1.076,1.011-1.822,1.011c-0.003-0.001-0.003-0.001-0.005,0c-0.746,0-1.428-0.379-1.824-1.016
			c-0.026-0.041-0.062-0.074-0.101-0.107c-0.016-0.014-0.028-0.031-0.045-0.043c-0.003-0.002-0.004-0.005-0.007-0.007
			c-0.016-0.01-0.034-0.012-0.051-0.02c-0.042-0.021-0.084-0.04-0.13-0.049c-0.009-0.002-0.018,0-0.026-0.001
			c-0.111-0.016-0.227,0-0.329,0.063c-0.073,0.045-0.124,0.109-0.164,0.179c-0.397,0.626-1.072,1-1.813,1
			c-0.003-0.001-0.004-0.001-0.005,0c-0.747,0-1.429-0.38-1.825-1.018c-0.002-0.003-0.005-0.004-0.006-0.007
			c-0.016-0.024-0.04-0.043-0.061-0.064c-0.027-0.029-0.053-0.06-0.086-0.081c-0.001-0.001-0.002-0.002-0.003-0.003
			c-0.007-0.005-0.016-0.005-0.023-0.009c-0.05-0.028-0.102-0.05-0.158-0.06c-0.008-0.002-0.015,0-0.023-0.001
			c-0.11-0.015-0.226,0-0.328,0.063c-0.069,0.043-0.12,0.103-0.159,0.168c-0.396,0.633-1.076,1.011-1.822,1.011
			c-0.003-0.001-0.004-0.001-0.005,0c-0.746,0-1.428-0.379-1.824-1.016c-0.025-0.04-0.061-0.072-0.098-0.104
			c-0.017-0.016-0.03-0.034-0.049-0.047c-0.003-0.001-0.004-0.004-0.007-0.006c-0.015-0.01-0.032-0.011-0.048-0.019
			c-0.043-0.021-0.086-0.041-0.133-0.05c-0.009-0.002-0.017,0-0.026-0.001c-0.111-0.015-0.227,0-0.329,0.063
			c-0.073,0.045-0.124,0.109-0.164,0.179c-0.397,0.626-1.072,1-1.812,1c-0.001,0-0.001,0-0.002,0h0c-0.276,0-0.5,0.224-0.5,0.499
			c0,0.276,0.223,0.501,0.5,0.501c0.001,0,0.002,0,0.003,0c0.864,0,1.659-0.356,2.245-0.96c0.586,0.604,1.381,0.96,2.244,0.96
			c0.002,0,0.004,0,0.007,0c0.865,0,1.661-0.357,2.247-0.963c0.586,0.605,1.382,0.963,2.246,0.963c0.002,0,0.004,0,0.007,0
			c0.864,0,1.659-0.356,2.245-0.96c0.586,0.604,1.381,0.96,2.244,0.96c0.002,0,0.004,0,0.007,0c0.865,0,1.661-0.357,2.247-0.963
			c0.586,0.605,1.382,0.963,2.246,0.963c0.002,0,0.004,0,0.007,0c0.866,0,1.663-0.358,2.249-0.966
			c0.586,0.607,1.383,0.966,2.249,0.966c0.001,0,0.002,0,0.003,0c0.276,0,0.5-0.225,0.5-0.501
			C23.503,22.219,23.28,21.995,23.004,21.995z"/>
		<path d="M8,14H6.5C6.224,14,6,14.224,6,14.5S6.224,15,6.5,15H8c0.276,0,0.5-0.224,0.5-0.5S8.276,14,8,14z"/>
		<path d="M13,14h-1.5c-0.276,0-0.5,0.224-0.5,0.5s0.224,0.5,0.5,0.5H13c0.276,0,0.5-0.224,0.5-0.5S13.276,14,13,14z"/>
		<path d="M17.5,14H16c-0.276,0-0.5,0.224-0.5,0.5S15.724,15,16,15h1.5c0.276,0,0.5-0.224,0.5-0.5S17.776,14,17.5,14z"/>
	</g>
</g>
<g id="invisible_shape">
	<rect fill="none" width="24" height="24"/>
</g>
</svg>
