<?xml version="1.0" encoding="utf-8"?>
<!-- Generator: Adobe Illustrator 16.0.3, SVG Export Plug-In . SVG Version: 6.00 Build 0)  -->
<!DOCTYPE svg PUBLIC "-//W3C//DTD SVG 1.1//EN" "http://www.w3.org/Graphics/SVG/1.1/DTD/svg11.dtd">
<svg version="1.1" xmlns="http://www.w3.org/2000/svg" xmlns:xlink="http://www.w3.org/1999/xlink" x="0px" y="0px" width="24px"
	 height="24px" viewBox="0 0 24 24" enable-background="new 0 0 24 24" xml:space="preserve">
<g id="Outline_Icons">
	<g>
		<path d="M11.5,10.483c-1.103,0-2,0.897-2,2s0.897,2,2,2s2-0.897,2-2S12.603,10.483,11.5,10.483z M11.5,13.483
			c-0.551,0-1-0.448-1-1s0.449-1,1-1s1,0.448,1,1S12.051,13.483,11.5,13.483z"/>
		<path d="M22.52,12h-2.045c-0.113-2.104-0.947-4.015-2.265-5.492l1.428-1.429c0.195-0.195,0.195-0.512,0-0.707
			s-0.512-0.195-0.707,0l-1.427,1.427C16.026,4.47,14.11,3.625,12,3.509V1.5C12,1.224,11.776,1,11.5,1S11,1.224,11,1.5v2.009
			C8.888,3.625,6.973,4.47,5.494,5.799L4.067,4.372c-0.195-0.195-0.512-0.195-0.707,0s-0.195,0.512,0,0.707l1.428,1.429
			C3.471,7.985,2.637,9.896,2.524,12H0.5C0.223,12,0,12.224,0,12.5S0.223,13,0.5,13h2.026c0.121,2.104,0.964,4.014,2.289,5.488
			L3.36,19.942c-0.195,0.195-0.195,0.512,0,0.707c0.098,0.098,0.226,0.146,0.354,0.146s0.256-0.049,0.354-0.146l1.456-1.456
			c1.474,1.314,3.379,2.148,5.477,2.265v2.062c0,0.276,0.224,0.5,0.5,0.5s0.5-0.224,0.5-0.5v-2.062
			c2.097-0.116,4.002-0.949,5.477-2.265l1.456,1.456c0.098,0.098,0.226,0.146,0.354,0.146s0.256-0.049,0.354-0.146
			c0.195-0.195,0.195-0.512,0-0.707l-1.454-1.454c1.325-1.475,2.168-3.384,2.289-5.488h2.046c0.276,0,0.5-0.224,0.5-0.5
			S22.796,12,22.52,12z M19.475,12h-4.024c-0.089-0.727-0.367-1.389-0.792-1.941l2.845-2.845C18.642,8.51,19.365,10.172,19.475,12z
			 M11.5,15.483c-1.654,0-3-1.346-3-3s1.346-3,3-3s3,1.346,3,3S13.154,15.483,11.5,15.483z M16.798,6.506l-2.844,2.843
			C13.399,8.913,12.733,8.627,12,8.534V4.509C13.835,4.623,15.502,5.355,16.798,6.506z M11,4.509v4.025
			c-0.733,0.093-1.4,0.379-1.955,0.814L6.201,6.506C7.497,5.355,9.164,4.623,11,4.509z M5.496,7.214l2.845,2.845
			C7.915,10.611,7.637,11.273,7.548,12H3.524C3.634,10.172,4.357,8.51,5.496,7.214z M3.525,13h4.026
			c0.095,0.727,0.381,1.388,0.813,1.938l-2.843,2.844C4.375,16.49,3.644,14.829,3.525,13z M6.229,18.487l2.845-2.845
			c0.549,0.422,1.205,0.699,1.925,0.79v4.025C9.177,20.345,7.521,19.622,6.229,18.487z M12,20.458v-4.025
			c0.72-0.091,1.376-0.368,1.925-0.79l2.845,2.845C15.478,19.622,13.822,20.345,12,20.458z M17.478,17.781l-2.844-2.843
			c0.433-0.551,0.718-1.212,0.813-1.938h4.026C19.355,14.829,18.624,16.49,17.478,17.781z"/>
	</g>
</g>
<g id="invisible_shape">
	<rect fill="none" width="24" height="24"/>
</g>
</svg>
