<?xml version="1.0" encoding="utf-8"?>
<!-- Generator: Adobe Illustrator 16.0.3, SVG Export Plug-In . SVG Version: 6.00 Build 0)  -->
<!DOCTYPE svg PUBLIC "-//W3C//DTD SVG 1.1//EN" "http://www.w3.org/Graphics/SVG/1.1/DTD/svg11.dtd">
<svg version="1.1" xmlns="http://www.w3.org/2000/svg" xmlns:xlink="http://www.w3.org/1999/xlink" x="0px" y="0px" width="24px"
	 height="24px" viewBox="0 0 24 24" enable-background="new 0 0 24 24" xml:space="preserve">
<g id="Outline_Icons">
	<path d="M23.814,21.111c-0.117-0.095-0.27-0.128-0.418-0.101c-0.188,0.04-0.38,0.061-0.573,0.061c-1.87,0-3.42-1.868-3.435-1.888
		c-0.104-0.126-0.262-0.201-0.425-0.182c-0.163,0.012-0.31,0.103-0.393,0.243c-0.01,0.017-0.941,1.516-2.732,1.698l2.588-4.181
		c0.082-0.131,0.097-0.293,0.043-0.438c-0.055-0.145-0.173-0.257-0.321-0.302L12,14.131v-1.14c3.341-0.022,6.491-0.364,9.119-1.006
		c0.264-0.064,0.429-0.328,0.37-0.594L19.624,3H21c0.276,0,0.5-0.224,0.5-0.5S21.276,2,21,2h-2h-7V0.482c0-0.276-0.224-0.5-0.5-0.5
		S11,0.206,11,0.482V2H4H2C1.724,2,1.5,2.224,1.5,2.5S1.724,3,2,3h1.376l-1.865,8.392c-0.06,0.269,0.109,0.535,0.377,0.596
		c2.732,0.621,5.872,0.954,9.111,0.996v1.147l-6.147,1.892c-0.148,0.045-0.268,0.157-0.322,0.303
		c-0.054,0.146-0.038,0.309,0.045,0.44l2.421,3.861c-1.01-0.49-1.537-1.331-1.566-1.381c-0.083-0.141-0.231-0.232-0.394-0.244
		c-0.162-0.014-0.321,0.057-0.425,0.183c-0.015,0.019-1.555,1.887-3.435,1.887c-0.193,0-0.386-0.021-0.573-0.061
		c-0.148-0.027-0.301,0.006-0.418,0.101C0.068,21.206,0,21.35,0,21.5v2C0,23.776,0.224,24,0.5,24h23c0.276,0,0.5-0.224,0.5-0.5v-2
		C24,21.35,23.932,21.206,23.814,21.111z M4.401,3h14.198l1.806,8.126C17.86,11.698,14.849,12,11.659,12
		c-3.208,0-6.329-0.304-9.062-0.881L4.401,3z M5.77,16.786l5.73-1.763l5.734,1.764l-2.538,4.102
		c-1.528-0.34-2.223-1.566-2.255-1.624c-0.086-0.162-0.255-0.263-0.438-0.264c-0.001,0-0.002,0-0.003,0
		c-0.182,0-0.35,0.1-0.438,0.259c-0.039,0.07-0.975,1.72-3.068,1.72c-0.036,0-0.065-0.009-0.101-0.011L5.77,16.786z M23,23H1v-0.934
		c1.748,0.077,3.255-1.103,3.955-1.786c0.56,0.659,1.73,1.699,3.538,1.699c1.805,0,2.937-0.959,3.505-1.623
		c0.564,0.664,1.691,1.623,3.495,1.623c1.81,0,2.987-1.043,3.55-1.701c0.7,0.684,2.207,1.868,3.957,1.788V23z"/>
</g>
<g id="invisible_shape">
	<rect fill="none" width="24" height="24"/>
</g>
</svg>
