<?xml version="1.0" encoding="utf-8"?>
<!-- Generator: Adobe Illustrator 16.0.3, SVG Export Plug-In . SVG Version: 6.00 Build 0)  -->
<!DOCTYPE svg PUBLIC "-//W3C//DTD SVG 1.1//EN" "http://www.w3.org/Graphics/SVG/1.1/DTD/svg11.dtd">
<svg version="1.1" xmlns="http://www.w3.org/2000/svg" xmlns:xlink="http://www.w3.org/1999/xlink" x="0px" y="0px" width="24px"
	 height="24px" viewBox="0 0 24 24" enable-background="new 0 0 24 24" xml:space="preserve">
<g id="Outline_Icons">
	<g>
		<path d="M9,14H1v-1h4c0.276,0,0.5-0.224,0.5-0.5S5.276,12,5,12H1v-1.293L2.707,9h14.586l1.854,1.854
			c0.195,0.195,0.512,0.195,0.707,0s0.195-0.512,0-0.707l-1.927-1.928l-1.962-4.904C15.888,3.124,15.705,3,15.5,3h-11
			C4.295,3,4.112,3.124,4.036,3.314L2.074,8.219l-1.927,1.928C0.053,10.24,0,10.367,0,10.5v4C0,14.776,0.224,15,0.5,15H1v1.5
			C1,16.776,1.224,17,1.5,17h3C4.776,17,5,16.776,5,16.5V15h4c0.276,0,0.5-0.224,0.5-0.5S9.276,14,9,14z M4.838,4h10.323l1.6,4
			H3.238L4.838,4z M4,16H2v-1h2V16z"/>
		<path d="M20.242,12.758C19.109,11.624,17.602,11,16,11s-3.109,0.624-4.243,1.758C10.624,13.891,10,15.396,10,16.999
			s0.624,3.109,1.757,4.243c1.134,1.133,2.64,1.757,4.243,1.757s3.109-0.624,4.243-1.757C21.376,20.108,22,18.602,22,16.999
			S21.375,13.891,20.242,12.758z M12.464,13.465C13.409,12.521,14.664,12,16,12c1.166,0,2.257,0.417,3.147,1.146l-7.002,7.002
			C11.416,19.257,11,18.165,11,16.999C11,15.664,11.52,14.408,12.464,13.465z M19.535,20.535c-0.944,0.944-2.2,1.464-3.536,1.464
			c-1.166,0-2.257-0.416-3.147-1.146l7.002-7.001C20.583,14.742,21,15.834,21,16.999C21,18.335,20.48,19.591,19.535,20.535z"/>
	</g>
</g>
<g id="invisible_shape">
	<rect fill="none" width="24" height="24"/>
</g>
</svg>
