<?xml version="1.0" encoding="utf-8"?>
<!-- Generator: Adobe Illustrator 16.0.3, SVG Export Plug-In . SVG Version: 6.00 Build 0)  -->
<!DOCTYPE svg PUBLIC "-//W3C//DTD SVG 1.1//EN" "http://www.w3.org/Graphics/SVG/1.1/DTD/svg11.dtd">
<svg version="1.1" xmlns="http://www.w3.org/2000/svg" xmlns:xlink="http://www.w3.org/1999/xlink" x="0px" y="0px" width="24px"
	 height="24px" viewBox="0 0 24 24" enable-background="new 0 0 24 24" xml:space="preserve">
<g id="Outline_Icons">
	<g>
		<g>
			<path d="M11,15.001H1v-1h4c0.276,0,0.5-0.224,0.5-0.5s-0.224-0.5-0.5-0.5H1v-1.293l1.707-1.707H17.5
				c0.079,0,0.15-0.021,0.216-0.054c0.02-0.01,0.034-0.023,0.052-0.035c0.045-0.029,0.084-0.063,0.118-0.105
				c0.008-0.011,0.021-0.015,0.028-0.025s0.006-0.024,0.013-0.035c0.025-0.045,0.041-0.092,0.052-0.144
				c0.005-0.024,0.013-0.047,0.014-0.071C17.994,9.521,18,9.512,18,9.501c0-0.056-0.015-0.108-0.032-0.158
				c-0.003-0.009,0-0.019-0.004-0.027L17.96,9.307c0,0,0,0,0-0.001l-1.996-4.99c-0.076-0.19-0.26-0.314-0.464-0.314h-11
				c-0.205,0-0.388,0.124-0.464,0.314L2.073,9.221l-1.927,1.927C0.052,11.241,0,11.368,0,11.501v4c0,0.276,0.224,0.5,0.5,0.5H1v1.5
				c0,0.276,0.224,0.5,0.5,0.5h3c0.276,0,0.5-0.224,0.5-0.5v-1.5H11c0.276,0,0.5-0.224,0.5-0.5S11.277,15.001,11,15.001z
				 M4.838,5.001h10.323l1.6,4H3.238L4.838,5.001z M4,17.001H2v-1h2V17.001z"/>
			<path d="M23.5,15H22v-0.497c0-1.93-1.57-3.5-3.5-3.5s-3.5,1.57-3.5,3.5V15h-1.5c-0.276,0-0.5,0.224-0.5,0.5v8
				c0,0.276,0.224,0.5,0.5,0.5h10c0.276,0,0.5-0.224,0.5-0.5v-8C24,15.224,23.776,15,23.5,15z M16,14.503c0-1.379,1.122-2.5,2.5-2.5
				s2.5,1.121,2.5,2.5V15h-5V14.503z M23,23h-9v-7h1.49c0.003,0,0.006,0.002,0.01,0.002S21.49,16,21.49,16
				c0.003,0,0.006,0.002,0.01,0.002S23,16,23,16V23z"/>
		</g>
		<path d="M18.5,17.502c-0.551,0-1,0.448-1,1c0,0.365,0.207,0.672,0.5,0.847v1.653c0,0.276,0.224,0.5,0.5,0.5s0.5-0.224,0.5-0.5
			v-1.653c0.293-0.175,0.5-0.481,0.5-0.847C19.5,17.95,19.051,17.502,18.5,17.502z"/>
	</g>
</g>
<g id="invisible_shape">
	<rect fill="none" width="24" height="24"/>
</g>
</svg>
