<?xml version="1.0" encoding="utf-8"?>
<!-- Generator: Adobe Illustrator 16.0.3, SVG Export Plug-In . SVG Version: 6.00 Build 0)  -->
<!DOCTYPE svg PUBLIC "-//W3C//DTD SVG 1.1//EN" "http://www.w3.org/Graphics/SVG/1.1/DTD/svg11.dtd">
<svg version="1.1" xmlns="http://www.w3.org/2000/svg" xmlns:xlink="http://www.w3.org/1999/xlink" x="0px" y="0px" width="24px"
	 height="24px" viewBox="0 0 24 24" enable-background="new 0 0 24 24" xml:space="preserve">
<g id="Outline_Icons">
	<g>
		<path d="M23.5,5H21V2.5C21,2.224,20.776,2,20.5,2h-4C16.223,2,16,2.224,16,2.5V5H8V2.5C8,2.224,7.776,2,7.5,2h-4
			C3.223,2,3,2.224,3,2.5V5H0.5C0.223,5,0,5.224,0,5.5v14C0,19.776,0.223,20,0.5,20h23c0.276,0,0.5-0.224,0.5-0.5v-14
			C24,5.224,23.776,5,23.5,5z M17,3h3v2h-3V3z M4,3h3v2H4V3z M23,19H1V6h22V19z"/>
		<path d="M16.867,11h-3.514l2.941-3.159c0.136-0.146,0.172-0.357,0.093-0.54S16.127,7,15.928,7h-4.539
			c-0.15,0-0.292,0.067-0.388,0.185l-4.89,6c-0.122,0.149-0.147,0.355-0.064,0.53C6.131,13.889,6.307,14,6.5,14h3.071l-1.054,3.868
			c-0.057,0.211,0.028,0.434,0.211,0.552C8.812,18.474,8.906,18.5,9,18.5c0.113,0,0.227-0.039,0.318-0.114l7.867-6.5
			c0.163-0.135,0.224-0.356,0.152-0.555C17.266,11.133,17.078,11,16.867,11z M9.896,16.61l0.812-2.979
			c0.041-0.15,0.009-0.312-0.085-0.436C10.528,13.072,10.381,13,10.225,13H7.552l4.075-5h3.153l-2.941,3.159
			c-0.136,0.146-0.172,0.357-0.093,0.54S12.004,12,12.204,12h3.273L9.896,16.61z"/>
	</g>
</g>
<g id="invisible_shape">
	<rect fill="none" width="24" height="24"/>
</g>
</svg>
