<?xml version="1.0" encoding="utf-8"?>
<!-- Generator: Adobe Illustrator 16.0.3, SVG Export Plug-In . SVG Version: 6.00 Build 0)  -->
<!DOCTYPE svg PUBLIC "-//W3C//DTD SVG 1.1//EN" "http://www.w3.org/Graphics/SVG/1.1/DTD/svg11.dtd">
<svg version="1.1" xmlns="http://www.w3.org/2000/svg" xmlns:xlink="http://www.w3.org/1999/xlink" x="0px" y="0px" width="24px"
	 height="24px" viewBox="0 0 24 24" enable-background="new 0 0 24 24" xml:space="preserve">
<g id="Outline_Icons">
	<g>
		<path d="M19.972,13.048L19.617,7.5c0-1.621-1.834-2.639-4.258-3.135l-0.9-2.065C14.379,2.118,14.199,2,14,2H9
			C8.801,2,8.621,2.118,8.542,2.3L7.643,4.363c-2.425,0.494-4.26,1.506-4.259,3.104l-0.356,5.58C1.874,13.27,1,14.283,1,15.5v6
			C1,21.776,1.223,22,1.5,22H2v1.5C2,23.776,2.223,24,2.5,24h3C5.776,24,6,23.776,6,23.5V22h11v1.5c0,0.276,0.224,0.5,0.5,0.5h3
			c0.276,0,0.5-0.224,0.5-0.5V22h0.5c0.276,0,0.5-0.224,0.5-0.5v-6C22,14.283,21.125,13.27,19.972,13.048z M15,15.5v1.35
			C14.132,16.276,12.818,16,11.5,16S8.867,16.276,8,16.85V15.5c0-1.318-1.029-2.391-2.325-2.482C7.006,12.52,8.991,12,11.5,12
			c2.498,0,4.483,0.52,5.818,1.019C16.025,13.113,15,14.184,15,15.5z M9.328,3h4.345l0.51,1.17C13.316,4.058,12.408,4,11.5,4
			S9.684,4.058,8.818,4.17L9.328,3z M4.382,7.5C4.382,6.098,7.509,5,11.5,5c1.913,0,3.761,0.263,5.072,0.722
			c0.764,0.268,2.045,0.854,2.046,1.811l0.325,5.088C17.699,12.006,15.116,11,11.5,11c-3.617,0-6.2,1.006-7.443,1.621L4.382,7.5z
			 M2,15.5C2,14.673,2.672,14,3.5,14h2C6.327,14,7,14.673,7,15.5V21H2V15.5z M5,23H3v-1h2V23z M8,18.5c0-0.939,1.78-1.5,3.5-1.5
			s3.5,0.561,3.5,1.5V21h-1v-2c0-0.276-0.224-0.5-0.5-0.5S13,18.724,13,19v2h-1v-2c0-0.276-0.224-0.5-0.5-0.5S11,18.724,11,19v2h-1
			v-2c0-0.276-0.224-0.5-0.5-0.5S9,18.724,9,19v2H8V18.5z M20,23h-2v-1h2V23z M21,21h-5v-5.5c0-0.827,0.673-1.5,1.5-1.5h2
			c0.827,0,1.5,0.673,1.5,1.5V21z"/>
		<path d="M18.5,15c-1.103,0-2,0.897-2,2s0.897,2,2,2s2-0.897,2-2S19.603,15,18.5,15z M18.5,18c-0.551,0-1-0.448-1-1s0.449-1,1-1
			s1,0.448,1,1S19.051,18,18.5,18z"/>
		<path d="M4.5,19c1.103,0,2-0.897,2-2s-0.897-2-2-2s-2,0.897-2,2S3.396,19,4.5,19z M4.5,16c0.551,0,1,0.448,1,1s-0.449,1-1,1
			s-1-0.448-1-1S3.948,16,4.5,16z"/>
	</g>
</g>
<g id="invisible_shape">
	<rect fill="none" width="24" height="24"/>
</g>
</svg>
