<?xml version="1.0" encoding="utf-8"?>
<!-- Generator: Adobe Illustrator 16.0.3, SVG Export Plug-In . SVG Version: 6.00 Build 0)  -->
<!DOCTYPE svg PUBLIC "-//W3C//DTD SVG 1.1//EN" "http://www.w3.org/Graphics/SVG/1.1/DTD/svg11.dtd">
<svg version="1.1" xmlns="http://www.w3.org/2000/svg" xmlns:xlink="http://www.w3.org/1999/xlink" x="0px" y="0px" width="24px"
	 height="24px" viewBox="0 0 24 24" enable-background="new 0 0 24 24" xml:space="preserve">
<g id="Outline_Icons">
	<g>
		<path d="M20.875,13.789c-0.053-0.275-0.13-0.538-0.232-0.789H21c1.103,0,2-0.897,2-2s-0.897-2-2-2h-1V8.5
			C20,6.019,17.981,4,15.5,4h-8C5.019,4,3,6.019,3,8.5V9H2c-1.103,0-2,0.897-2,2s0.897,2,2,2h0.357
			c-0.103,0.251-0.18,0.514-0.232,0.789c-1.405,0.598-2.059,2.102-2.059,3.607c0,1.988,1.083,4.033,2.934,4.502V23.5
			C3,23.776,3.224,24,3.5,24h3C6.776,24,7,23.776,7,23.5V22h9v1.5c0,0.276,0.224,0.5,0.5,0.5h3c0.276,0,0.5-0.224,0.5-0.5v-1.6
			c0.782-0.197,1.472-0.685,1.994-1.419c0.597-0.84,0.94-1.965,0.94-3.085C22.934,15.891,22.28,14.387,20.875,13.789z M21,10
			c0.551,0,1,0.448,1,1s-0.449,1-1,1h-0.938c-0.02-0.024-0.042-0.047-0.062-0.07V10H21z M4,8.5C4,6.57,5.57,5,7.5,5h8
			C17.43,5,19,6.57,19,8.5v2.564c-0.547-0.34-1.182-0.58-1.891-0.677c-3.719-0.51-7.494-0.51-11.217,0
			C5.182,10.484,4.547,10.725,4,11.064V8.5z M2,12c-0.551,0-1-0.448-1-1s0.449-1,1-1h1v1.93C2.98,11.953,2.958,11.976,2.938,12H2z
			 M6.027,11.378c3.634-0.496,7.317-0.496,10.947,0c1.397,0.19,2.42,1,2.812,2.163c-0.098-0.007-0.185-0.03-0.288-0.03
			c-1.144,0-2.479,0.479-3.963,1.391L11.8,12.1c-0.178-0.133-0.422-0.133-0.6,0l-3.735,2.802c-1.483-0.911-2.819-1.391-3.963-1.391
			c-0.103,0-0.19,0.023-0.288,0.03C3.606,12.378,4.629,11.568,6.027,11.378z M11,13.5V21h-1v-6.75L11,13.5z M12,13.5l1,0.75V21h-1
			V13.5z M14,15l1,0.75V21h-1V15z M1.066,17.396c0-0.808,0.215-1.533,0.606-2.044c0.428-0.559,1.043-0.842,1.83-0.842
			c0.973,0,2.148,0.425,3.498,1.264V21H6.5H3.81C2.092,21,1.066,19.168,1.066,17.396z M6,23H4v-1h2V23z M8,15.75L9,15v6H8V15.75z
			 M19,23h-2v-1h2V23z M21.179,19.902C20.823,20.403,20.189,21,19.19,21H16.5H16v-5.226c1.35-0.839,2.525-1.264,3.498-1.264
			c1.796,0,2.436,1.49,2.436,2.886C21.934,18.314,21.659,19.228,21.179,19.902z"/>
		<path d="M19,15.5c-0.827,0-1.5,0.673-1.5,1.5s0.673,1.5,1.5,1.5s1.5-0.673,1.5-1.5S19.827,15.5,19,15.5z M19,17.5
			c-0.276,0-0.5-0.225-0.5-0.5s0.224-0.5,0.5-0.5s0.5,0.225,0.5,0.5S19.276,17.5,19,17.5z"/>
		<path d="M5.5,17c0-0.827-0.673-1.5-1.5-1.5S2.5,16.173,2.5,17s0.673,1.5,1.5,1.5S5.5,17.827,5.5,17z M3.5,17
			c0-0.275,0.224-0.5,0.5-0.5s0.5,0.225,0.5,0.5S4.276,17.5,4,17.5S3.5,17.275,3.5,17z"/>
	</g>
</g>
<g id="invisible_shape">
	<rect fill="none" width="24" height="24"/>
</g>
</svg>
