<?xml version="1.0" encoding="utf-8"?>
<!-- Generator: Adobe Illustrator 16.0.3, SVG Export Plug-In . SVG Version: 6.00 Build 0)  -->
<!DOCTYPE svg PUBLIC "-//W3C//DTD SVG 1.1//EN" "http://www.w3.org/Graphics/SVG/1.1/DTD/svg11.dtd">
<svg version="1.1" xmlns="http://www.w3.org/2000/svg" xmlns:xlink="http://www.w3.org/1999/xlink" x="0px" y="0px" width="24px"
	 height="24px" viewBox="0 0 24 24" enable-background="new 0 0 24 24" xml:space="preserve">
<g id="Outline_Icons">
	<g>
		<path d="M23.5,18H23v-4.5c0-0.276-0.224-0.5-0.5-0.5H22v-1.112l1.562-0.403c0.268-0.069,0.428-0.342,0.359-0.609
			c-0.069-0.267-0.341-0.427-0.609-0.359l-2.905,0.75c-0.268,0.069-0.428,0.342-0.359,0.609c0.058,0.226,0.261,0.375,0.483,0.375
			c0.042,0,0.083-0.005,0.125-0.016L21,12.146V13h-0.367l-6.885-3.935C13.672,9.022,13.586,9,13.5,9H8
			C7.81,9,7.637,9.107,7.552,9.276L5.69,13H2c-1.103,0-2,0.897-2,2v3.5C0,18.776,0.223,19,0.5,19h1.55c0.232,1.14,1.242,2,2.45,2
			s2.217-0.86,2.45-2h7.101c0.232,1.14,1.242,2,2.45,2s2.217-0.86,2.45-2h4.55c0.276,0,0.5-0.224,0.5-0.5S23.776,18,23.5,18z M1,15
			c0-0.552,0.449-1,1-1h4c0.189,0,0.362-0.107,0.447-0.276L8.309,10h5.058l6.885,3.935C20.327,13.978,20.413,14,20.5,14H22v4h-3.05
			c-0.232-1.14-1.242-2-2.45-2s-2.217,0.86-2.45,2H6.949c-0.232-1.14-1.242-2-2.45-2s-2.217,0.86-2.45,2H1V15z M4.5,20
			C3.672,20,3,19.327,3,18.5S3.672,17,4.5,17S6,17.673,6,18.5S5.327,20,4.5,20z M16.5,20c-0.827,0-1.5-0.673-1.5-1.5
			s0.673-1.5,1.5-1.5s1.5,0.673,1.5,1.5S17.327,20,16.5,20z"/>
		<path d="M8.276,13.947C8.348,13.983,8.424,14,8.499,14c0.184,0,0.36-0.102,0.448-0.276L9.809,12H10.5c0.276,0,0.5-0.224,0.5-0.5
			S10.776,11,10.5,11h-1c-0.189,0-0.362,0.107-0.447,0.276l-1,2C7.929,13.523,8.029,13.823,8.276,13.947z"/>
	</g>
</g>
<g id="invisible_shape">
	<rect fill="none" width="24" height="24"/>
</g>
</svg>
