<?xml version="1.0" encoding="utf-8"?>
<!-- Generator: Adobe Illustrator 16.0.3, SVG Export Plug-In . SVG Version: 6.00 Build 0)  -->
<!DOCTYPE svg PUBLIC "-//W3C//DTD SVG 1.1//EN" "http://www.w3.org/Graphics/SVG/1.1/DTD/svg11.dtd">
<svg version="1.1" xmlns="http://www.w3.org/2000/svg" xmlns:xlink="http://www.w3.org/1999/xlink" x="0px" y="0px" width="24px"
	 height="24px" viewBox="0 0 24 24" enable-background="new 0 0 24 24" xml:space="preserve">
<g id="Outline_Icons">
	<g>
		<path d="M22.782,9.397c-2.932-1.811-6.298-2.896-9.737-3.14l-0.07,0.998c3.067,0.216,6.074,1.136,8.737,2.668l-4.334,4.333
			c-1.368-0.599-2.812-0.981-4.297-1.14l-0.105,0.994c1.492,0.159,2.939,0.562,4.3,1.196c0.068,0.031,0.14,0.047,0.211,0.047
			c0.13,0,0.258-0.051,0.354-0.146l5.033-5.031c0.108-0.108,0.161-0.26,0.143-0.411C22.998,9.613,22.912,9.479,22.782,9.397z"/>
		<path d="M11.509,17c-0.235,0-0.459,0.043-0.675,0.104l-2.024-2.8c0.407-0.082,0.817-0.149,1.232-0.193l-0.105-0.994
			c-0.597,0.063-1.183,0.173-1.763,0.308L5.53,9.77C5.368,9.546,5.054,9.496,4.832,9.657c-0.224,0.162-0.274,0.475-0.112,0.698
			l2.423,3.351c-0.508,0.158-1.011,0.335-1.501,0.55L1.307,9.923C3.962,8.396,6.96,7.477,10.02,7.258L9.948,6.26
			C6.518,6.506,3.159,7.591,0.237,9.396c-0.13,0.081-0.216,0.216-0.234,0.368c-0.018,0.151,0.035,0.303,0.143,0.411l5.032,5.031
			c0.096,0.096,0.224,0.146,0.354,0.146c0.072,0,0.144-0.016,0.211-0.047c0.652-0.305,1.326-0.553,2.015-0.749l2.179,3.014
			C9.376,18.03,9.009,18.72,9.009,19.5c0,1.379,1.122,2.5,2.5,2.5s2.5-1.121,2.5-2.5S12.888,17,11.509,17z M11.509,21
			c-0.827,0-1.5-0.673-1.5-1.5s0.673-1.5,1.5-1.5s1.5,0.673,1.5,1.5S12.336,21,11.509,21z"/>
		<path d="M11.5,4C11.776,4,12,3.776,12,3.5v-1C12,2.224,11.776,2,11.5,2S11,2.224,11,2.5v1C11,3.776,11.223,4,11.5,4z"/>
		<path d="M11.5,7C11.776,7,12,6.776,12,6.5v-1C12,5.224,11.776,5,11.5,5S11,5.224,11,5.5v1C11,6.776,11.223,7,11.5,7z"/>
		<path d="M11.5,10c0.276,0,0.5-0.224,0.5-0.5v-1C12,8.224,11.776,8,11.5,8S11,8.224,11,8.5v1C11,9.776,11.223,10,11.5,10z"/>
		<path d="M11.5,13c0.276,0,0.5-0.224,0.5-0.5v-1c0-0.276-0.224-0.5-0.5-0.5S11,11.224,11,11.5v1C11,12.776,11.223,13,11.5,13z"/>
		<path d="M11.5,16c0.276,0,0.5-0.224,0.5-0.5v-1c0-0.276-0.224-0.5-0.5-0.5S11,14.224,11,14.5v1C11,15.776,11.223,16,11.5,16z"/>
	</g>
</g>
<g id="invisible_shape">
	<rect fill="none" width="24" height="24"/>
</g>
</svg>
