<?xml version="1.0" encoding="utf-8"?>
<!-- Generator: Adobe Illustrator 16.0.3, SVG Export Plug-In . SVG Version: 6.00 Build 0)  -->
<!DOCTYPE svg PUBLIC "-//W3C//DTD SVG 1.1//EN" "http://www.w3.org/Graphics/SVG/1.1/DTD/svg11.dtd">
<svg version="1.1" xmlns="http://www.w3.org/2000/svg" xmlns:xlink="http://www.w3.org/1999/xlink" x="0px" y="0px" width="24px"
	 height="24px" viewBox="0 0 24 24" enable-background="new 0 0 24 24" xml:space="preserve">
<g id="Outline_Icons">
	<g>
		<path d="M15,12.412V10c0-2.317-1.472-4-3.5-4S8,7.683,8,10v2.412L4.03,23.329c-0.095,0.26,0.04,0.547,0.299,0.641
			C4.386,23.99,4.443,24,4.5,24c0.204,0,0.396-0.126,0.47-0.329L5.577,22h11.846l0.607,1.671C18.104,23.874,18.296,24,18.5,24
			c0.057,0,0.114-0.01,0.171-0.03c0.259-0.094,0.394-0.381,0.299-0.641L15,12.412z M7.759,16h7.481l0.728,2H7.032L7.759,16z
			 M8.85,13h5.3l0.727,2H8.123L8.85,13z M9,10c0-1.767,1.028-3,2.5-3S14,8.233,14,10v2H9V10z M5.941,21l0.727-2h9.664l0.727,2H5.941
			z"/>
		<path d="M11.5,0C5.159,0,0,5.383,0,12v11.5C0,23.776,0.224,24,0.5,24S1,23.776,1,23.5V12C1,5.935,5.71,1,11.5,1S22,5.935,22,12
			v11.5c0,0.276,0.224,0.5,0.5,0.5s0.5-0.224,0.5-0.5V12C23,5.383,17.841,0,11.5,0z"/>
	</g>
</g>
<g id="invisible_shape">
	<rect fill="none" width="24" height="24"/>
</g>
</svg>
