<?xml version="1.0" encoding="utf-8"?>
<!-- Generator: Adobe Illustrator 16.0.3, SVG Export Plug-In . SVG Version: 6.00 Build 0)  -->
<!DOCTYPE svg PUBLIC "-//W3C//DTD SVG 1.1//EN" "http://www.w3.org/Graphics/SVG/1.1/DTD/svg11.dtd">
<svg version="1.1" xmlns="http://www.w3.org/2000/svg" xmlns:xlink="http://www.w3.org/1999/xlink" x="0px" y="0px" width="24px"
	 height="24px" viewBox="0 0 24 24" enable-background="new 0 0 24 24" xml:space="preserve">
<g id="Outline_Icons">
	<path d="M22,18.278L22,3.5C22,3.224,21.776,3,21.5,3h-1.551c-0.245-1.691-1.69-3-3.449-3h-8C6.741,0,5.296,1.309,5.051,3H3.5
		C3.367,3,3.24,3.053,3.146,3.146S3,3.367,3,3.5l0,14.777C2.405,18.625,2,19.263,2,20c0,1.103,0.897,2,2,2v1.5
		C4,23.776,4.224,24,4.5,24h3C7.776,24,8,23.776,8,23.5V22h9v1.5c0,0.276,0.224,0.5,0.5,0.5h3c0.276,0,0.5-0.224,0.5-0.5V22
		c1.103,0,2-0.897,2-2C23,19.264,22.595,18.625,22,18.278z M21,18h-1.949c0.2-0.979,0.972-1.75,1.95-1.949L21,18C21,18,21,18,21,18z
		 M17,18v-2.5c0-0.276-0.224-0.5-0.5-0.5h-8C8.224,15,8,15.224,8,15.5V18H6.95C6.729,16.473,5.527,15.271,4,15.051V14h17v1.051
		c-1.527,0.221-2.728,1.422-2.95,2.949H17z M16,18H9v-2h7V18z M5.95,18H4v-1.949C4.979,16.25,5.75,17.021,5.95,18z M4.023,13
		l1.846-6h13.262l1.847,6H4.023z M18.95,3H16V1h0.5C17.708,1,18.717,1.86,18.95,3z M10,3V1h5v2H10z M8.5,1H9v2H6.05
		C6.283,1.86,7.292,1,8.5,1z M5.5,4h14H21v5.674l-1.022-3.321C19.913,6.144,19.72,6,19.5,6h-14C5.28,6,5.086,6.144,5.022,6.353
		L4,9.674V4H5.5z M7,23H5v-1h2V23z M20,23h-2v-1h2V23z M21,21H4c-0.551,0-1-0.448-1-1s0.449-1,1-1h17c0.551,0,1,0.448,1,1
		S21.551,21,21,21z"/>
</g>
<g id="invisible_shape">
	<rect fill="none" width="24" height="24"/>
</g>
</svg>
