<?xml version="1.0" encoding="utf-8"?>
<!-- Generator: Adobe Illustrator 16.0.3, SVG Export Plug-In . SVG Version: 6.00 Build 0)  -->
<!DOCTYPE svg PUBLIC "-//W3C//DTD SVG 1.1//EN" "http://www.w3.org/Graphics/SVG/1.1/DTD/svg11.dtd">
<svg version="1.1" xmlns="http://www.w3.org/2000/svg" xmlns:xlink="http://www.w3.org/1999/xlink" x="0px" y="0px" width="24px"
	 height="24px" viewBox="0 0 24 24" enable-background="new 0 0 24 24" xml:space="preserve">
<g id="Outline_Icons">
	<g>
		<path d="M20,2h-4.195c-0.867-1.189-2.462-2-4.305-2S8.062,0.811,7.195,2H3C2.723,2,2.5,2.224,2.5,2.5S2.723,3,3,3h3.678
			C6.573,3.321,6.5,3.652,6.5,4c0,1.498,1.046,2.789,2.572,3.475C6.688,8.439,5,10.774,5,13.5v4c0,2.326,1.78,4.223,4.046,4.454
			C9.261,23.116,10.277,24,11.5,24s2.239-0.884,2.454-2.046C16.22,21.723,18,19.826,18,17.5v-4c0-2.726-1.688-5.061-4.072-6.025
			C15.454,6.789,16.5,5.498,16.5,4c0-0.348-0.073-0.679-0.178-1H20c0.276,0,0.5-0.224,0.5-0.5S20.276,2,20,2z M12,8.025V12h-1V8.025
			C11.165,8.01,11.331,8,11.5,8S11.835,8.01,12,8.025z M11.5,23c-0.827,0-1.5-0.673-1.5-1.5v-4c0-0.827,0.673-1.5,1.5-1.5
			s1.5,0.673,1.5,1.5v4C13,22.327,12.327,23,11.5,23z M17,13.5v4c0,1.759-1.309,3.204-3,3.449V17.5c0-1.379-1.122-2.5-2.5-2.5
			S9,16.121,9,17.5v3.449c-1.691-0.245-3-1.69-3-3.449v-4c0-2.512,1.695-4.631,4-5.287V12.5c0,0.276,0.224,0.5,0.5,0.5h2
			c0.276,0,0.5-0.224,0.5-0.5V8.213C15.305,8.869,17,10.988,17,13.5z M11.5,7c-2.206,0-4-1.346-4-3s1.794-3,4-3s4,1.346,4,3
			S13.706,7,11.5,7z"/>
		<path d="M11.5,2c-1.103,0-2,0.897-2,2s0.897,2,2,2s2-0.897,2-2S12.603,2,11.5,2z M11.5,5c-0.551,0-1-0.448-1-1s0.449-1,1-1
			s1,0.448,1,1S12.051,5,11.5,5z"/>
	</g>
</g>
<g id="invisible_shape">
	<rect fill="none" width="24" height="24"/>
</g>
</svg>
