<?xml version="1.0" encoding="utf-8"?>
<!-- Generator: Adobe Illustrator 16.0.3, SVG Export Plug-In . SVG Version: 6.00 Build 0)  -->
<!DOCTYPE svg PUBLIC "-//W3C//DTD SVG 1.1//EN" "http://www.w3.org/Graphics/SVG/1.1/DTD/svg11.dtd">
<svg version="1.1" xmlns="http://www.w3.org/2000/svg" xmlns:xlink="http://www.w3.org/1999/xlink" x="0px" y="0px" width="24px"
	 height="24px" viewBox="0 0 24 24" enable-background="new 0 0 24 24" xml:space="preserve">
<g id="Outline_Icons">
	<g>
		<path d="M6,10.233c0-2.507-1.318-4.471-3-4.471s-3,1.964-3,4.471s1.318,4.471,3,4.471S6,12.74,6,10.233z M3,13.704
			c-1.084,0-2-1.59-2-3.471s0.916-3.471,2-3.471s2,1.59,2,3.471S4.083,13.704,3,13.704z"/>
		<path d="M8.629,8.66c0.006,0,0.072-0.001,0.079-0.001c0.784-0.031,1.486-0.518,1.977-1.369c0.449-0.779,0.672-1.79,0.63-2.846
			c-0.089-2.24-1.342-3.995-2.93-3.995c-0.001,0-0.001,0-0.002,0C7.598,0.48,6.896,0.967,6.405,1.819
			c-0.448,0.778-0.672,1.789-0.63,2.845C5.864,6.905,7.118,8.66,8.629,8.66z M7.272,2.318c0.181-0.315,0.571-0.847,1.188-0.87
			c0.94,0,1.79,1.39,1.855,3.035c0.035,0.871-0.142,1.69-0.498,2.308c-0.182,0.314-0.572,0.846-1.15,0.868L8.629,8.16v-0.5
			c-0.94,0-1.789-1.39-1.854-3.035C6.74,3.755,6.917,2.936,7.272,2.318z"/>
		<path d="M20.71,5.763c-1.682,0-3,1.964-3,4.471s1.318,4.471,3,4.471s3-1.964,3-4.471S22.393,5.763,20.71,5.763z M20.71,13.704
			c-1.084,0-2-1.59-2-3.471s0.916-3.471,2-3.471s2,1.59,2,3.471S21.794,13.704,20.71,13.704z"/>
		<path d="M15.002,8.659c0.006,0,0.072,0.001,0.079,0.001c1.511,0,2.765-1.755,2.854-3.996c0.042-1.056-0.182-2.066-0.63-2.845
			c-0.49-0.853-1.192-1.339-2.055-1.371c-1.512,0-2.766,1.755-2.854,3.996c-0.042,1.056,0.182,2.066,0.63,2.846
			C13.517,8.142,14.218,8.628,15.002,8.659z M15.288,1.449L15.288,1.449c0.579,0.022,0.969,0.554,1.15,0.869
			c0.355,0.617,0.532,1.437,0.498,2.307C16.87,6.271,16.021,7.66,15.081,7.66v0.5l-0.04-0.501c-0.578-0.022-0.968-0.554-1.149-0.868
			c-0.355-0.617-0.532-1.437-0.498-2.308C13.46,2.839,14.309,1.449,15.288,1.449z"/>
		<path d="M15.757,13.658c-0.402-2.008-1.639-4.153-3.902-4.153s-3.5,2.146-3.902,4.154c-0.127,0.635-0.715,1.256-1.337,1.915
			c-0.978,1.034-2.085,2.206-2.085,3.983C4.531,22.61,8.328,24,11.855,24s7.324-1.39,7.324-4.442c0-1.777-1.107-2.949-2.085-3.983
			C16.472,14.915,15.884,14.294,15.757,13.658z M11.855,23c-3.143,0-6.324-1.183-6.324-3.442c0-1.38,0.921-2.354,1.812-3.297
			c0.724-0.766,1.407-1.489,1.591-2.405c0.158-0.786,0.834-3.351,2.922-3.351s2.764,2.564,2.922,3.35
			c0.184,0.917,0.867,1.641,1.591,2.406c0.891,0.942,1.812,1.917,1.812,3.297C18.179,21.817,14.998,23,11.855,23z"/>
	</g>
</g>
<g id="invisible_shape">
	<rect fill="none" width="24" height="24"/>
</g>
</svg>
