<?xml version="1.0" encoding="utf-8"?>
<!-- Generator: Adobe Illustrator 16.0.3, SVG Export Plug-In . SVG Version: 6.00 Build 0)  -->
<!DOCTYPE svg PUBLIC "-//W3C//DTD SVG 1.1//EN" "http://www.w3.org/Graphics/SVG/1.1/DTD/svg11.dtd">
<svg version="1.1" xmlns="http://www.w3.org/2000/svg" xmlns:xlink="http://www.w3.org/1999/xlink" x="0px" y="0px" width="24px"
	 height="24px" viewBox="0 0 24 24" enable-background="new 0 0 24 24" xml:space="preserve">
<g id="Outline_Icons">
	<g>
		<path d="M24,12c0-0.148-0.066-0.289-0.18-0.384l-1.905-1.588l1.152-2.196c0.069-0.132,0.076-0.287,0.019-0.424
			s-0.171-0.242-0.313-0.286l-2.367-0.737l0.224-2.471c0.013-0.147-0.04-0.294-0.145-0.398c-0.105-0.105-0.252-0.157-0.399-0.145
			l-2.471,0.226l-0.738-2.368c-0.044-0.142-0.149-0.257-0.286-0.313s-0.292-0.05-0.424,0.02l-2.196,1.151L12.384,0.18
			c-0.19-0.227-0.578-0.227-0.769,0l-1.588,1.906L7.832,0.935C7.7,0.865,7.544,0.857,7.408,0.915
			C7.271,0.972,7.166,1.087,7.122,1.229L6.384,3.597L3.913,3.371C3.768,3.359,3.619,3.41,3.514,3.516
			C3.409,3.62,3.356,3.767,3.37,3.914l0.224,2.471L1.226,7.122C1.084,7.166,0.969,7.271,0.913,7.408S0.863,7.7,0.932,7.832
			l1.153,2.196L0.18,11.616C0.065,11.711,0,11.852,0,12s0.066,0.289,0.18,0.384l1.906,1.589L0.932,16.17
			c-0.069,0.132-0.076,0.287-0.019,0.424s0.171,0.242,0.313,0.286l2.368,0.737L3.37,20.088c-0.013,0.147,0.04,0.294,0.145,0.398
			c0.105,0.105,0.253,0.148,0.399,0.145l2.471-0.226l0.738,2.368c0.044,0.142,0.149,0.257,0.286,0.313
			c0.137,0.057,0.292,0.05,0.424-0.02l2.196-1.151l1.588,1.904C11.71,23.935,11.851,24,12,24s0.289-0.065,0.384-0.18l1.588-1.904
			l2.196,1.151c0.131,0.068,0.286,0.075,0.424,0.02c0.137-0.057,0.242-0.172,0.286-0.313l0.738-2.368l2.471,0.226
			c0.148,0.005,0.294-0.04,0.399-0.145s0.158-0.251,0.145-0.398l-0.224-2.471l2.367-0.737c0.142-0.044,0.256-0.149,0.313-0.286
			s0.05-0.292-0.019-0.424l-1.152-2.197l1.906-1.589C23.934,12.289,24,12.148,24,12z M20.963,13.464
			c-0.181,0.15-0.232,0.407-0.123,0.616l1.062,2.023l-2.181,0.679c-0.225,0.07-0.37,0.288-0.349,0.522l0.207,2.275l-2.275-0.207
			c-0.231-0.008-0.452,0.124-0.523,0.35l-0.68,2.181l-2.022-1.061c-0.208-0.11-0.465-0.059-0.616,0.122L12,22.719l-1.463-1.754
			c-0.098-0.117-0.239-0.18-0.384-0.18c-0.079,0-0.159,0.019-0.232,0.058l-2.022,1.061l-0.68-2.181
			c-0.07-0.226-0.293-0.36-0.523-0.35L4.42,19.58l0.207-2.275c0.021-0.234-0.125-0.452-0.35-0.522l-2.181-0.679l1.062-2.023
			c0.109-0.209,0.058-0.466-0.123-0.616L1.28,12l1.755-1.462c0.181-0.15,0.232-0.407,0.123-0.616L2.096,7.898L4.277,7.22
			c0.225-0.07,0.371-0.288,0.35-0.522L4.42,4.422l2.275,0.207c0.231,0.012,0.453-0.124,0.523-0.35l0.68-2.181L9.92,3.159
			c0.209,0.11,0.465,0.059,0.617-0.122L12,1.281l1.462,1.756c0.151,0.181,0.408,0.232,0.617,0.122l2.022-1.061l0.68,2.181
			c0.071,0.226,0.29,0.359,0.523,0.35l2.275-0.207l-0.207,2.275c-0.021,0.234,0.125,0.452,0.349,0.522l2.181,0.679l-1.062,2.023
			c-0.109,0.209-0.058,0.466,0.123,0.616L22.719,12L20.963,13.464z"/>
		<path d="M13.364,11.762c-0.632-0.865-2.091-0.87-2.731-0.001l-1.823,2.487c-0.378,0.518-0.435,1.222-0.145,1.794
			C8.959,16.624,9.552,17,10.175,17h3.648c0.624,0,1.216-0.376,1.509-0.957c0.288-0.567,0.231-1.267-0.145-1.78L13.364,11.762z
			 M14.441,15.591C14.317,15.836,14.069,16,13.824,16h-3.648c-0.246,0-0.494-0.164-0.618-0.41c-0.118-0.232-0.093-0.542,0.06-0.751
			l1.822-2.486c0.131-0.178,0.34-0.284,0.56-0.284s0.428,0.105,0.557,0.283l1.824,2.501C14.535,15.062,14.559,15.358,14.441,15.591z
			"/>
		<path d="M9.992,10.893c0-0.963-0.783-1.746-1.746-1.746S6.5,9.93,6.5,10.893s0.783,1.746,1.746,1.746S9.992,11.855,9.992,10.893z
			 M8.246,11.639c-0.412,0-0.746-0.335-0.746-0.746s0.334-0.746,0.746-0.746s0.746,0.335,0.746,0.746S8.657,11.639,8.246,11.639z"/>
		<path d="M11.984,10.146c0.963,0,1.746-0.783,1.746-1.746s-0.783-1.746-1.746-1.746S10.238,7.438,10.238,8.4
			S11.021,10.146,11.984,10.146z M11.984,7.654c0.412,0,0.746,0.335,0.746,0.746s-0.334,0.746-0.746,0.746S11.238,8.812,11.238,8.4
			S11.572,7.654,11.984,7.654z"/>
		<path d="M15.753,9.146c-0.963,0-1.746,0.783-1.746,1.746s0.783,1.746,1.746,1.746s1.746-0.783,1.746-1.746
			S16.716,9.146,15.753,9.146z M15.753,11.639c-0.412,0-0.746-0.335-0.746-0.746s0.334-0.746,0.746-0.746s0.746,0.335,0.746,0.746
			S16.165,11.639,15.753,11.639z"/>
	</g>
</g>
<g id="invisible_shape">
	<rect fill="none" width="24" height="24"/>
</g>
</svg>
