<?xml version="1.0" encoding="utf-8"?>
<!-- Generator: Adobe Illustrator 16.0.3, SVG Export Plug-In . SVG Version: 6.00 Build 0)  -->
<!DOCTYPE svg PUBLIC "-//W3C//DTD SVG 1.1//EN" "http://www.w3.org/Graphics/SVG/1.1/DTD/svg11.dtd">
<svg version="1.1" xmlns="http://www.w3.org/2000/svg" xmlns:xlink="http://www.w3.org/1999/xlink" x="0px" y="0px" width="24px"
	 height="24px" viewBox="0 0 24 24" enable-background="new 0 0 24 24" xml:space="preserve">
<g id="Outline_Icons_1_">
	<g id="Outline_Icons">
	</g>
	<g id="New_icons_1_">
		<g>
			<path d="M19.5,2H12V0.5c0-0.152-0.069-0.295-0.187-0.39c-0.119-0.095-0.273-0.129-0.421-0.099l-9,2C2.163,2.062,2,2.266,2,2.5v19
				c0,0.234,0.163,0.438,0.392,0.488l9,2c0.147,0.032,0.301-0.002,0.421-0.098C11.931,23.795,12,23.652,12,23.5V22h7.5
				c0.276,0,0.5-0.224,0.5-0.5v-19C20,2.224,19.776,2,19.5,2z M11,22.876l-8-1.777V2.901l8-1.777V22.876z M19,21h-7V3h7V21z"/>
			<path d="M8,10.5c-1.103,0-2,0.897-2,2s0.897,2,2,2s2-0.897,2-2S9.103,10.5,8,10.5z M8,13.5c-0.551,0-1-0.449-1-1s0.449-1,1-1
				s1,0.449,1,1S8.551,13.5,8,13.5z"/>
		</g>
	</g>
</g>
<g id="Invisible_SHape">
	<rect fill="none" width="24" height="24"/>
</g>
</svg>
