<?xml version="1.0" encoding="utf-8"?>
<!-- Generator: Adobe Illustrator 16.0.3, SVG Export Plug-In . SVG Version: 6.00 Build 0)  -->
<!DOCTYPE svg PUBLIC "-//W3C//DTD SVG 1.1//EN" "http://www.w3.org/Graphics/SVG/1.1/DTD/svg11.dtd">
<svg version="1.1" xmlns="http://www.w3.org/2000/svg" xmlns:xlink="http://www.w3.org/1999/xlink" x="0px" y="0px" width="24px"
	 height="24px" viewBox="0 0 24 24" enable-background="new 0 0 24 24" xml:space="preserve">
<g id="Outline_Icons_1_">
	<g id="Outline_Icons">
	</g>
	<g id="New_icons_1_">
		<path d="M22.854,18.026l-5.196-5.196c1.085-2.272,0.629-5.029-1.168-6.825c-1.08-1.08-2.495-1.684-3.989-1.744V2.5
			C12.5,1.122,11.378,0,10,0S7.5,1.122,7.5,2.5v0.526C4.425,3.281,2,5.86,2,9c0,2.541,1.627,4.812,4,5.652v0.641l-0.854,0.853
			C5.053,16.239,5,16.367,5,16.499s0.053,0.26,0.146,0.354L6,17.707v0.586l-0.854,0.854c-0.195,0.195-0.195,0.512,0,0.707L6,20.707
			V22c0,0.133,0.053,0.26,0.146,0.354l1.5,1.5C7.744,23.951,7.872,24,8,24s0.256-0.049,0.354-0.146l1.5-1.5
			C9.947,22.26,10,22.133,10,22v-6.195c1.555,0.625,3.326,0.577,4.85-0.157l0.65,0.577V17.5c0,0.276,0.224,0.5,0.5,0.5h1.286
			l0.214,0.225V19.5c0,0.276,0.224,0.5,0.5,0.5h1.119l0.917,0.864C20.129,20.951,20.251,21,20.379,21H22.5
			c0.276,0,0.5-0.224,0.5-0.5v-2.121C23,18.246,22.947,18.119,22.854,18.026z M10,1c0.827,0,1.5,0.673,1.5,1.5v1.637
			c-0.859-0.62-1.886-1.018-3-1.111V2.5C8.5,1.673,9.173,1,10,1z M8,7.5c0.276,0,0.5-0.224,0.5-0.5V6.154C8.793,6.328,9,6.635,9,7
			c0,0.551-0.449,1-1,1S7,7.551,7,7c0-0.365,0.207-0.672,0.5-0.846V7C7.5,7.276,7.724,7.5,8,7.5z M9,21.793l-1,1l-1-1V20.5
			c0-0.133-0.053-0.26-0.146-0.354L6.207,19.5l0.646-0.646C6.947,18.76,7,18.633,7,18.5v-1c0-0.132-0.053-0.26-0.146-0.354
			L6.207,16.5l0.646-0.646C6.947,15.76,7,15.633,7,15.5v-1.213c0-0.224-0.148-0.42-0.364-0.48C4.495,13.2,3,11.223,3,9
			c0-2.585,1.98-4.694,4.5-4.949v1.02C6.64,5.294,6,6.071,6,7c0,1.103,0.897,2,2,2s2-0.897,2-2c0-0.929-0.64-1.706-1.5-1.929v-1.02
			C11.02,4.306,13,6.415,13,9c0,2.223-1.495,4.2-3.636,4.807C9.148,13.867,9,14.063,9,14.287V21.793z M22,20h-1.423l-0.917-0.864
			C19.567,19.049,19.445,19,19.317,19H18.5v-0.976c0-0.128-0.049-0.252-0.138-0.345l-0.5-0.524C17.768,17.056,17.637,17,17.5,17h-1
			v-1c0-0.143-0.061-0.279-0.168-0.374l-1.075-0.954c-0.159-0.141-0.39-0.165-0.576-0.062c-1.448,0.808-3.213,0.831-4.681,0.093
			c0,0,4-1.444,4-5.703c0-1.41-0.492-2.706-1.31-3.732c1.158,0.1,2.248,0.599,3.092,1.443c1.573,1.572,1.913,4.027,0.827,5.97
			c-0.109,0.195-0.075,0.439,0.083,0.597L22,18.586V20z"/>
	</g>
</g>
<g id="Invisible_SHape">
	<rect fill="none" width="24" height="24"/>
</g>
</svg>
