<?xml version="1.0" encoding="utf-8"?>
<!-- Generator: Adobe Illustrator 16.0.3, SVG Export Plug-In . SVG Version: 6.00 Build 0)  -->
<!DOCTYPE svg PUBLIC "-//W3C//DTD SVG 1.1//EN" "http://www.w3.org/Graphics/SVG/1.1/DTD/svg11.dtd">
<svg version="1.1" xmlns="http://www.w3.org/2000/svg" xmlns:xlink="http://www.w3.org/1999/xlink" x="0px" y="0px" width="24px"
	 height="24px" viewBox="0 0 24 24" enable-background="new 0 0 24 24" xml:space="preserve">
<g id="Outline_Icons_1_">
	<g id="Outline_Icons">
		<g>
			<path d="M22.5,12H8.707l3.146-3.146c0.195-0.195,0.195-0.512,0-0.707s-0.512-0.195-0.707,0l-4,4
				c-0.194,0.195-0.195,0.513,0,0.708l4,4c0.195,0.195,0.512,0.195,0.707,0c0.195-0.195,0.195-0.512,0-0.707L8.707,13H22.5
				c0.276,0,0.5-0.224,0.5-0.5S22.776,12,22.5,12z"/>
			<path d="M21.746,16.542c-0.251-0.113-0.548,0-0.661,0.251C19.394,20.563,15.632,23,11.5,23C5.71,23,1,18.29,1,12.5S5.71,2,11.5,2
				c4.108,0,7.861,2.417,9.562,6.158c0.113,0.25,0.409,0.364,0.662,0.248c0.251-0.114,0.362-0.411,0.248-0.662
				C20.11,3.647,15.999,1,11.5,1C5.159,1,0,6.159,0,12.5S5.159,24,11.5,24c4.525,0,8.646-2.668,10.497-6.798
				C22.11,16.951,21.998,16.654,21.746,16.542z"/>
		</g>
	</g>
	<g id="New_icons_1_">
	</g>
</g>
<g id="Invisible_SHape">
	<rect fill="none" width="24" height="24"/>
</g>
</svg>
