<?xml version="1.0" encoding="utf-8"?>
<!-- Generator: Adobe Illustrator 16.0.3, SVG Export Plug-In . SVG Version: 6.00 Build 0)  -->
<!DOCTYPE svg PUBLIC "-//W3C//DTD SVG 1.1//EN" "http://www.w3.org/Graphics/SVG/1.1/DTD/svg11.dtd">
<svg version="1.1" xmlns="http://www.w3.org/2000/svg" xmlns:xlink="http://www.w3.org/1999/xlink" x="0px" y="0px" width="24px"
	 height="24px" viewBox="0 0 24 24" enable-background="new 0 0 24 24" xml:space="preserve">
<g id="Outline_Icons_1_">
	<g id="Outline_Icons">
	</g>
	<g id="New_icons_1_">
		<g>
			<path d="M11.652,14h0.641l0.854,0.854c0.195,0.195,0.512,0.195,0.707,0L14.707,14h0.586l0.854,0.854
				c0.195,0.195,0.512,0.195,0.707,0L17.707,14H19c0.133,0,0.26-0.053,0.354-0.146l1.5-1.5c0.195-0.195,0.195-0.512,0-0.707
				l-1.5-1.5C19.26,10.053,19.133,10,19,10h-7.348C10.813,7.626,8.541,6,6,6c-3.309,0-6,2.691-6,6c0,3.309,2.691,6,6,6
				C8.541,18,10.812,16.373,11.652,14z M6,17c-2.757,0-5-2.243-5-5s2.243-5,5-5c2.224,0,4.2,1.495,4.806,3.636
				C10.867,10.852,11.063,11,11.287,11h7.506l1,1l-1,1H17.5c-0.133,0-0.26,0.053-0.354,0.146L16.5,13.793l-0.646-0.646
				C15.76,13.053,15.633,13,15.5,13h-1c-0.133,0-0.26,0.053-0.354,0.146L13.5,13.793l-0.646-0.646C12.76,13.053,12.633,13,12.5,13
				h-1.213c-0.224,0-0.42,0.148-0.481,0.364C10.2,15.505,8.223,17,6,17z"/>
			<path d="M4,10c-1.103,0-2,0.897-2,2s0.897,2,2,2s2-0.897,2-2S5.103,10,4,10z M4,13c-0.551,0-1-0.449-1-1s0.449-1,1-1s1,0.449,1,1
				S4.551,13,4,13z"/>
			<path d="M23.5,1h-13C10.224,1,10,1.224,10,1.5V5c0,0.276,0.224,0.5,0.5,0.5S11,5.276,11,5V2h12v20H11v-2.479
				c0-0.276-0.224-0.5-0.5-0.5s-0.5,0.224-0.5,0.5V22.5c0,0.276,0.224,0.5,0.5,0.5h13c0.276,0,0.5-0.224,0.5-0.5v-21
				C24,1.224,23.776,1,23.5,1z"/>
		</g>
	</g>
</g>
<g id="Invisible_SHape">
	<rect fill="none" width="24" height="24"/>
</g>
</svg>
