<?xml version="1.0" encoding="utf-8"?>
<!-- Generator: Adobe Illustrator 16.0.3, SVG Export Plug-In . SVG Version: 6.00 Build 0)  -->
<!DOCTYPE svg PUBLIC "-//W3C//DTD SVG 1.1//EN" "http://www.w3.org/Graphics/SVG/1.1/DTD/svg11.dtd">
<svg version="1.1" xmlns="http://www.w3.org/2000/svg" xmlns:xlink="http://www.w3.org/1999/xlink" x="0px" y="0px" width="24px"
	 height="24px" viewBox="0 0 24 24" enable-background="new 0 0 24 24" xml:space="preserve">
<g id="Outline_Icons_1_">
	<g id="Outline_Icons">
	</g>
	<g id="New_icons_1_">
		<g>
			<path d="M14.096,15.026L10,13.641V13h2.5c0.276,0,0.5-0.224,0.5-0.5S12.776,12,12.5,12H10V8c0-1.103-0.897-2-2-2S6,6.89,6,7.984
				V12H1V4h11.5C12.776,4,13,3.776,13,3.5S12.776,3,12.5,3h-12C0.224,3,0,3.224,0,3.5v9C0,12.776,0.224,13,0.5,13H6v4.406
				C4.515,15.438,3.5,15,2.428,15c-0.506,0-0.911,0.232-1.139,0.655c-0.356,0.659-0.175,1.565,0.19,2.124l4.016,6
				C5.588,23.917,5.744,24,5.911,24h7.984c0.241,0,0.448-0.172,0.492-0.409l1.016-5.479C15.678,16.917,15.384,15.442,14.096,15.026z
				 M14.424,17.909L13.479,23H6.178l-3.864-5.774c-0.211-0.323-0.28-0.845-0.145-1.096C2.203,16.067,2.253,16,2.428,16
				c0.74,0,1.693,0.253,3.653,3.272c0.121,0.186,0.349,0.267,0.562,0.207C6.855,19.417,7,19.222,7,19V7.984C7,7.442,7.449,7,8,7
				s1,0.449,1,1v6c0,0.214,0.137,0.405,0.34,0.474l4.442,1.502C14.477,16.2,14.604,17.124,14.424,17.909z"/>
			<path d="M23.5,4h-1V3.5C22.5,1.57,20.93,0,19,0s-3.5,1.57-3.5,3.5V4h-1C14.224,4,14,4.224,14,4.5v7c0,0.276,0.224,0.5,0.5,0.5h9
				c0.276,0,0.5-0.224,0.5-0.5v-7C24,4.224,23.776,4,23.5,4z M16.5,3.5C16.5,2.122,17.622,1,19,1s2.5,1.122,2.5,2.5V4h-5V3.5z
				 M23,11h-8V5h8V11z"/>
			<path d="M19,6c-0.551,0-1,0.449-1,1c0,0.365,0.207,0.672,0.5,0.847V9.5c0,0.276,0.224,0.5,0.5,0.5s0.5-0.224,0.5-0.5V7.847
				C19.793,7.672,20,7.365,20,7C20,6.449,19.551,6,19,6z"/>
		</g>
	</g>
</g>
<g id="Invisible_SHape">
	<rect fill="none" width="24" height="24"/>
</g>
</svg>
