<?xml version="1.0" encoding="utf-8"?>
<!-- Generator: Adobe Illustrator 16.0.3, SVG Export Plug-In . SVG Version: 6.00 Build 0)  -->
<!DOCTYPE svg PUBLIC "-//W3C//DTD SVG 1.1//EN" "http://www.w3.org/Graphics/SVG/1.1/DTD/svg11.dtd">
<svg version="1.1" xmlns="http://www.w3.org/2000/svg" xmlns:xlink="http://www.w3.org/1999/xlink" x="0px" y="0px" width="24px"
	 height="24px" viewBox="0 0 24 24" enable-background="new 0 0 24 24" xml:space="preserve">
<g id="Outline_Icons">
	<g>
		<path d="M11.5,0C6.084,0,2,4.299,2,10c0,7.173,8.832,13.634,9.207,13.905C11.294,23.969,11.397,24,11.5,24
			s0.206-0.031,0.293-0.095C12.168,23.634,21,17.173,21,10C21,4.299,16.916,0,11.5,0z M11.5,22.873C9.972,21.69,3,15.961,3,10
			c0-5.131,3.654-9,8.5-9S20,4.869,20,10C20,15.961,13.028,21.69,11.5,22.873z"/>
		<path d="M11.5,4C8.467,4,6,6.467,6,9.5S8.467,15,11.5,15S17,12.533,17,9.5S14.533,4,11.5,4z M11.5,14C9.019,14,7,11.982,7,9.5
			C7,7.019,9.019,5,11.5,5S16,7.019,16,9.5C16,11.982,13.981,14,11.5,14z"/>
	</g>
</g>
<g id="invisible_shape">
	<rect fill="none" width="24" height="24"/>
</g>
</svg>
