<?xml version="1.0" encoding="utf-8"?>
<!-- Generator: Adobe Illustrator 16.0.3, SVG Export Plug-In . SVG Version: 6.00 Build 0)  -->
<!DOCTYPE svg PUBLIC "-//W3C//DTD SVG 1.1//EN" "http://www.w3.org/Graphics/SVG/1.1/DTD/svg11.dtd">
<svg version="1.1" xmlns="http://www.w3.org/2000/svg" xmlns:xlink="http://www.w3.org/1999/xlink" x="0px" y="0px" width="24px"
	 height="24px" viewBox="0 0 24 24" enable-background="new 0 0 24 24" xml:space="preserve">
<g id="Outline_Icons">
	<g>
		<path d="M13,4.5C13,4.776,13.224,5,13.5,5S14,4.776,14,4.5C14,3.122,12.878,2,11.5,2C11.224,2,11,2.224,11,2.5S11.224,3,11.5,3
			C12.327,3,13,3.673,13,4.5z"/>
		<path d="M18.605,23.011L13.886,22l4.719-1.011c0.27-0.058,0.442-0.324,0.384-0.594c-0.058-0.27-0.323-0.444-0.594-0.383L12,21.382
			V8.949c2.244-0.252,4-2.139,4-4.449C16,2.019,13.981,0,11.5,0S7,2.019,7,4.5c0,2.31,1.756,4.197,4,4.449v12.433l-6.395-1.371
			c-0.274-0.06-0.536,0.114-0.594,0.383c-0.058,0.27,0.114,0.537,0.384,0.594L9.114,22l-4.719,1.011
			c-0.27,0.058-0.442,0.324-0.384,0.594C4.062,23.839,4.269,24,4.5,24c0.035,0,0.07-0.003,0.105-0.011l6.895-1.478l6.895,1.478
			C18.431,23.997,18.466,24,18.5,24c0.231,0,0.438-0.161,0.488-0.395C19.047,23.335,18.875,23.069,18.605,23.011z M8,4.5
			C8,2.57,9.57,1,11.5,1S15,2.57,15,4.5S13.43,8,11.5,8S8,6.43,8,4.5z"/>
	</g>
</g>
<g id="invisible_shape">
	<rect fill="none" width="24" height="24"/>
</g>
</svg>
