<?xml version="1.0" encoding="utf-8"?>
<!-- Generator: Adobe Illustrator 16.0.3, SVG Export Plug-In . SVG Version: 6.00 Build 0)  -->
<!DOCTYPE svg PUBLIC "-//W3C//DTD SVG 1.1//EN" "http://www.w3.org/Graphics/SVG/1.1/DTD/svg11.dtd">
<svg version="1.1" xmlns="http://www.w3.org/2000/svg" xmlns:xlink="http://www.w3.org/1999/xlink" x="0px" y="0px" width="24px"
	 height="24px" viewBox="0 0 24 24" enable-background="new 0 0 24 24" xml:space="preserve">
<g id="Outline_Icons">
	<g>
		<path d="M11.5,0C6.084,0,2,4.299,2,10c0,7.173,8.832,13.634,9.207,13.905C11.294,23.969,11.397,24,11.5,24
			s0.206-0.031,0.293-0.095C12.168,23.634,21,17.173,21,10C21,4.299,16.916,0,11.5,0z M11.5,22.873C9.972,21.69,3,15.961,3,10
			c0-5.131,3.654-9,8.5-9S20,4.869,20,10C20,15.961,13.028,21.69,11.5,22.873z"/>
		<path d="M13.3,9.399c0.724-0.548,1.2-1.409,1.2-2.385c0-1.654-1.346-3-3-3s-3,1.346-3,3c0,0.975,0.475,1.834,1.197,2.383
			C8.112,10.095,7,11.675,7,13.515c0,0.276,0.224,0.5,0.5,0.5h8c0.007,0,0.013,0,0.02,0c0.276,0,0.5-0.224,0.5-0.5
			c0-0.052-0.008-0.102-0.022-0.148C15.939,11.59,14.843,10.077,13.3,9.399z M9.5,7.015c0-1.103,0.897-2,2-2s2,0.897,2,2
			s-0.897,2-2,2S9.5,8.118,9.5,7.015z M8.036,13.015c0.243-1.694,1.704-3,3.464-3s3.221,1.306,3.464,3H8.036z"/>
	</g>
</g>
<g id="invisible_shape">
	<rect fill="none" width="24" height="24"/>
</g>
</svg>
