<?xml version="1.0" encoding="utf-8"?>
<!-- Generator: Adobe Illustrator 16.0.3, SVG Export Plug-In . SVG Version: 6.00 Build 0)  -->
<!DOCTYPE svg PUBLIC "-//W3C//DTD SVG 1.1//EN" "http://www.w3.org/Graphics/SVG/1.1/DTD/svg11.dtd">
<svg version="1.1" xmlns="http://www.w3.org/2000/svg" xmlns:xlink="http://www.w3.org/1999/xlink" x="0px" y="0px" width="24px"
	 height="24px" viewBox="0 0 24 24" enable-background="new 0 0 24 24" xml:space="preserve">
<g id="Outline_Icons">
	<g>
		<path d="M11.5,0C6.084,0,2,4.299,2,10c0,7.173,8.832,13.634,9.207,13.905C11.294,23.969,11.397,24,11.5,24
			s0.206-0.031,0.293-0.095C12.168,23.634,21,17.173,21,10C21,4.299,16.916,0,11.5,0z M11.5,22.873C9.972,21.69,3,15.961,3,10
			c0-5.131,3.654-9,8.5-9S20,4.869,20,10C20,15.961,13.028,21.69,11.5,22.873z"/>
		<path d="M16.947,9.276l-0.985-1.97l-0.988-2.965C14.906,4.138,14.715,4,14.5,4h-6C8.285,4,8.094,4.138,8.026,4.342L7.038,7.307
			l-0.985,1.97C6.051,9.281,6.052,9.286,6.05,9.29C6.02,9.354,6,9.424,6,9.5v2C6,11.776,6.224,12,6.5,12H7v0.5
			C7,12.776,7.224,13,7.5,13S8,12.776,8,12.5V12h7v0.5c0,0.276,0.224,0.5,0.5,0.5s0.5-0.224,0.5-0.5V12h0.5
			c0.276,0,0.5-0.224,0.5-0.5v-2c0-0.076-0.02-0.146-0.05-0.21C16.948,9.286,16.949,9.281,16.947,9.276z M8.86,5h5.279l0.667,2
			H8.194L8.86,5z M7,11v-1h2c0.276,0,0.5-0.224,0.5-0.5S9.276,9,9,9H7.309l0.5-1h7.382l0.5,1H14c-0.276,0-0.5,0.224-0.5,0.5
			S13.724,10,14,10h2v1H7z"/>
	</g>
</g>
<g id="invisible_shape">
	<rect fill="none" width="24" height="24"/>
</g>
</svg>
