<?xml version="1.0" encoding="utf-8"?>
<!-- Generator: Adobe Illustrator 16.0.3, SVG Export Plug-In . SVG Version: 6.00 Build 0)  -->
<!DOCTYPE svg PUBLIC "-//W3C//DTD SVG 1.1//EN" "http://www.w3.org/Graphics/SVG/1.1/DTD/svg11.dtd">
<svg version="1.1" xmlns="http://www.w3.org/2000/svg" xmlns:xlink="http://www.w3.org/1999/xlink" x="0px" y="0px" width="24px"
	 height="24px" viewBox="0 0 24 24" enable-background="new 0 0 24 24" xml:space="preserve">
<g id="Outline_Icons">
	<g>
		<path d="M11.5,0c-4.514,0-7,2.486-7,7c0,2.468,1.768,5.118,3.478,7.68C9.532,17.01,11,19.21,11,21v2.5c0,0.276,0.224,0.5,0.5,0.5
			s0.5-0.224,0.5-0.5V21c0-1.79,1.468-3.99,3.022-6.32C16.732,12.118,18.5,9.468,18.5,7C18.5,2.486,16.014,0,11.5,0z M14.19,14.125
			c-1.071,1.605-2.103,3.152-2.69,4.615c-0.588-1.463-1.62-3.01-2.69-4.615C7.183,11.687,5.5,9.165,5.5,7c0-3.981,2.019-6,6-6
			s6,2.019,6,6C17.5,9.165,15.817,11.687,14.19,14.125z"/>
		<path d="M14,7H9C8.724,7,8.5,7.224,8.5,7.5S8.724,8,9,8h5c0.276,0,0.5-0.224,0.5-0.5S14.276,7,14,7z"/>
	</g>
</g>
<g id="invisible_shape">
	<rect fill="none" width="24" height="24"/>
</g>
</svg>
