<?xml version="1.0" encoding="utf-8"?>
<!-- Generator: Adobe Illustrator 16.0.3, SVG Export Plug-In . SVG Version: 6.00 Build 0)  -->
<!DOCTYPE svg PUBLIC "-//W3C//DTD SVG 1.1//EN" "http://www.w3.org/Graphics/SVG/1.1/DTD/svg11.dtd">
<svg version="1.1" xmlns="http://www.w3.org/2000/svg" xmlns:xlink="http://www.w3.org/1999/xlink" x="0px" y="0px" width="24px"
	 height="24px" viewBox="0 0 24 24" enable-background="new 0 0 24 24" xml:space="preserve">
<g id="Outline_Icons">
	<path d="M22.5,11.016h-2.524C19.731,6.721,16.293,3.277,12,3.026V0.5C12,0.224,11.776,0,11.5,0S11,0.224,11,0.5v2.526
		c-4.293,0.251-7.731,3.695-7.976,7.99H0.5c-0.276,0-0.5,0.224-0.5,0.5s0.224,0.5,0.5,0.5h2.526c0.259,4.28,3.691,7.708,7.974,7.959
		V22.5c0,0.276,0.224,0.5,0.5,0.5s0.5-0.224,0.5-0.5v-2.525c4.282-0.251,7.715-3.679,7.974-7.959H22.5c0.276,0,0.5-0.224,0.5-0.5
		S22.776,11.016,22.5,11.016z M11.5,19C7.364,19,4,15.636,4,11.5C4,7.365,7.364,4,11.5,4S19,7.365,19,11.5
		C19,15.636,15.636,19,11.5,19z"/>
</g>
<g id="invisible_shape">
	<rect fill="none" width="24" height="24"/>
</g>
</svg>
