<?xml version="1.0" encoding="utf-8"?>
<!-- Generator: Adobe Illustrator 16.0.3, SVG Export Plug-In . SVG Version: 6.00 Build 0)  -->
<!DOCTYPE svg PUBLIC "-//W3C//DTD SVG 1.1//EN" "http://www.w3.org/Graphics/SVG/1.1/DTD/svg11.dtd">
<svg version="1.1" xmlns="http://www.w3.org/2000/svg" xmlns:xlink="http://www.w3.org/1999/xlink" x="0px" y="0px" width="24px"
	 height="24px" viewBox="0 0 24 24" enable-background="new 0 0 24 24" xml:space="preserve">
<g id="Outline_Icons_1_">
	<g id="Outline_Icons">
		<path d="M23.5,19c-1.378,0-2.5-1.122-2.5-2.5V11c0-3.641-2.24-6.951-5.603-8.325C15.022,1.108,13.637,0,12,0
			c-1.612,0-3.024,1.131-3.399,2.675C5.239,4.048,3,7.358,3,11v5.5C3,17.878,1.878,19,0.5,19C0.224,19,0,19.224,0,19.5
			S0.224,20,0.5,20h8.051c0.245,1.691,1.69,3,3.449,3s3.204-1.309,3.449-3H23.5c0.276,0,0.5-0.224,0.5-0.5S23.776,19,23.5,19z
			 M12,22c-1.207,0-2.217-0.86-2.449-2h4.898C14.217,21.14,13.207,22,12,22z M2.947,19C3.597,18.365,4,17.479,4,16.5V11
			c0-3.32,2.094-6.33,5.211-7.49c0.17-0.063,0.292-0.214,0.32-0.393C9.716,1.911,10.778,1,12,1c1.239,0,2.276,0.891,2.465,2.117
			c0.027,0.179,0.15,0.329,0.32,0.393C17.904,4.671,20,7.681,20,11v5.5c0,0.979,0.403,1.865,1.053,2.5H2.947z"/>
	</g>
	<g id="New_icons_1_">
	</g>
</g>
<g id="Invisible_Shape">
	<rect fill="none" width="24" height="24"/>
</g>
</svg>
