<?xml version="1.0" encoding="utf-8"?>
<!-- Generator: Adobe Illustrator 16.0.3, SVG Export Plug-In . SVG Version: 6.00 Build 0)  -->
<!DOCTYPE svg PUBLIC "-//W3C//DTD SVG 1.1//EN" "http://www.w3.org/Graphics/SVG/1.1/DTD/svg11.dtd">
<svg version="1.1" xmlns="http://www.w3.org/2000/svg" xmlns:xlink="http://www.w3.org/1999/xlink" x="0px" y="0px" width="24px"
	 height="24px" viewBox="0 0 24 24" enable-background="new 0 0 24 24" xml:space="preserve">
<g id="Outline_Icons_1_">
	<g id="Outline_Icons">
		<g>
			<path d="M21.935,14c0-5.514-4.486-10-10-10s-10,4.486-10,10c0,3.214,1.53,6.07,3.893,7.9l-1.246,1.246
				c-0.195,0.195-0.195,0.512,0,0.707c0.195,0.195,0.512,0.195,0.707,0l1.373-1.373C8.194,23.438,9.998,24,11.935,24
				s3.74-0.562,5.273-1.519l1.373,1.373c0.195,0.195,0.512,0.195,0.707,0c0.195-0.195,0.195-0.512,0-0.707l-1.246-1.246
				C20.405,20.07,21.935,17.214,21.935,14z M11.935,23c-4.962,0-9-4.038-9-9s4.038-9,9-9s9,4.038,9,9S16.897,23,11.935,23z"/>
			<path d="M12.435,8c-0.276,0-0.5,0.224-0.5,0.5V14h-3.5c-0.276,0-0.5,0.224-0.5,0.5s0.224,0.5,0.5,0.5h4
				c0.276,0,0.5-0.224,0.5-0.5v-6C12.935,8.224,12.711,8,12.435,8z"/>
			<path d="M2.288,8.854c0.195-0.195,0.195-0.512,0-0.707c-1.366-1.366-1.366-3.427,0-4.793c1.321-1.322,3.472-1.322,4.793,0
				c0.195,0.195,0.512,0.195,0.707,0c0.195-0.195,0.195-0.512,0-0.707c-1.699-1.7-4.508-1.7-6.207,0
				c-1.769,1.77-1.769,4.438,0,6.207C1.679,8.951,1.807,9,1.935,9S2.19,8.951,2.288,8.854z"/>
			<path d="M22.288,2.646c-1.699-1.7-4.508-1.7-6.207,0c-0.195,0.195-0.195,0.512,0,0.707c0.195,0.195,0.512,0.195,0.707,0
				c1.321-1.322,3.472-1.322,4.793,0c1.366,1.366,1.366,3.427,0,4.793c-0.195,0.195-0.195,0.512,0,0.707
				C21.679,8.951,21.807,9,21.935,9s0.256-0.049,0.354-0.146C24.057,7.084,24.057,4.416,22.288,2.646z"/>
		</g>
	</g>
	<g id="New_icons_1_">
	</g>
</g>
<g id="Invisible_Shape">
	<rect fill="none" width="24" height="24"/>
</g>
</svg>
