<?xml version="1.0" encoding="utf-8"?>
<!-- Generator: Adobe Illustrator 16.0.3, SVG Export Plug-In . SVG Version: 6.00 Build 0)  -->
<!DOCTYPE svg PUBLIC "-//W3C//DTD SVG 1.1//EN" "http://www.w3.org/Graphics/SVG/1.1/DTD/svg11.dtd">
<svg version="1.1" xmlns="http://www.w3.org/2000/svg" xmlns:xlink="http://www.w3.org/1999/xlink" x="0px" y="0px" width="24px"
	 height="24px" viewBox="0 0 24 24" enable-background="new 0 0 24 24" xml:space="preserve">
<g id="Outline_Icons_1_">
	<g id="Outline_Icons">
	</g>
	<g id="New_icons_1_">
		<g>
			<path d="M17.5,11c-3.584,0-6.5,2.916-6.5,6.5s2.916,6.5,6.5,6.5s6.5-2.916,6.5-6.5S21.084,11,17.5,11z M17.5,23
				c-3.033,0-5.5-2.467-5.5-5.5c0-3.033,2.467-5.5,5.5-5.5s5.5,2.467,5.5,5.5C23,20.533,20.533,23,17.5,23z"/>
			<path d="M17.5,15.146c0.491,0,0.891,0.399,0.891,0.891c0,0.276,0.224,0.5,0.5,0.5s0.5-0.224,0.5-0.5
				c0-0.868-0.592-1.594-1.391-1.814v-0.504c0-0.276-0.224-0.5-0.5-0.5s-0.5,0.224-0.5,0.5v0.504
				c-0.799,0.22-1.391,0.946-1.391,1.814c0,1.042,0.848,1.891,1.891,1.891c0.491,0,0.891,0.4,0.891,0.893
				c0,0.491-0.399,0.891-0.891,0.891s-0.891-0.399-0.891-0.891c0-0.276-0.224-0.5-0.5-0.5s-0.5,0.224-0.5,0.5
				c0,0.868,0.592,1.594,1.391,1.815v0.501c0,0.276,0.224,0.5,0.5,0.5s0.5-0.224,0.5-0.5v-0.501
				c0.799-0.221,1.391-0.947,1.391-1.815c0-1.043-0.848-1.893-1.891-1.893c-0.491,0-0.891-0.399-0.891-0.891
				S17.009,15.146,17.5,15.146z"/>
			<path d="M9.5,18H1V8h19v2c0,0.276,0.224,0.5,0.5,0.5S21,10.276,21,10V2.5C21,2.224,20.776,2,20.5,2H17V0.5
				C17,0.224,16.776,0,16.5,0h-3C13.224,0,13,0.224,13,0.5V2H8V0.5C8,0.224,7.776,0,7.5,0h-3C4.224,0,4,0.224,4,0.5V2H0.5
				C0.224,2,0,2.224,0,2.5v16C0,18.776,0.224,19,0.5,19h9c0.276,0,0.5-0.224,0.5-0.5S9.776,18,9.5,18z M14,1h2v3h-2V1z M5,1h2v3H5V1
				z M4,3v1.5C4,4.776,4.224,5,4.5,5h3C7.776,5,8,4.776,8,4.5V3h5v1.5C13,4.776,13.224,5,13.5,5h3C16.776,5,17,4.776,17,4.5V3h3v4H1
				V3H4z"/>
		</g>
	</g>
</g>
<g id="Invisible_Shape">
	<rect fill="none" width="24" height="24"/>
</g>
</svg>
