<?xml version="1.0" encoding="utf-8"?>
<!-- Generator: Adobe Illustrator 16.0.3, SVG Export Plug-In . SVG Version: 6.00 Build 0)  -->
<!DOCTYPE svg PUBLIC "-//W3C//DTD SVG 1.1//EN" "http://www.w3.org/Graphics/SVG/1.1/DTD/svg11.dtd">
<svg version="1.1" xmlns="http://www.w3.org/2000/svg" xmlns:xlink="http://www.w3.org/1999/xlink" x="0px" y="0px" width="24px"
	 height="24px" viewBox="0 0 24 24" enable-background="new 0 0 24 24" xml:space="preserve">
<g id="Outline_Icons_1_">
	<g id="Outline_Icons">
	</g>
	<g id="New_icons_1_">
		<g>
			<path d="M23.962,15.33c-0.072-0.197-0.26-0.33-0.47-0.33h-3.19l-1.854-3.723c-0.17-0.339-0.726-0.339-0.896,0L15.698,15h-3.19
				c-0.21,0-0.398,0.132-0.47,0.33c-0.072,0.199-0.012,0.42,0.15,0.555l2.738,2.281l-1.392,4.176
				c-0.068,0.204,0.001,0.428,0.173,0.558c0.172,0.129,0.407,0.134,0.584,0.013L18,20.366l3.709,2.546
				C21.794,22.971,21.894,23,21.992,23c0.106,0,0.212-0.034,0.301-0.101c0.172-0.129,0.242-0.354,0.173-0.558l-1.392-4.176
				l2.738-2.281C23.974,15.75,24.034,15.528,23.962,15.33z M20.172,17.616c-0.158,0.132-0.219,0.347-0.154,0.543l1.028,3.085
				l-2.763-1.897c-0.085-0.058-0.185-0.088-0.283-0.088s-0.198,0.03-0.283,0.088l-2.763,1.897l1.028-3.085
				c0.065-0.196,0.004-0.411-0.154-0.543L13.889,16h2.119c0.189,0,0.363-0.107,0.448-0.277L18,12.622l1.544,3.102
				C19.629,15.893,19.803,16,19.992,16h2.119L20.172,17.616z"/>
			<path d="M12,18H1V8h19v3.5c0,0.276,0.224,0.5,0.5,0.5s0.5-0.224,0.5-0.5v-9C21,2.224,20.776,2,20.5,2H17V0.5
				C17,0.224,16.776,0,16.5,0h-3C13.224,0,13,0.224,13,0.5V2H8V0.5C8,0.224,7.776,0,7.5,0h-3C4.224,0,4,0.224,4,0.5V2H0.5
				C0.224,2,0,2.224,0,2.5v16C0,18.776,0.224,19,0.5,19H12c0.276,0,0.5-0.224,0.5-0.5S12.276,18,12,18z M14,1h2v3h-2V1z M5,1h2v3H5
				V1z M4,3v1.5C4,4.776,4.224,5,4.5,5h3C7.776,5,8,4.776,8,4.5V3h5v1.5C13,4.776,13.224,5,13.5,5h3C16.776,5,17,4.776,17,4.5V3h3v4
				H1V3H4z"/>
		</g>
	</g>
</g>
<g id="Invisible_Shape">
	<rect fill="none" width="24" height="24"/>
</g>
</svg>
