<?xml version="1.0" encoding="utf-8"?>
<!-- Generator: Adobe Illustrator 16.0.3, SVG Export Plug-In . SVG Version: 6.00 Build 0)  -->
<!DOCTYPE svg PUBLIC "-//W3C//DTD SVG 1.1//EN" "http://www.w3.org/Graphics/SVG/1.1/DTD/svg11.dtd">
<svg version="1.1" xmlns="http://www.w3.org/2000/svg" xmlns:xlink="http://www.w3.org/1999/xlink" x="0px" y="0px" width="24px"
	 height="24px" viewBox="0 0 24 24" enable-background="new 0 0 24 24" xml:space="preserve">
<g id="Outline_Icons_1_">
	<g id="Outline_Icons">
	</g>
	<g id="New_icons_1_">
		<g>
			<path d="M23.5,2H20V0.5C20,0.224,19.776,0,19.5,0h-3C16.224,0,16,0.224,16,0.5V2H8V0.5C8,0.224,7.776,0,7.5,0h-3
				C4.224,0,4,0.224,4,0.5V2H0.5C0.224,2,0,2.224,0,2.5v21C0,23.776,0.224,24,0.5,24h23c0.276,0,0.5-0.224,0.5-0.5v-21
				C24,2.224,23.776,2,23.5,2z M17,1h2v3h-2V1z M5,1h2v3H5V1z M4,3v1.5C4,4.776,4.224,5,4.5,5h3C7.776,5,8,4.776,8,4.5V3h8v1.5
				C16,4.776,16.224,5,16.5,5h3C19.776,5,20,4.776,20,4.5V3h3v4H1V3H4z M1,23V8h22v15H1z"/>
			<path d="M17.5,13h-3.67l-1.37-3.197c-0.157-0.368-0.762-0.368-0.919,0L10.17,13H6.5c-0.217,0-0.41,0.141-0.476,0.347
				c-0.066,0.208,0.009,0.434,0.186,0.56l3.168,2.263l-1.835,4.138c-0.092,0.208-0.032,0.453,0.146,0.594
				c0.177,0.141,0.429,0.146,0.612,0.008l3.7-2.785l3.7,2.774c0.181,0.137,0.433,0.132,0.611-0.009
				c0.178-0.142,0.238-0.386,0.146-0.594l-1.834-4.125l3.168-2.265c0.177-0.126,0.252-0.352,0.186-0.56
				C17.91,13.141,17.717,13,17.5,13z M13.709,15.595c-0.193,0.139-0.263,0.393-0.167,0.61l1.219,2.742L12.3,17.1
				c-0.178-0.134-0.422-0.133-0.601,0.001l-2.462,1.853l1.22-2.751c0.096-0.217,0.027-0.472-0.167-0.609L8.06,14h2.44
				c0.2,0,0.381-0.119,0.459-0.303L12,11.27l1.041,2.427C13.119,13.881,13.3,14,13.5,14h2.441L13.709,15.595z"/>
		</g>
	</g>
</g>
<g id="Invisible_Shape">
	<rect fill="none" width="24" height="24"/>
</g>
</svg>
