<?xml version="1.0" encoding="utf-8"?>
<!-- Generator: Adobe Illustrator 16.0.3, SVG Export Plug-In . SVG Version: 6.00 Build 0)  -->
<!DOCTYPE svg PUBLIC "-//W3C//DTD SVG 1.1//EN" "http://www.w3.org/Graphics/SVG/1.1/DTD/svg11.dtd">
<svg version="1.1" xmlns="http://www.w3.org/2000/svg" xmlns:xlink="http://www.w3.org/1999/xlink" x="0px" y="0px" width="24px"
	 height="24px" viewBox="0 0 24 24" enable-background="new 0 0 24 24" xml:space="preserve">
<g id="Outline_Icons_1_">
	<g id="Outline_Icons">
	</g>
	<g id="New_icons_1_">
		<g>
			<path d="M23.695,18.768l-0.763-0.44c0.09-0.562,0.09-1.092,0-1.655l0.765-0.441c0.115-0.066,0.199-0.175,0.233-0.304
				c0.034-0.128,0.017-0.265-0.05-0.379l-1.5-2.598c-0.139-0.24-0.446-0.321-0.683-0.183l-0.775,0.447
				c-0.426-0.339-0.902-0.612-1.422-0.814V11.5c0-0.276-0.224-0.5-0.5-0.5h-3c-0.276,0-0.5,0.224-0.5,0.5v0.901
				c-0.52,0.202-0.996,0.475-1.422,0.814l-0.775-0.447c-0.239-0.138-0.545-0.057-0.683,0.183l-1.5,2.598
				c-0.066,0.115-0.084,0.251-0.05,0.379c0.034,0.129,0.118,0.237,0.233,0.304l0.765,0.441c-0.09,0.562-0.09,1.093,0,1.655
				l-0.763,0.44c-0.115,0.066-0.199,0.176-0.233,0.304s-0.017,0.265,0.05,0.379l1.5,2.598c0.138,0.239,0.444,0.32,0.683,0.183
				l0.773-0.446c0.427,0.34,0.903,0.612,1.422,0.814v0.9c0,0.276,0.224,0.5,0.5,0.5h3c0.276,0,0.5-0.224,0.5-0.5v-0.9
				c0.519-0.202,0.995-0.474,1.422-0.814l0.773,0.446c0.238,0.137,0.544,0.056,0.683-0.183l1.5-2.598
				c0.066-0.115,0.084-0.251,0.05-0.379S23.81,18.834,23.695,18.768z M21.887,18.475c-0.047,0.213,0.049,0.432,0.238,0.542
				l0.637,0.368l-1,1.731l-0.646-0.373c-0.188-0.109-0.425-0.083-0.587,0.064c-0.478,0.437-1.042,0.76-1.68,0.962
				c-0.208,0.065-0.349,0.258-0.349,0.477V23h-2v-0.754c0-0.218-0.141-0.411-0.349-0.477c-0.637-0.202-1.202-0.525-1.68-0.962
				c-0.161-0.147-0.398-0.173-0.587-0.064l-0.646,0.373l-1-1.731l0.637-0.368c0.189-0.109,0.286-0.329,0.238-0.542
				c-0.152-0.682-0.152-1.265,0-1.949c0.047-0.213-0.049-0.433-0.238-0.542l-0.639-0.369l1-1.731l0.648,0.374
				c0.189,0.109,0.427,0.083,0.588-0.064c0.475-0.436,1.04-0.759,1.68-0.963c0.208-0.066,0.349-0.259,0.349-0.477V12h2v0.754
				c0,0.218,0.141,0.411,0.349,0.477c0.64,0.204,1.205,0.527,1.68,0.963c0.162,0.147,0.399,0.173,0.588,0.064l0.648-0.374l1,1.731
				l-0.639,0.369c-0.189,0.109-0.285,0.328-0.238,0.542C22.039,17.209,22.039,17.792,21.887,18.475z"/>
			<path d="M17.5,15c-1.378,0-2.5,1.122-2.5,2.5s1.122,2.5,2.5,2.5s2.5-1.122,2.5-2.5S18.878,15,17.5,15z M17.5,19
				c-0.827,0-1.5-0.673-1.5-1.5s0.673-1.5,1.5-1.5s1.5,0.673,1.5,1.5S18.327,19,17.5,19z"/>
			<path d="M9.5,18H1V8h19v2c0,0.276,0.224,0.5,0.5,0.5S21,10.276,21,10V2.5C21,2.224,20.776,2,20.5,2H17V0.5
				C17,0.224,16.776,0,16.5,0h-3C13.224,0,13,0.224,13,0.5V2H8V0.5C8,0.224,7.776,0,7.5,0h-3C4.224,0,4,0.224,4,0.5V2H0.5
				C0.224,2,0,2.224,0,2.5v16C0,18.776,0.224,19,0.5,19h9c0.276,0,0.5-0.224,0.5-0.5S9.776,18,9.5,18z M14,1h2v3h-2V1z M5,1h2v3H5V1
				z M4,3v1.5C4,4.776,4.224,5,4.5,5h3C7.776,5,8,4.776,8,4.5V3h5v1.5C13,4.776,13.224,5,13.5,5h3C16.776,5,17,4.776,17,4.5V3h3v4H1
				V3H4z"/>
		</g>
	</g>
</g>
<g id="Invisible_Shape">
	<rect fill="none" width="24" height="24"/>
</g>
</svg>
