<?xml version="1.0" encoding="utf-8"?>
<!-- Generator: Adobe Illustrator 16.0.3, SVG Export Plug-In . SVG Version: 6.00 Build 0)  -->
<!DOCTYPE svg PUBLIC "-//W3C//DTD SVG 1.1//EN" "http://www.w3.org/Graphics/SVG/1.1/DTD/svg11.dtd">
<svg version="1.1" xmlns="http://www.w3.org/2000/svg" xmlns:xlink="http://www.w3.org/1999/xlink" x="0px" y="0px" width="24px"
	 height="24px" viewBox="0 0 24 24" enable-background="new 0 0 24 24" xml:space="preserve">
<g id="Outline_Icons_1_">
	<g id="Outline_Icons">
	</g>
	<g id="New_icons_1_">
		<g>
			<path d="M22,14c0-0.276-0.224-0.5-0.5-0.5S21,13.724,21,14v0.77C20.013,13.695,18.538,13,17,13c-2.198,0-4.289,1.402-4.972,3.333
				c-0.092,0.26,0.045,0.546,0.305,0.638c0.262,0.09,0.546-0.044,0.638-0.305C13.508,15.146,15.24,14,17,14
				c1.49,0,2.951,0.826,3.693,2H19c-0.276,0-0.5,0.224-0.5,0.5S18.724,17,19,17h2.5c0.273,0,0.5-0.242,0.5-0.5V14z"/>
			<path d="M21.667,19.028c-0.261-0.09-0.546,0.044-0.638,0.305C20.492,20.854,18.76,22,17,22c-1.49,0-2.951-0.826-3.693-2H15
				c0.276,0,0.5-0.224,0.5-0.5S15.276,19,15,19h-2.5c-0.277,0-0.5,0.249-0.5,0.5V22c0,0.276,0.224,0.5,0.5,0.5S13,22.276,13,22
				v-0.77c0.987,1.074,2.462,1.77,4,1.77c2.198,0,4.289-1.402,4.972-3.333C22.063,19.407,21.927,19.121,21.667,19.028z"/>
			<path d="M10.5,18H1V8h19v3.5c0,0.276,0.224,0.5,0.5,0.5s0.5-0.224,0.5-0.5v-9C21,2.224,20.776,2,20.5,2H17V0.5
				C17,0.224,16.776,0,16.5,0h-3C13.224,0,13,0.224,13,0.5V2H8V0.5C8,0.224,7.776,0,7.5,0h-3C4.224,0,4,0.224,4,0.5V2H0.5
				C0.224,2,0,2.224,0,2.5v16C0,18.776,0.224,19,0.5,19h10c0.276,0,0.5-0.224,0.5-0.5S10.776,18,10.5,18z M14,1h2v3h-2V1z M5,1h2v3
				H5V1z M4,3v1.5C4,4.776,4.224,5,4.5,5h3C7.776,5,8,4.776,8,4.5V3h5v1.5C13,4.776,13.224,5,13.5,5h3C16.776,5,17,4.776,17,4.5V3h3
				v4H1V3H4z"/>
		</g>
	</g>
</g>
<g id="Invisible_Shape">
	<rect fill="none" width="24" height="24"/>
</g>
</svg>
