<?xml version="1.0" encoding="utf-8"?>
<!-- Generator: Adobe Illustrator 16.0.3, SVG Export Plug-In . SVG Version: 6.00 Build 0)  -->
<!DOCTYPE svg PUBLIC "-//W3C//DTD SVG 1.1//EN" "http://www.w3.org/Graphics/SVG/1.1/DTD/svg11.dtd">
<svg version="1.1" xmlns="http://www.w3.org/2000/svg" xmlns:xlink="http://www.w3.org/1999/xlink" x="0px" y="0px" width="24px"
	 height="24px" viewBox="0 0 24 24" enable-background="new 0 0 24 24" xml:space="preserve">
<g id="Outline_Icons_1_">
	<g id="Outline_Icons">
		<g>
			<path d="M12.5,0C12.224,0,12,0.224,12,0.5V11H0.5C0.224,11,0,11.224,0,11.5C0,18.393,5.383,24,12,24s12-5.383,12-12
				C24,5.495,18.733,0,12.5,0z M12,23C6.095,23,1.262,18.11,1.01,12H12.5c0.276,0,0.5-0.224,0.5-0.5V1.013
				C18.47,1.298,23,6.213,23,12C23,18.065,18.065,23,12,23z"/>
			<path d="M21.5,11h-2c-0.276,0-0.5,0.224-0.5,0.5s0.224,0.5,0.5,0.5h2c0.276,0,0.5-0.224,0.5-0.5S21.776,11,21.5,11z"/>
			<path d="M17.656,16.95c-0.195-0.195-0.512-0.195-0.707,0s-0.195,0.512,0,0.707l1.415,1.414c0.098,0.098,0.226,0.146,0.354,0.146
				s0.256-0.049,0.354-0.146c0.195-0.195,0.195-0.512,0-0.707L17.656,16.95z"/>
			<path d="M6.343,7.05C6.44,7.147,6.568,7.196,6.696,7.196S6.952,7.147,7.05,7.05c0.195-0.195,0.195-0.512,0-0.707L5.636,4.93
				c-0.195-0.195-0.512-0.195-0.707,0s-0.195,0.513,0,0.707L6.343,7.05z"/>
			<path d="M12.5,19c-0.276,0-0.5,0.224-0.5,0.5v2c0,0.276,0.224,0.5,0.5,0.5s0.5-0.224,0.5-0.5v-2C13,19.224,12.776,19,12.5,19z"/>
			<path d="M6.343,16.95l-1.414,1.414c-0.195,0.195-0.195,0.512,0,0.707c0.098,0.098,0.226,0.146,0.354,0.146
				s0.256-0.049,0.354-0.146l1.414-1.414c0.195-0.195,0.195-0.512,0-0.707S6.538,16.755,6.343,16.95z"/>
			<path d="M17.303,7.196c0.128,0,0.256-0.049,0.354-0.146l1.415-1.414c0.195-0.195,0.195-0.511,0-0.708
				c-0.195-0.195-0.512-0.195-0.708,0l-1.415,1.414c-0.195,0.195-0.195,0.511,0,0.707C17.046,7.147,17.175,7.196,17.303,7.196z"/>
		</g>
	</g>
	<g id="New_icons_1_">
	</g>
</g>
<g id="Invisible_Shape">
	<rect fill="none" width="24" height="24"/>
</g>
</svg>
