<?xml version="1.0" encoding="utf-8"?>
<!-- Generator: Adobe Illustrator 16.0.3, SVG Export Plug-In . SVG Version: 6.00 Build 0)  -->
<!DOCTYPE svg PUBLIC "-//W3C//DTD SVG 1.1//EN" "http://www.w3.org/Graphics/SVG/1.1/DTD/svg11.dtd">
<svg version="1.1" xmlns="http://www.w3.org/2000/svg" xmlns:xlink="http://www.w3.org/1999/xlink" x="0px" y="0px" width="24px"
	 height="24px" viewBox="0 0 24 24" enable-background="new 0 0 24 24" xml:space="preserve">
<g id="Outline_Icons">
	<path d="M19.508,7c-1.379,0-2.5,1.122-2.5,2.5c0,0.276,0.224,0.5,0.5,0.5h1.5v5h-1c0-0.809-0.643-1.469-1.444-1.499
		c-0.184-0.038-0.37-0.065-0.556-0.098V3.5c0-1.378-1.121-2.5-2.5-2.5h-4c-1.379,0-2.5,1.122-2.5,2.5v9.914
		c-0.166,0.03-0.335,0.054-0.5,0.086c-0.827,0-1.5,0.673-1.5,1.5h-1v-5h1.5c0.276,0,0.5-0.224,0.5-0.5c0-1.378-1.121-2.5-2.5-2.5
		s-2.5,1.122-2.5,2.5c0,0.276,0.224,0.5,0.5,0.5h1.5v5.5c0,0.276,0.224,0.5,0.5,0.5h1.5v0.5c0,0.827,0.673,1.5,1.5,1.5h4.499
		l-0.006,5H4.508c-0.276,0-0.5,0.224-0.5,0.5s0.224,0.5,0.5,0.5h6.991H11.5h6.992c0.276,0,0.5-0.224,0.5-0.5s-0.224-0.5-0.5-0.5
		h-6.491l0.006-5h4.501c0.827,0,1.5-0.673,1.5-1.5V16h1.5c0.276,0,0.5-0.224,0.5-0.5V10h1.5c0.276,0,0.5-0.224,0.5-0.5
		C22.008,8.122,20.887,7,19.508,7z M3.508,8C4.16,8,4.716,8.418,4.922,9H2.094C2.3,8.418,2.855,8,3.508,8z M9.508,2h4
		c0.827,0,1.5,0.673,1.5,1.5V4h-7V3.5C8.008,2.673,8.681,2,9.508,2z M8.008,5h7v8.243c-2.302-0.315-4.686-0.308-7,0.011V5z
		 M17.008,16.5c0,0.276-0.225,0.5-0.5,0.5h-4.999c-0.001,0-0.001,0-0.001,0h-5c-0.275,0-0.5-0.224-0.5-0.5V15
		c0-0.276,0.225-0.5,0.595-0.509C8.286,14.166,9.964,14,11.591,14c1.625,0,3.245,0.164,4.815,0.489
		c0.033,0.007,0.067,0.01,0.102,0.01c0.275,0,0.5,0.224,0.5,0.5V16.5z M18.094,9c0.206-0.582,0.762-1,1.414-1s1.208,0.418,1.414,1
		H18.094z"/>
</g>
<g id="invisible_shape">
	<rect fill="none" width="24" height="24"/>
</g>
</svg>
