<?xml version="1.0" encoding="utf-8"?>
<!-- Generator: Adobe Illustrator 16.0.3, SVG Export Plug-In . SVG Version: 6.00 Build 0)  -->
<!DOCTYPE svg PUBLIC "-//W3C//DTD SVG 1.1//EN" "http://www.w3.org/Graphics/SVG/1.1/DTD/svg11.dtd">
<svg version="1.1" xmlns="http://www.w3.org/2000/svg" xmlns:xlink="http://www.w3.org/1999/xlink" x="0px" y="0px" width="24px"
	 height="24px" viewBox="0 0 24 24" enable-background="new 0 0 24 24" xml:space="preserve">
<g id="Outline_Icons">
	<path d="M19.5,14h-0.264c-0.892-3.445-4.017-6-7.736-6L6,10.117V5c0-2.757-2.243-5-5-5C0.448,0,0,0.449,0,1v2c0,0.551,0.448,1,1,1
		s1,0.449,1,1v6c0,3.86,3.141,7,7,7h9.205c-0.863,2.888-3.541,5-6.705,5H2c-0.276,0-0.5,0.224-0.5,0.5S1.724,24,2,24h9.5
		c3.703,0,6.817-2.533,7.725-5.954C19.665,18.15,20,18.528,20,19v2h1.5c1.379,0,2.5-1.122,2.5-2.5C24,16.019,21.981,14,19.5,14z
		 M11.592,9c3.124,0.04,5.76,2.14,6.614,5H9c-1.597,0-2.894-1.257-2.982-2.831L11.592,9z M1,3V1c2.206,0,4,1.794,4,4v5.502
		l-1.986,0.765C3.01,11.178,3,11.09,3,11V5C3,3.897,2.103,3,1,3z M9,17c-2.866,0-5.267-2.021-5.857-4.713l1.912-0.743
		C5.323,13.491,6.98,15,9,15h9.42c0.048,0.328,0.08,0.66,0.08,1s-0.032,0.672-0.08,1H9z M21.5,20H21v-1
		c0-0.958-0.677-1.757-1.576-1.953C19.469,16.704,19.5,16.356,19.5,16c0-0.339-0.028-0.672-0.069-1H19.5c1.93,0,3.5,1.57,3.5,3.5
		C23,19.327,22.327,20,21.5,20z"/>
</g>
<g id="invisible_shape">
	<rect fill="none" width="24" height="24"/>
</g>
</svg>
