<?xml version="1.0" encoding="utf-8"?>
<!-- Generator: Adobe Illustrator 16.0.3, SVG Export Plug-In . SVG Version: 6.00 Build 0)  -->
<!DOCTYPE svg PUBLIC "-//W3C//DTD SVG 1.1//EN" "http://www.w3.org/Graphics/SVG/1.1/DTD/svg11.dtd">
<svg version="1.1" xmlns="http://www.w3.org/2000/svg" xmlns:xlink="http://www.w3.org/1999/xlink" x="0px" y="0px" width="24px"
	 height="24px" viewBox="0 0 24 24" enable-background="new 0 0 24 24" xml:space="preserve">
<g id="Outline_Icons">
	<g>
		<path d="M23.5,8H16h-0.5h-15C0.224,8,0,8.224,0,8.5v4v11C0,23.776,0.224,24,0.5,24S1,23.776,1,23.5V13h14v10.5
			c0,0.276,0.224,0.5,0.5,0.5h8c0.276,0,0.5-0.224,0.5-0.5v-15C24,8.224,23.776,8,23.5,8z M23,16h-7v-1h7V16z M16,14v-1.5V11h7v3H16
			z M23,10h-7V9h7V10z M1,12V9h14v3H1z M16,23v-6h7v6H16z"/>
		<circle cx="19.5" cy="12.5" r="0.5"/>
		<circle cx="19.5" cy="18.5" r="0.5"/>
	</g>
</g>
<g id="invisible_shape">
	<rect fill="none" width="24" height="24"/>
</g>
</svg>
