<?xml version="1.0" encoding="utf-8"?>
<!-- Generator: Adobe Illustrator 16.0.3, SVG Export Plug-In . SVG Version: 6.00 Build 0)  -->
<!DOCTYPE svg PUBLIC "-//W3C//DTD SVG 1.1//EN" "http://www.w3.org/Graphics/SVG/1.1/DTD/svg11.dtd">
<svg version="1.1" xmlns="http://www.w3.org/2000/svg" xmlns:xlink="http://www.w3.org/1999/xlink" x="0px" y="0px" width="24px"
	 height="24px" viewBox="0 0 24 24" enable-background="new 0 0 24 24" xml:space="preserve">
<g id="Outline_Icons">
	<path d="M12,4.031V0.5C12,0.224,11.776,0,11.5,0S11,0.224,11,0.5v3.531C7.098,4.341,4,8.24,4,13c0,4.962,3.364,9,7.5,9
		s7.5-4.038,7.5-9C19,8.24,15.902,4.341,12,4.031z M11.5,5c3.258,0,5.955,2.968,6.421,6.82c-0.013,0.032-0.031,0.062-0.037,0.099
		c-0.204,1.231-0.67,2.341-1.316,3.269C15.095,14.416,13.352,14,11.5,14c-1.854,0-3.597,0.416-5.067,1.188
		c-0.646-0.927-1.112-2.037-1.316-3.269c-0.006-0.036-0.024-0.066-0.037-0.099C5.545,7.968,8.242,5,11.5,5z M15.92,15.991
		C14.75,17.243,13.19,18,11.5,18c-1.689,0-3.25-0.757-4.42-2.009C9.647,14.74,13.348,14.739,15.92,15.991z M11.5,21
		c-2.963,0-5.464-2.456-6.244-5.798C6.612,17.511,8.925,19,11.5,19s4.888-1.489,6.244-3.798C16.964,18.544,14.463,21,11.5,21z"/>
</g>
<g id="invisible_shape">
	<rect fill="none" width="24" height="24"/>
</g>
</svg>
