<?xml version="1.0" encoding="utf-8"?>
<!-- Generator: Adobe Illustrator 16.0.3, SVG Export Plug-In . SVG Version: 6.00 Build 0)  -->
<!DOCTYPE svg PUBLIC "-//W3C//DTD SVG 1.1//EN" "http://www.w3.org/Graphics/SVG/1.1/DTD/svg11.dtd">
<svg version="1.1" xmlns="http://www.w3.org/2000/svg" xmlns:xlink="http://www.w3.org/1999/xlink" x="0px" y="0px" width="24px"
	 height="24px" viewBox="0 0 24 24" enable-background="new 0 0 24 24" xml:space="preserve">
<g id="Outline_Icons">
	<g>
		<path d="M22.5,0h-21C1.224,0,1,0.224,1,0.5v23C1,23.776,1.224,24,1.5,24h21c0.276,0,0.5-0.224,0.5-0.5v-23
			C23,0.224,22.776,0,22.5,0z M2,1h6v22H2V1z M9,1h6v22H9V1z M22,23h-6V1h6V23z"/>
		<path d="M13,2h-2c-0.276,0-0.5,0.224-0.5,0.5S10.724,3,11,3h2c0.276,0,0.5-0.224,0.5-0.5S13.276,2,13,2z"/>
		<path d="M13,4h-2c-0.276,0-0.5,0.224-0.5,0.5S10.724,5,11,5h2c0.276,0,0.5-0.224,0.5-0.5S13.276,4,13,4z"/>
		<path d="M13,6h-2c-0.276,0-0.5,0.224-0.5,0.5S10.724,7,11,7h2c0.276,0,0.5-0.224,0.5-0.5S13.276,6,13,6z"/>
		<path d="M13,18h-2c-0.276,0-0.5,0.224-0.5,0.5S10.724,19,11,19h2c0.276,0,0.5-0.224,0.5-0.5S13.276,18,13,18z"/>
		<path d="M13,20h-2c-0.276,0-0.5,0.224-0.5,0.5S10.724,21,11,21h2c0.276,0,0.5-0.224,0.5-0.5S13.276,20,13,20z"/>
		<circle cx="10.5" cy="10.5" r="0.5"/>
		<path d="M18,3h2c0.276,0,0.5-0.224,0.5-0.5S20.276,2,20,2h-2c-0.276,0-0.5,0.224-0.5,0.5S17.724,3,18,3z"/>
		<path d="M18,5h2c0.276,0,0.5-0.224,0.5-0.5S20.276,4,20,4h-2c-0.276,0-0.5,0.224-0.5,0.5S17.724,5,18,5z"/>
		<path d="M18,7h2c0.276,0,0.5-0.224,0.5-0.5S20.276,6,20,6h-2c-0.276,0-0.5,0.224-0.5,0.5S17.724,7,18,7z"/>
		<path d="M20,18h-2c-0.276,0-0.5,0.224-0.5,0.5S17.724,19,18,19h2c0.276,0,0.5-0.224,0.5-0.5S20.276,18,20,18z"/>
		<path d="M20,20h-2c-0.276,0-0.5,0.224-0.5,0.5S17.724,21,18,21h2c0.276,0,0.5-0.224,0.5-0.5S20.276,20,20,20z"/>
		<circle cx="17.5" cy="10.5" r="0.5"/>
		<path d="M6,2H4C3.724,2,3.5,2.224,3.5,2.5S3.724,3,4,3h2c0.276,0,0.5-0.224,0.5-0.5S6.276,2,6,2z"/>
		<path d="M6,4H4C3.724,4,3.5,4.224,3.5,4.5S3.724,5,4,5h2c0.276,0,0.5-0.224,0.5-0.5S6.276,4,6,4z"/>
		<path d="M6,6H4C3.724,6,3.5,6.224,3.5,6.5S3.724,7,4,7h2c0.276,0,0.5-0.224,0.5-0.5S6.276,6,6,6z"/>
		<path d="M6,18H4c-0.276,0-0.5,0.224-0.5,0.5S3.724,19,4,19h2c0.276,0,0.5-0.224,0.5-0.5S6.276,18,6,18z"/>
		<path d="M6,20H4c-0.276,0-0.5,0.224-0.5,0.5S3.724,21,4,21h2c0.276,0,0.5-0.224,0.5-0.5S6.276,20,6,20z"/>
		<circle cx="3.5" cy="10.5" r="0.5"/>
	</g>
</g>
<g id="invisible_shape">
	<rect fill="none" width="24" height="24"/>
</g>
</svg>
