<?xml version="1.0" encoding="utf-8"?>
<!-- Generator: Adobe Illustrator 16.0.3, SVG Export Plug-In . SVG Version: 6.00 Build 0)  -->
<!DOCTYPE svg PUBLIC "-//W3C//DTD SVG 1.1//EN" "http://www.w3.org/Graphics/SVG/1.1/DTD/svg11.dtd">
<svg version="1.1" xmlns="http://www.w3.org/2000/svg" xmlns:xlink="http://www.w3.org/1999/xlink" x="0px" y="0px" width="24px"
	 height="24px" viewBox="0 0 24 24" enable-background="new 0 0 24 24" xml:space="preserve">
<g id="Outline_Icons">
	<g>
		<path d="M24,15c0-0.276-0.224-0.5-0.5-0.5S23,14.724,23,15v0.771C22.013,14.696,20.538,14,19,14c-2.197,0-4.287,1.401-4.972,3.333
			c-0.092,0.261,0.045,0.546,0.305,0.639c0.262,0.093,0.546-0.044,0.639-0.305C15.51,16.146,17.241,15,19,15
			c1.488,0,2.95,0.826,3.692,2H21c-0.276,0-0.5,0.224-0.5,0.5S20.724,18,21,18h2.5c0.056,0,0.111-0.009,0.167-0.028
			c0.005-0.002,0.009-0.006,0.014-0.008c0.034-0.014,0.062-0.036,0.093-0.057c0.023-0.016,0.05-0.027,0.07-0.047
			c0.024-0.023,0.04-0.053,0.06-0.08c0.018-0.025,0.038-0.048,0.051-0.075c0.012-0.026,0.015-0.055,0.021-0.084
			c0.009-0.035,0.021-0.069,0.021-0.107C23.997,17.51,24,17.505,24,17.5V15z"/>
		<path d="M23.667,20.028c-0.261-0.091-0.546,0.045-0.639,0.305C22.49,21.854,20.759,23,19,23c-1.488,0-2.95-0.826-3.692-2H17
			c0.276,0,0.5-0.224,0.5-0.5S17.276,20,17,20h-2.5c-0.026,0-0.05,0.012-0.075,0.016c-0.03,0.004-0.062,0.002-0.092,0.013
			c-0.005,0.002-0.009,0.006-0.014,0.008c-0.034,0.014-0.062,0.036-0.093,0.056c-0.023,0.017-0.05,0.028-0.07,0.048
			c-0.024,0.023-0.04,0.053-0.06,0.08c-0.018,0.024-0.038,0.048-0.051,0.075c-0.012,0.026-0.014,0.055-0.021,0.083
			c-0.009,0.036-0.021,0.07-0.021,0.108C14.003,20.49,14,20.495,14,20.5V23c0,0.276,0.224,0.5,0.5,0.5S15,23.276,15,23v-0.771
			C15.987,23.304,17.462,24,19,24c2.197,0,4.287-1.401,4.972-3.333C24.063,20.406,23.927,20.121,23.667,20.028z"/>
		<path d="M17.989,4.522c0.195,0.195,0.512,0.195,0.707,0s0.195-0.512,0-0.707c-5.08-5.078-13.344-5.078-18.424,0
			c-0.195,0.195-0.195,0.512,0,0.707C0.37,4.62,0.498,4.669,0.626,4.669S0.882,4.62,0.979,4.522
			C5.669-0.165,13.3-0.165,17.989,4.522z"/>
		<path d="M9.484,5.474C9.484,5.474,9.484,5.474,9.484,5.474c0.093,0,0.184,0.011,0.275,0.014c0.189,0.006,0.379,0.009,0.566,0.027
			c0.053,0.005,0.104,0.018,0.157,0.023c0.223,0.026,0.444,0.055,0.663,0.099c1.622,0.322,3.114,1.116,4.312,2.312
			c0.098,0.098,0.226,0.146,0.354,0.146s0.256-0.049,0.354-0.146c0.195-0.195,0.195-0.512,0-0.707
			c-0.892-0.893-1.931-1.584-3.062-2.053c-1.058-0.439-2.198-0.674-3.373-0.704C9.648,4.483,9.568,4.474,9.487,4.474
			c-0.001,0-0.001,0-0.002,0H9.484c-0.001,0-0.001,0-0.002,0c-0.082,0-0.162,0.01-0.244,0.012C7.123,4.54,5.122,5.278,3.501,6.611
			C3.261,6.809,3.028,7.02,2.806,7.242c-0.195,0.195-0.195,0.512,0,0.707s0.512,0.195,0.707,0c1.563-1.564,3.634-2.435,5.84-2.469
			C9.396,5.479,9.44,5.474,9.484,5.474z"/>
		<path d="M5.335,10.666c-0.195,0.195-0.195,0.512,0,0.707s0.512,0.195,0.707,0c1.899-1.897,4.988-1.896,6.886,0
			c0.098,0.098,0.226,0.146,0.354,0.146s0.256-0.049,0.354-0.146c0.195-0.195,0.195-0.512,0-0.707
			C11.345,8.378,7.623,8.38,5.335,10.666z"/>
		<path d="M9.485,13.422c-1.263,0-2.29,1.026-2.29,2.288c0,1.263,1.027,2.29,2.29,2.29c1.262,0,2.289-1.027,2.289-2.29
			C11.774,14.448,10.747,13.422,9.485,13.422z M9.485,17c-0.711,0-1.29-0.579-1.29-1.29c0-0.71,0.579-1.288,1.29-1.288
			S10.774,15,10.774,15.71C10.774,16.421,10.196,17,9.485,17z"/>
	</g>
</g>
<g id="Invisible_Shape">
	<rect fill="none" width="24" height="24"/>
</g>
</svg>
