<?xml version="1.0" encoding="utf-8"?>
<!-- Generator: Adobe Illustrator 16.0.3, SVG Export Plug-In . SVG Version: 6.00 Build 0)  -->
<!DOCTYPE svg PUBLIC "-//W3C//DTD SVG 1.1//EN" "http://www.w3.org/Graphics/SVG/1.1/DTD/svg11.dtd">
<svg version="1.1" xmlns="http://www.w3.org/2000/svg" xmlns:xlink="http://www.w3.org/1999/xlink" x="0px" y="0px" width="24px"
	 height="24px" viewBox="0 0 24 24" enable-background="new 0 0 24 24" xml:space="preserve">
<g id="Outline_Icons">
	<g>
		<path d="M14.923,12.078c-1.003,0-2.187,0.521-2.923,1.891c-0.736-1.37-1.92-1.891-2.923-1.891c-1.655,0-3.367,1.371-3.367,3.665
			c0,3.306,5.753,7.486,5.998,7.663C11.795,23.469,11.897,23.5,12,23.5s0.205-0.031,0.292-0.094
			c0.245-0.177,5.998-4.357,5.998-7.663C18.29,13.449,16.578,12.078,14.923,12.078z M12,22.378c-1.712-1.292-5.29-4.448-5.29-6.635
			c0-1.668,1.203-2.665,2.367-2.665c1.157,0,2.067,0.907,2.437,2.427c0.109,0.447,0.863,0.447,0.973,0
			c0.369-1.52,1.279-2.427,2.437-2.427c1.164,0,2.367,0.997,2.367,2.665C17.29,17.93,13.712,21.086,12,22.378z"/>
		<path d="M12.146,4.515c-0.048-0.001-0.096-0.007-0.145-0.007h-0.001c-0.001,0-0.001,0-0.001,0c-0.002,0-0.002,0-0.002,0
			c-0.094,0-0.185,0.011-0.277,0.014c-2.418,0.07-4.684,1.035-6.401,2.754c-0.195,0.195-0.195,0.512,0,0.707s0.512,0.195,0.707,0
			c1.163-1.162,2.607-1.939,4.178-2.279c0.045-0.01,0.089-0.023,0.134-0.033c0.089-0.018,0.18-0.025,0.27-0.039
			c0.456-0.076,0.92-0.123,1.392-0.123c0,0,0.001,0,0.002,0c2.255,0,4.376,0.879,5.972,2.475c0.098,0.098,0.226,0.146,0.354,0.146
			s0.256-0.049,0.354-0.146c0.195-0.195,0.195-0.512,0-0.707C16.93,5.525,14.614,4.553,12.146,4.515z"/>
		<path d="M21.21,4.85c-5.077-5.079-13.343-5.08-18.422,0c-0.195,0.195-0.195,0.512,0,0.707s0.512,0.195,0.707,0
			c4.689-4.689,12.32-4.688,17.008,0c0.098,0.098,0.226,0.146,0.354,0.146s0.256-0.049,0.354-0.146
			C21.405,5.361,21.405,5.045,21.21,4.85z"/>
		<path d="M8.557,10.407c1.898-1.896,4.987-1.897,6.886,0c0.098,0.098,0.226,0.146,0.354,0.146s0.256-0.049,0.354-0.146
			c0.195-0.195,0.195-0.512,0-0.707c-2.287-2.289-6.011-2.287-8.3,0c-0.195,0.195-0.195,0.512,0,0.707S8.361,10.603,8.557,10.407z"
			/>
	</g>
</g>
<g id="Invisible_Shape">
	<rect fill="none" width="24" height="24"/>
</g>
</svg>
