<?xml version="1.0" encoding="utf-8"?>
<!-- Generator: Adobe Illustrator 16.0.3, SVG Export Plug-In . SVG Version: 6.00 Build 0)  -->
<!DOCTYPE svg PUBLIC "-//W3C//DTD SVG 1.1//EN" "http://www.w3.org/Graphics/SVG/1.1/DTD/svg11.dtd">
<svg version="1.1" xmlns="http://www.w3.org/2000/svg" xmlns:xlink="http://www.w3.org/1999/xlink" x="0px" y="0px" width="24px"
	 height="24px" viewBox="0 0 24 24" enable-background="new 0 0 24 24" xml:space="preserve">
<g id="Outline_Icons">
	<g>
		<path d="M0.5,22h2.051C2.783,23.14,3.792,24,5,24s2.217-0.86,2.449-2h9.101c0.232,1.14,1.241,2,2.449,2s2.217-0.86,2.449-2h2.051
			c0.276,0,0.5-0.224,0.5-0.5v-14c0-0.276-0.224-0.5-0.5-0.5h-9.5V6.5c0-1.378-1.121-2.5-2.5-2.5s-2.5,1.122-2.5,2.5v1V9H5
			C4.818,9,4.651,9.099,4.562,9.257l-2.466,4.439l-1.95,1.95C0.053,15.74,0,15.867,0,16v5.5C0,21.776,0.224,22,0.5,22z M1,20h2.013
			c-0.221,0.292-0.387,0.628-0.462,1H1V20z M5,23c-0.827,0-1.5-0.673-1.5-1.5S4.173,20,5,20s1.5,0.673,1.5,1.5S5.827,23,5,23z
			 M17.012,20c-0.221,0.292-0.387,0.628-0.462,1H7.449c-0.075-0.372-0.241-0.708-0.462-1H17.012z M18.999,23
			c-0.827,0-1.5-0.673-1.5-1.5s0.673-1.5,1.5-1.5s1.5,0.673,1.5,1.5S19.826,23,18.999,23z M21.448,21
			c-0.075-0.372-0.241-0.708-0.462-1h2.013v1H21.448z M22.999,19h-13V9.5V8h3.5h9.5V19z M9.999,6.5c0-0.827,0.673-1.5,1.5-1.5
			s1.5,0.673,1.5,1.5V7h-3V6.5z M2.854,14.354c0.033-0.033,0.061-0.07,0.084-0.11L5.294,10h3.705v9H1v-2.793L2.854,14.354z"/>
		<path d="M4.276,14.947C4.349,14.983,4.425,15,4.5,15c0.183,0,0.359-0.101,0.447-0.276L6.309,12H7.5C7.776,12,8,11.776,8,11.5
			S7.776,11,7.5,11H6c-0.189,0-0.362,0.107-0.447,0.276l-1.5,3C3.93,14.523,4.029,14.824,4.276,14.947z"/>
		<path d="M12.999,12.5v2c0,0.276,0.224,0.5,0.5,0.5h1.5v1.5c0,0.276,0.224,0.5,0.5,0.5h2c0.276,0,0.5-0.224,0.5-0.5V15h1.5
			c0.276,0,0.5-0.224,0.5-0.5v-2c0-0.276-0.224-0.5-0.5-0.5h-1.5v-1.5c0-0.276-0.224-0.5-0.5-0.5h-2c-0.276,0-0.5,0.224-0.5,0.5V12
			h-1.5C13.223,12,12.999,12.224,12.999,12.5z M13.999,13h1.5c0.276,0,0.5-0.224,0.5-0.5V11h1v1.5c0,0.276,0.224,0.5,0.5,0.5h1.5v1
			h-1.5c-0.276,0-0.5,0.224-0.5,0.5V16h-1v-1.5c0-0.276-0.224-0.5-0.5-0.5h-1.5V13z"/>
	</g>
</g>
<g id="invisible_shape">
	<rect fill="none" width="24" height="24"/>
</g>
</svg>
