<?xml version="1.0" encoding="utf-8"?>
<!-- Generator: Adobe Illustrator 16.0.3, SVG Export Plug-In . SVG Version: 6.00 Build 0)  -->
<!DOCTYPE svg PUBLIC "-//W3C//DTD SVG 1.1//EN" "http://www.w3.org/Graphics/SVG/1.1/DTD/svg11.dtd">
<svg version="1.1" xmlns="http://www.w3.org/2000/svg" xmlns:xlink="http://www.w3.org/1999/xlink" x="0px" y="0px" width="24px"
	 height="24px" viewBox="0 0 24 24" enable-background="new 0 0 24 24" xml:space="preserve">
<g id="Outline_Icons">
	<g>
		<path d="M19,2c-3.417,0-5.477,1.618-5.908,2.981c-0.949-0.085-1.426-0.467-1.965-0.904c-0.601-0.485-1.28-1.036-2.586-1.036
			c-1.449,0-2.203,1.308-2.868,2.462c-0.601,1.042-1.169,2.027-2.11,2.027c-0.965,0-1.365-0.58-1.873-1.314
			C1.448,5.867,1.198,5.504,0.871,5.2C0.669,5.013,0.354,5.024,0.164,5.226c-0.188,0.202-0.177,0.519,0.025,0.707
			c0.248,0.23,0.457,0.532,0.678,0.853c0.537,0.777,1.206,1.746,2.695,1.746c1.52,0,2.294-1.344,2.977-2.528
			c0.703-1.22,1.189-1.961,2.002-1.961c0.951,0,1.396,0.359,1.957,0.813c0.602,0.487,1.283,1.027,2.587,1.124
			C13.488,7.352,15.55,9,19,9c2.484,0,5-1.202,5-3.5C24,3.227,21.424,2,19,2z M19,8c-3.463,0-5-1.812-5-2.5S15.537,3,19,3
			c1.661,0,4,0.775,4,2.5C23,7.124,20.939,8,19,8z"/>
		<path d="M18.543,17.028c-2.209,0-3.581,1.016-3.98,1.938c-0.49-0.071-0.767-0.276-1.085-0.535
			c-0.396-0.32-0.889-0.719-1.808-0.719c-1.052,0-1.573,0.905-2.033,1.704c-0.447,0.776-0.754,1.247-1.238,1.247
			c-0.521,0-0.731-0.271-1.091-0.79c-0.164-0.237-0.333-0.483-0.562-0.695c-0.202-0.187-0.519-0.177-0.707,0.026
			c-0.188,0.202-0.177,0.519,0.025,0.707c0.149,0.139,0.281,0.329,0.421,0.531c0.355,0.516,0.844,1.222,1.913,1.222
			c1.098,0,1.656-0.969,2.104-1.747c0.432-0.748,0.726-1.203,1.167-1.203c0.565,0,0.822,0.209,1.179,0.497
			c0.375,0.303,0.853,0.654,1.678,0.749c0.356,0.942,1.749,2.013,4.017,2.013c1.718,0,3.457-0.849,3.457-2.472
			C22,17.895,20.219,17.028,18.543,17.028z M18.543,20.972c-2.178,0-3.115-1.117-3.115-1.472c0-0.355,0.938-1.472,3.115-1.472
			c0.991,0,2.457,0.468,2.457,1.472C21,20.516,19.563,20.972,18.543,20.972z"/>
		<path d="M6.67,11.713c0.565,0,0.822,0.209,1.179,0.497c0.375,0.303,0.853,0.654,1.678,0.749c0.356,0.942,1.749,2.013,4.017,2.013
			c1.718,0,3.457-0.849,3.457-2.472c0-1.605-1.781-2.472-3.457-2.472c-2.209,0-3.581,1.016-3.98,1.938
			c-0.49-0.071-0.767-0.276-1.085-0.535c-0.396-0.32-0.889-0.719-1.808-0.719c-1.052,0-1.573,0.905-2.033,1.704
			c-0.447,0.776-0.754,1.247-1.238,1.247c-0.521,0-0.731-0.271-1.091-0.79c-0.164-0.237-0.333-0.483-0.562-0.695
			c-0.202-0.187-0.518-0.176-0.707,0.026c-0.188,0.202-0.177,0.519,0.025,0.707c0.149,0.139,0.281,0.329,0.421,0.531
			c0.355,0.516,0.844,1.222,1.913,1.222c1.098,0,1.656-0.969,2.104-1.747C5.935,12.168,6.229,11.713,6.67,11.713z M13.543,11.028
			c0.991,0,2.457,0.468,2.457,1.472c0,1.016-1.437,1.472-2.457,1.472c-2.178,0-3.115-1.117-3.115-1.472
			C10.428,12.145,11.365,11.028,13.543,11.028z"/>
	</g>
</g>
<g id="invisible_shape">
	<rect fill="none" width="24" height="24"/>
</g>
</svg>
