<?xml version="1.0" encoding="utf-8"?>
<!-- Generator: Adobe Illustrator 16.0.3, SVG Export Plug-In . SVG Version: 6.00 Build 0)  -->
<!DOCTYPE svg PUBLIC "-//W3C//DTD SVG 1.1//EN" "http://www.w3.org/Graphics/SVG/1.1/DTD/svg11.dtd">
<svg version="1.1" xmlns="http://www.w3.org/2000/svg" xmlns:xlink="http://www.w3.org/1999/xlink" x="0px" y="0px" width="24px"
	 height="24px" viewBox="0 0 24 24" enable-background="new 0 0 24 24" xml:space="preserve">
<g id="Outline_Icons">
	<g>
		<path d="M2,8.5v10C2,18.776,2.224,19,2.5,19h5.09l0.92,4.598C8.557,23.832,8.762,24,9,24h5c0.238,0,0.443-0.168,0.49-0.402
			L15.41,19h5.09c0.276,0,0.5-0.224,0.5-0.5v-10C21,8.224,20.776,8,20.5,8h-2.19l-0.862-1.724C17.362,6.107,17.189,6,17,6h-3.848
			C13.963,5.462,14.5,4.544,14.5,3.5c0-1.654-1.346-3-3-3s-3,1.346-3,3c0,1.044,0.537,1.962,1.348,2.5H6
			C5.811,6,5.638,6.107,5.553,6.276L4.691,8H2.5C2.224,8,2,8.224,2,8.5z M11.5,1.5c1.103,0,2,0.896,2,2c0,1.103-0.897,2-2,2
			s-2-0.897-2-2C9.5,2.396,10.397,1.5,11.5,1.5z M13.59,23H9.41l-0.8-4h5.78L13.59,23z M6.309,7h10.383l0.5,1H5.809L6.309,7z M3,9
			h17v9H3V9z"/>
		<path d="M16.686,11.036l-1.784-0.713C14.369,10.108,13.807,10,13.229,10H11.5H9.771c-0.577,0-1.14,0.108-1.671,0.322l-1.785,0.714
			c-0.257,0.103-0.381,0.394-0.278,0.65C6.114,11.881,6.302,12,6.5,12c0.062,0,0.125-0.011,0.186-0.035l1.786-0.715
			C8.885,11.084,9.321,11,9.771,11H11v2h-0.252c-0.559,0-1.105,0.103-1.626,0.304l-2.011,0.778c-0.258,0.1-0.386,0.389-0.285,0.647
			c0.076,0.198,0.266,0.319,0.466,0.319c0.061,0,0.121-0.011,0.181-0.033l2.011-0.779C9.889,14.08,10.314,14,10.748,14H11v2H9.5
			C9.224,16,9,16.224,9,16.5S9.224,17,9.5,17h4c0.276,0,0.5-0.224,0.5-0.5S13.776,16,13.5,16H12v-2h0.252
			c0.434,0,0.859,0.08,1.265,0.237l2.011,0.779c0.06,0.022,0.12,0.033,0.181,0.033c0.2,0,0.39-0.121,0.466-0.319
			c0.101-0.258-0.027-0.547-0.285-0.647l-2.011-0.778C13.357,13.103,12.811,13,12.252,13H12v-2h1.229c0.449,0,0.886,0.084,1.3,0.25
			l1.785,0.714C16.375,11.989,16.438,12,16.5,12c0.198,0,0.386-0.119,0.464-0.314C17.066,11.429,16.942,11.139,16.686,11.036z"/>
	</g>
</g>
<g id="invisible_shape">
	<rect fill="none" width="24" height="24"/>
</g>
</svg>
