<?xml version="1.0" encoding="utf-8"?>
<!-- Generator: Adobe Illustrator 16.0.3, SVG Export Plug-In . SVG Version: 6.00 Build 0)  -->
<!DOCTYPE svg PUBLIC "-//W3C//DTD SVG 1.1//EN" "http://www.w3.org/Graphics/SVG/1.1/DTD/svg11.dtd">
<svg version="1.1" xmlns="http://www.w3.org/2000/svg" xmlns:xlink="http://www.w3.org/1999/xlink" x="0px" y="0px" width="24px"
	 height="24px" viewBox="0 0 24 24" enable-background="new 0 0 24 24" xml:space="preserve">
<g id="Outline_Icons_1_">
	<g id="Outline_Icons">
		<path d="M21,0.001c-1.654,0-3,1.346-3,3c0,1.118,0.622,2.084,1.531,2.6l-2.502,6.954c-0.173-0.031-0.348-0.054-0.529-0.054
			c-0.729,0-1.39,0.271-1.91,0.706l-2.527-2.168c0.271-0.451,0.438-0.974,0.438-1.538c0-1.654-1.346-3-3-3s-3,1.346-3,3
			c0,0.938,0.441,1.766,1.116,2.315l-3.603,6.373C3.695,18.074,3.357,18.001,3,18.001c-1.654,0-3,1.346-3,3s1.346,3,3,3s3-1.346,3-3
			c0-0.938-0.441-1.766-1.117-2.316l3.603-6.372c0.318,0.115,0.657,0.188,1.015,0.188c0.729,0,1.389-0.271,1.908-0.705l2.529,2.168
			c-0.271,0.451-0.438,0.974-0.438,1.537c0,1.654,1.346,3,3,3s3-1.346,3-3c0-1.118-0.623-2.085-1.532-2.601l2.502-6.953
			c0.173,0.031,0.349,0.054,0.53,0.054c1.654,0,3-1.346,3-3S22.654,0.001,21,0.001z M3,23.001c-1.103,0-2-0.897-2-2s0.897-2,2-2
			s2,0.897,2,2S4.103,23.001,3,23.001z M9.5,11.501c-1.103,0-2-0.897-2-2s0.897-2,2-2s2,0.897,2,2S10.603,11.501,9.5,11.501z
			 M16.5,17.501c-1.103,0-2-0.897-2-2s0.897-2,2-2s2,0.897,2,2S17.603,17.501,16.5,17.501z M21,5.001c-1.103,0-2-0.897-2-2
			s0.897-2,2-2s2,0.897,2,2S22.103,5.001,21,5.001z"/>
	</g>
	<g id="New_icons_1_">
	</g>
</g>
<g id="Invisible_Shape">
	<rect fill="none" width="24" height="24"/>
</g>
</svg>
