<?xml version="1.0" encoding="utf-8"?>
<!-- Generator: Adobe Illustrator 16.0.3, SVG Export Plug-In . SVG Version: 6.00 Build 0)  -->
<!DOCTYPE svg PUBLIC "-//W3C//DTD SVG 1.1//EN" "http://www.w3.org/Graphics/SVG/1.1/DTD/svg11.dtd">
<svg version="1.1" xmlns="http://www.w3.org/2000/svg" xmlns:xlink="http://www.w3.org/1999/xlink" x="0px" y="0px" width="24px"
	 height="24px" viewBox="0 0 24 24" enable-background="new 0 0 24 24" xml:space="preserve">
<g id="Outline_Icons_1_">
	<g id="Outline_Icons">
		<path d="M23.5,18h-2.025c-0.257-3.351-3.06-6-6.475-6h-2.5V6h2C14.776,6,15,5.776,15,5.5v-5C15,0.224,14.776,0,14.5,0h-5
			C9.224,0,9,0.224,9,0.5v5C9,5.776,9.224,6,9.5,6h2v6H9c-3.415,0-6.218,2.649-6.475,6H0.5C0.224,18,0,18.224,0,18.5v5
			C0,23.776,0.224,24,0.5,24h5C5.776,24,6,23.776,6,23.5v-5C6,18.224,5.776,18,5.5,18H3.525C3.779,15.201,6.137,13,9,13h2.5v5h-2
			C9.224,18,9,18.224,9,18.5v5C9,23.776,9.224,24,9.5,24h5c0.276,0,0.5-0.224,0.5-0.5v-5c0-0.276-0.224-0.5-0.5-0.5h-2v-5H15
			c2.863,0,5.221,2.201,5.475,5H18.5c-0.276,0-0.5,0.224-0.5,0.5v5c0,0.276,0.224,0.5,0.5,0.5h5c0.276,0,0.5-0.224,0.5-0.5v-5
			C24,18.224,23.776,18,23.5,18z M10,5V1h4v4h-1.5V4.999h-1V5H10z M5,23H1v-4h1.5h1H5V23z M14,23h-4v-4h4V23z M23,23h-4v-4h1.5h1H23
			V23z"/>
	</g>
	<g id="New_icons_1_">
	</g>
</g>
<g id="Invisible_Shape">
	<rect fill="none" width="24" height="24"/>
</g>
</svg>
