<?xml version="1.0" encoding="utf-8"?>
<!-- Generator: Adobe Illustrator 16.0.3, SVG Export Plug-In . SVG Version: 6.00 Build 0)  -->
<!DOCTYPE svg PUBLIC "-//W3C//DTD SVG 1.1//EN" "http://www.w3.org/Graphics/SVG/1.1/DTD/svg11.dtd">
<svg version="1.1" xmlns="http://www.w3.org/2000/svg" xmlns:xlink="http://www.w3.org/1999/xlink" x="0px" y="0px" width="24px"
	 height="24px" viewBox="0 0 24 24" enable-background="new 0 0 24 24" xml:space="preserve">
<g id="Outline_Icons">
	<g>
		<path d="M21.5,2h-19C1.121,2,0,3.121,0,4.5v14C0,19.879,1.121,21,2.5,21h19c1.379,0,2.5-1.121,2.5-2.5v-14
			C24,3.121,22.879,2,21.5,2z M2.5,3h19C22.327,3,23,3.673,23,4.5V7H1V4.5C1,3.673,1.673,3,2.5,3z M21.5,20h-19
			C1.673,20,1,19.327,1,18.5V8h22v10.5C23,19.327,22.327,20,21.5,20z"/>
		<circle cx="4" cy="5" r="1"/>
		<circle cx="7" cy="5" r="1"/>
		<circle cx="10" cy="5" r="1"/>
		<path d="M17.741,13.052l-5.425-4.438c-0.184-0.15-0.449-0.15-0.633,0l-5.5,4.5c-0.164,0.134-0.226,0.355-0.154,0.555
			S6.289,14,6.5,14H8v4.5C8,18.776,8.224,19,8.5,19h2h3h2c0.276,0,0.5-0.224,0.5-0.5V14h1.5c0.008,0,0.016,0,0.02,0
			c0.276,0,0.5-0.224,0.5-0.5C18.02,13.304,17.906,13.134,17.741,13.052z M11,18v-2h2v2H11z M15,18h-1v-2.5
			c0-0.276-0.224-0.5-0.5-0.5h-3c-0.276,0-0.5,0.224-0.5,0.5V18H9v-4h6V18z M7.9,13L12,9.646L16.1,13H7.9z"/>
	</g>
</g>
<g id="Invisible_Shape">
	<rect fill="none" width="24" height="24"/>
</g>
</svg>
