<?xml version="1.0" encoding="utf-8"?>
<!-- Generator: Adobe Illustrator 16.0.3, SVG Export Plug-In . SVG Version: 6.00 Build 0)  -->
<!DOCTYPE svg PUBLIC "-//W3C//DTD SVG 1.1//EN" "http://www.w3.org/Graphics/SVG/1.1/DTD/svg11.dtd">
<svg version="1.1" xmlns="http://www.w3.org/2000/svg" xmlns:xlink="http://www.w3.org/1999/xlink" x="0px" y="0px" width="24px"
	 height="24px" viewBox="0 0 24 24" enable-background="new 0 0 24 24" xml:space="preserve">
<g id="Outline_Icons">
	<g>
		<path d="M21.5,2h-19C1.121,2,0,3.121,0,4.5v14C0,19.879,1.121,21,2.5,21h19c1.379,0,2.5-1.121,2.5-2.5v-14
			C24,3.121,22.879,2,21.5,2z M2.5,3h19C22.327,3,23,3.673,23,4.5V7H1V4.5C1,3.673,1.673,3,2.5,3z M21.5,20h-19
			C1.673,20,1,19.327,1,18.5V8h22v10.5C23,19.327,22.327,20,21.5,20z"/>
		<circle cx="4" cy="5" r="1"/>
		<circle cx="7" cy="5" r="1"/>
		<circle cx="10" cy="5" r="1"/>
		<path d="M15.873,11.546C15.086,10.204,13.6,9.353,12,9.353c-2.173,0-4.004,1.522-4.38,3.551c-0.002,0-0.003,0-0.005,0
			C6.174,12.903,5,14.047,5,15.452C5,17.468,6.802,18,7.755,18l8.264-0.004C17.05,17.866,19,17.024,19,14.769
			C19,13.052,17.614,11.644,15.873,11.546z M15.956,17H7.755C7.462,17,6,16.926,6,15.452c0-0.854,0.725-1.549,1.615-1.549
			c0.112,0,0.227,0.011,0.342,0.034c0.138,0.03,0.289-0.006,0.403-0.094s0.186-0.222,0.194-0.366
			c0.106-1.752,1.62-3.125,3.445-3.125c1.328,0,2.554,0.75,3.123,1.91c0.085,0.171,0.342,0.277,0.537,0.277
			c1.275-0.034,2.34,0.994,2.34,2.229C18,16.7,15.978,16.992,15.956,17z"/>
	</g>
</g>
<g id="Invisible_Shape">
	<rect fill="none" width="24" height="24"/>
</g>
</svg>
