<?xml version="1.0" encoding="utf-8"?>
<!-- Generator: Adobe Illustrator 16.0.3, SVG Export Plug-In . SVG Version: 6.00 Build 0)  -->
<!DOCTYPE svg PUBLIC "-//W3C//DTD SVG 1.1//EN" "http://www.w3.org/Graphics/SVG/1.1/DTD/svg11.dtd">
<svg version="1.1" xmlns="http://www.w3.org/2000/svg" xmlns:xlink="http://www.w3.org/1999/xlink" x="0px" y="0px" width="24px"
	 height="24px" viewBox="0 0 24 24" enable-background="new 0 0 24 24" xml:space="preserve">
<g id="Outline_Icons">
	<g>
		<path d="M17.5,11c-3.584,0-6.5,2.916-6.5,6.5s2.916,6.5,6.5,6.5s6.5-2.916,6.5-6.5S21.084,11,17.5,11z M17.5,23
			c-3.032,0-5.5-2.468-5.5-5.5s2.468-5.5,5.5-5.5s5.5,2.468,5.5,5.5S20.532,23,17.5,23z"/>
		<circle cx="17.5" cy="21.5" r="0.5"/>
		<path d="M17.5,13.5c-1.24,0-2.25,1.01-2.25,2.25c0,0.276,0.224,0.5,0.5,0.5s0.5-0.224,0.5-0.5c0-0.689,0.561-1.25,1.25-1.25
			s1.25,0.561,1.25,1.25S18.189,17,17.5,17c-0.276,0-0.5,0.224-0.5,0.5v2c0,0.276,0.224,0.5,0.5,0.5s0.5-0.224,0.5-0.5v-1.556
			c1.001-0.229,1.75-1.126,1.75-2.194C19.75,14.51,18.74,13.5,17.5,13.5z"/>
		<circle cx="3.5" cy="2.5" r="0.5"/>
		<circle cx="5.5" cy="2.5" r="0.5"/>
		<circle cx="7.5" cy="2.5" r="0.5"/>
		<path d="M8.5,16h-6C1.673,16,1,15.327,1,14.5V5h19v3.5C20,8.776,20.224,9,20.5,9S21,8.776,21,8.5v-6C21,1.121,19.879,0,18.5,0h-16
			C1.121,0,0,1.121,0,2.5v12C0,15.879,1.121,17,2.5,17h6C8.776,17,9,16.776,9,16.5S8.776,16,8.5,16z M2.5,1h16
			C19.327,1,20,1.673,20,2.5V4H1V2.5C1,1.673,1.673,1,2.5,1z"/>
	</g>
</g>
<g id="Invisible_Shape">
	<rect fill="none" width="24" height="24"/>
</g>
</svg>
