<?xml version="1.0" encoding="utf-8"?>
<!-- Generator: Adobe Illustrator 16.0.3, SVG Export Plug-In . SVG Version: 6.00 Build 0)  -->
<!DOCTYPE svg PUBLIC "-//W3C//DTD SVG 1.1//EN" "http://www.w3.org/Graphics/SVG/1.1/DTD/svg11.dtd">
<svg version="1.1" xmlns="http://www.w3.org/2000/svg" xmlns:xlink="http://www.w3.org/1999/xlink" x="0px" y="0px" width="24px"
	 height="24px" viewBox="0 0 24 24" enable-background="new 0 0 24 24" xml:space="preserve">
<g id="Outline_Icons">
	<g>
		<circle cx="3.5" cy="2.5" r="0.5"/>
		<circle cx="5.5" cy="2.5" r="0.5"/>
		<circle cx="7.5" cy="2.5" r="0.5"/>
		<path d="M9.5,16h-7C1.673,16,1,15.327,1,14.5V5h19v5.5c0,0.276,0.224,0.5,0.5,0.5s0.5-0.224,0.5-0.5v-8C21,1.121,19.879,0,18.5,0
			h-16C1.121,0,0,1.121,0,2.5v12C0,15.879,1.121,17,2.5,17h7c0.276,0,0.5-0.224,0.5-0.5S9.776,16,9.5,16z M2.5,1h16
			C19.327,1,20,1.673,20,2.5V4H1V2.5C1,1.673,1.673,1,2.5,1z"/>
		<path d="M23.984,16.484L23.984,16.484c0-0.008-0.004-0.014-0.004-0.021c-0.002-0.058-0.013-0.116-0.035-0.171
			s-0.057-0.104-0.097-0.146c-0.005-0.005-0.006-0.011-0.011-0.016l-3.984-3.984c-0.195-0.195-0.512-0.195-0.707,0
			s-0.195,0.512,0,0.707l3.134,3.134L16.5,16c-2.481,0-4.5,2.019-4.5,4.5v3c0,0.276,0.224,0.5,0.5,0.5s0.5-0.224,0.5-0.5v-3
			c0-1.93,1.57-3.5,3.501-3.5l5.773-0.013l-3.144,3.144c-0.195,0.195-0.195,0.512,0,0.707c0.098,0.098,0.226,0.146,0.354,0.146
			s0.256-0.049,0.354-0.146l4-4l0,0c0.047-0.047,0.083-0.102,0.108-0.163S23.984,16.549,23.984,16.484z"/>
	</g>
</g>
<g id="Invisible_Shape">
	<rect fill="none" width="24" height="24"/>
</g>
</svg>
