<?xml version="1.0" encoding="utf-8"?>
<!-- Generator: Adobe Illustrator 16.0.3, SVG Export Plug-In . SVG Version: 6.00 Build 0)  -->
<!DOCTYPE svg PUBLIC "-//W3C//DTD SVG 1.1//EN" "http://www.w3.org/Graphics/SVG/1.1/DTD/svg11.dtd">
<svg version="1.1" xmlns="http://www.w3.org/2000/svg" xmlns:xlink="http://www.w3.org/1999/xlink" x="0px" y="0px" width="24px"
	 height="24px" viewBox="0 0 24 24" enable-background="new 0 0 24 24" xml:space="preserve">
<g id="Outline_Icons">
	<g>
		<path d="M17.854,14.146c-0.047-0.046-0.103-0.082-0.163-0.107c-0.123-0.051-0.26-0.051-0.383,0
			c-0.061,0.025-0.116,0.062-0.163,0.107l-2.499,2.5c-0.195,0.195-0.195,0.512,0,0.707s0.512,0.195,0.707,0L17,15.707V20.5
			c0,0.276,0.224,0.5,0.5,0.5s0.5-0.224,0.5-0.5v-4.793l1.646,1.646C19.744,17.451,19.872,17.5,20,17.5s0.256-0.049,0.354-0.146
			c0.195-0.195,0.195-0.512,0-0.707L17.854,14.146z"/>
		<path d="M17.5,11c-3.584,0-6.5,2.916-6.5,6.5s2.916,6.5,6.5,6.5s6.5-2.916,6.5-6.5S21.084,11,17.5,11z M17.5,23
			c-3.032,0-5.5-2.468-5.5-5.5s2.468-5.5,5.5-5.5s5.5,2.468,5.5,5.5S20.532,23,17.5,23z"/>
		<circle cx="3.5" cy="2.5" r="0.5"/>
		<circle cx="5.5" cy="2.5" r="0.5"/>
		<circle cx="7.5" cy="2.5" r="0.5"/>
		<path d="M8.5,16h-6C1.673,16,1,15.327,1,14.5V5h19v3.5C20,8.776,20.224,9,20.5,9S21,8.776,21,8.5v-6C21,1.121,19.879,0,18.5,0h-16
			C1.121,0,0,1.121,0,2.5v12C0,15.879,1.121,17,2.5,17h6C8.776,17,9,16.776,9,16.5S8.776,16,8.5,16z M2.5,1h16
			C19.327,1,20,1.673,20,2.5V4H1V2.5C1,1.673,1.673,1,2.5,1z"/>
	</g>
</g>
<g id="Invisible_Shape">
	<rect fill="none" width="24" height="24"/>
</g>
</svg>
