<?xml version="1.0" encoding="utf-8"?>
<!-- Generator: Adobe Illustrator 16.0.3, SVG Export Plug-In . SVG Version: 6.00 Build 0)  -->
<!DOCTYPE svg PUBLIC "-//W3C//DTD SVG 1.1//EN" "http://www.w3.org/Graphics/SVG/1.1/DTD/svg11.dtd">
<svg version="1.1" xmlns="http://www.w3.org/2000/svg" xmlns:xlink="http://www.w3.org/1999/xlink" x="0px" y="0px" width="24px"
	 height="24px" viewBox="0 0 24 24" enable-background="new 0 0 24 24" xml:space="preserve">
<g id="Outline_Icons">
	<g>
		<path d="M17.5,10.5c-3.584,0-6.5,2.916-6.5,6.5s2.916,6.5,6.5,6.5S24,20.584,24,17S21.084,10.5,17.5,10.5z M17.5,22.5
			c-3.032,0-5.5-2.468-5.5-5.5s2.468-5.5,5.5-5.5S23,13.968,23,17S20.532,22.5,17.5,22.5z"/>
		<path d="M20.146,14.646L16.5,18.293l-1.646-1.646c-0.195-0.195-0.512-0.195-0.707,0s-0.195,0.512,0,0.707l2,2
			c0.098,0.098,0.226,0.146,0.354,0.146s0.256-0.049,0.354-0.146l4-4c0.195-0.195,0.195-0.512,0-0.707S20.342,14.451,20.146,14.646z
			"/>
		<circle cx="3.5" cy="2.5" r="0.5"/>
		<circle cx="5.5" cy="2.5" r="0.5"/>
		<circle cx="7.5" cy="2.5" r="0.5"/>
		<path d="M8.5,16h-6C1.673,16,1,15.327,1,14.5V5h19v3.5C20,8.776,20.224,9,20.5,9S21,8.776,21,8.5v-6C21,1.121,19.879,0,18.5,0h-16
			C1.121,0,0,1.121,0,2.5v12C0,15.879,1.121,17,2.5,17h6C8.776,17,9,16.776,9,16.5S8.776,16,8.5,16z M2.5,1h16
			C19.327,1,20,1.673,20,2.5V4H1V2.5C1,1.673,1.673,1,2.5,1z"/>
	</g>
</g>
<g id="Invisible_Shape">
	<rect fill="none" width="24" height="24"/>
</g>
</svg>
