<?xml version="1.0" encoding="utf-8"?>
<!-- Generator: Adobe Illustrator 16.0.3, SVG Export Plug-In . SVG Version: 6.00 Build 0)  -->
<!DOCTYPE svg PUBLIC "-//W3C//DTD SVG 1.1//EN" "http://www.w3.org/Graphics/SVG/1.1/DTD/svg11.dtd">
<svg version="1.1" xmlns="http://www.w3.org/2000/svg" xmlns:xlink="http://www.w3.org/1999/xlink" x="0px" y="0px" width="24px"
	 height="24px" viewBox="0 0 24 24" enable-background="new 0 0 24 24" xml:space="preserve">
<g id="Outline_Icons">
	<path d="M22.5,1h-22C0.224,1,0,1.224,0,1.5v22C0,23.776,0.224,24,0.5,24h22c0.276,0,0.5-0.224,0.5-0.5v-22
		C23,1.224,22.776,1,22.5,1z M22,2v5H1V2H22z M12,8h10v7H12V8z M11,15H1V8h10V15z M1,16h10v7H1V16z M12,23v-7h10v7H12z"/>
</g>
<g id="Invisible_Shape">
	<rect fill="none" width="24" height="24"/>
</g>
</svg>
