<?xml version="1.0" encoding="utf-8"?>
<!-- Generator: Adobe Illustrator 16.0.3, SVG Export Plug-In . SVG Version: 6.00 Build 0)  -->
<!DOCTYPE svg PUBLIC "-//W3C//DTD SVG 1.1//EN" "http://www.w3.org/Graphics/SVG/1.1/DTD/svg11.dtd">
<svg version="1.1" xmlns="http://www.w3.org/2000/svg" xmlns:xlink="http://www.w3.org/1999/xlink" x="0px" y="0px" width="24px"
	 height="24px" viewBox="0 0 24 24" enable-background="new 0 0 24 24" xml:space="preserve">
<g id="Outline_Icons">
	<g>
		<path d="M23.5,9h-23C0.224,9,0,9.224,0,9.5v14C0,23.776,0.224,24,0.5,24h23c0.276,0,0.5-0.224,0.5-0.5v-14
			C24,9.224,23.776,9,23.5,9z M23,23H1V10h22V23z"/>
		<path d="M3,21.5C3,21.776,3.224,22,3.5,22h3C6.776,22,7,21.776,7,21.5v-2.97c0.271-0.409,1-1.644,1-3.03C8,15.224,7.776,15,7.5,15
			H6.309C6.729,14.633,7,14.1,7,13.5c0-1.104-0.897-2-2-2s-2,0.896-2,2c0,0.6,0.271,1.133,0.691,1.5H2.5C2.224,15,2,15.224,2,15.5
			c0,1.387,0.729,2.621,1,3.03V21.5z M5,12.5c0.551,0,1,0.449,1,1c0,0.551-0.449,1-1,1s-1-0.449-1-1C4,12.949,4.449,12.5,5,12.5z
			 M6.96,16c-0.173,1.125-0.855,2.068-0.863,2.079C6.034,18.165,6,18.269,6,18.375V21H4v-2.625c0-0.107-0.034-0.211-0.098-0.297
			C3.895,18.067,3.211,17.131,3.039,16H6.96z"/>
		<path d="M2.854,3.854L5,1.707V7.5C5,7.776,5.224,8,5.5,8S6,7.776,6,7.5V1.707l2.146,2.146C8.244,3.951,8.372,4,8.5,4
			s0.256-0.049,0.354-0.146c0.195-0.195,0.195-0.512,0-0.707l-3-3C5.808,0.101,5.752,0.063,5.691,0.039
			c-0.122-0.05-0.26-0.05-0.382,0C5.248,0.063,5.192,0.101,5.146,0.146l-3,3c-0.195,0.195-0.195,0.512,0,0.707
			S2.658,4.049,2.854,3.854z"/>
		<path d="M18.146,7.853c0.046,0.047,0.102,0.083,0.163,0.109C18.37,7.987,18.435,8,18.5,8s0.13-0.013,0.191-0.038
			c0.062-0.026,0.117-0.062,0.163-0.109l3-2.999c0.195-0.195,0.195-0.512,0-0.707s-0.512-0.195-0.707,0L19,6.293V0.5
			C19,0.224,18.776,0,18.5,0S18,0.224,18,0.5v5.793l-2.146-2.146c-0.195-0.195-0.512-0.195-0.707,0s-0.195,0.512,0,0.707
			L18.146,7.853z"/>
		<path d="M10,21.5c0,0.276,0.224,0.5,0.5,0.5h3c0.276,0,0.5-0.224,0.5-0.5v-2.97c0.271-0.409,1-1.644,1-3.03
			c0-0.276-0.224-0.5-0.5-0.5h-1.191C13.729,14.633,14,14.1,14,13.5c0-1.104-0.897-2-2-2s-2,0.896-2,2c0,0.6,0.271,1.133,0.691,1.5
			H9.5C9.224,15,9,15.224,9,15.5c0,1.387,0.729,2.621,1,3.03V21.5z M12,12.5c0.551,0,1,0.449,1,1c0,0.551-0.449,1-1,1s-1-0.449-1-1
			C11,12.949,11.449,12.5,12,12.5z M13.96,16c-0.173,1.125-0.855,2.068-0.863,2.079C13.034,18.165,13,18.269,13,18.375V21h-2v-2.625
			c0-0.107-0.034-0.211-0.098-0.297c-0.008-0.011-0.691-0.947-0.863-2.078H13.96z"/>
		<path d="M17,21.5c0,0.276,0.224,0.5,0.5,0.5h3c0.276,0,0.5-0.224,0.5-0.5v-2.97c0.271-0.409,1-1.644,1-3.03
			c0-0.276-0.224-0.5-0.5-0.5h-1.191C20.729,14.633,21,14.1,21,13.5c0-1.104-0.897-2-2-2s-2,0.896-2,2c0,0.6,0.271,1.133,0.691,1.5
			H16.5c-0.276,0-0.5,0.224-0.5,0.5c0,1.387,0.729,2.621,1,3.03V21.5z M19,12.5c0.551,0,1,0.449,1,1c0,0.551-0.449,1-1,1
			s-1-0.449-1-1C18,12.949,18.449,12.5,19,12.5z M20.96,16c-0.173,1.125-0.855,2.068-0.863,2.079C20.034,18.165,20,18.269,20,18.375
			V21h-2v-2.625c0-0.107-0.034-0.211-0.098-0.297c-0.008-0.011-0.691-0.947-0.863-2.078H20.96z"/>
	</g>
</g>
<g id="invisible_shape">
	<rect fill="none" width="24" height="24"/>
</g>
</svg>
