<?xml version="1.0" encoding="utf-8"?>
<!-- Generator: Adobe Illustrator 16.0.3, SVG Export Plug-In . SVG Version: 6.00 Build 0)  -->
<!DOCTYPE svg PUBLIC "-//W3C//DTD SVG 1.1//EN" "http://www.w3.org/Graphics/SVG/1.1/DTD/svg11.dtd">
<svg version="1.1" xmlns="http://www.w3.org/2000/svg" xmlns:xlink="http://www.w3.org/1999/xlink" x="0px" y="0px" width="24px"
	 height="24px" viewBox="0 0 24 24" enable-background="new 0 0 24 24" xml:space="preserve">
<g id="Outline_Icons_1_">
	<path d="M22.5,11H12V1.707l2.146,2.146c0.195,0.195,0.512,0.195,0.707,0s0.195-0.512,0-0.707l-3-3
		c-0.195-0.195-0.512-0.195-0.707,0l-3,3c-0.195,0.195-0.195,0.512,0,0.707s0.512,0.195,0.707,0L11,1.707V11H0.5
		C0.224,11,0,11.224,0,11.5S0.224,12,0.5,12H11v9.293l-2.146-2.146c-0.195-0.195-0.512-0.195-0.707,0s-0.195,0.512,0,0.707l3,3
		c0.195,0.195,0.512,0.195,0.707,0l3-3c0.195-0.195,0.195-0.512,0-0.707s-0.512-0.195-0.707,0L12,21.293V12h10.5
		c0.276,0,0.5-0.224,0.5-0.5S22.776,11,22.5,11z"/>
</g>
<g id="Invisible_Shape">
	<rect fill="none" width="24" height="24"/>
</g>
</svg>
