<?xml version="1.0" encoding="utf-8"?>
<!-- Generator: Adobe Illustrator 16.0.3, SVG Export Plug-In . SVG Version: 6.00 Build 0)  -->
<!DOCTYPE svg PUBLIC "-//W3C//DTD SVG 1.1//EN" "http://www.w3.org/Graphics/SVG/1.1/DTD/svg11.dtd">
<svg version="1.1" xmlns="http://www.w3.org/2000/svg" xmlns:xlink="http://www.w3.org/1999/xlink" x="0px" y="0px" width="24px"
	 height="24px" viewBox="0 0 24 24" enable-background="new 0 0 24 24" xml:space="preserve">
<g id="Outline_Icons_1_">
	<path d="M14.146,20.146L12,22.293V1.707l2.146,2.146c0.195,0.195,0.512,0.195,0.707,0s0.195-0.512,0-0.707l-3-3
		c-0.195-0.195-0.512-0.195-0.707,0l-3,3c-0.195,0.195-0.195,0.512,0,0.707s0.512,0.195,0.707,0L11,1.707v20.586l-2.146-2.146
		c-0.195-0.195-0.512-0.195-0.707,0s-0.195,0.512,0,0.707l3,3c0.195,0.195,0.512,0.195,0.707,0l3-3c0.195-0.195,0.195-0.512,0-0.707
		S14.342,19.951,14.146,20.146z"/>
</g>
<g id="Invisible_Shape">
	<rect fill="none" width="24" height="24"/>
</g>
</svg>
