<?xml version="1.0" encoding="utf-8"?>
<!-- Generator: Adobe Illustrator 16.0.3, SVG Export Plug-In . SVG Version: 6.00 Build 0)  -->
<!DOCTYPE svg PUBLIC "-//W3C//DTD SVG 1.1//EN" "http://www.w3.org/Graphics/SVG/1.1/DTD/svg11.dtd">
<svg version="1.1" xmlns="http://www.w3.org/2000/svg" xmlns:xlink="http://www.w3.org/1999/xlink" x="0px" y="0px" width="24px"
	 height="24px" viewBox="0 0 24 24" enable-background="new 0 0 24 24" xml:space="preserve">
<g id="Outline_Icons_1_">
	<g>
		<path d="M11.5,11H1.707l3.146-3.146c0.195-0.195,0.195-0.512,0-0.707s-0.512-0.195-0.707,0l-4,4c-0.195,0.195-0.195,0.512,0,0.707
			l4,4c0.195,0.195,0.512,0.195,0.707,0s0.195-0.512,0-0.707L1.707,12H11.5c0.276,0,0.5-0.224,0.5-0.5S11.776,11,11.5,11z"/>
		<path d="M23.5,0h-7C16.224,0,16,0.224,16,0.5v23c0,0.276,0.224,0.5,0.5,0.5h7c0.276,0,0.5-0.224,0.5-0.5v-23
			C24,0.224,23.776,0,23.5,0z M23,23h-6V1h6V23z"/>
	</g>
</g>
<g id="Invisible_Shape">
	<rect fill="none" width="24" height="24"/>
</g>
</svg>
