<?xml version="1.0" encoding="utf-8"?>
<!-- Generator: Adobe Illustrator 16.0.3, SVG Export Plug-In . SVG Version: 6.00 Build 0)  -->
<!DOCTYPE svg PUBLIC "-//W3C//DTD SVG 1.1//EN" "http://www.w3.org/Graphics/SVG/1.1/DTD/svg11.dtd">
<svg version="1.1" xmlns="http://www.w3.org/2000/svg" xmlns:xlink="http://www.w3.org/1999/xlink" x="0px" y="0px" width="24px"
	 height="24px" viewBox="0 0 24 24" enable-background="new 0 0 24 24" xml:space="preserve">
<g id="Outline_Icons_1_">
	<g id="Outline_Icons">
		<g>
			<path d="M13.632,1.792c-5.045,0.186-9.302,4.032-9.63,9.845L1.916,8.508C1.762,8.277,1.45,8.217,1.223,8.369
				C0.993,8.522,0.931,8.833,1.084,9.062l3,4.5c0.171,0.259,0.59,0.315,0.813,0.027l3.479-3.976
				c0.183-0.208,0.161-0.523-0.047-0.705C8.122,8.728,7.806,8.747,7.624,8.956l-2.641,3.019c0.17-5.38,4.016-9.012,8.686-9.183
				c4.831-0.216,9.14,3.594,9.323,8.662c0.186,4.97-3.689,9.144-8.663,9.323c-0.275,0.011-0.491,0.242-0.481,0.519
				c0.01,0.27,0.232,0.481,0.5,0.481c0.006,0,0.012,0,0.019,0c5.523-0.202,9.83-4.835,9.626-10.36
				C23.797,6.084,19.386,1.626,13.632,1.792z"/>
			<path d="M16.5,11.5c0-1.379-1.121-2.5-2.5-2.5s-2.5,1.121-2.5,2.5S12.621,14,14,14S16.5,12.879,16.5,11.5z M12.5,11.5
				c0-0.827,0.673-1.5,1.5-1.5s1.5,0.673,1.5,1.5S14.827,13,14,13S12.5,12.327,12.5,11.5z"/>
		</g>
	</g>
	<g id="New_icons_1_">
	</g>
</g>
<g id="Invisible_Shape">
	<rect fill="none" width="24" height="24"/>
</g>
</svg>
