<?xml version="1.0" encoding="utf-8"?>
<!-- Generator: Adobe Illustrator 16.0.3, SVG Export Plug-In . SVG Version: 6.00 Build 0)  -->
<!DOCTYPE svg PUBLIC "-//W3C//DTD SVG 1.1//EN" "http://www.w3.org/Graphics/SVG/1.1/DTD/svg11.dtd">
<svg version="1.1" xmlns="http://www.w3.org/2000/svg" xmlns:xlink="http://www.w3.org/1999/xlink" x="0px" y="0px" width="24px"
	 height="24px" viewBox="0 0 24 24" enable-background="new 0 0 24 24" xml:space="preserve">
<g id="Outline_Icons_1_">
	<g id="Outline_Icons">
	</g>
	<g id="New_icons_1_">
		<g>
			<path d="M15.5,20h-9C5.121,20,4,18.879,4,17.5v-7.066l2.223,1.482c0.228,0.152,0.539,0.093,0.693-0.139
				c0.153-0.229,0.091-0.54-0.139-0.693l-3-2c-0.159-0.104-0.372-0.119-0.555,0l-3,2c-0.229,0.153-0.292,0.464-0.139,0.693
				s0.465,0.29,0.693,0.139L3,10.434V17.5C3,19.43,4.57,21,6.5,21h9c0.276,0,0.5-0.224,0.5-0.5S15.776,20,15.5,20z"/>
			<path d="M23.223,12.084L21,13.566V6.5C21,4.57,19.43,3,17.5,3h-9C8.224,3,8,3.224,8,3.5S8.224,4,8.5,4h9
				C18.879,4,20,5.121,20,6.5v7.066l-2.223-1.482c-0.229-0.152-0.539-0.092-0.693,0.139c-0.153,0.229-0.091,0.54,0.139,0.693
				c0.152,0.102,2.883,1.927,3.029,2.009c0.16,0.094,0.345,0.11,0.525-0.009l3-2c0.229-0.153,0.292-0.464,0.139-0.693
				C23.762,11.992,23.45,11.931,23.223,12.084z"/>
		</g>
	</g>
</g>
<g id="Invisible_Shape">
	<rect fill="none" width="24" height="24"/>
</g>
</svg>
