<?xml version="1.0" encoding="utf-8"?>
<!-- Generator: Adobe Illustrator 16.0.3, SVG Export Plug-In . SVG Version: 6.00 Build 0)  -->
<!DOCTYPE svg PUBLIC "-//W3C//DTD SVG 1.1//EN" "http://www.w3.org/Graphics/SVG/1.1/DTD/svg11.dtd">
<svg version="1.1" xmlns="http://www.w3.org/2000/svg" xmlns:xlink="http://www.w3.org/1999/xlink" x="0px" y="0px" width="24px"
	 height="24px" viewBox="0 0 24 24" enable-background="new 0 0 24 24" xml:space="preserve">
<g id="Outline_Icons">
	<g>
		<path d="M14.5,2C9.262,2,5,6.262,5,11.5S9.262,21,14.5,21s9.5-4.262,9.5-9.5S19.738,2,14.5,2z M14.5,20C9.813,20,6,16.187,6,11.5
			S9.813,3,14.5,3S23,6.813,23,11.5S19.187,20,14.5,20z"/>
		<path d="M19.409,11H15V6.592c0-0.276-0.224-0.5-0.5-0.5S14,6.315,14,6.592V11H9.591c-0.276,0-0.5,0.224-0.5,0.5s0.224,0.5,0.5,0.5
			H14v4.41c0,0.276,0.224,0.5,0.5,0.5s0.5-0.224,0.5-0.5V12h4.409c0.276,0,0.5-0.224,0.5-0.5S19.686,11,19.409,11z"/>
		<path d="M4.784,19.748c0.24,0.138,0.546,0.055,0.682-0.186c0.138-0.239,0.055-0.545-0.186-0.682C2.641,17.368,1,14.54,1,11.5
			c0-3.045,1.645-5.875,4.292-7.386c0.239-0.137,0.323-0.442,0.187-0.683C5.341,3.192,5.034,3.11,4.796,3.245
			C1.838,4.934,0,8.097,0,11.5C0,14.898,1.833,18.059,4.784,19.748z"/>
	</g>
</g>
<g id="Invisible_Shape">
	<rect fill="none" width="24" height="24"/>
</g>
</svg>
