<?xml version="1.0" encoding="utf-8"?>
<!-- Generator: Adobe Illustrator 16.0.3, SVG Export Plug-In . SVG Version: 6.00 Build 0)  -->
<!DOCTYPE svg PUBLIC "-//W3C//DTD SVG 1.1//EN" "http://www.w3.org/Graphics/SVG/1.1/DTD/svg11.dtd">
<svg version="1.1" xmlns="http://www.w3.org/2000/svg" xmlns:xlink="http://www.w3.org/1999/xlink" x="0px" y="0px" width="24px"
	 height="24px" viewBox="0 0 24 24" enable-background="new 0 0 24 24" xml:space="preserve">
<g id="Outline_Icons_1_">
	<g id="Outline_Icons">
		<g>
			<path d="M17.17,16.154c-0.975-0.975-2.561-0.975-3.535,0l-0.385,0.385c-2.071-1.733-4.06-3.722-5.789-5.789l0.385-0.385h0
				c0.973-0.975,0.973-2.562,0-3.536L5.724,4.708c-0.975-0.975-2.561-0.975-3.535,0L1.024,5.872
				c-1.169,1.17-1.355,3.021-0.441,4.403c3.422,5.175,7.966,9.719,13.142,13.142c0.587,0.389,1.26,0.578,1.928,0.578
				c0.905,0,1.803-0.348,2.474-1.021l1.165-1.164c0.974-0.974,0.974-2.56,0-3.535L17.17,16.154z M18.585,21.104l-1.166,1.164
				c-0.833,0.837-2.155,0.969-3.144,0.315c-5.064-3.35-9.51-7.796-12.859-12.858C0.764,8.737,0.896,7.414,1.731,6.579l1.164-1.164
				c0.292-0.292,0.676-0.438,1.061-0.438s0.768,0.146,1.061,0.438l2.122,2.121c0.584,0.585,0.584,1.537,0,2.122l-0.707,0.707
				c-0.182,0.182-0.196,0.472-0.033,0.67c1.932,2.358,4.202,4.629,6.566,6.566c0.199,0.163,0.488,0.147,0.67-0.033l0.707-0.707
				c0.566-0.566,1.554-0.566,2.121,0l2.122,2.121C19.169,19.567,19.169,20.52,18.585,21.104z"/>
			<path d="M12,0c-0.276,0-0.5,0.224-0.5,0.5S11.724,1,12,1c6.065,0,11,4.935,11,11c0,0.276,0.224,0.5,0.5,0.5S24,12.276,24,12
				C24,5.383,18.617,0,12,0z"/>
			<path d="M12,5c3.86,0,7,3.141,7,7c0,0.276,0.224,0.5,0.5,0.5S20,12.276,20,12c0-4.411-3.589-8-8-8c-0.276,0-0.5,0.224-0.5,0.5
				S11.724,5,12,5z"/>
			<path d="M12,9c1.654,0,3,1.346,3,3c0,0.276,0.224,0.5,0.5,0.5S16,12.276,16,12c0-2.206-1.794-4-4-4c-0.276,0-0.5,0.224-0.5,0.5
				S11.724,9,12,9z"/>
		</g>
	</g>
	<g id="New_icons_1_">
	</g>
</g>
<g id="Invisible_Shape">
	<rect fill="none" width="24" height="24"/>
</g>
</svg>
