<?xml version="1.0" encoding="utf-8"?>
<!-- Generator: Adobe Illustrator 16.0.3, SVG Export Plug-In . SVG Version: 6.00 Build 0)  -->
<!DOCTYPE svg PUBLIC "-//W3C//DTD SVG 1.1//EN" "http://www.w3.org/Graphics/SVG/1.1/DTD/svg11.dtd">
<svg version="1.1" xmlns="http://www.w3.org/2000/svg" xmlns:xlink="http://www.w3.org/1999/xlink" x="0px" y="0px" width="24px"
	 height="24px" viewBox="0 0 24 24" enable-background="new 0 0 24 24" xml:space="preserve">
<g id="Outline_Icons_1_">
	<g id="Outline_Icons">
		<path d="M12,0C5.383,0,0,5.383,0,12s5.383,12,12,12c4.38,0,5.979-1.641,6.549-3.017c0.467-1.126,0.327-2.266,0.06-2.907
			l0.333-0.333c0.394-0.395,0.626-0.907,0.654-1.442c0.029-0.556-0.163-1.069-0.541-1.446l-1.549-1.549
			c-0.764-0.765-2.061-0.714-2.887,0.114l-0.255,0.254c-1.454-1.203-2.838-2.586-4.038-4.038l0.254-0.254
			c0.828-0.827,0.879-2.123,0.115-2.889l-1.55-1.549c-0.377-0.377-0.89-0.565-1.446-0.54C7.164,4.433,6.651,4.665,6.258,5.06
			L5.313,6.003C4.337,6.979,4.121,8.471,4.8,9.549c2.442,3.872,5.78,7.21,9.652,9.651c0.421,0.266,0.906,0.396,1.398,0.396
			c0.688,0,1.382-0.265,1.949-0.746c0.09,0.476,0.107,1.209-0.26,1.94C16.813,22.236,14.897,23,12,23C5.935,23,1,18.065,1,12
			S5.935,1,12,1s11,4.935,11,11c0,2.234-0.665,4.384-1.924,6.217c-0.156,0.228-0.099,0.539,0.129,0.695
			c0.228,0.157,0.54,0.099,0.695-0.129c1.374-2,2.1-4.346,2.1-6.783C24,5.383,18.617,0,12,0z M14.985,18.354
			c-3.747-2.362-6.977-5.592-9.34-9.339C5.213,8.329,5.371,7.359,6.021,6.71l0.945-0.943c0.219-0.22,0.498-0.349,0.787-0.363
			c0.019-0.001,0.037-0.002,0.055-0.002c0.247,0,0.469,0.088,0.631,0.25L9.988,7.2c0.375,0.375,0.323,1.036-0.115,1.475L9.3,9.248
			C9.12,9.429,9.104,9.715,9.263,9.914c1.401,1.75,3.069,3.417,4.823,4.823c0.198,0.158,0.486,0.145,0.666-0.037l0.575-0.573
			c0.438-0.438,1.098-0.489,1.474-0.114l1.549,1.549c0.174,0.175,0.263,0.418,0.249,0.687c-0.015,0.289-0.145,0.568-0.363,0.788
			L17.29,17.98C16.641,18.63,15.672,18.787,14.985,18.354z"/>
	</g>
	<g id="New_icons_1_">
	</g>
</g>
<g id="Invisible_Shape">
	<rect fill="none" width="24" height="24"/>
</g>
</svg>
