<?xml version="1.0" encoding="utf-8"?>
<!-- Generator: Adobe Illustrator 16.0.3, SVG Export Plug-In . SVG Version: 6.00 Build 0)  -->
<!DOCTYPE svg PUBLIC "-//W3C//DTD SVG 1.1//EN" "http://www.w3.org/Graphics/SVG/1.1/DTD/svg11.dtd">
<svg version="1.1" xmlns="http://www.w3.org/2000/svg" xmlns:xlink="http://www.w3.org/1999/xlink" x="0px" y="0px" width="24px"
	 height="24px" viewBox="0 0 24 24" enable-background="new 0 0 24 24" xml:space="preserve">
<g id="Outline_Icons_1_">
	<g id="Outline_Icons">
		<g>
			<path d="M17.18,16.157c-0.975-0.975-2.562-0.975-3.536,0l-0.385,0.385c-2.069-1.732-4.058-3.721-5.79-5.79l0.385-0.385
				C8.327,9.895,8.587,9.267,8.587,8.6c0-0.668-0.26-1.296-0.732-1.768L5.733,4.71c-0.975-0.974-2.561-0.976-3.536,0L1.034,5.874
				c-1.17,1.169-1.356,3.021-0.442,4.403c3.424,5.176,7.968,9.721,13.141,13.142c0.587,0.389,1.26,0.578,1.928,0.578
				c0.905,0,1.803-0.348,2.476-1.021l1.164-1.163c0.472-0.473,0.732-1.101,0.732-1.768c0-0.668-0.26-1.296-0.732-1.768L17.18,16.157
				z M18.594,21.106L17.43,22.27c-0.834,0.837-2.158,0.969-3.145,0.315C9.223,19.237,4.776,14.791,1.426,9.727
				C0.773,8.738,0.905,7.416,1.741,6.581l1.163-1.164c0.292-0.292,0.677-0.438,1.061-0.438s0.769,0.146,1.061,0.438l2.121,2.122
				C7.431,7.822,7.587,8.198,7.587,8.6c0,0.4-0.156,0.777-0.439,1.061L6.44,10.367c-0.182,0.182-0.196,0.472-0.033,0.671
				c1.935,2.36,4.205,4.631,6.566,6.565c0.199,0.163,0.488,0.149,0.67-0.033l0.707-0.706c0.585-0.586,1.537-0.586,2.122,0
				l2.121,2.121c0.284,0.283,0.439,0.659,0.439,1.061C19.033,20.446,18.877,20.823,18.594,21.106z"/>
			<path d="M19.234,6.495l2.669-2.64c0.095-0.094,0.148-0.223,0.148-0.356s-0.054-0.262-0.149-0.355l-3.052-3
				c-0.144-0.142-0.358-0.182-0.544-0.104C18.121,0.117,18,0.299,18,0.5v4.77l-3.148-3.124c-0.195-0.194-0.512-0.194-0.707,0.002
				c-0.194,0.196-0.193,0.513,0.003,0.707l3.666,3.64l-3.691,3.65c-0.196,0.194-0.198,0.511-0.004,0.707
				c0.194,0.195,0.51,0.199,0.707,0.004L18,7.716V12.5c0,0.201,0.121,0.383,0.307,0.461C18.369,12.987,18.435,13,18.5,13
				c0.128,0,0.255-0.05,0.351-0.144l3.052-3c0.095-0.094,0.149-0.222,0.149-0.355s-0.053-0.262-0.148-0.355L19.234,6.495z M19,1.692
				l1.84,1.809L19,5.32V1.692z M19,11.308V7.672l1.84,1.826L19,11.308z"/>
		</g>
	</g>
	<g id="New_icons_1_">
	</g>
</g>
<g id="Invisible_Shape">
	<rect fill="none" width="24" height="24"/>
</g>
</svg>
