<?xml version="1.0" encoding="utf-8"?>
<!-- Generator: Adobe Illustrator 16.0.3, SVG Export Plug-In . SVG Version: 6.00 Build 0)  -->
<!DOCTYPE svg PUBLIC "-//W3C//DTD SVG 1.1//EN" "http://www.w3.org/Graphics/SVG/1.1/DTD/svg11.dtd">
<svg version="1.1" xmlns="http://www.w3.org/2000/svg" xmlns:xlink="http://www.w3.org/1999/xlink" x="0px" y="0px" width="24px"
	 height="24px" viewBox="0 0 24 24" enable-background="new 0 0 24 24" xml:space="preserve">
<g id="Outline_Icons_1_">
	<g id="Outline_Icons">
		<g>
			<path d="M3.5,15h-3C0.224,15,0,15.224,0,15.5v6C0,21.776,0.224,22,0.5,22h3C3.776,22,4,21.776,4,21.5v-6
				C4,15.224,3.776,15,3.5,15z M3,21H1v-5h2V21z"/>
			<path d="M8.5,21h-3C5.224,21,5,21.224,5,21.5S5.224,22,5.5,22h3C8.776,22,9,21.776,9,21.5S8.776,21,8.5,21z"/>
			<path d="M13.5,21h-3c-0.276,0-0.5,0.224-0.5,0.5s0.224,0.5,0.5,0.5h3c0.276,0,0.5-0.224,0.5-0.5S13.776,21,13.5,21z"/>
			<path d="M18.5,21h-3c-0.276,0-0.5,0.224-0.5,0.5s0.224,0.5,0.5,0.5h3c0.276,0,0.5-0.224,0.5-0.5S18.776,21,18.5,21z"/>
			<path d="M23.5,21h-3c-0.276,0-0.5,0.224-0.5,0.5s0.224,0.5,0.5,0.5h3c0.276,0,0.5-0.224,0.5-0.5S23.776,21,23.5,21z"/>
		</g>
	</g>
	<g id="New_icons_1_">
	</g>
</g>
<g id="Invisible_Shape">
	<rect fill="none" width="24" height="24"/>
</g>
</svg>
