<?xml version="1.0" encoding="utf-8"?>
<!-- Generator: Adobe Illustrator 16.0.3, SVG Export Plug-In . SVG Version: 6.00 Build 0)  -->
<!DOCTYPE svg PUBLIC "-//W3C//DTD SVG 1.1//EN" "http://www.w3.org/Graphics/SVG/1.1/DTD/svg11.dtd">
<svg version="1.1" xmlns="http://www.w3.org/2000/svg" xmlns:xlink="http://www.w3.org/1999/xlink" x="0px" y="0px" width="24px"
	 height="24px" viewBox="0 0 24 24" enable-background="new 0 0 24 24" xml:space="preserve">
<g id="Outline_Icons_1_">
	<g id="Outline_Icons">
		<g>
			<path d="M17.171,16.155c-0.975-0.975-2.561-0.975-3.536,0L13.25,16.54c-2.068-1.731-4.056-3.719-5.789-5.79l0.385-0.385h0
				c0.973-0.975,0.973-2.561,0-3.535L5.724,4.709c-0.975-0.975-2.561-0.975-3.535,0L1.024,5.872c-1.17,1.17-1.356,3.022-0.441,4.403
				c3.423,5.176,7.967,9.72,13.141,13.142c0.587,0.389,1.259,0.578,1.928,0.578c0.904,0,1.803-0.348,2.476-1.021l1.163-1.163
				c0.473-0.473,0.733-1.101,0.733-1.769c0-0.668-0.261-1.296-0.733-1.767L17.171,16.155z M18.584,21.104l-1.163,1.163
				c-0.835,0.836-2.157,0.969-3.145,0.315C9.213,19.234,4.767,14.788,1.417,9.724C0.764,8.737,0.896,7.415,1.731,6.579l1.164-1.163
				c0.292-0.292,0.676-0.438,1.061-0.438s0.768,0.146,1.061,0.438l2.122,2.121c0.584,0.585,0.584,1.536,0,2.121l-0.707,0.707
				c-0.182,0.182-0.196,0.472-0.033,0.671c1.936,2.361,4.206,4.633,6.566,6.566c0.198,0.163,0.488,0.149,0.67-0.033l0.707-0.707
				c0.585-0.584,1.537-0.584,2.122,0l2.121,2.121c0.283,0.283,0.439,0.659,0.44,1.06C19.024,20.444,18.868,20.82,18.584,21.104z"/>
			<path d="M23.113,3.29l-4.315-3.192c-0.152-0.11-0.354-0.129-0.522-0.044C18.106,0.139,18,0.312,18,0.5v1.012
				c-2.128,0.098-3.811,0.829-5.008,2.18c-2.429,2.739-1.945,7.006-1.923,7.186c0.031,0.253,0.245,0.44,0.496,0.44
				c0.011,0,0.022,0,0.034-0.001c0.265-0.018,0.47-0.239,0.467-0.505c0-0.018-0.005-1.741,1.349-3.112
				c1.03-1.043,2.571-1.61,4.586-1.689V7c0,0.19,0.108,0.364,0.279,0.448c0.171,0.086,0.375,0.064,0.525-0.052l4.315-3.308
				c0.125-0.095,0.197-0.244,0.196-0.4C23.314,3.531,23.239,3.384,23.113,3.29z M19,5.986V5.5C19,5.224,18.776,5,18.5,5
				c-2.538,0-4.489,0.672-5.798,1.997c-0.166,0.168-0.316,0.341-0.45,0.516c0.229-1.075,0.667-2.231,1.489-3.158
				C14.832,3.124,16.433,2.5,18.5,2.5C18.776,2.5,19,2.276,19,2V1.492l2.984,2.207L19,5.986z"/>
		</g>
	</g>
	<g id="New_icons_1_">
	</g>
</g>
<g id="Invisible_Shape">
	<rect fill="none" width="24" height="24"/>
</g>
</svg>
