<?xml version="1.0" encoding="utf-8"?>
<!-- Generator: Adobe Illustrator 16.0.3, SVG Export Plug-In . SVG Version: 6.00 Build 0)  -->
<!DOCTYPE svg PUBLIC "-//W3C//DTD SVG 1.1//EN" "http://www.w3.org/Graphics/SVG/1.1/DTD/svg11.dtd">
<svg version="1.1" xmlns="http://www.w3.org/2000/svg" xmlns:xlink="http://www.w3.org/1999/xlink" x="0px" y="0px" width="24px"
	 height="24px" viewBox="0 0 24 24" enable-background="new 0 0 24 24" xml:space="preserve">
<g id="Outline_Icons">
	<g>
		<path d="M14,0.5C14,0.224,13.776,0,13.5,0h-3C10.224,0,10,0.224,10,0.5v3V7c0,1.293-0.147,1.44-0.854,2.146
			C8.396,9.896,7,11.293,7,13.5v1v5v3C7,23.327,7.673,24,8.5,24h7c0.827,0,1.5-0.673,1.5-1.5v-3v-5v-1
			c0-2.207-1.396-3.604-2.146-4.354C14.147,8.44,14,8.293,14,7V3.5V0.5z M13,3h-2V1h2V3z M16,19H8v-4h8V19z M15.5,23h-7
			C8.225,23,8,22.776,8,22.5V20h8v2.5C16,22.776,15.775,23,15.5,23z M14.146,9.854C14.885,10.592,16,11.707,16,13.5V14H8v-0.5
			c0-1.793,1.115-2.908,1.854-3.646C10.705,9.002,11,8.625,11,7V4h2v3C13,8.625,13.295,9.002,14.146,9.854z"/>
	</g>
</g>
<g id="invisible_shape">
	<rect fill="none" width="24" height="24"/>
</g>
</svg>
