<?xml version="1.0" encoding="utf-8"?>
<!-- Generator: Adobe Illustrator 16.0.3, SVG Export Plug-In . SVG Version: 6.00 Build 0)  -->
<!DOCTYPE svg PUBLIC "-//W3C//DTD SVG 1.1//EN" "http://www.w3.org/Graphics/SVG/1.1/DTD/svg11.dtd">
<svg version="1.1" xmlns="http://www.w3.org/2000/svg" xmlns:xlink="http://www.w3.org/1999/xlink" x="0px" y="0px" width="24px"
	 height="24px" viewBox="0 0 24 24" enable-background="new 0 0 24 24" xml:space="preserve">
<g id="Outline_Icons">
	<g>
		<path d="M11.5,16c1.93,0,3.5-1.57,3.5-3.5S13.43,9,11.5,9S8,10.57,8,12.5S9.57,16,11.5,16z M11.5,15c-1.208,0-2.217-0.86-2.449-2
			h4.898C13.717,14.14,12.708,15,11.5,15z M11.5,10c1.208,0,2.217,0.86,2.449,2H9.051C9.283,10.86,10.292,10,11.5,10z"/>
		<path d="M8.5,22C8.776,22,9,21.776,9,21.5v-4C9,17.224,8.776,17,8.5,17S8,17.224,8,17.5v4C8,21.776,8.224,22,8.5,22z"/>
		<path d="M10.5,19.5c-0.276,0-0.5,0.224-0.5,0.5v1.5c0,0.276,0.224,0.5,0.5,0.5s0.5-0.224,0.5-0.5V20
			C11,19.724,10.776,19.5,10.5,19.5z"/>
		<path d="M5,8.5V22c0,0.133,0.053,0.26,0.146,0.354l1.5,1.5C6.74,23.947,6.867,24,7,24h9c0.133,0,0.26-0.053,0.354-0.146l1.5-1.5
			C17.947,22.26,18,22.133,18,22V8.5c0-0.133-0.053-0.26-0.146-0.354L15.707,6H16c0.276,0,0.5-0.224,0.5-0.5S16.276,5,16,5h-1.5
			h-4.293L8.354,3.146c-0.195-0.195-0.512-0.195-0.707,0s-0.195,0.512,0,0.707L8.793,5H8.5H7C6.724,5,6.5,5.224,6.5,5.5S6.724,6,7,6
			h0.293L5.146,8.146C5.053,8.24,5,8.367,5,8.5z M6,8.707L8.707,6h5.586L17,8.707v13.086L15.793,23H7.207L6,21.793V8.707z"/>
		<circle cx="14" cy="1.5" r="0.5"/>
		<circle cx="13" cy="3.5" r="0.5"/>
		<circle cx="12" cy="0.5" r="0.5"/>
	</g>
</g>
<g id="invisible_shape">
	<rect fill="none" width="24" height="24"/>
</g>
</svg>
