<?xml version="1.0" encoding="utf-8"?>
<!-- Generator: Adobe Illustrator 16.0.3, SVG Export Plug-In . SVG Version: 6.00 Build 0)  -->
<!DOCTYPE svg PUBLIC "-//W3C//DTD SVG 1.1//EN" "http://www.w3.org/Graphics/SVG/1.1/DTD/svg11.dtd">
<svg version="1.1" xmlns="http://www.w3.org/2000/svg" xmlns:xlink="http://www.w3.org/1999/xlink" x="0px" y="0px" width="24px"
	 height="24px" viewBox="0 0 24 24" enable-background="new 0 0 24 24" xml:space="preserve">
<g id="Outline_Icons">
	<g>
		<path d="M22.5,13c0.276,0,0.5-0.224,0.5-0.5S22.776,12,22.5,12h-2c-0.276,0-0.5,0.224-0.5,0.5s0.224,0.5,0.5,0.5H22.5z"/>
		<path d="M22.5,14H19V7.989c0-0.01,0-0.019-0.001-0.029C18.965,7.116,17.814,6.357,16,5.817V5.5C16,5.224,15.776,5,15.5,5
			S15,5.224,15,5.5v0.059c-1.426-0.321-3.143-0.52-5-0.551V4.5C10,4.224,9.776,4,9.5,4S9,4.224,9,4.5v0.509
			C7.156,5.041,5.436,5.247,4,5.578V5.5C4,5.224,3.776,5,3.5,5S3,5.224,3,5.5v0.341C1.197,6.385,0.039,7.142,0.001,7.969
			C0,7.979,0,7.99,0,8v9c0,0.949,1.322,1.682,3,2.177V19.5C3,19.776,3.224,20,3.5,20S4,19.776,4,19.5v-0.065
			c0.33,0.075,0.665,0.142,1,0.199V23.5C5,23.776,5.224,24,5.5,24h2C7.776,24,8,23.776,8,23.5v-3.552
			c0.331,0.017,0.664,0.028,1,0.035V20c0,0.276,0.224,0.5,0.5,0.5S10,20.276,10,20v-0.017c0.336-0.006,0.669-0.018,1-0.035V23.5
			c0,0.276,0.224,0.5,0.5,0.5h2c0.276,0,0.5-0.224,0.5-0.5v-3.866c0.335-0.058,0.67-0.124,1-0.199V19.5c0,0.276,0.224,0.5,0.5,0.5
			s0.5-0.224,0.5-0.5v-0.323c1.678-0.495,3-1.228,3-2.177v-2h3.5c0.275,0,0.5,0.224,0.5,0.5v1c0,0.276,0.224,0.5,0.5,0.5
			s0.5-0.224,0.5-0.5v-1C24,14.673,23.327,14,22.5,14z M18,12h-2V9.452c1.192,0.213,1.832,0.456,2,0.62V12z M15,12h-5V9.004
			c2.111,0.017,3.762,0.136,5,0.296V12z M9,12H4V9.3c1.238-0.16,2.889-0.279,5-0.296V12z M3,12H1v-1.928
			c0.168-0.165,0.808-0.407,2-0.62V12z M1,13h2v2.548c-1.192-0.213-1.832-0.455-2-0.62V13z M4,13h5v2.996
			C6.889,15.979,5.238,15.86,4,15.7V13z M10,13h5v2.7c-1.238,0.16-2.889,0.279-5,0.296V13z M16,13h2v1.928
			c-0.168,0.165-0.808,0.407-2,0.62V13z M18,8v0.983c-0.527-0.229-1.22-0.405-2-0.54v-1.57C17.299,7.293,17.985,7.756,18,8z
			 M15,6.593v1.702c-1.801-0.224-3.787-0.281-5-0.292V6.009C12.048,6.043,13.723,6.282,15,6.593z M9,6.009v1.994
			C7.787,8.014,5.801,8.07,4,8.294V6.596C5.277,6.284,6.952,6.043,9,6.009z M3,6.878v1.565c-0.78,0.135-1.473,0.312-2,0.54V8.011
			C1.015,7.766,1.701,7.299,3,6.878z M1,17v-0.982c0.527,0.228,1.22,0.405,2,0.54v1.566C1.637,17.681,1.013,17.202,1,17z M7,23H6v-4
			h1V23z M8,18.948V18.5C8,18.224,7.776,18,7.5,18h-2C5.224,18,5,18.224,5,18.5v0.112c-0.359-0.066-0.693-0.136-1-0.21v-1.697
			c1.801,0.224,3.787,0.281,5,0.292v1.984C8.664,18.977,8.331,18.966,8,18.948z M13,23h-1v-4h1V23z M14,18.612V18.5
			c0-0.276-0.224-0.5-0.5-0.5h-2c-0.276,0-0.5,0.224-0.5,0.5v0.448c-0.33,0.018-0.664,0.029-1,0.035v-1.984
			c1.213-0.012,3.199-0.068,5-0.292v1.697C14.693,18.477,14.359,18.546,14,18.612z M16,18.124v-1.566c0.78-0.135,1.473-0.312,2-0.54
			V17C17.987,17.202,17.363,17.681,16,18.124z"/>
	</g>
</g>
<g id="invisible_shape">
	<rect fill="none" width="24" height="24"/>
</g>
</svg>
