<?xml version="1.0" encoding="utf-8"?>
<!-- Generator: Adobe Illustrator 16.0.3, SVG Export Plug-In . SVG Version: 6.00 Build 0)  -->
<!DOCTYPE svg PUBLIC "-//W3C//DTD SVG 1.1//EN" "http://www.w3.org/Graphics/SVG/1.1/DTD/svg11.dtd">
<svg version="1.1" xmlns="http://www.w3.org/2000/svg" xmlns:xlink="http://www.w3.org/1999/xlink" x="0px" y="0px" width="24px"
	 height="24px" viewBox="0 0 24 24" enable-background="new 0 0 24 24" xml:space="preserve">
<g id="Outline_Icons">
	<g>
		<circle cx="13" cy="20.5" r="0.5"/>
		<circle cx="11" cy="17.5" r="0.5"/>
		<circle cx="13.5" cy="15.5" r="0.5"/>
		<circle cx="10" cy="13.5" r="0.5"/>
		<circle cx="13" cy="11.5" r="0.5"/>
		<circle cx="10.5" cy="10.5" r="0.5"/>
		<path d="M17,12.5c0-2.017-0.73-3.349-1.437-4.637c-0.675-1.23-1.369-2.5-1.528-4.491l0.307,0.102
			C14.394,3.492,14.447,3.5,14.5,3.5c0.104,0,0.206-0.032,0.292-0.094C14.923,3.312,15,3.161,15,3V1.5C15,0.673,14.327,0,13.5,0h-3
			C9.673,0,9,0.673,9,1.5V3c0,0.161,0.077,0.312,0.208,0.406c0.13,0.093,0.296,0.12,0.45,0.068l0.307-0.102
			C9.806,5.363,9.111,6.633,8.437,7.863C7.73,9.151,7,10.483,7,12.5c0,2.343,0.49,3.567,0.924,4.648
			C8.246,17.953,8.5,18.587,8.5,19.561c0,0.95-0.376,1.75-0.679,2.393c-0.302,0.641-0.54,1.146-0.254,1.598
			C7.82,23.949,8.325,24,8.736,24h6.527c0.411,0,0.916-0.051,1.169-0.449c0.286-0.451,0.048-0.957-0.254-1.598
			c-0.303-0.643-0.679-1.442-0.679-2.393c0-0.973,0.254-1.607,0.576-2.412C16.51,16.067,17,14.843,17,12.5z M11.776,3.447
			c0.141,0.07,0.307,0.07,0.447,0l0.799-0.399c0.089,1.942,0.625,3.303,1.215,4.452H9.763c0.59-1.149,1.126-2.51,1.215-4.452
			L11.776,3.447z M10,1.5C10,1.224,10.225,1,10.5,1h3C13.775,1,14,1.224,14,1.5v0.807l-0.842-0.28
			c-0.126-0.042-0.262-0.033-0.382,0.026L12,2.441l-0.776-0.388C11.153,2.018,11.077,2,11,2c-0.054,0-0.106,0.009-0.158,0.026
			L10,2.307V1.5z M15.148,16.776c-0.334,0.833-0.648,1.618-0.648,2.784c0,1.174,0.447,2.125,0.774,2.818
			c0.092,0.196,0.211,0.449,0.261,0.605C15.477,22.993,15.39,23,15.264,23H8.736c-0.126,0-0.213-0.007-0.271-0.016
			c0.05-0.157,0.169-0.409,0.261-0.605C9.053,21.686,9.5,20.734,9.5,19.561c0-1.166-0.314-1.952-0.648-2.784
			C8.452,15.78,8,14.65,8,12.5c0-1.688,0.561-2.78,1.229-4h5.543C15.439,9.72,16,10.812,16,12.5
			C16,14.65,15.548,15.78,15.148,16.776z"/>
	</g>
</g>
<g id="invisible_shape">
	<rect fill="none" width="24" height="24"/>
</g>
</svg>
