<?xml version="1.0" encoding="utf-8"?>
<!-- Generator: Adobe Illustrator 16.0.3, SVG Export Plug-In . SVG Version: 6.00 Build 0)  -->
<!DOCTYPE svg PUBLIC "-//W3C//DTD SVG 1.1//EN" "http://www.w3.org/Graphics/SVG/1.1/DTD/svg11.dtd">
<svg version="1.1" xmlns="http://www.w3.org/2000/svg" xmlns:xlink="http://www.w3.org/1999/xlink" x="0px" y="0px" width="24px"
	 height="24px" viewBox="0 0 24 24" enable-background="new 0 0 24 24" xml:space="preserve">
<g id="Outline_Icons">
	<g>
		<path d="M22.277,0.162c-0.195-0.195-0.512-0.195-0.707,0l-2.121,2.121l-1.768,1.768c-0.914,0.914-1.122,0.914-2.122,0.914
			c-1.061,0-3.035,0-4.596,1.561L6.489,11H4.5c-1.654,0-3,1.346-3,3s1.346,3,3,3h0.859l1.655,6.621C7.07,23.844,7.271,24,7.5,24h9
			c0.229,0,0.43-0.156,0.485-0.379L18.641,17H19.5c1.654,0,3-1.346,3-3s-1.346-3-3-3h-1.001c0.366-1.028,0.39-2.019,0.39-2.707
			c0-0.999,0-1.207,0.914-2.12l3.889-3.89c0.094-0.095,0.146-0.222,0.146-0.354c0-0.133-0.053-0.259-0.146-0.354L22.277,0.162z
			 M21.924,1.223l0.707,0.707l-0.942,0.943l-0.472,0.471L20.51,2.637L21.924,1.223z M10.61,8.293L13.317,11H7.903L10.61,8.293z
			 M4.5,16c-1.103,0-2-0.897-2-2c0-0.973,0.698-1.783,1.619-1.961L5.109,16H4.5z M21.5,14c0,1.103-0.897,2-2,2h-0.609l0.99-3.961
			C20.802,12.217,21.5,13.027,21.5,14z M16.109,23H7.891l-2.75-11h13.719L16.109,23z M19.096,5.465
			c-1.148,1.148-1.207,1.623-1.207,2.828c0,0.734-0.009,1.732-0.454,2.707h-2.703l-3.414-3.414l0.354-0.354
			c1.268-1.268,2.845-1.268,3.889-1.268c1.205,0,1.681-0.059,2.829-1.207l1.414-1.414l0.707,0.707L19.096,5.465z"/>
	</g>
</g>
<g id="invisible_shape">
	<rect fill="none" width="24" height="24"/>
</g>
</svg>
