<?xml version="1.0" encoding="utf-8"?>
<!-- Generator: Adobe Illustrator 16.0.3, SVG Export Plug-In . SVG Version: 6.00 Build 0)  -->
<!DOCTYPE svg PUBLIC "-//W3C//DTD SVG 1.1//EN" "http://www.w3.org/Graphics/SVG/1.1/DTD/svg11.dtd">
<svg version="1.1" xmlns="http://www.w3.org/2000/svg" xmlns:xlink="http://www.w3.org/1999/xlink" x="0px" y="0px" width="24px"
	 height="24px" viewBox="0 0 24 24" enable-background="new 0 0 24 24" xml:space="preserve">
<g id="Outline_Icons">
	<g>
		<path d="M23.961,10.308c-0.025-0.061-0.062-0.116-0.108-0.162l-3.999-3.999c-0.046-0.045-0.101-0.083-0.162-0.107
			C19.632,6.014,19.567,6,19.5,6H14V4.5c0-0.067-0.014-0.132-0.039-0.192c-0.025-0.061-0.062-0.116-0.108-0.162L9.854,0.147
			C9.808,0.102,9.753,0.064,9.692,0.04C9.632,0.014,9.567,0,9.5,0h-9C0.224,0,0,0.224,0,0.5v17C0,17.776,0.224,18,0.5,18H10v5.5
			c0,0.276,0.224,0.5,0.5,0.5h13c0.276,0,0.5-0.224,0.5-0.5v-13C24,10.433,23.986,10.368,23.961,10.308z M20,7.707L22.293,10H20
			V7.707z M10,1.707L12.293,4H10V1.707z M1,17V1h8v3.5C9,4.776,9.224,5,9.5,5H13v1h-2.5C10.224,6,10,6.224,10,6.5V17H1z M11,23V7h8
			v3.5c0,0.276,0.224,0.5,0.5,0.5H23v12H11z"/>
		<path d="M15.539,2.691c0.025,0.062,0.062,0.117,0.108,0.163l2,2C17.744,4.951,17.872,5,18,5s0.256-0.049,0.354-0.146
			c0.195-0.195,0.195-0.512,0-0.707L17.207,3H21c0.551,0,1,0.449,1,1v1.5C22,5.776,22.224,6,22.5,6S23,5.776,23,5.5V4
			c0-1.103-0.897-2-2-2h-3.793l1.146-1.146c0.195-0.195,0.195-0.512,0-0.707s-0.512-0.195-0.707,0l-2,1.999
			c-0.046,0.047-0.083,0.102-0.108,0.164C15.488,2.431,15.488,2.569,15.539,2.691z"/>
		<path d="M8.461,21.31c-0.025-0.062-0.062-0.117-0.108-0.164l-2-1.999c-0.195-0.195-0.512-0.195-0.707,0s-0.195,0.512,0,0.707
			L6.793,21H3c-0.551,0-1-0.449-1-1v-0.5C2,19.224,1.776,19,1.5,19S1,19.224,1,19.5V20c0,1.103,0.897,2,2,2h3.793l-1.146,1.146
			c-0.195,0.195-0.195,0.512,0,0.707C5.744,23.951,5.872,24,6,24s0.256-0.049,0.354-0.146l2-2c0.046-0.046,0.083-0.101,0.108-0.163
			C8.512,21.569,8.512,21.431,8.461,21.31z"/>
	</g>
</g>
<g id="Invisible_Shape">
	<rect fill="none" width="24" height="24"/>
</g>
</svg>
