<?xml version="1.0" encoding="utf-8"?>
<!-- Generator: Adobe Illustrator 16.0.3, SVG Export Plug-In . SVG Version: 6.00 Build 0)  -->
<!DOCTYPE svg PUBLIC "-//W3C//DTD SVG 1.1//EN" "http://www.w3.org/Graphics/SVG/1.1/DTD/svg11.dtd">
<svg version="1.1" xmlns="http://www.w3.org/2000/svg" xmlns:xlink="http://www.w3.org/1999/xlink" x="0px" y="0px" width="24px"
	 height="24px" viewBox="0 0 24 24" enable-background="new 0 0 24 24" xml:space="preserve">
<g id="Outline_Icons">
	<g>
		<path d="M23.961,4.308c-0.025-0.061-0.062-0.116-0.108-0.162l-3.999-3.999c-0.046-0.045-0.101-0.083-0.162-0.107
			C19.632,0.014,19.567,0,19.5,0h-7C12.224,0,12,0.224,12,0.5v15c0,0.276,0.224,0.5,0.5,0.5h11c0.276,0,0.5-0.224,0.5-0.5v-11
			C24,4.433,23.986,4.368,23.961,4.308z M20,1.707L22.293,4H20V1.707z M13,15V1h6v3.5C19,4.776,19.224,5,19.5,5H23v10H13z"/>
		<path d="M14,19h-1.787l-0.021-0.022C11.588,18.336,10.332,17,8,17H5v-0.5C5,16.224,4.776,16,4.5,16h-4C0.224,16,0,16.224,0,16.5v7
			C0,23.776,0.224,24,0.5,24h4C4.776,24,5,23.776,5,23.5V23h16.5c0.276,0,0.5-0.224,0.5-0.5C22,20.438,17.784,19,14,19z M4,23H1v-6
			h3V23z M5,22v-4h3c1.289,0,2.165,0.498,2.771,1H7c-0.276,0-0.5,0.224-0.5,0.5S6.724,20,7,20h7c3.36,0,6.021,1.074,6.781,2H5z"/>
		<circle cx="2.5" cy="21.5" r="0.5"/>
	</g>
</g>
<g id="Invisible_Shape">
	<rect fill="none" width="24" height="24"/>
</g>
</svg>
