<?xml version="1.0" encoding="utf-8"?>
<!-- Generator: Adobe Illustrator 16.0.3, SVG Export Plug-In . SVG Version: 6.00 Build 0)  -->
<!DOCTYPE svg PUBLIC "-//W3C//DTD SVG 1.1//EN" "http://www.w3.org/Graphics/SVG/1.1/DTD/svg11.dtd">
<svg version="1.1" xmlns="http://www.w3.org/2000/svg" xmlns:xlink="http://www.w3.org/1999/xlink" x="0px" y="0px" width="24px"
	 height="24px" viewBox="0 0 24 24" enable-background="new 0 0 24 24" xml:space="preserve">
<g id="Outline_Icons_1_">
	<g id="Outline_Icons">
		<g>
			<path d="M23.5,0h-20C3.224,0,3,0.224,3,0.5V4H0.5C0.224,4,0,4.224,0,4.5v19C0,23.776,0.224,24,0.5,24h19
				c0.276,0,0.5-0.224,0.5-0.5V21h3.5c0.276,0,0.5-0.224,0.5-0.5v-20C24,0.224,23.776,0,23.5,0z M19,23H1V5h2v15.5
				C3,20.776,3.224,21,3.5,21H19V23z M23,20H4V1h19V20z"/>
			<rect x="7" y="4" width="13" height="1"/>
			<rect x="7" y="6" width="13" height="1"/>
			<rect x="7" y="8" width="13" height="1"/>
			<rect x="7" y="10" width="13" height="1"/>
			<rect x="7" y="12" width="13" height="1"/>
			<rect x="7" y="14" width="13" height="1"/>
			<rect x="7" y="16" width="6" height="1"/>
		</g>
	</g>
	<g id="New_icons_1_">
	</g>
</g>
<g id="Invisible_Shape">
	<rect fill="none" width="24" height="24"/>
</g>
</svg>
