<?xml version="1.0" encoding="utf-8"?>
<!-- Generator: Adobe Illustrator 16.0.3, SVG Export Plug-In . SVG Version: 6.00 Build 0)  -->
<!DOCTYPE svg PUBLIC "-//W3C//DTD SVG 1.1//EN" "http://www.w3.org/Graphics/SVG/1.1/DTD/svg11.dtd">
<svg version="1.1" xmlns="http://www.w3.org/2000/svg" xmlns:xlink="http://www.w3.org/1999/xlink" x="0px" y="0px" width="24px"
	 height="24px" viewBox="0 0 24 24" enable-background="new 0 0 24 24" xml:space="preserve">
<g id="Outline_Icons_1_">
	<g id="Outline_Icons">
	</g>
	<g id="New_icons_1_">
		<g>
			<path d="M19.5,15c0.276,0,0.5-0.224,0.5-0.5S19.776,14,19.5,14H17v-1.5c0-0.276-0.224-0.5-0.5-0.5S16,12.224,16,12.5v7
				c0,0.271-0.229,0.5-0.5,0.5h-10C5.229,20,5,19.771,5,19.5v-10C5,9.225,5.224,9,5.5,9H13c0.276,0,0.5-0.224,0.5-0.5S13.276,8,13,8
				h-2V5.5C11,5.224,10.776,5,10.5,5S10,5.224,10,5.5V8H7V5.5C7,5.224,6.776,5,6.5,5S6,5.224,6,5.5V8H5.5C4.673,8,4,8.673,4,9.5V10
				H1.5C1.224,10,1,10.224,1,10.5S1.224,11,1.5,11H4v3H1.5C1.224,14,1,14.224,1,14.5S1.224,15,1.5,15H4v3H1.5
				C1.224,18,1,18.224,1,18.5S1.224,19,1.5,19H4v0.5C4,20.327,4.673,21,5.5,21H6v2.5C6,23.776,6.224,24,6.5,24S7,23.776,7,23.5V21h3
				v2.5c0,0.276,0.224,0.5,0.5,0.5s0.5-0.224,0.5-0.5V21h3v2.5c0,0.276,0.224,0.5,0.5,0.5s0.5-0.224,0.5-0.5V21h0.5
				c0.827,0,1.5-0.673,1.5-1.5V19h2.5c0.276,0,0.5-0.224,0.5-0.5S19.776,18,19.5,18H17v-3H19.5z"/>
			<path d="M8.5,10C7.122,10,6,11.121,6,12.5v4C6,17.879,7.122,19,8.5,19h4c1.378,0,2.5-1.121,2.5-2.5v-4c0-1.379-1.122-2.5-2.5-2.5
				H8.5z M14,12.5v4c0,0.827-0.673,1.5-1.5,1.5h-4C7.673,18,7,17.327,7,16.5v-4C7,11.673,7.673,11,8.5,11h4
				C13.327,11,14,11.673,14,12.5z"/>
			<path d="M17.612,0.013c-0.229-0.057-0.467,0.063-0.566,0.279c-0.099,0.215-0.033,0.471,0.158,0.61
				c1.339,0.985,1.445,2.71,1.131,3.757c-0.189-0.219-0.307-0.445-0.338-0.716c-0.018-0.154-0.106-0.292-0.239-0.372
				c-0.135-0.079-0.298-0.093-0.441-0.036C15.526,4.244,14.5,5.689,14.5,7.5c0,2.481,2.019,4.5,4.5,4.5s4.5-2.019,4.5-4.5
				C23.5,4.003,20.969,0.784,17.612,0.013z M19,11c-1.93,0-3.5-1.57-3.5-3.5c0-1.222,0.592-2.199,1.68-2.799
				c0.221,0.49,0.604,0.858,1.003,1.186c0.109,0.089,0.25,0.129,0.392,0.107c0.14-0.021,0.265-0.101,0.343-0.219
				c0.628-0.951,0.808-2.688,0.13-4.141C21.098,2.793,22.5,5.068,22.5,7.5C22.5,9.43,20.93,11,19,11z"/>
		</g>
	</g>
</g>
<g id="Invisible_Shape">
	<rect fill="none" width="24" height="24"/>
</g>
</svg>
