<?xml version="1.0" encoding="utf-8"?>
<!-- Generator: Adobe Illustrator 16.0.3, SVG Export Plug-In . SVG Version: 6.00 Build 0)  -->
<!DOCTYPE svg PUBLIC "-//W3C//DTD SVG 1.1//EN" "http://www.w3.org/Graphics/SVG/1.1/DTD/svg11.dtd">
<svg version="1.1" xmlns="http://www.w3.org/2000/svg" xmlns:xlink="http://www.w3.org/1999/xlink" x="0px" y="0px" width="24px"
	 height="24px" viewBox="0 0 24 24" enable-background="new 0 0 24 24" xml:space="preserve">
<g id="Outline_Icons_1_">
	<g id="Outline_Icons">
	</g>
	<g id="New_icons_1_">
		<g>
			<path d="M23.5,0h-3C20.224,0,20,0.224,20,0.5V2h-3V0.5C17,0.224,16.776,0,16.5,0h-16C0.224,0,0,0.224,0,0.5v19
				C0,19.776,0.224,20,0.5,20H2v1H0.5C0.224,21,0,21.224,0,21.5v2C0,23.776,0.224,24,0.5,24h23c0.276,0,0.5-0.224,0.5-0.5v-23
				C24,0.224,23.776,0,23.5,0z M23,23H1v-1h1.5C2.776,22,3,21.776,3,21.5v-2C3,19.224,2.776,19,2.5,19H1V1h15v1.5
				C16,2.776,16.224,3,16.5,3h4C20.776,3,21,2.776,21,2.5V1h2V23z"/>
			<path d="M6,9.5v-4C6,5.224,5.776,5,5.5,5h-2C3.224,5,3,5.224,3,5.5v4C3,9.776,3.224,10,3.5,10h2C5.776,10,6,9.776,6,9.5z M5,9H4
				V6h1V9z"/>
			<path d="M7.5,10h2C9.776,10,10,9.776,10,9.5v-4C10,5.224,9.776,5,9.5,5h-2C7.224,5,7,5.224,7,5.5v4C7,9.776,7.224,10,7.5,10z
				 M8,6h1v3H8V6z"/>
			<path d="M13.5,5h-2C11.224,5,11,5.224,11,5.5v4c0,0.276,0.224,0.5,0.5,0.5h2c0.276,0,0.5-0.224,0.5-0.5v-4
				C14,5.224,13.776,5,13.5,5z M13,9h-1V6h1V9z"/>
			<path d="M16,5c-0.276,0-0.5,0.224-0.5,0.5S15.724,6,16,6h5c0.276,0,0.5-0.224,0.5-0.5S21.276,5,21,5H16z"/>
			<path d="M16,8h5c0.276,0,0.5-0.224,0.5-0.5S21.276,7,21,7h-5c-0.276,0-0.5,0.224-0.5,0.5S15.724,8,16,8z"/>
			<path d="M16,10h5c0.276,0,0.5-0.224,0.5-0.5S21.276,9,21,9h-5c-0.276,0-0.5,0.224-0.5,0.5S15.724,10,16,10z"/>
			<path d="M13.5,16c0.276,0,0.5-0.224,0.5-0.5S13.776,15,13.5,15H12v-0.5c0-0.276-0.224-0.5-0.5-0.5H11v-1.5
				c0-0.276-0.224-0.5-0.5-0.5S10,12.224,10,12.5V14H9v-1.5C9,12.224,8.776,12,8.5,12S8,12.224,8,12.5V14H7.5
				C7.224,14,7,14.224,7,14.5V15H5.5C5.224,15,5,15.224,5,15.5S5.224,16,5.5,16H7v1H5.5C5.224,17,5,17.224,5,17.5S5.224,18,5.5,18H7
				v0.5C7,18.776,7.224,19,7.5,19H8v1.5C8,20.776,8.224,21,8.5,21S9,20.776,9,20.5V19h1v1.5c0,0.276,0.224,0.5,0.5,0.5
				s0.5-0.224,0.5-0.5V19h0.5c0.276,0,0.5-0.224,0.5-0.5V18h1.5c0.276,0,0.5-0.224,0.5-0.5S13.776,17,13.5,17H12v-1H13.5z M11,18H8
				v-3h3V18z"/>
			<path d="M20,12c-0.167,0-0.323,0.084-0.416,0.223L17.732,15H15.5c-0.276,0-0.5,0.224-0.5,0.5v6c0,0.276,0.224,0.5,0.5,0.5h6
				c0.276,0,0.5-0.224,0.5-0.5v-9c0-0.276-0.224-0.5-0.5-0.5H20z M21,21h-5v-5h2c0.167,0,0.323-0.084,0.416-0.223L20.268,13H21V21z"
				/>
		</g>
	</g>
</g>
<g id="Invisible_Shape">
	<rect fill="none" width="24" height="24"/>
</g>
</svg>
