<?xml version="1.0" encoding="utf-8"?>
<!-- Generator: Adobe Illustrator 16.0.3, SVG Export Plug-In . SVG Version: 6.00 Build 0)  -->
<!DOCTYPE svg PUBLIC "-//W3C//DTD SVG 1.1//EN" "http://www.w3.org/Graphics/SVG/1.1/DTD/svg11.dtd">
<svg version="1.1" xmlns="http://www.w3.org/2000/svg" xmlns:xlink="http://www.w3.org/1999/xlink" x="0px" y="0px" width="24px"
	 height="24px" viewBox="0 0 24 24" enable-background="new 0 0 24 24" xml:space="preserve">
<g id="Outline_Icons_1_">
	<g id="Outline_Icons">
		<g>
			<path d="M17.5,11c-3.584,0-6.5,2.916-6.5,6.5s2.916,6.5,6.5,6.5s6.5-2.916,6.5-6.5S21.084,11,17.5,11z M17.5,23
				c-3.033,0-5.5-2.468-5.5-5.5s2.467-5.5,5.5-5.5s5.5,2.468,5.5,5.5S20.533,23,17.5,23z"/>
			<path d="M20,17h-2v-2c0-0.276-0.224-0.5-0.5-0.5S17,14.724,17,15v2h-2c-0.276,0-0.5,0.224-0.5,0.5S14.724,18,15,18h2v2
				c0,0.276,0.224,0.5,0.5,0.5S18,20.276,18,20v-2h2c0.276,0,0.5-0.224,0.5-0.5S20.276,17,20,17z"/>
			<path d="M9.956,23H1V13h0.5C1.776,13,2,12.776,2,12.5v-3C2,9.224,1.776,9,1.5,9H1V1h11.293L17,5.707v3.21
				c0,0.276,0.224,0.5,0.5,0.5s0.5-0.224,0.5-0.5V5.5c0-0.133-0.053-0.26-0.146-0.354l-5-5C12.76,0.053,12.633,0,12.5,0h-12
				C0.224,0,0,0.224,0,0.5v9C0,9.776,0.224,10,0.5,10H1v2H0.5C0.224,12,0,12.224,0,12.5v11C0,23.776,0.224,24,0.5,24h9.456
				c0.276,0,0.5-0.224,0.5-0.5S10.232,23,9.956,23z"/>
			<path d="M4,3.5v5C4,8.776,4.224,9,4.5,9S5,8.776,5,8.5v-5C5,3.224,4.776,3,4.5,3S4,3.224,4,3.5z"/>
			<path d="M7,3.5v5C7,8.776,7.224,9,7.5,9S8,8.776,8,8.5v-5C8,3.224,7.776,3,7.5,3S7,3.224,7,3.5z"/>
			<path d="M11,3.5C11,3.224,10.776,3,10.5,3S10,3.224,10,3.5v5C10,8.776,10.224,9,10.5,9S11,8.776,11,8.5V3.5z"/>
			<path d="M13,5.5v4c0,0.276,0.224,0.5,0.5,0.5S14,9.776,14,9.5v-4C14,5.224,13.776,5,13.5,5S13,5.224,13,5.5z"/>
		</g>
	</g>
	<g id="New_icons_1_">
	</g>
</g>
<g id="Invisible_Shape">
	<rect fill="none" width="24" height="24"/>
</g>
</svg>
