<?xml version="1.0" encoding="utf-8"?>
<!-- Generator: Adobe Illustrator 16.0.3, SVG Export Plug-In . SVG Version: 6.00 Build 0)  -->
<!DOCTYPE svg PUBLIC "-//W3C//DTD SVG 1.1//EN" "http://www.w3.org/Graphics/SVG/1.1/DTD/svg11.dtd">
<svg version="1.1" xmlns="http://www.w3.org/2000/svg" xmlns:xlink="http://www.w3.org/1999/xlink" x="0px" y="0px" width="24px"
	 height="24px" viewBox="0 0 24 24" enable-background="new 0 0 24 24" xml:space="preserve">
<g id="Outline_Icons">
	<g>
		<path d="M12,8c2.206,0,4-1.794,4-4s-1.794-4-4-4S8,1.794,8,4S9.794,8,12,8z M12,1c1.654,0,3,1.346,3,3s-1.346,3-3,3S9,5.654,9,4
			S10.346,1,12,1z"/>
		<path d="M6,9.5c0,4.004,0.974,4.71,3,5.799L9,20.5C9,20.776,9.225,21,9.5,21h5c0.133,0,0.26-0.053,0.354-0.146S15,20.633,15,20.5
			l0-5.201c2.026-1.09,3-1.795,3-5.799C18,9.224,17.776,9,17.5,9h-11C6.224,9,6,9.224,6,9.5z M16.995,10
			c-0.072,3.13-0.854,3.551-2.475,4.421l-0.258,0.14C14.101,14.647,14,14.816,14,15l0,5h-4l0-5c0-0.184-0.101-0.353-0.262-0.439
			l-0.256-0.139C7.86,13.552,7.078,13.131,7.005,10H16.995z"/>
		<path d="M19.744,5.656c-0.02,0.281-0.242,0.605-0.661,0.964c-0.209,0.18-0.234,0.495-0.055,0.705
			C19.127,7.44,19.268,7.5,19.408,7.5c0.115,0,0.231-0.039,0.325-0.12c0.639-0.546,0.968-1.087,1.008-1.653
			c0.058-0.814-0.499-1.445-0.99-2.003c-0.401-0.455-0.78-0.884-0.751-1.293c0.021-0.294,0.253-0.634,0.691-1.009
			c0.21-0.18,0.234-0.495,0.055-0.705c-0.181-0.209-0.496-0.234-0.705-0.055c-0.658,0.563-0.998,1.119-1.039,1.699
			c-0.058,0.825,0.503,1.462,0.998,2.023C19.398,4.835,19.772,5.26,19.744,5.656z"/>
		<path d="M22.752,3.724c-0.401-0.455-0.78-0.884-0.751-1.293c0.021-0.294,0.253-0.634,0.691-1.009
			c0.21-0.18,0.234-0.495,0.055-0.705c-0.18-0.209-0.495-0.234-0.705-0.055c-0.658,0.563-0.998,1.119-1.039,1.699
			c-0.058,0.825,0.503,1.462,0.998,2.023c0.396,0.45,0.771,0.875,0.743,1.271c-0.02,0.281-0.242,0.605-0.661,0.964
			c-0.209,0.18-0.234,0.495-0.055,0.705C22.127,7.44,22.268,7.5,22.408,7.5c0.115,0,0.231-0.039,0.325-0.12
			c0.639-0.546,0.968-1.087,1.008-1.653C23.799,4.912,23.243,4.281,22.752,3.724z"/>
		<path d="M2.498,5.656C2.479,5.938,2.256,6.262,1.837,6.62C1.627,6.8,1.603,7.115,1.782,7.325C1.881,7.44,2.021,7.5,2.162,7.5
			c0.115,0,0.231-0.039,0.325-0.12c0.639-0.546,0.968-1.087,1.008-1.653c0.058-0.814-0.499-1.445-0.99-2.003
			C2.105,3.269,1.726,2.84,1.755,2.431c0.021-0.294,0.253-0.634,0.691-1.009c0.21-0.18,0.234-0.495,0.055-0.705
			c-0.18-0.209-0.495-0.234-0.705-0.055C1.138,1.226,0.798,1.781,0.757,2.361C0.699,3.187,1.26,3.823,1.755,4.385
			C2.152,4.835,2.526,5.26,2.498,5.656z"/>
		<path d="M5.498,5.656C5.479,5.938,5.256,6.262,4.837,6.62C4.627,6.8,4.603,7.115,4.782,7.325C4.881,7.44,5.021,7.5,5.162,7.5
			c0.115,0,0.231-0.039,0.325-0.12c0.639-0.546,0.968-1.087,1.008-1.653c0.058-0.814-0.499-1.445-0.99-2.003
			C5.105,3.269,4.726,2.84,4.755,2.431c0.021-0.294,0.253-0.634,0.691-1.009c0.21-0.18,0.234-0.495,0.055-0.705
			c-0.18-0.209-0.496-0.234-0.705-0.055C4.138,1.226,3.798,1.781,3.757,2.361C3.699,3.187,4.26,3.823,4.755,4.385
			C5.152,4.835,5.526,5.26,5.498,5.656z"/>
		<path d="M19.444,13.559c-0.25-0.121-0.547-0.021-0.67,0.226s-0.022,0.548,0.225,0.671C20.906,15.402,22,16.694,22,18
			c0,2.71-4.58,5-10,5S2,20.71,2,18c0-1.306,1.093-2.598,2.998-3.543c0.248-0.123,0.349-0.423,0.226-0.671
			c-0.123-0.247-0.422-0.347-0.67-0.226C2.262,14.699,1,16.275,1,18c0,3.364,4.832,6,11,6s11-2.636,11-6
			C23,16.275,21.737,14.698,19.444,13.559z"/>
	</g>
</g>
<g id="invisible_shape">
	<rect fill="none" width="24" height="24"/>
</g>
</svg>
