<?xml version="1.0" encoding="utf-8"?>
<!-- Generator: Adobe Illustrator 16.0.3, SVG Export Plug-In . SVG Version: 6.00 Build 0)  -->
<!DOCTYPE svg PUBLIC "-//W3C//DTD SVG 1.1//EN" "http://www.w3.org/Graphics/SVG/1.1/DTD/svg11.dtd">
<svg version="1.1" xmlns="http://www.w3.org/2000/svg" xmlns:xlink="http://www.w3.org/1999/xlink" x="0px" y="0px" width="24px"
	 height="24px" viewBox="0 0 24 24" enable-background="new 0 0 24 24" xml:space="preserve">
<g id="Outline_Icons">
	<g>
		<path d="M15,4c-0.607,0-1.197,0.119-1.752,0.353c-0.254,0.107-0.374,0.4-0.267,0.655s0.401,0.371,0.655,0.267
			C14.068,5.092,14.527,5,15,5c1.93,0,3.5,1.57,3.5,3.5S16.93,12,15,12c-0.276,0-0.5,0.224-0.5,0.5S14.724,13,15,13
			c2.481,0,4.5-2.019,4.5-4.5S17.481,4,15,4z"/>
		<path d="M15.5,2.5C15.776,2.5,16,2.276,16,2V0.5C16,0.224,15.776,0,15.5,0S15,0.224,15,0.5V2C15,2.276,15.224,2.5,15.5,2.5z"/>
		<path d="M19.596,4.903c0.128,0,0.256-0.049,0.354-0.146l1.415-1.414c0.195-0.195,0.195-0.512,0-0.707s-0.512-0.195-0.707,0
			L19.242,4.05c-0.195,0.195-0.195,0.512,0,0.707C19.34,4.854,19.468,4.903,19.596,4.903z"/>
		<path d="M23.5,8h-2C21.224,8,21,8.224,21,8.5S21.224,9,21.5,9h2C23.776,9,24,8.776,24,8.5S23.776,8,23.5,8z"/>
		<path d="M19.949,12.732c-0.195-0.195-0.512-0.195-0.707,0s-0.195,0.512,0,0.707l1.415,1.414C20.755,14.951,20.883,15,21.011,15
			s0.256-0.049,0.354-0.146c0.195-0.195,0.195-0.512,0-0.707L19.949,12.732z"/>
		<path d="M15.5,14.5c-0.276,0-0.5,0.224-0.5,0.5v1.5c0,0.276,0.224,0.5,0.5,0.5s0.5-0.224,0.5-0.5V15
			C16,14.724,15.776,14.5,15.5,14.5z"/>
		<path d="M10.5,13h-8C2.224,13,2,13.224,2,13.5v5C2,18.776,2.224,19,2.5,19h8c0.276,0,0.5-0.224,0.5-0.5v-5
			C11,13.224,10.776,13,10.5,13z M10,18H3v-4h7V18z"/>
		<path d="M10.5,7H8.839L7.964,4.814C7.888,4.624,7.705,4.5,7.5,4.5H7V2h3c0.276,0,0.5-0.224,0.5-0.5S10.276,1,10,1H3
			C2.851,1,2.709,1.066,2.614,1.182l-2.062,2.5C0.376,3.895,0.406,4.21,0.619,4.386C0.712,4.463,0.825,4.5,0.937,4.5
			c0.145,0,0.287-0.062,0.386-0.182L3.236,2H6v2.5H5.5c-0.205,0-0.388,0.124-0.464,0.314L4.161,7H2.5C1.122,7,0,8.121,0,9.5v12
			C0,22.879,1.122,24,2.5,24h8.002C11.879,24,13,22.879,13,21.501V9.5C13,8.121,11.878,7,10.5,7z M5.838,5.5h1.323l0.6,1.5H5.238
			L5.838,5.5z M12,21.501C12,22.327,11.328,23,10.502,23H2.5C1.673,23,1,22.327,1,21.5v-12C1,8.673,1.673,8,2.5,8h8
			C11.327,8,12,8.673,12,9.5V21.501z"/>
	</g>
</g>
<g id="invisible_shape">
	<rect fill="none" width="24" height="24"/>
</g>
</svg>
