<?xml version="1.0" encoding="utf-8"?>
<!-- Generator: Adobe Illustrator 16.0.3, SVG Export Plug-In . SVG Version: 6.00 Build 0)  -->
<!DOCTYPE svg PUBLIC "-//W3C//DTD SVG 1.1//EN" "http://www.w3.org/Graphics/SVG/1.1/DTD/svg11.dtd">
<svg version="1.1" xmlns="http://www.w3.org/2000/svg" xmlns:xlink="http://www.w3.org/1999/xlink" x="0px" y="0px" width="24px"
	 height="24px" viewBox="0 0 24 24" enable-background="new 0 0 24 24" xml:space="preserve">
<g id="Outline_Icons">
	<g>
		<path d="M23.854,23.146L21,20.294c0.616-0.77,1-1.733,1-2.794c0-2.481-2.018-4.5-4.499-4.5C15.019,13,13,15.019,13,17.5
			s2.019,4.5,4.501,4.5c1.06,0,2.022-0.384,2.792-0.999l2.854,2.853C23.244,23.951,23.372,24,23.5,24s0.256-0.049,0.354-0.146
			C24.049,23.658,24.049,23.342,23.854,23.146z M14,17.5c0-1.93,1.57-3.5,3.501-3.5C19.43,14,21,15.57,21,17.5S19.43,21,17.501,21
			C15.57,21,14,19.43,14,17.5z"/>
		<path d="M8,7c-2.757,0-5,2.243-5,5s2.243,5,5,5c0.276,0,0.5-0.224,0.5-0.5S8.276,16,8,16c-2.206,0-4-1.794-4-4s1.794-4,4-4
			c1.865,0,3.508,1.319,3.906,3.139c0.06,0.27,0.326,0.439,0.595,0.381c0.27-0.059,0.44-0.325,0.381-0.596C12.385,8.65,10.331,7,8,7
			z"/>
		<path d="M7.5,9.5C7.224,9.5,7,9.724,7,10v2.5C7,12.776,7.224,13,7.5,13H9c0.276,0,0.5-0.224,0.5-0.5S9.276,12,9,12H8v-2
			C8,9.724,7.776,9.5,7.5,9.5z"/>
		<path d="M11.5,21H1V1h10v4.5C11,5.776,11.224,6,11.5,6H16v4c0,0.276,0.224,0.5,0.5,0.5S17,10.276,17,10V5.5
			c0-0.066-0.014-0.132-0.039-0.192c-0.025-0.062-0.062-0.115-0.108-0.162l-4.999-4.999c-0.046-0.045-0.101-0.082-0.162-0.107
			C11.632,0.014,11.567,0,11.5,0h-11C0.224,0,0,0.224,0,0.5v21C0,21.776,0.224,22,0.5,22h11c0.276,0,0.5-0.224,0.5-0.5
			S11.776,21,11.5,21z M12,1.707L15.293,5H12V1.707z"/>
	</g>
</g>
<g id="Invisible_Shape">
	<rect fill="none" width="24" height="24"/>
</g>
</svg>
