<?xml version="1.0" encoding="utf-8"?>
<!-- Generator: Adobe Illustrator 16.0.3, SVG Export Plug-In . SVG Version: 6.00 Build 0)  -->
<!DOCTYPE svg PUBLIC "-//W3C//DTD SVG 1.1//EN" "http://www.w3.org/Graphics/SVG/1.1/DTD/svg11.dtd">
<svg version="1.1" xmlns="http://www.w3.org/2000/svg" xmlns:xlink="http://www.w3.org/1999/xlink" x="0px" y="0px" width="24px"
	 height="24px" viewBox="0 0 24 24" enable-background="new 0 0 24 24" xml:space="preserve">
<g id="Outline_Icons">
	<g>
		<path d="M21.768,9.303l-7.071-7.07c-0.941-0.944-2.588-0.945-3.535,0l-7.778,7.778c-0.473,0.472-0.732,1.1-0.732,1.768
			c0,0.667,0.26,1.295,0.732,1.768l3.182,3.182l-4.949,4.95c-0.195,0.195-0.195,0.512,0,0.707c0.098,0.098,0.226,0.146,0.354,0.146
			s0.256-0.049,0.354-0.146l4.949-4.95l3.183,3.183c0.473,0.472,1.101,0.731,1.768,0.731c0.668,0,1.296-0.26,1.768-0.731
			l7.778-7.778C22.742,11.864,22.742,10.277,21.768,9.303z M21.061,12.132l-7.778,7.778c-0.565,0.566-1.554,0.567-2.121,0
			L4.09,12.839c-0.283-0.283-0.439-0.66-0.439-1.061c0-0.401,0.156-0.777,0.439-1.061l7.778-7.778
			c0.283-0.283,0.66-0.439,1.061-0.439c0.401,0,0.777,0.156,1.061,0.439l7.071,7.07C21.646,10.595,21.646,11.547,21.061,12.132z"/>
		<path d="M12.929,4.707c-0.195-0.195-0.512-0.195-0.707,0s-0.195,0.512,0,0.707l6.364,6.363c0.098,0.098,0.226,0.146,0.354,0.146
			s0.256-0.049,0.354-0.146c0.195-0.195,0.195-0.512,0-0.707L12.929,4.707z"/>
		<path d="M10.808,6.828c-0.195-0.195-0.512-0.195-0.707,0s-0.195,0.512,0,0.707l6.364,6.364c0.098,0.098,0.226,0.146,0.354,0.146
			s0.256-0.049,0.354-0.146c0.195-0.195,0.195-0.512,0-0.707L10.808,6.828z"/>
		<path d="M6.564,11.07c-0.195-0.195-0.512-0.195-0.707,0s-0.195,0.512,0,0.707l6.364,6.364c0.098,0.098,0.226,0.146,0.354,0.146
			s0.256-0.049,0.354-0.146c0.195-0.195,0.195-0.512,0-0.707L6.564,11.07z"/>
		<path d="M8.687,8.949c-0.195-0.195-0.512-0.195-0.707,0s-0.195,0.512,0,0.707l6.364,6.364c0.098,0.098,0.226,0.146,0.354,0.146
			s0.256-0.049,0.354-0.146c0.195-0.195,0.195-0.512,0-0.707L8.687,8.949z"/>
	</g>
</g>
<g id="invisible_shape">
	<rect fill="none" width="24" height="24"/>
</g>
</svg>
