<?xml version="1.0" encoding="utf-8"?>
<!-- Generator: Adobe Illustrator 16.0.3, SVG Export Plug-In . SVG Version: 6.00 Build 0)  -->
<!DOCTYPE svg PUBLIC "-//W3C//DTD SVG 1.1//EN" "http://www.w3.org/Graphics/SVG/1.1/DTD/svg11.dtd">
<svg version="1.1" xmlns="http://www.w3.org/2000/svg" xmlns:xlink="http://www.w3.org/1999/xlink" x="0px" y="0px" width="24px"
	 height="24px" viewBox="0 0 24 24" enable-background="new 0 0 24 24" xml:space="preserve">
<g id="Outline_Icons">
	<g>
		<path d="M22,0H7.5C5.019,0,3,2.019,3,4.5v3C3,7.776,3.224,8,3.5,8H6v2.293l-2.354,2.354c-0.118,0.118-0.17,0.288-0.137,0.451
			C3.554,13.318,4.623,18.5,7.5,18.5s3.946-5.182,3.99-5.402c0.033-0.163-0.019-0.333-0.137-0.451L9,10.293V8h5v8.5
			c0,1.93-1.57,3.5-3.5,3.5H2c-1.103,0-2,0.897-2,2s0.897,2,2,2h21.5c0.276,0,0.5-0.224,0.5-0.5V2C24,0.897,23.103,0,22,0z
			 M4.547,13.16L6.707,11H7v6.396C5.684,16.878,4.842,14.424,4.547,13.16z M8,17.397V11h0.293l2.16,2.16
			C10.159,14.424,9.319,16.879,8,17.397z M8,10H7V8h1V10z M23,23H2c-0.552,0-1-0.448-1-1s0.448-1,1-1h8.5c2.481,0,4.5-2.019,4.5-4.5
			v-9C15,7.224,14.776,7,14.5,7H4V4.5C4,2.57,5.57,1,7.5,1H13v3.5C13,4.776,13.224,5,13.5,5S14,4.776,14,4.5V1h2v3.5
			C16,4.776,16.224,5,16.5,5S17,4.776,17,4.5V1h2v3.5C19,4.776,19.224,5,19.5,5S20,4.776,20,4.5V1h2c0.552,0,1,0.448,1,1V23z"/>
		<path d="M19,15c-1.654,0-3,1.346-3,3s1.346,3,3,3s3-1.346,3-3S20.654,15,19,15z M19,20c-1.103,0-2-0.897-2-2s0.897-2,2-2
			s2,0.897,2,2S20.103,20,19,20z"/>
	</g>
</g>
<g id="invisible_shape">
	<rect fill="none" width="24" height="24"/>
</g>
</svg>
