<?xml version="1.0" encoding="utf-8"?>
<!-- Generator: Adobe Illustrator 16.0.3, SVG Export Plug-In . SVG Version: 6.00 Build 0)  -->
<!DOCTYPE svg PUBLIC "-//W3C//DTD SVG 1.1//EN" "http://www.w3.org/Graphics/SVG/1.1/DTD/svg11.dtd">
<svg version="1.1" xmlns="http://www.w3.org/2000/svg" xmlns:xlink="http://www.w3.org/1999/xlink" x="0px" y="0px" width="24px"
	 height="24px" viewBox="0 0 24 24" enable-background="new 0 0 24 24" xml:space="preserve">
<g id="Outline_Icons">
	<g>
		<path d="M14,15.764V2.5C14,1.121,12.879,0,11.5,0S9,1.121,9,2.5v13.264C7.76,16.595,7,18,7,19.5c0,2.481,2.019,4.5,4.5,4.5
			s4.5-2.019,4.5-4.5C16,18.001,15.24,16.596,14,15.764z M11.5,23C9.57,23,8,21.43,8,19.5c0-1.242,0.671-2.401,1.75-3.026
			C9.905,16.385,10,16.22,10,16.041V2.5C10,1.673,10.673,1,11.5,1S13,1.673,13,2.5v13.541c0,0.179,0.095,0.343,0.249,0.433
			C14.329,17.1,15,18.259,15,19.5C15,21.43,13.43,23,11.5,23z"/>
		<path d="M12,18.092V2.5C12,2.224,11.776,2,11.5,2S11,2.224,11,2.5v15.592c-0.581,0.207-1,0.758-1,1.408c0,0.827,0.673,1.5,1.5,1.5
			s1.5-0.673,1.5-1.5C13,18.85,12.581,18.299,12,18.092z M11.5,20c-0.275,0-0.5-0.225-0.5-0.5s0.225-0.5,0.5-0.5s0.5,0.225,0.5,0.5
			S11.775,20,11.5,20z"/>
		<path d="M18.5,2h-3C15.224,2,15,2.224,15,2.5S15.224,3,15.5,3h3C18.776,3,19,2.776,19,2.5S18.776,2,18.5,2z"/>
		<path d="M16.5,7h-1C15.224,7,15,7.224,15,7.5S15.224,8,15.5,8h1C16.776,8,17,7.776,17,7.5S16.776,7,16.5,7z"/>
		<path d="M16.5,12h-1c-0.276,0-0.5,0.224-0.5,0.5s0.224,0.5,0.5,0.5h1c0.276,0,0.5-0.224,0.5-0.5S16.776,12,16.5,12z"/>
	</g>
</g>
<g id="invisible_shape">
	<rect fill="none" width="24" height="24"/>
</g>
</svg>
