<?xml version="1.0" encoding="utf-8"?>
<!-- Generator: Adobe Illustrator 16.0.3, SVG Export Plug-In . SVG Version: 6.00 Build 0)  -->
<!DOCTYPE svg PUBLIC "-//W3C//DTD SVG 1.1//EN" "http://www.w3.org/Graphics/SVG/1.1/DTD/svg11.dtd">
<svg version="1.1" xmlns="http://www.w3.org/2000/svg" xmlns:xlink="http://www.w3.org/1999/xlink" x="0px" y="0px" width="24px"
	 height="24px" viewBox="0 0 24 24" enable-background="new 0 0 24 24" xml:space="preserve">
<g id="Outline_Icons">
	<path d="M21.445,2.555c-0.956-0.956-2.281-1.462-3.831-1.462c-2.441,0-5.173,1.273-7.306,3.406
		c-1.724,1.724-2.885,3.812-3.271,5.88c-0.243,1.303-0.158,2.504,0.226,3.528l-6.678,6.679C0.208,20.964,0,21.466,0,22
		s0.208,1.036,0.586,1.414S1.466,24,2,24s1.036-0.208,1.414-0.586l6.68-6.679c0.636,0.237,1.341,0.362,2.102,0.362
		c2.441,0,5.173-1.273,7.306-3.406c1.724-1.724,2.885-3.812,3.271-5.88C23.17,5.675,22.699,3.808,21.445,2.555z M20.331,6.001
		c-0.745,1.521-2.044,3.248-3.659,4.862c-2.516,2.517-5.367,4.274-6.933,4.274c-0.058,0-0.099-0.015-0.15-0.021L20.935,3.772
		C20.985,4.295,20.78,5.082,20.331,6.001z M9.479,12.19c0.744-1.521,2.044-3.247,3.658-4.862c2.517-2.518,5.368-4.275,6.934-4.275
		c0.058,0,0.099,0.015,0.15,0.02L8.875,14.418C8.824,13.895,9.029,13.109,9.479,12.19z M8.021,10.562
		C8.37,8.69,9.434,6.788,11.016,5.206c1.949-1.949,4.416-3.113,6.599-3.113c0.453,0,0.87,0.068,1.268,0.168
		c-1.82,0.528-4.205,2.112-6.452,4.36c-1.69,1.69-3.058,3.513-3.85,5.13c-0.234,0.479-0.407,0.923-0.527,1.333
		C7.865,12.334,7.85,11.481,8.021,10.562z M2.707,22.707c-0.379,0.377-1.035,0.377-1.414,0C1.104,22.518,1,22.267,1,22
		s0.104-0.518,0.293-0.707l6.363-6.364l1.415,1.415L2.707,22.707z M21.788,7.629c-0.349,1.871-1.412,3.773-2.994,5.355
		c-1.95,1.95-4.417,3.113-6.599,3.113c-0.453,0-0.87-0.068-1.268-0.168c1.82-0.528,4.205-2.112,6.451-4.359
		c1.691-1.69,3.059-3.513,3.85-5.13c0.234-0.479,0.408-0.923,0.528-1.335C21.945,5.856,21.96,6.709,21.788,7.629z"/>
</g>
<g id="invisible_shape">
	<rect fill="none" width="24" height="24"/>
</g>
</svg>
