<?xml version="1.0" encoding="utf-8"?>
<!-- Generator: Adobe Illustrator 16.0.3, SVG Export Plug-In . SVG Version: 6.00 Build 0)  -->
<!DOCTYPE svg PUBLIC "-//W3C//DTD SVG 1.1//EN" "http://www.w3.org/Graphics/SVG/1.1/DTD/svg11.dtd">
<svg version="1.1" xmlns="http://www.w3.org/2000/svg" xmlns:xlink="http://www.w3.org/1999/xlink" x="0px" y="0px" width="24px"
	 height="24px" viewBox="0 0 24 24" enable-background="new 0 0 24 24" xml:space="preserve">
<g id="Outline_Icons">
	<path d="M22.42,11.479L12.521,1.58c-0.945-0.945-2.593-0.945-3.535,0L8.277,2.287c-0.974,0.975-0.974,2.561,0,3.535l3.89,3.889
		l-2.475,2.476c-0.195,0.195-0.195,0.512,0,0.707l0.354,0.354l-1.147,1.146l-1.323-0.734c-0.386-0.216-0.877-0.147-1.191,0.167
		c-0.315,0.313-0.385,0.805-0.168,1.193l1.836,3.304l-2.777-1.542c-0.408-0.229-0.93-0.139-1.242,0.217
		c-0.307,0.354-0.325,0.883-0.044,1.258l1.984,2.64L3.744,20.27c-0.347-0.095-0.721,0-0.977,0.256l-2.621,2.621
		c-0.195,0.195-0.195,0.512,0,0.707C0.244,23.951,0.372,24,0.5,24s0.256-0.049,0.354-0.146l2.621-2.621l2.229,0.626
		c0.411,0.118,0.853-0.044,1.094-0.398c0.243-0.354,0.232-0.822-0.025-1.166l-1.985-2.639l2.779,1.543
		c0.386,0.213,0.876,0.147,1.193-0.168c0.312-0.314,0.381-0.805,0.166-1.192L7.09,14.534l1.321,0.733
		c0.387,0.217,0.881,0.149,1.194-0.166l1.147-1.147l0.354,0.354c0.098,0.098,0.226,0.146,0.354,0.146s0.256-0.049,0.354-0.146
		l2.475-2.475l3.89,3.889c0.473,0.473,1.1,0.732,1.768,0.732s1.295-0.26,1.768-0.732l0.707-0.707
		C23.395,14.04,23.395,12.454,22.42,11.479z M13.581,11.126l-2.121,2.121l-0.707-0.707l2.121-2.122l0.354,0.354L13.581,11.126z
		 M21.713,14.308l-0.707,0.707c-0.566,0.566-1.555,0.566-2.121,0l-4.95-4.95l-0.707-0.707c0,0-0.001,0-0.002-0.001L8.984,5.115
		C8.4,4.53,8.4,3.579,8.984,2.994l0.708-0.707c0.283-0.283,0.659-0.439,1.061-0.439c0.4,0,0.777,0.156,1.061,0.439l9.899,9.899
		C22.298,12.771,22.298,13.723,21.713,14.308z"/>
</g>
<g id="invisible_shape">
	<rect fill="none" width="24" height="24"/>
</g>
</svg>
