<?xml version="1.0" encoding="utf-8"?>
<!-- Generator: Adobe Illustrator 16.0.3, SVG Export Plug-In . SVG Version: 6.00 Build 0)  -->
<!DOCTYPE svg PUBLIC "-//W3C//DTD SVG 1.1//EN" "http://www.w3.org/Graphics/SVG/1.1/DTD/svg11.dtd">
<svg version="1.1" xmlns="http://www.w3.org/2000/svg" xmlns:xlink="http://www.w3.org/1999/xlink" x="0px" y="0px" width="24px"
	 height="24px" viewBox="0 0 24 24" enable-background="new 0 0 24 24" xml:space="preserve">
<g id="Outline_Icons_1_">
	<g id="Outline_Icons">
		<g>
			<path d="M15.496,4.927c-0.808-0.173-1.638,0.368-1.809,1.165l-0.163,0.72V4.804c0-0.84-0.684-1.524-1.524-1.524
				s-1.524,0.684-1.524,1.524V6.6l-0.161-0.75c-0.173-0.803-1-1.346-1.812-1.17c-0.85,0.184-1.338,1.024-1.175,1.778l0.911,6.302
				l-1.015-0.886c-0.598-0.546-1.611-0.499-2.152,0.097c-0.6,0.652-0.479,1.643,0.032,2.086l3.629,4.826
				c0.672,0.703,1.614,1.105,2.585,1.105h2.39c2.372,0,3.574-1.581,3.574-4.699c0-0.523,0.13-1.043,0.375-1.503l1.447-2.719
				c0.447-0.729,0.207-1.663-0.5-2.097c-0.695-0.428-1.672-0.191-2.094,0.495l-0.481,0.758l0.639-3.483
				C16.844,5.918,16.319,5.105,15.496,4.927z M17.357,9.995c0.148-0.24,0.482-0.321,0.722-0.173c0.236,0.144,0.338,0.45,0.157,0.747
				l-1.463,2.747c-0.322,0.604-0.492,1.287-0.492,1.974c0,3.279-1.376,3.699-2.574,3.699h-2.39c-0.699,0-1.378-0.29-1.824-0.751
				l-3.652-4.85c-0.218-0.199-0.226-0.532-0.032-0.742c0.188-0.206,0.515-0.239,0.749-0.026l2.04,1.781
				c0.348,0.301,0.89,0.013,0.824-0.448L8.311,6.28C8.249,5.993,8.435,5.717,8.713,5.658c0.284-0.057,0.564,0.126,0.623,0.403
				l1.15,5.341c0.055,0.25,0.293,0.417,0.542,0.392c0.255-0.027,0.447-0.241,0.447-0.497V4.804c0-0.289,0.235-0.524,0.524-0.524
				s0.524,0.235,0.524,0.524v6.488c0,0.255,0.191,0.469,0.444,0.497c0.263,0.031,0.487-0.14,0.543-0.387l1.152-5.095
				c0.059-0.276,0.355-0.462,0.621-0.403c0.284,0.062,0.465,0.341,0.4,0.639l-1.104,6.024c-0.043,0.235,0.087,0.468,0.31,0.556
				c0.221,0.086,0.476,0.005,0.604-0.197L17.357,9.995z"/>
			<path d="M17.053,0.146C16.959,0.053,16.831,0,16.698,0H7.244C7.11,0,6.982,0.054,6.889,0.149L0.145,6.98
				C0.052,7.073,0,7.2,0,7.331v9.453c0,0.133,0.053,0.26,0.147,0.354l6.744,6.716C6.985,23.948,7.112,24,7.244,24h9.454
				c0.132,0,0.258-0.052,0.352-0.144l6.802-6.716C23.946,17.046,24,16.918,24,16.784V7.331c0-0.132-0.053-0.259-0.146-0.354
				L17.053,0.146z M23,16.575L16.493,23H7.45L1,16.577V7.536L7.453,1h9.037L23,7.538V16.575z"/>
		</g>
	</g>
	<g id="New_icons_1_">
	</g>
</g>
<g id="Invisible_Shape">
	<rect fill="none" width="24" height="24"/>
</g>
</svg>
