{
    "intents": [
        {
            "tag": "saludo",
            "patterns": [
                "hola!",
                "hay alguien ahí?",
                "buenos dias",
                "buenas tardes",
                "buenas noches",
                "buen día",
                "buena tarde",
                "hi!",
                "hello",
                "qué tal?",
                "ey!",
                "hey",
                "quibo"
            ],
            "responses": [
                "Hola!",
                "Hey! Cómo estas?",
                "Hola! ¿Cómo puedo ayudarte?"
            ],
            "query": ""
        },
        {
            "tag": "como_estas",
            "patterns": [
                "cómo estas?",
                "todo bien?",
                "qué más?",
                "estás bien?",
                "cómo te encuentras?",
                "cómo te va?",
                "qué pasa?",
                "Qué me cuentas?",
                "Qué tal está?",
                "Cómo le va?",
                "Cómo se encuentra?",
                "Cómo andas?",
                "Qué cuentas?",
                "cómo va?",
                "qué hay?"
            ],
            "responses": [
                "Bien, ¿y tú?",
                "Estupendamente, ¿y tú?",
                "Muy bien, ¡gracias!",
                "Genial, muchas gracias.",
                "Todo bien, ¿y tú?"
            ],
            "query": ""
        },
        {
            "tag": "gracias",
            "patterns": [
                "muchas gracias",
                "gracias",
                "estoy agradecido",
                "mil gracias",
                "muy amable",
                "muy formal"
            ],
            "responses": [
                "Con mucho gusto",
                "De nada!",
                "Estoy para ayudarte",
                "Ha sido todo un placer ayudar"
            ],
            "query": ""
        },
        {
            "tag": "despedida",
            "patterns": [
                "bye",
                "adiós",
                "chao",
                "Hasta luego",
                "que tengas buen día",
                "chaito",
                "me voy",
                "me fuí"
            ],
            "responses": [
                "¡Hasta luego!",
                "¡Hasta la vista!",
                "Que tengas un buen día.",
                "¡Hasta la próxima!",
                "Ha sido un placer",
                "Chao!",
                "Fue un placer ayudarte, estaré acá cuando me necesites de nuevo."
            ],
            "query": ""
        },
        {
            "tag": "insultos",
            "patterns": [
                "Alcornoque",
                "Baboso",
                "Huevón",
                "Lameculos",
                "tonto",
                "hijo de puta",
                "puta",
                "malparido",
                "estupido",
                "pendejo",
                "mierda",
                "petardo",
                "pelmazo",
                "pelafustan",
                "idiota",
                "Majadero",
                "Zopenco"
            ],
            "responses": [
                "No me agrada tu tono de decir las cosas",
                "Eso no es agradable",
                "Tienes un vocabulario muy extenso"
            ],
            "query": ""
        },
        {
            "tag": "nombre_bot",
            "patterns": [
                "cuál es tu nombre?",
                "quién eres?",
                "qué eres?",
                "cómo te llamas?",
                "quién te creó?"
            ],
            "responses": [
                "Soy María, tu asistente virtual!",
                "Puedes llamarme María",
                "Mi nombre es María",
                "La persona que me creó me puso de nombre María"
            ],
            "query": ""
        },
        {
            "tag": "age_bot",
            "patterns": [
                "qué edad tienes?",
                "cuántos años tienes?",
                "en que año te crearon?",
                "edad?",
                "cuándo te crearon?"
            ],
            "responses": [
                "Soy joven, tengo solo 30 años!",
                "Me gusta ocultar mi edad, pero solo digamos que soy joven"
            ],
            "query": ""
        },
        {
            "tag": "funcionalidades",
            "patterns": [
                "qué puedes hacer?",
                "qué te puedo preguntar?",
                "qué funciones tienes?",
                "cómo funcionas?",
                "qué puedo hacer?",
                "funciones",
                "ayuda",
                "ayudame",
                "ayudar",
                "que haces?",
                "qué hago?",
                "cómo lo hago?"
            ],
            "responses": [
                "Puedes preguntarme cualquier cosa sobre tu negocio. Puedo dar reportes de ventas, ayudarte a crear nuevos clientes, ítems o agregar productos a la cuenta. Aquí te dejo un link donde puedes encontrar todo lo que puedo hacer: https://medium.com/blog-2luca"
            ],
            "query": ""
        },
        {
            "tag": "contar_productos_total",
            "patterns": [
                "cuántos productos tengo?",
                "qué cantidad de productos tengo?",
                "cantidad de productos",
                "cantidad de ítems",
                "cuántos ítems tengo?",
                "qué cantidad de ítems tengo?",
                "cuenta los ítems",
                "cuenta los productos",
                "contar productos",
                "contar ítems",
                "cuenta de ítems",
                "total ítems",
                "todos los ítems",
                "todos los productos",
                "total productos"
            ],
            "responses": [
                "<<Cotar Productos Total>>"
            ],
            "query": ""
        },
        {
            "tag": "contar_clientes_total",
            "patterns": [
                "cuántos clientes tengo?",
                "qué cantidad de clientes tengo?",
                "cantidad de clientes",
                "cuántos usuarios tengo?",
                "cantidad de usuarios",
                "qué cantidad de usuarios tengo?",
                "cuenta los usuarios",
                "cuenta los clientes",
                "contar clientes",
                "contar usuarios",
                "total clientes",
                "total usuarios",
                "todos los clientes",
                "todos los usuarios"
            ],
            "responses": [
                "<<Contar Clientes Total>>"
            ],
            "query": ""
        }
    ]
}