<?xml version="1.0" encoding="utf-8"?>
<!-- Generator: Adobe Illustrator 16.0.3, SVG Export Plug-In . SVG Version: 6.00 Build 0)  -->
<!DOCTYPE svg PUBLIC "-//W3C//DTD SVG 1.1//EN" "http://www.w3.org/Graphics/SVG/1.1/DTD/svg11.dtd">
<svg version="1.1" xmlns="http://www.w3.org/2000/svg" xmlns:xlink="http://www.w3.org/1999/xlink" x="0px" y="0px" width="24px"
	 height="24px" viewBox="0 0 24 24" enable-background="new 0 0 24 24" xml:space="preserve">
<g id="Outline_Icons">
	<g>
		<path d="M19,12c0-2.206-1.794-4-4-4H5.5C5.224,8,5,8.224,5,8.5S5.224,9,5.5,9H15c1.654,0,3,1.346,3,3s-1.346,3-3,3H5.5
			C5.224,15,5,15.224,5,15.5S5.224,16,5.5,16H15C17.206,16,19,14.206,19,12z"/>
		<path d="M15,14c1.103,0,2-0.897,2-2s-0.897-2-2-2h-1.5c-0.276,0-0.5,0.224-0.5,0.5v3c0,0.276,0.224,0.5,0.5,0.5H15z M14,11h1
			c0.551,0,1,0.448,1,1s-0.449,1-1,1h-1V11z"/>
		<path d="M15.844,22.042l-2.528,0.828l-0.842-2.512c-0.088-0.262-0.371-0.406-0.633-0.314c-0.262,0.087-0.403,0.371-0.315,0.633
			l1,2.982C12.596,23.868,12.791,24,13,24c0.051,0,0.104-0.008,0.156-0.024l3-0.982c0.262-0.086,0.405-0.369,0.319-0.631
			C16.39,22.101,16.109,21.959,15.844,22.042z"/>
		<path d="M15.423,6.591c0.053,0.232,0.259,0.39,0.487,0.39c0.037,0,0.074-0.004,0.111-0.013c0.269-0.061,0.438-0.329,0.377-0.598
			c-0.631-2.778-1.709-4.993-3.037-6.235c-0.202-0.188-0.518-0.18-0.707,0.023c-0.188,0.202-0.178,0.519,0.023,0.707
			C13.862,1.973,14.837,4.006,15.423,6.591z"/>
		<path d="M17.342,20.043l-1.897,0.633c0.375-0.895,0.696-1.908,0.954-3.041c0.061-0.269-0.108-0.537-0.377-0.598
			c-0.272-0.062-0.537,0.107-0.599,0.377c-0.229,1.008-0.519,1.929-0.849,2.742l-0.599-1.797c-0.087-0.261-0.369-0.403-0.632-0.316
			c-0.262,0.088-0.403,0.371-0.316,0.633l1,3c0.002,0.006,0.008,0.008,0.01,0.014c0.03,0.081,0.084,0.149,0.153,0.207
			c0.015,0.012,0.026,0.025,0.043,0.035c0.012,0.008,0.019,0.02,0.031,0.026c0.075,0.04,0.156,0.06,0.236,0.06h0l0,0
			c0.052,0,0.105-0.008,0.158-0.025l3-1c0.262-0.088,0.403-0.371,0.316-0.633C17.887,20.098,17.606,19.954,17.342,20.043z"/>
	</g>
</g>
<g id="Invisible_Shape">
	<rect fill="none" width="24" height="24"/>
</g>
</svg>
