<?xml version="1.0" encoding="utf-8"?>
<!-- Generator: Adobe Illustrator 16.0.3, SVG Export Plug-In . SVG Version: 6.00 Build 0)  -->
<!DOCTYPE svg PUBLIC "-//W3C//DTD SVG 1.1//EN" "http://www.w3.org/Graphics/SVG/1.1/DTD/svg11.dtd">
<svg version="1.1" xmlns="http://www.w3.org/2000/svg" xmlns:xlink="http://www.w3.org/1999/xlink" x="0px" y="0px" width="24px"
	 height="24px" viewBox="0 0 24 24" enable-background="new 0 0 24 24" xml:space="preserve">
<g id="Outline_Icons">
	<g>
		<path d="M16.491,13.526l-4.367-1.36L12.165,12h4.362c0.979,0,1.492-0.755,1.492-1.501C18.018,9.754,17.506,9,16.526,9h-6.371
			c0.812-0.788,1.118-1.725,0.964-2.448c-0.211-0.988-1.26-1.367-2.3-0.685l-4.59,3.061C4.09,9.021,4.007,9.177,4.007,9.344v6.12
			c0,0.241,0.173,0.448,0.411,0.492l0.44,0.079c1.091,0.197,3.647,0.658,4.113,0.766c0.159,0.037,0.314,0.056,0.46,0.056
			c1.081-0.001,1.509-0.926,1.878-1.76l4.468,1.195c0.839,0.192,1.617-0.366,1.73-1.212C17.604,14.354,17.179,13.713,16.491,13.526z
			 M16.516,14.947c-0.019,0.144-0.122,0.386-0.385,0.386c-0.041,0-0.084-0.005-0.113-0.012l-4.862-1.301
			c-0.238-0.062-0.481,0.052-0.583,0.273l-0.159,0.354c-0.436,0.986-0.641,1.313-1.218,1.178c-0.432-0.1-2.345-0.447-4.16-0.775
			l-0.028-0.005V9.611l4.364-2.91c0.264-0.172,0.436-0.198,0.515-0.198c0.06,0,0.201,0,0.255,0.257
			c0.11,0.517-0.292,1.593-1.838,2.284C8.087,9.14,7.969,9.373,8.018,9.604C8.067,9.835,8.271,10,8.507,10h8.02
			c0.468,0,0.492,0.416,0.492,0.499c0,0.084-0.024,0.501-0.492,0.501h-4.754c-0.23,0-0.431,0.157-0.486,0.381l-0.246,1.004
			c-0.062,0.257,0.085,0.518,0.337,0.597l4.833,1.505C16.519,14.57,16.534,14.811,16.516,14.947z"/>
		<path d="M18.994,1.166l1.933,0.313c0.277,0.053,0.529-0.142,0.574-0.413c0.044-0.272-0.141-0.529-0.414-0.573l-3-0.486
			c-0.123-0.023-0.244,0.008-0.345,0.072c-0.005,0.003-0.011,0.004-0.016,0.007c-0.012,0.008-0.019,0.021-0.03,0.03
			c-0.032,0.026-0.061,0.054-0.086,0.088c-0.015,0.021-0.027,0.041-0.04,0.063c-0.008,0.016-0.021,0.029-0.028,0.046l-1,2.486
			c-0.103,0.256,0.021,0.548,0.277,0.65c0.061,0.024,0.124,0.036,0.187,0.036c0.198,0,0.385-0.118,0.464-0.313l0.626-1.558
			c1.535,2.698,2.41,6.406,2.41,10.371c0,4.449-1.04,8.544-2.854,11.234c-0.154,0.229-0.094,0.539,0.135,0.694
			C17.874,23.973,17.971,24,18.067,24c0.161,0,0.318-0.077,0.415-0.221c1.922-2.851,3.025-7.149,3.025-11.793
			C21.507,7.877,20.596,4.012,18.994,1.166z"/>
	</g>
</g>
<g id="Invisible_Shape">
	<rect fill="none" width="24" height="24"/>
</g>
</svg>
