<?xml version="1.0" encoding="utf-8"?>
<!-- Generator: Adobe Illustrator 16.0.3, SVG Export Plug-In . SVG Version: 6.00 Build 0)  -->
<!DOCTYPE svg PUBLIC "-//W3C//DTD SVG 1.1//EN" "http://www.w3.org/Graphics/SVG/1.1/DTD/svg11.dtd">
<svg version="1.1" xmlns="http://www.w3.org/2000/svg" xmlns:xlink="http://www.w3.org/1999/xlink" x="0px" y="0px" width="24px"
	 height="24px" viewBox="0 0 24 24" enable-background="new 0 0 24 24" xml:space="preserve">
<g id="Outline_Icons">
	<g>
		<path d="M9.319,2.891l1.688-1.35V5c0,0.276,0.224,0.5,0.5,0.5s0.5-0.224,0.5-0.5V1.541l1.688,1.35C13.787,2.964,13.897,3,14.006,3
			c0.147,0,0.292-0.064,0.391-0.188c0.172-0.216,0.137-0.53-0.078-0.703l-2.5-2c-0.008-0.007-0.02-0.004-0.029-0.01
			c-0.081-0.058-0.174-0.098-0.281-0.099c-0.002,0-0.004,0-0.006,0c-0.106,0.001-0.2,0.041-0.281,0.099
			c-0.009,0.006-0.021,0.003-0.029,0.01l-2.5,2c-0.215,0.173-0.25,0.487-0.078,0.703C8.789,3.027,9.104,3.062,9.319,2.891z"/>
		<path d="M13.694,21.109l-1.688,1.35V19.5c0-0.276-0.224-0.5-0.5-0.5s-0.5,0.224-0.5,0.5v2.959l-1.688-1.35
			c-0.215-0.171-0.53-0.136-0.703,0.078c-0.172,0.216-0.137,0.53,0.078,0.703l2.5,2c0.008,0.007,0.02,0.004,0.028,0.01
			c0.082,0.059,0.176,0.1,0.284,0.1s0.202-0.041,0.284-0.1c0.008-0.006,0.02-0.003,0.028-0.01l2.5-2
			c0.215-0.173,0.25-0.487,0.078-0.703C14.225,20.974,13.911,20.938,13.694,21.109z"/>
		<path d="M14.112,11.702l1.184-3.952c0.102-0.441,0.014-0.867-0.249-1.196c-0.273-0.343-0.709-0.548-1.167-0.548
			c-0.651,0-1.183,0.411-1.346,1.013l-1.351,3.867l-0.181-0.044V7c0-1.959-3-1.96-3,0v5.847c-0.695-0.716-1.478-0.998-2.069-0.998
			c-0.573,0-1.052,0.254-1.282,0.678c-0.146,0.271-0.313,0.848,0.253,1.705l3.061,3.611C8.06,17.955,8.2,18.02,8.347,18.02
			c0,0,0.001,0,0.002,0l5.66-0.02c0.207-0.001,0.392-0.129,0.465-0.322l0.155-0.401c0.511-1.32,1.066-2.769,1.174-3.24
			C16.128,12.629,14.984,12.089,14.112,11.702z M14.829,13.812c-0.102,0.441-0.824,2.307-1.132,3.104l-0.033,0.086l-5.086,0.018
			l-2.873-3.384c-0.208-0.317-0.226-0.535-0.173-0.633c0.051-0.095,0.205-0.153,0.402-0.153c0.639,0,1.541,0.574,2.113,1.855
			c0.096,0.215,0.33,0.332,0.561,0.285c0.231-0.05,0.396-0.253,0.396-0.489V7c0-0.468,0.416-0.492,0.5-0.492s0.5,0.024,0.5,0.492
			v4.234c0,0.23,0.158,0.432,0.382,0.486l1.004,0.244c0.25,0.056,0.505-0.079,0.59-0.321l1.51-4.329
			c0.069-0.255,0.251-0.309,0.391-0.309c0.151,0,0.302,0.066,0.384,0.17c0.072,0.09,0.09,0.204,0.065,0.318l-1.302,4.341
			c-0.071,0.238,0.043,0.493,0.269,0.598l0.353,0.158C14.693,13.053,14.957,13.257,14.829,13.812z"/>
	</g>
</g>
<g id="Invisible_Shape">
	<rect fill="none" width="24" height="24"/>
</g>
</svg>
