<?xml version="1.0" encoding="utf-8"?>
<!-- Generator: Adobe Illustrator 16.0.3, SVG Export Plug-In . SVG Version: 6.00 Build 0)  -->
<!DOCTYPE svg PUBLIC "-//W3C//DTD SVG 1.1//EN" "http://www.w3.org/Graphics/SVG/1.1/DTD/svg11.dtd">
<svg version="1.1" xmlns="http://www.w3.org/2000/svg" xmlns:xlink="http://www.w3.org/1999/xlink" x="0px" y="0px" width="24px"
	 height="24px" viewBox="0 0 24 24" enable-background="new 0 0 24 24" xml:space="preserve">
<g id="Outline_Icons">
	<g>
		<path d="M14,8H4.5C4.224,8,4,8.224,4,8.5S4.224,9,4.5,9H14c1.654,0,3,1.346,3,3s-1.346,3-3,3H4.5C4.224,15,4,15.224,4,15.5
			S4.224,16,4.5,16H14c2.206,0,4-1.794,4-4S16.206,8,14,8z"/>
		<path d="M11.312,2.891L13,1.541V5.5C13,5.776,13.224,6,13.5,6S14,5.776,14,5.5V1.541l1.688,1.35C15.78,2.964,15.89,3,16,3
			c0.147,0,0.292-0.064,0.391-0.188c0.172-0.216,0.137-0.53-0.078-0.703l-2.5-2c-0.008-0.007-0.02-0.004-0.029-0.01
			c-0.081-0.058-0.174-0.098-0.281-0.099c-0.002,0-0.004,0-0.006,0c-0.106,0.001-0.2,0.041-0.281,0.099
			c-0.009,0.006-0.021,0.003-0.029,0.01l-2.5,2c-0.215,0.173-0.25,0.487-0.078,0.703C10.782,3.027,11.096,3.062,11.312,2.891z"/>
		<path d="M15.688,21.109L14,22.459V18.5c0-0.276-0.224-0.5-0.5-0.5S13,18.224,13,18.5v3.959l-1.688-1.35
			c-0.216-0.171-0.53-0.136-0.703,0.078c-0.172,0.216-0.137,0.53,0.078,0.703l2.5,2c0.008,0.007,0.02,0.004,0.028,0.01
			c0.082,0.059,0.176,0.1,0.284,0.1s0.202-0.041,0.284-0.1c0.008-0.006,0.02-0.003,0.028-0.01l2.5-2
			c0.215-0.173,0.25-0.487,0.078-0.703C16.217,20.973,15.903,20.938,15.688,21.109z"/>
		<path d="M14,14c1.103,0,2-0.897,2-2s-0.897-2-2-2h-1.5c-0.276,0-0.5,0.224-0.5,0.5v3c0,0.276,0.224,0.5,0.5,0.5H14z M13,11h1
			c0.551,0,1,0.448,1,1s-0.449,1-1,1h-1V11z"/>
	</g>
</g>
<g id="Invisible_Shape">
	<rect fill="none" width="24" height="24"/>
</g>
</svg>
