<?xml version="1.0" encoding="utf-8"?>
<!-- Generator: Adobe Illustrator 16.0.3, SVG Export Plug-In . SVG Version: 6.00 Build 0)  -->
<!DOCTYPE svg PUBLIC "-//W3C//DTD SVG 1.1//EN" "http://www.w3.org/Graphics/SVG/1.1/DTD/svg11.dtd">
<svg version="1.1" xmlns="http://www.w3.org/2000/svg" xmlns:xlink="http://www.w3.org/1999/xlink" x="0px" y="0px" width="24px"
	 height="24px" viewBox="0 0 24 24" enable-background="new 0 0 24 24" xml:space="preserve">
<g id="Outline_Icons">
	<g>
		<path d="M12,6c-2.206,0-4,1.794-4,4v9.5C8,19.776,8.224,20,8.5,20S9,19.776,9,19.5V10c0-1.654,1.346-3,3-3s3,1.346,3,3v9.5
			c0,0.276,0.224,0.5,0.5,0.5s0.5-0.224,0.5-0.5V10C16,7.794,14.206,6,12,6z"/>
		<path d="M12,3c-3.86,0-7,3.141-7,7c0,1.315,0.368,2.599,1.063,3.711c0.146,0.233,0.455,0.306,0.689,0.158
			c0.234-0.146,0.305-0.455,0.159-0.689C6.315,12.228,6,11.128,6,10c0-3.309,2.691-6,6-6s6,2.691,6,6
			c0,1.135-0.318,2.238-0.919,3.193c-0.147,0.233-0.077,0.542,0.156,0.689c0.083,0.053,0.175,0.077,0.266,0.077
			c0.166,0,0.329-0.083,0.423-0.233C18.629,12.612,19,11.323,19,10C19,6.141,15.86,3,12,3z"/>
		<path d="M12,8c-1.103,0-2,0.897-2,2v1.5c0,0.276,0.224,0.5,0.5,0.5h3c0.276,0,0.5-0.224,0.5-0.5V10C14,8.897,13.103,8,12,8z
			 M13,11h-2v-1c0-0.552,0.449-1,1-1s1,0.448,1,1V11z"/>
	</g>
</g>
<g id="Invisible_Shape">
	<rect fill="none" width="24" height="24"/>
</g>
</svg>
