<?xml version="1.0" encoding="utf-8"?>
<!-- Generator: Adobe Illustrator 16.0.3, SVG Export Plug-In . SVG Version: 6.00 Build 0)  -->
<!DOCTYPE svg PUBLIC "-//W3C//DTD SVG 1.1//EN" "http://www.w3.org/Graphics/SVG/1.1/DTD/svg11.dtd">
<svg version="1.1" xmlns="http://www.w3.org/2000/svg" xmlns:xlink="http://www.w3.org/1999/xlink" x="0px" y="0px" width="24px"
	 height="24px" viewBox="0 0 24 24" enable-background="new 0 0 24 24" xml:space="preserve">
<g id="Outline_Icons">
	<g>
		<path d="M8,9c-1.103,0-2,0.897-2,2v1.5C6,12.776,6.224,13,6.5,13h3c0.276,0,0.5-0.224,0.5-0.5V11C10,9.897,9.103,9,8,9z M9,12H7
			v-1c0-0.552,0.449-1,1-1s1,0.448,1,1V12z"/>
		<path d="M15,7c-1.516,0-2.822,0.857-3.5,2.104C10.822,7.857,9.516,7,8,7c-2.206,0-4,1.794-4,4v9.5C4,20.776,4.224,21,4.5,21
			S5,20.776,5,20.5V11c0-1.654,1.346-3,3-3s3,1.346,3,3v9.5c0,0.276,0.224,0.5,0.5,0.5s0.5-0.224,0.5-0.5V11c0-1.654,1.346-3,3-3
			s3,1.346,3,3v9.5c0,0.276,0.224,0.5,0.5,0.5s0.5-0.224,0.5-0.5V11C19,8.794,17.206,7,15,7z"/>
		<path d="M15,9c-1.103,0-2,0.897-2,2v1.5c0,0.276,0.224,0.5,0.5,0.5h3c0.276,0,0.5-0.224,0.5-0.5V11C17,9.897,16.103,9,15,9z
			 M16,12h-2v-1c0-0.552,0.449-1,1-1s1,0.448,1,1V12z"/>
		<path d="M23.921,7.264c0.028-0.045,0.048-0.094,0.061-0.145c0.002-0.009,0.008-0.017,0.009-0.025
			c0.011-0.057,0.013-0.115,0.003-0.174l-0.487-3c-0.045-0.271-0.3-0.468-0.574-0.413c-0.272,0.044-0.458,0.301-0.414,0.573
			l0.314,1.933C19.987,4.411,16.122,3.5,12.013,3.5C7.37,3.5,3.071,4.603,0.221,6.524C-0.008,6.68-0.069,6.99,0.085,7.219
			c0.154,0.229,0.465,0.29,0.694,0.136C3.469,5.54,7.564,4.5,12.013,4.5c3.965,0,7.673,0.875,10.372,2.41l-1.559,0.626
			c-0.256,0.103-0.38,0.395-0.277,0.65C20.627,8.382,20.815,8.5,21.013,8.5c0.062,0,0.125-0.012,0.187-0.036l2.487-1
			c0.01-0.004,0.017-0.011,0.025-0.016c0.016-0.008,0.029-0.019,0.044-0.027c0.053-0.032,0.098-0.072,0.135-0.12
			c0.007-0.008,0.018-0.012,0.023-0.021C23.917,7.275,23.918,7.269,23.921,7.264z"/>
	</g>
</g>
<g id="Invisible_Shape">
	<rect fill="none" width="24" height="24"/>
</g>
</svg>
