<?xml version="1.0" encoding="utf-8"?>
<!-- Generator: Adobe Illustrator 16.0.3, SVG Export Plug-In . SVG Version: 6.00 Build 0)  -->
<!DOCTYPE svg PUBLIC "-//W3C//DTD SVG 1.1//EN" "http://www.w3.org/Graphics/SVG/1.1/DTD/svg11.dtd">
<svg version="1.1" xmlns="http://www.w3.org/2000/svg" xmlns:xlink="http://www.w3.org/1999/xlink" x="0px" y="0px" width="24px"
	 height="24px" viewBox="0 0 24 24" enable-background="new 0 0 24 24" xml:space="preserve">
<g id="Outline_Icons_1_">
	<g id="Outline_Icons">
		<g>
			<path d="M5.646,12.146c-0.195,0.195-0.195,0.512,0,0.707l5.499,5.499c0.194,0.195,0.514,0.196,0.709,0l5.499-5.499
				c0.195-0.195,0.195-0.512,0-0.707s-0.512-0.195-0.707,0L12,16.793V5c0-0.276-0.224-0.5-0.5-0.5S11,4.724,11,5v11.793
				l-4.646-4.646C6.158,11.951,5.842,11.951,5.646,12.146z"/>
			<path d="M0.5,23h0.957c0.276,0,0.5-0.224,0.5-0.5S1.733,22,1.457,22H1v-0.456c0-0.276-0.224-0.5-0.5-0.5S0,21.268,0,21.544V22.5
				C0,22.776,0.224,23,0.5,23z"/>
			<path d="M21.543,23H22.5c0.276,0,0.5-0.224,0.5-0.5v-0.956c0-0.276-0.224-0.5-0.5-0.5s-0.5,0.224-0.5,0.5V22h-0.457
				c-0.276,0-0.5,0.224-0.5,0.5S21.267,23,21.543,23z"/>
			<path d="M0.5,1.957c0.276,0,0.5-0.224,0.5-0.5V1h0.457c0.276,0,0.5-0.224,0.5-0.5S1.733,0,1.457,0H0.5C0.224,0,0,0.224,0,0.5
				v0.957C0,1.733,0.224,1.957,0.5,1.957z"/>
			<path d="M23,0.5C23,0.224,22.776,0,22.5,0h-0.957c-0.276,0-0.5,0.224-0.5,0.5s0.224,0.5,0.5,0.5H22v0.457
				c0,0.276,0.224,0.5,0.5,0.5s0.5-0.224,0.5-0.5V0.5z"/>
			<path d="M3.369,23h0.957c0.276,0,0.5-0.224,0.5-0.5S4.603,22,4.326,22H3.369c-0.276,0-0.5,0.224-0.5,0.5S3.093,23,3.369,23z"/>
			<path d="M11.021,22c-0.276,0-0.5,0.224-0.5,0.5s0.224,0.5,0.5,0.5h0.957c0.276,0,0.5-0.224,0.5-0.5s-0.224-0.5-0.5-0.5H11.021z"
				/>
			<path d="M7.195,22c-0.276,0-0.5,0.224-0.5,0.5s0.224,0.5,0.5,0.5h0.957c0.276,0,0.5-0.224,0.5-0.5S8.429,22,8.152,22H7.195z"/>
			<path d="M16.305,22.5c0-0.276-0.224-0.5-0.5-0.5h-0.957c-0.276,0-0.5,0.224-0.5,0.5s0.224,0.5,0.5,0.5h0.957
				C16.081,23,16.305,22.776,16.305,22.5z"/>
			<path d="M18.674,23h0.957c0.276,0,0.5-0.224,0.5-0.5s-0.224-0.5-0.5-0.5h-0.957c-0.276,0-0.5,0.224-0.5,0.5S18.397,23,18.674,23z
				"/>
			<path d="M3.369,1h0.957c0.276,0,0.5-0.224,0.5-0.5S4.603,0,4.326,0H3.369c-0.276,0-0.5,0.224-0.5,0.5S3.093,1,3.369,1z"/>
			<path d="M11.979,1c0.276,0,0.5-0.224,0.5-0.5S12.255,0,11.979,0h-0.957c-0.276,0-0.5,0.224-0.5,0.5s0.224,0.5,0.5,0.5H11.979z"/>
			<path d="M8.152,1c0.276,0,0.5-0.224,0.5-0.5S8.429,0,8.152,0H7.195c-0.276,0-0.5,0.224-0.5,0.5S6.919,1,7.195,1H8.152z"/>
			<path d="M15.805,1c0.276,0,0.5-0.224,0.5-0.5S16.081,0,15.805,0h-0.957c-0.276,0-0.5,0.224-0.5,0.5s0.224,0.5,0.5,0.5H15.805z"/>
			<path d="M18.674,1h0.957c0.276,0,0.5-0.224,0.5-0.5S19.907,0,19.631,0h-0.957c-0.276,0-0.5,0.224-0.5,0.5S18.397,1,18.674,1z"/>
			<path d="M22.5,18.174c-0.276,0-0.5,0.224-0.5,0.5v0.957c0,0.276,0.224,0.5,0.5,0.5s0.5-0.224,0.5-0.5v-0.957
				C23,18.397,22.776,18.174,22.5,18.174z"/>
			<path d="M23,11.021c0-0.276-0.224-0.5-0.5-0.5s-0.5,0.224-0.5,0.5v0.957c0,0.276,0.224,0.5,0.5,0.5s0.5-0.224,0.5-0.5V11.021z"/>
			<path d="M23,14.848c0-0.276-0.224-0.5-0.5-0.5s-0.5,0.224-0.5,0.5v0.957c0,0.276,0.224,0.5,0.5,0.5s0.5-0.224,0.5-0.5V14.848z"/>
			<path d="M23,7.195c0-0.276-0.224-0.5-0.5-0.5S22,6.919,22,7.195v0.957c0,0.276,0.224,0.5,0.5,0.5s0.5-0.224,0.5-0.5V7.195z"/>
			<path d="M23,3.369c0-0.276-0.224-0.5-0.5-0.5S22,3.093,22,3.369v0.957c0,0.276,0.224,0.5,0.5,0.5s0.5-0.224,0.5-0.5V3.369z"/>
			<path d="M0.5,20.131c0.276,0,0.5-0.224,0.5-0.5v-0.957c0-0.276-0.224-0.5-0.5-0.5S0,18.397,0,18.674v0.957
				C0,19.907,0.224,20.131,0.5,20.131z"/>
			<path d="M0.5,12.479c0.276,0,0.5-0.224,0.5-0.5v-0.957c0-0.276-0.224-0.5-0.5-0.5S0,10.745,0,11.021v0.957
				C0,12.255,0.224,12.479,0.5,12.479z"/>
			<path d="M0.5,16.305c0.276,0,0.5-0.224,0.5-0.5v-0.957c0-0.276-0.224-0.5-0.5-0.5S0,14.571,0,14.848v0.957
				C0,16.081,0.224,16.305,0.5,16.305z"/>
			<path d="M0.5,8.652c0.276,0,0.5-0.224,0.5-0.5V7.195c0-0.276-0.224-0.5-0.5-0.5S0,6.919,0,7.195v0.957
				C0,8.429,0.224,8.652,0.5,8.652z"/>
			<path d="M0.5,4.826c0.276,0,0.5-0.224,0.5-0.5V3.369c0-0.276-0.224-0.5-0.5-0.5S0,3.093,0,3.369v0.957
				C0,4.603,0.224,4.826,0.5,4.826z"/>
		</g>
	</g>
	<g id="New_icons_1_">
	</g>
</g>
<g id="Invisible_Shape">
	<rect fill="none" width="24" height="24"/>
</g>
</svg>
