<?xml version="1.0" encoding="utf-8"?>
<!-- Generator: Adobe Illustrator 16.0.3, SVG Export Plug-In . SVG Version: 6.00 Build 0)  -->
<!DOCTYPE svg PUBLIC "-//W3C//DTD SVG 1.1//EN" "http://www.w3.org/Graphics/SVG/1.1/DTD/svg11.dtd">
<svg version="1.1" xmlns="http://www.w3.org/2000/svg" xmlns:xlink="http://www.w3.org/1999/xlink" x="0px" y="0px" width="24px"
	 height="24px" viewBox="0 0 24 24" enable-background="new 0 0 24 24" xml:space="preserve">
<g id="Outline_Icons_1_">
	<g id="Outline_Icons">
		<g>
			<path d="M18.5,14H16V8.5C16,8.224,15.776,8,15.5,8h-7C8.224,8,8,8.224,8,8.5V14H5.531c-0.008-0.001-0.015,0-0.02,0
				c-0.505,0-0.688,0.666-0.261,0.927l6.427,6.426c0.192,0.192,0.51,0.199,0.708-0.001l6.469-6.5C19.167,14.539,18.943,14,18.5,14z
				 M12.03,20.292L6.738,15H8.5C8.776,15,9,14.776,9,14.5V9h6v5.5c0,0.276,0.224,0.5,0.5,0.5h1.797L12.03,20.292z"/>
			<path d="M22.964,5.314l-2-5C20.889,0.125,20.704,0,20.5,0h-17C3.296,0,3.111,0.125,3.036,0.314l-2,5C1.012,5.374,1,5.437,1,5.5
				v18C1,23.776,1.224,24,1.5,24h21c0.276,0,0.5-0.224,0.5-0.5v-18C23,5.437,22.988,5.374,22.964,5.314z M21.762,5H12V1h8.161
				L21.762,5z M3.839,1H11v4H2.238L3.839,1z M2,23V6h20v17H2z"/>
		</g>
	</g>
	<g id="New_icons_1_">
	</g>
</g>
<g id="Invisible_Shape">
	<rect fill="none" width="24" height="24"/>
</g>
</svg>
