<?xml version="1.0" encoding="utf-8"?>
<!-- Generator: Adobe Illustrator 16.0.3, SVG Export Plug-In . SVG Version: 6.00 Build 0)  -->
<!DOCTYPE svg PUBLIC "-//W3C//DTD SVG 1.1//EN" "http://www.w3.org/Graphics/SVG/1.1/DTD/svg11.dtd">
<svg version="1.1" xmlns="http://www.w3.org/2000/svg" xmlns:xlink="http://www.w3.org/1999/xlink" x="0px" y="0px" width="24px"
	 height="24px" viewBox="0 0 24 24" enable-background="new 0 0 24 24" xml:space="preserve">
<g id="Outline_Icons_1_">
	<g id="Outline_Icons">
		<g>
			<path d="M23.5,0h-23C0.224,0,0,0.224,0,0.5v23C0,23.776,0.224,24,0.5,24h23c0.276,0,0.5-0.224,0.5-0.5v-23
				C24,0.224,23.776,0,23.5,0z M23,23H1V1h22V23z"/>
			<path d="M3.5,17H9v1.5C9,18.776,9.224,19,9.5,19h5c0.276,0,0.5-0.224,0.5-0.5V17h5.5c0.276,0,0.5-0.224,0.5-0.5v-12
				C21,4.224,20.776,4,20.5,4h-17C3.224,4,3,4.224,3,4.5v12C3,16.776,3.224,17,3.5,17z M4,5h3v3.5C7,8.776,7.224,9,7.5,9
				S8,8.776,8,8.5V5h2v3.5C10,8.776,10.224,9,10.5,9S11,8.776,11,8.5V5h2v3.5C13,8.776,13.224,9,13.5,9S14,8.776,14,8.5V5h2v3.5
				C16,8.776,16.224,9,16.5,9S17,8.776,17,8.5V5h3v11h-5.5c-0.276,0-0.5,0.224-0.5,0.5V18h-4v-1.5c0-0.276-0.224-0.5-0.5-0.5H4V5z"
				/>
		</g>
	</g>
	<g id="New_icons_1_">
	</g>
</g>
<g id="Invisible_Shape">
	<rect fill="none" width="24" height="24"/>
</g>
</svg>
