<?xml version="1.0" encoding="utf-8"?>
<!-- Generator: Adobe Illustrator 16.0.3, SVG Export Plug-In . SVG Version: 6.00 Build 0)  -->
<!DOCTYPE svg PUBLIC "-//W3C//DTD SVG 1.1//EN" "http://www.w3.org/Graphics/SVG/1.1/DTD/svg11.dtd">
<svg version="1.1" xmlns="http://www.w3.org/2000/svg" xmlns:xlink="http://www.w3.org/1999/xlink" x="0px" y="0px" width="24px"
	 height="24px" viewBox="0 0 24 24" enable-background="new 0 0 24 24" xml:space="preserve">
<g id="Outline_Icons_1_">
	<g id="Outline_Icons">
		<g>
			<path d="M18,22c1.103,0,2-0.897,2-2v-7c0-0.276-0.224-0.5-0.5-0.5S19,12.724,19,13v6H4v-6c0-0.276-0.224-0.5-0.5-0.5
				S3,12.724,3,13v7c0,1.103,0.897,2,2,2h6v1H8.5C8.224,23,8,23.224,8,23.5S8.224,24,8.5,24h6c0.276,0,0.5-0.224,0.5-0.5
				S14.776,23,14.5,23H12v-1H18z M4,20h15c0,0.551-0.448,1-1,1H5C4.448,21,4,20.551,4,20z"/>
			<path d="M3.502,8C3.22,7.999,3,8.228,3,8.5l0,0V11c0,0.276,0.224,0.5,0.5,0.5S4,11.276,4,11V9.711l4.114,4.132
				c0.191,0.191,0.509,0.199,0.707,0.001c0.196-0.195,0.196-0.512,0.002-0.708L4.704,9H6c0.276,0,0.5-0.224,0.5-0.5S6.276,8,6,8
				H3.502z"/>
			<path d="M0.5,7h5c0.007,0,0.015,0.001,0.02,0c0.276,0,0.5-0.224,0.5-0.5c0-1.144-0.562-2.418-1.618-3.076
				C4.771,3.061,5,2.558,5,2c0-1.103-0.897-2-2-2S1,0.897,1,2c0,0.558,0.23,1.061,0.6,1.424C0.652,4.014,0,5.164,0,6.5
				C0,6.776,0.224,7,0.5,7z M2,2c0-0.551,0.448-1,1-1s1,0.449,1,1c0,0.551-0.448,1-1,1S2,2.551,2,2z M3,4c0.966,0,1.774,0.86,1.96,2
				H1.04C1.226,4.86,2.034,4,3,4z"/>
			<path d="M17.5,7h5c0.007,0,0.015,0.001,0.02,0c0.276,0,0.5-0.224,0.5-0.5c0-1.144-0.562-2.418-1.618-3.076
				C21.771,3.061,22,2.558,22,2c0-1.103-0.897-2-2-2s-2,0.897-2,2c0,0.558,0.23,1.061,0.6,1.424C17.652,4.014,17,5.164,17,6.5
				C17,6.776,17.224,7,17.5,7z M19,2c0-0.551,0.448-1,1-1s1,0.449,1,1c0,0.551-0.448,1-1,1S19,2.551,19,2z M20,4
				c0.966,0,1.774,0.86,1.96,2h-3.92C18.226,4.86,19.034,4,20,4z"/>
			<path d="M9,7h5c0.008,0,0.016,0.001,0.02,0c0.276,0,0.5-0.224,0.5-0.5c0-1.144-0.562-2.418-1.618-3.076
				C13.271,3.061,13.5,2.558,13.5,2c0-1.103-0.897-2-2-2s-2,0.897-2,2c0,0.558,0.23,1.061,0.6,1.424C9.152,4.014,8.5,5.164,8.5,6.5
				C8.5,6.776,8.724,7,9,7z M10.5,2c0-0.551,0.448-1,1-1s1,0.449,1,1c0,0.551-0.448,1-1,1S10.5,2.551,10.5,2z M11.5,4
				c0.966,0,1.774,0.86,1.96,2H9.54C9.726,4.86,10.534,4,11.5,4z"/>
			<path d="M17,9h1.296l-4.119,4.136c-0.194,0.196-0.194,0.512,0.002,0.708c0.197,0.196,0.513,0.192,0.707-0.001L19,9.711V11
				c0,0.276,0.224,0.5,0.5,0.5S20,11.276,20,11c0-0.02,0-2.5,0-2.5C20,8.223,19.774,8,19.5,8H17c-0.276,0-0.5,0.224-0.5,0.5
				S16.724,9,17,9z"/>
			<path d="M11.5,13.984c0.276,0,0.5-0.224,0.5-0.5V9.495l1.217,0.906c0.09,0.067,0.194,0.099,0.299,0.099
				c0.152,0,0.303-0.07,0.401-0.201c0.165-0.222,0.119-0.535-0.103-0.699l-2.016-1.5c-0.166-0.122-0.407-0.143-0.599,0L9.216,9.584
				c-0.221,0.166-0.266,0.479-0.101,0.7c0.167,0.223,0.479,0.266,0.7,0.101L11,9.499v3.985C11,13.761,11.224,13.984,11.5,13.984z"/>
		</g>
	</g>
	<g id="New_icons_1_">
	</g>
</g>
<g id="Invisible_Shape">
	<rect fill="none" width="24" height="24"/>
</g>
</svg>
