<?xml version="1.0" encoding="utf-8"?>
<!-- Generator: Adobe Illustrator 16.0.3, SVG Export Plug-In . SVG Version: 6.00 Build 0)  -->
<!DOCTYPE svg PUBLIC "-//W3C//DTD SVG 1.1//EN" "http://www.w3.org/Graphics/SVG/1.1/DTD/svg11.dtd">
<svg version="1.1" xmlns="http://www.w3.org/2000/svg" xmlns:xlink="http://www.w3.org/1999/xlink" x="0px" y="0px" width="24px"
	 height="24px" viewBox="0 0 24 24" enable-background="new 0 0 24 24" xml:space="preserve">
<g id="Outline_Icons_1_">
	<g id="Outline_Icons">
		<g>
			<path d="M23.853,3.146l-2.999-2.999C20.76,0.053,20.633,0,20.5,0h-4C16.224,0,16,0.224,16,0.5v9c0,0.276,0.224,0.5,0.5,0.5h7
				c0.276,0,0.5-0.224,0.5-0.5v-6C24,3.37,23.948,3.241,23.853,3.146z M22.293,3H20.5V1.207L22.293,3z M17,9V1h2.5v2.5
				C19.5,3.776,19.724,4,20,4h3v5H17z"/>
			<path d="M13.5,4.5C13.776,4.5,14,4.276,14,4s-0.224-0.5-0.5-0.5C10.468,3.5,8,5.967,8,9v0.293L6.854,8.146
				c-0.195-0.195-0.512-0.195-0.707,0s-0.195,0.512,0,0.707l1.999,1.999c0.19,0.191,0.509,0.201,0.709,0l1.999-1.999
				c0.195-0.195,0.195-0.512,0-0.707s-0.512-0.195-0.707,0L9,9.293V9C9,6.519,11.019,4.5,13.5,4.5z"/>
			<path d="M2,22h5.5v1H5c-0.276,0-0.5,0.224-0.5,0.5S4.724,24,5,24h6c0.276,0,0.5-0.224,0.5-0.5S11.276,23,11,23H8.5v-1H14
				c1.103,0,2-0.897,2-2v-7c0-1.103-0.897-2-2-2h-1.5c-0.276,0-0.5,0.224-0.5,0.5s0.224,0.5,0.5,0.5H14c0.552,0,1,0.449,1,1v6H1v-6
				c0-0.551,0.448-1,1-1h2c0.276,0,0.5-0.224,0.5-0.5S4.276,11,4,11H2c-1.103,0-2,0.897-2,2v7C0,21.103,0.897,22,2,22z M15,20
				c0,0.551-0.448,1-1,1H2c-0.552,0-1-0.449-1-1H15z"/>
		</g>
	</g>
	<g id="New_icons_1_">
	</g>
</g>
<g id="Invisible_Shape">
	<rect fill="none" width="24" height="24"/>
</g>
</svg>
