<?xml version="1.0" encoding="utf-8"?>
<!-- Generator: Adobe Illustrator 16.0.3, SVG Export Plug-In . SVG Version: 6.00 Build 0)  -->
<!DOCTYPE svg PUBLIC "-//W3C//DTD SVG 1.1//EN" "http://www.w3.org/Graphics/SVG/1.1/DTD/svg11.dtd">
<svg version="1.1" xmlns="http://www.w3.org/2000/svg" xmlns:xlink="http://www.w3.org/1999/xlink" x="0px" y="0px" width="24px"
	 height="24px" viewBox="0 0 24 24" enable-background="new 0 0 24 24" xml:space="preserve">
<g id="Outline_Icons_1_">
	<g id="Outline_Icons">
		<g>
			<path d="M2,22h5.5v1H5c-0.276,0-0.5,0.224-0.5,0.5S4.724,24,5,24h6c0.276,0,0.5-0.224,0.5-0.5S11.276,23,11,23H8.5v-1H14
				c1.103,0,2-0.897,2-2v-7c0-1.103-0.897-2-2-2h-1.5c-0.276,0-0.5,0.224-0.5,0.5s0.224,0.5,0.5,0.5H14c0.552,0,1,0.449,1,1v6H1v-6
				c0-0.551,0.448-1,1-1h1.5C3.776,12,4,11.776,4,11.5S3.776,11,3.5,11H2c-1.103,0-2,0.897-2,2v7C0,21.103,0.897,22,2,22z M15,20
				c0,0.551-0.448,1-1,1H2c-0.552,0-1-0.449-1-1H15z"/>
			<path d="M22,0h-8c-0.276,0-0.5,0.224-0.5,0.5S13.724,1,14,1h8c0.552,0,1,0.449,1,1v4h-8.5C14.224,6,14,6.224,14,6.5
				S14.224,7,14.5,7H23c0,0.551-0.448,1-1,1h-8c-0.247,0-0.483-0.09-0.665-0.253c-0.205-0.185-0.521-0.167-0.706,0.038
				c-0.185,0.206-0.167,0.522,0.038,0.706C13.033,8.819,13.506,9,14,9h3.5v1h-1c-0.276,0-0.5,0.224-0.5,0.5s0.224,0.5,0.5,0.5h3
				c0.276,0,0.5-0.224,0.5-0.5S19.776,10,19.5,10h-1V9H22c1.103,0,2-0.897,2-2V2C24,0.897,23.103,0,22,0z"/>
			<path d="M12.146,5.854c0.195,0.195,0.512,0.195,0.707,0l1.499-1.5c0.195-0.193,0.196-0.513,0-0.708l-1.499-1.499
				c-0.195-0.195-0.512-0.195-0.707,0s-0.195,0.512,0,0.707L12.793,3.5H12.25C9.906,3.5,8,5.407,8,7.75v1.543L6.854,8.146
				c-0.195-0.195-0.512-0.195-0.707,0s-0.195,0.512,0,0.707l1.999,1.999c0.19,0.191,0.509,0.201,0.709,0l1.999-1.999
				c0.195-0.195,0.195-0.512,0-0.707s-0.512-0.195-0.707,0L9,9.293V7.75c0-1.792,1.458-3.25,3.25-3.25h0.543l-0.646,0.646
				C11.951,5.342,11.951,5.658,12.146,5.854z"/>
		</g>
	</g>
	<g id="New_icons_1_">
	</g>
</g>
<g id="Invisible_Shape">
	<rect fill="none" width="24" height="24"/>
</g>
</svg>
