<?xml version="1.0" encoding="utf-8"?>
<!-- Generator: Adobe Illustrator 16.0.3, SVG Export Plug-In . SVG Version: 6.00 Build 0)  -->
<!DOCTYPE svg PUBLIC "-//W3C//DTD SVG 1.1//EN" "http://www.w3.org/Graphics/SVG/1.1/DTD/svg11.dtd">
<svg version="1.1" xmlns="http://www.w3.org/2000/svg" xmlns:xlink="http://www.w3.org/1999/xlink" x="0px" y="0px" width="24px"
	 height="24px" viewBox="0 0 24 24" enable-background="new 0 0 24 24" xml:space="preserve">
<g id="Outline_Icons_1_">
	<g id="Outline_Icons">
		<g>
			<path d="M11.5,24c0.276,0,0.5-0.224,0.5-0.5V8.31l3.109,3.887c0.172,0.214,0.485,0.251,0.703,0.078
				c0.216-0.173,0.25-0.487,0.078-0.703l-4-5c-0.005-0.006-0.014-0.008-0.019-0.014c-0.203-0.231-0.541-0.231-0.743,0
				c-0.006,0.006-0.015,0.008-0.02,0.014l-4,5c-0.172,0.216-0.138,0.53,0.078,0.703c0.217,0.172,0.53,0.138,0.703-0.078L11,8.31
				V23.5C11,23.776,11.224,24,11.5,24z"/>
			<path d="M14,17h5.5c0.276,0,0.5-0.224,0.5-0.5v-16C20,0.224,19.776,0,19.5,0h-16C3.224,0,3,0.224,3,0.5v16
				C3,16.776,3.224,17,3.5,17H9c0.276,0,0.5-0.224,0.5-0.5S9.276,16,9,16H4V1h15v15h-5c-0.276,0-0.5,0.224-0.5,0.5S13.724,17,14,17z
				"/>
		</g>
	</g>
	<g id="New_icons_1_">
	</g>
</g>
<g id="Invisible_Shape">
	<rect fill="none" width="24" height="24"/>
</g>
</svg>
