<?xml version="1.0" encoding="utf-8"?>
<!-- Generator: Adobe Illustrator 16.0.3, SVG Export Plug-In . SVG Version: 6.00 Build 0)  -->
<!DOCTYPE svg PUBLIC "-//W3C//DTD SVG 1.1//EN" "http://www.w3.org/Graphics/SVG/1.1/DTD/svg11.dtd">
<svg version="1.1" xmlns="http://www.w3.org/2000/svg" xmlns:xlink="http://www.w3.org/1999/xlink" x="0px" y="0px" width="24px"
	 height="24px" viewBox="0 0 24 24" enable-background="new 0 0 24 24" xml:space="preserve">
<g id="Outline_Icons_1_">
	<g id="Outline_Icons">
		<g>
			<path d="M12.5,20c0.276,0,0.5-0.224,0.5-0.5V5.707l4.646,4.646c0.195,0.195,0.512,0.195,0.707,0s0.195-0.512,0-0.707l-5.499-5.5
				c-0.191-0.192-0.511-0.198-0.709,0l-5.499,5.5c-0.195,0.195-0.195,0.512,0,0.707s0.512,0.195,0.707,0L12,5.707V19.5
				C12,19.776,12.224,20,12.5,20z"/>
			<path d="M23.5,0h-6C17.224,0,17,0.224,17,0.5S17.224,1,17.5,1H23v22h-5.5c-0.276,0-0.5,0.224-0.5,0.5s0.224,0.5,0.5,0.5h6
				c0.276,0,0.5-0.224,0.5-0.5v-23C24,0.224,23.776,0,23.5,0z"/>
			<path d="M0.5,24h6C6.776,24,7,23.776,7,23.5S6.776,23,6.5,23H1V1h5.5C6.776,1,7,0.776,7,0.5S6.776,0,6.5,0h-6
				C0.224,0,0,0.224,0,0.5v23C0,23.776,0.224,24,0.5,24z"/>
		</g>
	</g>
	<g id="New_icons_1_">
	</g>
</g>
<g id="Invisible_Shape">
	<rect fill="none" width="24" height="24"/>
</g>
</svg>
