<?xml version="1.0" encoding="utf-8"?>
<!-- Generator: Adobe Illustrator 16.0.3, SVG Export Plug-In . SVG Version: 6.00 Build 0)  -->
<!DOCTYPE svg PUBLIC "-//W3C//DTD SVG 1.1//EN" "http://www.w3.org/Graphics/SVG/1.1/DTD/svg11.dtd">
<svg version="1.1" xmlns="http://www.w3.org/2000/svg" xmlns:xlink="http://www.w3.org/1999/xlink" x="0px" y="0px" width="24px"
	 height="24px" viewBox="0 0 24 24" enable-background="new 0 0 24 24" xml:space="preserve">
<g id="Outline_Icons_1_">
	<g id="Outline_Icons">
		<g>
			<path d="M6,11h3v2.5C9,13.776,9.224,14,9.5,14s0.5-0.224,0.5-0.5v-3c0-0.276-0.224-0.5-0.5-0.5H7.207L12,5.207L16.793,10H14.5
				c-0.276,0-0.5,0.224-0.5,0.5v3c0,0.276,0.224,0.5,0.5,0.5s0.5-0.224,0.5-0.5V11h3c0.445,0,0.668-0.538,0.354-0.854l-6-6
				c-0.195-0.195-0.512-0.195-0.707,0l-6,6C5.332,10.462,5.555,11,6,11z"/>
			<path d="M9.5,15C9.224,15,9,15.224,9,15.5v2C9,17.776,9.224,18,9.5,18s0.5-0.224,0.5-0.5v-2C10,15.224,9.776,15,9.5,15z"/>
			<path d="M14.5,15c-0.276,0-0.5,0.224-0.5,0.5v2c0,0.276,0.224,0.5,0.5,0.5s0.5-0.224,0.5-0.5v-2C15,15.224,14.776,15,14.5,15z"/>
			<path d="M9.5,19C9.224,19,9,19.224,9,19.5v2C9,21.776,9.224,22,9.5,22s0.5-0.224,0.5-0.5v-2C10,19.224,9.776,19,9.5,19z"/>
			<path d="M14.5,19c-0.276,0-0.5,0.224-0.5,0.5v2c0,0.276,0.224,0.5,0.5,0.5s0.5-0.224,0.5-0.5v-2C15,19.224,14.776,19,14.5,19z"/>
			<path d="M23.5,0h-23C0.224,0,0,0.224,0,0.5v23C0,23.776,0.224,24,0.5,24h23c0.276,0,0.5-0.224,0.5-0.5v-23
				C24,0.224,23.776,0,23.5,0z M23,23H1V1h22V23z"/>
		</g>
	</g>
	<g id="New_icons_1_">
	</g>
</g>
<g id="Invisible_Shape">
	<rect fill="none" width="24" height="24"/>
</g>
</svg>
