<?xml version="1.0" encoding="utf-8"?>
<!-- Generator: Adobe Illustrator 16.0.3, SVG Export Plug-In . SVG Version: 6.00 Build 0)  -->
<!DOCTYPE svg PUBLIC "-//W3C//DTD SVG 1.1//EN" "http://www.w3.org/Graphics/SVG/1.1/DTD/svg11.dtd">
<svg version="1.1" xmlns="http://www.w3.org/2000/svg" xmlns:xlink="http://www.w3.org/1999/xlink" x="0px" y="0px" width="24px"
	 height="24px" viewBox="0 0 24 24" enable-background="new 0 0 24 24" xml:space="preserve">
<g id="Outline_Icons">
	<g>
		<path d="M17.642,15.521c-0.04-0.012-0.099-0.023-0.172-0.038c-0.482-0.09-0.712-0.212-0.712-0.658C16.758,14.37,17.091,14,17.5,14
			c0.389,0,0.714,0.338,0.739,0.771c0.017,0.275,0.248,0.49,0.528,0.469c0.276-0.016,0.486-0.253,0.47-0.529
			C19.181,13.752,18.417,13,17.5,13c-0.961,0-1.742,0.819-1.742,1.825c0,0.899,0.515,1.451,1.604,1.656
			c0.038,0.011,0.094,0.022,0.163,0.035c0.484,0.088,0.715,0.209,0.715,0.658C18.24,17.63,17.908,18,17.5,18
			c-0.39,0-0.716-0.339-0.741-0.771c-0.017-0.275-0.261-0.483-0.528-0.469c-0.276,0.016-0.486,0.253-0.47,0.529
			C15.817,18.248,16.581,19,17.5,19c0.96,0,1.74-0.819,1.74-1.827C19.24,16.27,18.724,15.717,17.642,15.521z"/>
		<path d="M7.5,13c-1.225,0-1.701,0.888-1.737,1.718c-0.013,0.276,0.201,0.51,0.477,0.522c0.301,0.015,0.509-0.202,0.521-0.477
			C6.795,14,7.308,14,7.5,14c0.183,0,0.74,0,0.74,0.823c0,0.204-0.083,0.677-0.854,0.677c-0.276,0-0.5,0.224-0.5,0.5
			s0.224,0.5,0.5,0.5c0.771,0,0.854,0.473,0.854,0.677C8.24,18,7.683,18,7.5,18c-0.192,0-0.705,0-0.739-0.762
			c-0.013-0.275-0.222-0.499-0.521-0.477c-0.275,0.012-0.489,0.246-0.477,0.522C5.799,18.113,6.275,19,7.5,19
			c1.284,0,1.74-0.982,1.74-1.823c0-0.419-0.156-0.854-0.484-1.177c0.328-0.322,0.484-0.757,0.484-1.177
			C9.24,13.982,8.784,13,7.5,13z"/>
		<path d="M21.961,6.308c-0.025-0.061-0.062-0.116-0.108-0.162l-5.998-5.999c-0.046-0.045-0.101-0.083-0.162-0.107
			C15.632,0.014,15.566,0,15.5,0h-13C2.224,0,2,0.224,2,0.5v23C2,23.776,2.224,24,2.5,24h19c0.276,0,0.5-0.224,0.5-0.5v-17
			C22,6.433,21.986,6.368,21.961,6.308z M16,1.707L20.293,6H16V1.707z M3,23V1h12v5.5C15,6.776,15.224,7,15.5,7H21v16H3z"/>
		<path d="M12.5,13h-1c-0.276,0-0.5,0.224-0.5,0.5v5c0,0.276,0.224,0.5,0.5,0.5h1c1.425,0,2.5-1.29,2.5-3S13.925,13,12.5,13z
			 M12.5,18H12v-4h0.5c0.869,0,1.5,0.841,1.5,2S13.369,18,12.5,18z"/>
	</g>
</g>
<g id="Invisible_Shape">
	<rect fill="none" width="24" height="24"/>
</g>
</svg>
