<?xml version="1.0" encoding="utf-8"?>
<!-- Generator: Adobe Illustrator 16.0.3, SVG Export Plug-In . SVG Version: 6.00 Build 0)  -->
<!DOCTYPE svg PUBLIC "-//W3C//DTD SVG 1.1//EN" "http://www.w3.org/Graphics/SVG/1.1/DTD/svg11.dtd">
<svg version="1.1" xmlns="http://www.w3.org/2000/svg" xmlns:xlink="http://www.w3.org/1999/xlink" x="0px" y="0px" width="24px"
	 height="24px" viewBox="0 0 24 24" enable-background="new 0 0 24 24" xml:space="preserve">
<g id="Outline_Icons">
	<g>
		<path d="M11.642,15.521c-0.04-0.012-0.099-0.023-0.172-0.038c-0.482-0.09-0.712-0.212-0.712-0.658C10.758,14.37,11.091,14,11.5,14
			c0.389,0,0.714,0.338,0.739,0.771c0.017,0.275,0.266,0.49,0.528,0.469c0.276-0.016,0.486-0.253,0.47-0.529
			C13.181,13.752,12.417,13,11.5,13c-0.961,0-1.742,0.819-1.742,1.825c0,0.899,0.515,1.451,1.604,1.656
			c0.038,0.011,0.094,0.022,0.163,0.035c0.484,0.088,0.715,0.209,0.715,0.658C12.24,17.63,11.908,18,11.5,18
			c-0.39,0-0.716-0.339-0.741-0.771c-0.017-0.275-0.242-0.483-0.528-0.469c-0.276,0.016-0.486,0.253-0.47,0.529
			C9.817,18.248,10.581,19,11.5,19c0.96,0,1.74-0.819,1.74-1.827C13.24,16.27,12.724,15.717,11.642,15.521z"/>
		<path d="M21.961,6.308c-0.025-0.061-0.062-0.116-0.108-0.162l-5.998-5.999c-0.046-0.045-0.101-0.083-0.162-0.107
			C15.632,0.014,15.566,0,15.5,0h-13C2.224,0,2,0.224,2,0.5v23C2,23.776,2.224,24,2.5,24h19c0.276,0,0.5-0.224,0.5-0.5v-17
			C22,6.433,21.986,6.368,21.961,6.308z M16,1.707L20.293,6H16V1.707z M3,23V1h12v5.5C15,6.776,15.224,7,15.5,7H21v16H3z"/>
		<path d="M6.75,13H5.5c-0.133,0-0.261,0.053-0.354,0.147S4.999,13.369,5,13.502l0.01,2.401C5.003,15.935,5,15.967,5,16
			c0,0.035,0.004,0.068,0.01,0.101L5.02,18.5c0.001,0.276,0.225,0.498,0.5,0.498c0.32-0.01,0.501-0.225,0.5-0.501L6.012,16.5H6.75
			c0.965,0,1.75-0.785,1.75-1.75S7.715,13,6.75,13z M6.75,15.5H6.008L6.002,14H6.75c0.413,0,0.75,0.336,0.75,0.75
			S7.163,15.5,6.75,15.5z"/>
		<path d="M16.5,13h-1c-0.276,0-0.5,0.224-0.5,0.5v5c0,0.276,0.224,0.5,0.5,0.5h1c1.425,0,2.5-1.29,2.5-3S17.925,13,16.5,13z
			 M16.5,18H16v-4h0.5c0.869,0,1.5,0.841,1.5,2S17.369,18,16.5,18z"/>
	</g>
</g>
<g id="Invisible_Shape">
	<rect fill="none" width="24" height="24"/>
</g>
</svg>
