<?xml version="1.0" encoding="utf-8"?>
<!-- Generator: Adobe Illustrator 16.0.3, SVG Export Plug-In . SVG Version: 6.00 Build 0)  -->
<!DOCTYPE svg PUBLIC "-//W3C//DTD SVG 1.1//EN" "http://www.w3.org/Graphics/SVG/1.1/DTD/svg11.dtd">
<svg version="1.1" xmlns="http://www.w3.org/2000/svg" xmlns:xlink="http://www.w3.org/1999/xlink" x="0px" y="0px" width="24px"
	 height="24px" viewBox="0 0 24 24" enable-background="new 0 0 24 24" xml:space="preserve">
<g id="Outline_Icons">
	<g>
		<g>
			<path d="M12.247,23.997c-0.271,0-0.494-0.217-0.5-0.49c-0.006-0.276,0.213-0.504,0.49-0.51c2.435-0.051,4.727-0.881,6.627-2.4
				c0.215-0.173,0.531-0.137,0.703,0.079c0.172,0.215,0.137,0.531-0.079,0.703c-2.073,1.658-4.574,2.563-7.231,2.619
				C12.253,23.997,12.25,23.997,12.247,23.997z M9.454,23.717c-0.037,0-0.074-0.003-0.111-0.012
				c-2.546-0.576-4.875-2.003-6.559-4.019c-0.177-0.212-0.148-0.527,0.063-0.704c0.212-0.178,0.527-0.148,0.704,0.063
				c1.543,1.848,3.678,3.156,6.012,3.684c0.269,0.061,0.438,0.329,0.377,0.598C9.889,23.56,9.683,23.717,9.454,23.717z
				 M21.139,19.482c-0.106,0-0.212-0.034-0.303-0.104c-0.219-0.168-0.261-0.481-0.093-0.7C22.219,16.747,23,14.438,23,12
				c0-0.276,0.224-0.523,0.5-0.523c0.276,0,0.5,0.2,0.5,0.477h-0.5l0.5,0.031c0,2.675-0.852,5.194-2.464,7.301
				C21.438,19.415,21.289,19.482,21.139,19.482z M1.646,17.51c-0.186,0-0.364-0.104-0.45-0.282C0.402,15.591,0,13.832,0,12
				c0-0.809,0.081-1.617,0.241-2.404c0.055-0.271,0.319-0.443,0.589-0.39c0.271,0.055,0.445,0.319,0.39,0.589
				C1.074,10.517,1,11.259,1,12c0,1.68,0.369,3.292,1.095,4.792c0.121,0.248,0.017,0.547-0.231,0.668
				C1.793,17.494,1.719,17.51,1.646,17.51z M23.149,9.669c-0.223,0-0.427-0.151-0.484-0.377c-0.587-2.32-1.95-4.421-3.836-5.917
				c-0.216-0.171-0.253-0.485-0.081-0.702s0.486-0.254,0.702-0.081c2.058,1.631,3.543,3.924,4.185,6.455
				c0.067,0.267-0.094,0.54-0.362,0.607C23.231,9.664,23.189,9.669,23.149,9.669z M1.624,7.534c-0.072,0-0.146-0.016-0.216-0.049
				C1.159,7.366,1.054,7.067,1.174,6.818c1.131-2.36,3.039-4.316,5.369-5.508C6.789,1.187,7.09,1.283,7.216,1.528
				c0.125,0.246,0.028,0.547-0.218,0.673C4.861,3.294,3.113,5.087,2.075,7.25C1.989,7.43,1.811,7.534,1.624,7.534z M16.742,2.02
				c-0.069,0-0.139-0.014-0.206-0.044c-2.183-0.99-4.678-1.234-7.017-0.694c-0.27,0.064-0.538-0.106-0.6-0.375
				s0.106-0.538,0.375-0.599c2.553-0.588,5.272-0.321,7.654,0.758c0.251,0.114,0.363,0.411,0.249,0.662
				C17.114,1.911,16.933,2.02,16.742,2.02z"/>
		</g>
		<path d="M12,20c-4.411,0-8-3.589-8-8s3.589-8,8-8s8,3.589,8,8S16.411,20,12,20z M12,5c-3.86,0-7,3.14-7,7c0,3.86,3.14,7,7,7
			s7-3.14,7-7C19,8.14,15.86,5,12,5z"/>
		<path d="M9.5,16c-0.089,0-0.177-0.023-0.256-0.07C9.093,15.839,9,15.677,9,15.5v-7c0-0.176,0.093-0.339,0.244-0.43
			c0.15-0.09,0.338-0.094,0.494-0.01l6.469,3.5c0.162,0.087,0.262,0.256,0.262,0.44s-0.101,0.353-0.262,0.44l-6.469,3.5
			C9.664,15.98,9.582,16,9.5,16z M10,9.339v5.322L14.918,12L10,9.339z"/>
	</g>
</g>
<g id="Invisible_Shape">
	<rect fill="none" width="24" height="24"/>
</g>
</svg>
