<?xml version="1.0" encoding="utf-8"?>
<!-- Generator: Adobe Illustrator 16.0.3, SVG Export Plug-In . SVG Version: 6.00 Build 0)  -->
<!DOCTYPE svg PUBLIC "-//W3C//DTD SVG 1.1//EN" "http://www.w3.org/Graphics/SVG/1.1/DTD/svg11.dtd">
<svg version="1.1" xmlns="http://www.w3.org/2000/svg" xmlns:xlink="http://www.w3.org/1999/xlink" x="0px" y="0px" width="24px"
	 height="24px" viewBox="0 0 24 24" enable-background="new 0 0 24 24" xml:space="preserve">
<g id="Outline_Icons">
	<g>
		<path d="M4.276,15.947C4.348,15.983,4.424,16,4.5,16c0.183,0,0.36-0.101,0.447-0.276l1.362-2.713H7.5c0.276,0,0.5-0.224,0.5-0.5
			s-0.224-0.5-0.5-0.5H6c-0.189,0-0.362,0.107-0.447,0.276l-1.5,2.99C3.929,15.522,4.029,15.823,4.276,15.947z"/>
		<path d="M23.5,8.011h-0.767l-2.196-2.625c1.219-1.547,1.133-3.793-0.293-5.219c-0.195-0.195-0.512-0.195-0.707,0l-2.1,2.101
			l-1.454-1.453c-0.195-0.195-0.512-0.195-0.707,0s-0.195,0.512,0,0.707l1.454,1.453l-2.063,2.063
			c-0.094,0.094-0.146,0.221-0.146,0.354c0,0.133,0.053,0.26,0.146,0.354c0.748,0.747,1.738,1.159,2.789,1.159
			c0.264,0,0.524-0.026,0.777-0.077l-0.857,1.184H9.5c-0.276,0-0.5,0.224-0.5,0.5v1.5H5c-0.182,0-0.349,0.098-0.437,0.257
			l-2.466,4.429l-1.951,1.95C0.053,16.74,0,16.867,0,17v4.511c0,0.276,0.224,0.5,0.5,0.5h2.053C2.79,23.145,3.797,24,5,24
			s2.21-0.855,2.447-1.989h9.106C16.79,23.145,17.797,24,19,24c1.378,0,2.5-1.122,2.5-2.5c0-0.56-0.191-1.072-0.504-1.489H23.5
			c0.276,0,0.5-0.224,0.5-0.5v-11C24,8.234,23.776,8.011,23.5,8.011z M15.757,5.362l2.009-2.009c0.009-0.008,0.021-0.011,0.03-0.02
			s0.012-0.021,0.02-0.03l2.045-2.045c0.812,1.148,0.704,2.753-0.324,3.78C18.541,6.035,16.881,6.162,15.757,5.362z M19.919,6.205
			l1.511,1.806H18.61L19.919,6.205z M16.55,21.011h-9.1c-0.074-0.371-0.235-0.708-0.454-1H9.5h7.504
			C16.785,20.303,16.624,20.64,16.55,21.011z M2.854,15.354c0.033-0.033,0.061-0.07,0.083-0.11l2.357-4.232H9v8H5.106
			C5.07,19.009,5.036,19,5,19s-0.07,0.009-0.106,0.011H1v-1.804L2.854,15.354z M1,20.011h2.004c-0.219,0.292-0.38,0.629-0.454,1H1
			V20.011z M5,23c-0.827,0-1.5-0.673-1.5-1.5c0-0.791,0.617-1.434,1.394-1.489h0.213C5.883,20.066,6.5,20.709,6.5,21.5
			C6.5,22.327,5.827,23,5,23z M20.5,21.5c0,0.827-0.673,1.5-1.5,1.5s-1.5-0.673-1.5-1.5c0-0.791,0.617-1.434,1.394-1.489h0.213
			C19.883,20.066,20.5,20.709,20.5,21.5z M19.106,19.011C19.07,19.009,19.036,19,19,19s-0.07,0.009-0.106,0.011H10v-8.5v-1.5h7.631
			H22.5h0.02H23v10H19.106z"/>
		<path d="M20.4,10.908c-0.268-0.077-0.542,0.078-0.617,0.345l-0.964,3.41l-0.964-3.41c-0.075-0.267-0.35-0.42-0.617-0.345
			c-0.266,0.075-0.42,0.351-0.345,0.617l1.445,5.111C18.398,16.852,18.595,17,18.818,17s0.42-0.148,0.481-0.364l1.445-5.111
			C20.82,11.259,20.666,10.983,20.4,10.908z"/>
		<path d="M16,11.011h-3c-0.276,0-0.5,0.224-0.5,0.5s0.224,0.5,0.5,0.5h1V16.5c0,0.276,0.224,0.5,0.5,0.5s0.5-0.224,0.5-0.5v-4.489
			h1c0.276,0,0.5-0.224,0.5-0.5S16.276,11.011,16,11.011z"/>
	</g>
</g>
<g id="Invisible_Shape">
	<rect fill="none" width="24" height="24"/>
</g>
</svg>
