<?xml version="1.0" encoding="utf-8"?>
<!-- Generator: Adobe Illustrator 16.0.3, SVG Export Plug-In . SVG Version: 6.00 Build 0)  -->
<!DOCTYPE svg PUBLIC "-//W3C//DTD SVG 1.1//EN" "http://www.w3.org/Graphics/SVG/1.1/DTD/svg11.dtd">
<svg version="1.1" xmlns="http://www.w3.org/2000/svg" xmlns:xlink="http://www.w3.org/1999/xlink" x="0px" y="0px" width="24px"
	 height="24px" viewBox="0 0 24 24" enable-background="new 0 0 24 24" xml:space="preserve">
<g id="Outline_Icons">
	<g>
		<path d="M20.5,0h-17C1.57,0,0,1.57,0,3.5v17C0,22.43,1.57,24,3.5,24h17c1.93,0,3.5-1.57,3.5-3.5v-17C24,1.57,22.43,0,20.5,0z
			 M23,20.5c0,1.378-1.122,2.5-2.5,2.5h-17C2.122,23,1,21.878,1,20.5v-17C1,2.122,2.122,1,3.5,1h17C21.878,1,23,2.122,23,3.5V20.5z"
			/>
		<path d="M20.5,3h-17C3.224,3,3,3.224,3,3.5v13C3,16.776,3.224,17,3.5,17h4.051c0.252,2.244,2.139,4,4.449,4s4.197-1.756,4.449-4
			H20.5c0.276,0,0.5-0.224,0.5-0.5v-13C21,3.224,20.776,3,20.5,3z M12,20c-1.93,0-3.5-1.57-3.5-3.5S10.07,13,12,13s3.5,1.57,3.5,3.5
			S13.93,20,12,20z M20,16h-3.551c-0.252-2.244-2.139-4-4.449-4s-4.197,1.756-4.449,4H4V4h16V16z"/>
		<path d="M6.5,20h-3C3.224,20,3,20.224,3,20.5S3.224,21,3.5,21h3C6.776,21,7,20.776,7,20.5S6.776,20,6.5,20z"/>
		<path d="M20.5,20h-3c-0.276,0-0.5,0.224-0.5,0.5s0.224,0.5,0.5,0.5h3c0.276,0,0.5-0.224,0.5-0.5S20.776,20,20.5,20z"/>
		<path d="M13.724,16.053l-3-1.5c-0.155-0.077-0.339-0.069-0.486,0.022C10.09,14.666,10,14.827,10,15v3
			c0,0.173,0.09,0.334,0.237,0.425c0.08,0.05,0.171,0.075,0.263,0.075c0.077,0,0.153-0.018,0.224-0.053l3-1.5
			C13.893,16.862,14,16.689,14,16.5S13.893,16.138,13.724,16.053z M11,17.191V15.81l1.382,0.69L11,17.191z"/>
	</g>
</g>
<g id="Invisible_Shape">
	<rect fill="none" width="24" height="24"/>
</g>
</svg>
