<?xml version="1.0" encoding="utf-8"?>
<!-- Generator: Adobe Illustrator 16.0.3, SVG Export Plug-In . SVG Version: 6.00 Build 0)  -->
<!DOCTYPE svg PUBLIC "-//W3C//DTD SVG 1.1//EN" "http://www.w3.org/Graphics/SVG/1.1/DTD/svg11.dtd">
<svg version="1.1" xmlns="http://www.w3.org/2000/svg" xmlns:xlink="http://www.w3.org/1999/xlink" x="0px" y="0px" width="24px"
	 height="24px" viewBox="0 0 24 24" enable-background="new 0 0 24 24" xml:space="preserve">
<g id="Outline_Icons">
	<g>
		<path d="M6.028,8.448C6.014,8.589,6.06,8.729,6.154,8.834c0.095,0.104,0.229,0.164,0.371,0.164h9.949
			c0.142,0,0.276-0.06,0.371-0.164c0.095-0.105,0.141-0.245,0.126-0.386c-0.164-1.635-1.076-3.047-2.359-3.943
			c0.648-0.848,1.387-1.875,1.393-3.004L16.009,0.5c0.001-0.276-0.222-0.501-0.498-0.502c-0.001,0-0.001,0-0.001,0
			c-0.276,0-0.5,0.223-0.501,0.498l-0.004,1.001C15,2.341,14.338,3.221,13.736,4.004c-0.69-0.315-1.443-0.506-2.236-0.506
			S9.954,3.689,9.264,4.004c-0.6-0.784-1.255-1.662-1.26-2.505L8,0.498C7.999,0.223,7.775,0,7.5,0c0,0-0.001,0-0.002,0
			C7.222,0.001,6.999,0.226,7,0.502l0.004,1.001C7.01,2.63,7.741,3.657,8.389,4.504C7.104,5.4,6.192,6.812,6.028,8.448z M11.5,4.498
			c2.095,0,3.924,1.498,4.387,3.5H7.113C7.576,5.996,9.405,4.498,11.5,4.498z"/>
		<path d="M17.75,14c1.065,0,1.844,0.788,2.668,1.623l0.229,0.23C20.744,15.951,20.872,16,21,16s0.256-0.049,0.354-0.146
			c0.195-0.194,0.195-0.511,0-0.707l-0.225-0.227C20.197,13.976,19.233,13,17.75,13H17v-2h0.75c1.065,0,1.844,0.788,2.668,1.623
			l0.229,0.23C20.744,12.951,20.872,13,21,13s0.256-0.049,0.354-0.146c0.195-0.194,0.195-0.511,0-0.707l-0.225-0.227
			C20.197,10.976,19.233,10,17.75,10h-1.24c-0.004,0-0.006-0.002-0.01-0.002h-10C6.496,9.998,6.494,10,6.49,10H5.25
			c-1.48,0-2.441,0.972-3.37,1.912l-0.233,0.235c-0.195,0.195-0.195,0.512,0,0.707C1.744,12.951,1.872,13,2,13
			s0.256-0.049,0.354-0.146l0.237-0.238C3.447,11.749,4.187,11,5.25,11H6v2H5.25c-1.48,0-2.441,0.972-3.37,1.912l-0.233,0.235
			c-0.195,0.195-0.195,0.512,0,0.707C1.744,15.951,1.872,16,2,16s0.256-0.049,0.354-0.146l0.237-0.238
			C3.447,14.749,4.187,14,5.25,14H6v2H5.25c-1.48,0-2.441,0.972-3.37,1.912l-0.233,0.235c-0.195,0.195-0.195,0.512,0,0.707
			C1.744,18.951,1.872,19,2,19s0.256-0.049,0.354-0.146l0.237-0.238C3.447,17.749,4.187,17,5.25,17h0.799
			c0.488,2.914,4.928,6.712,5.128,6.882C11.27,23.961,11.385,24,11.5,24s0.23-0.039,0.323-0.118c0.2-0.17,4.64-3.968,5.128-6.882
			h0.799c1.065,0,1.844,0.788,2.668,1.623l0.229,0.23C20.744,18.951,20.872,19,21,19s0.256-0.049,0.354-0.146
			c0.195-0.194,0.195-0.511,0-0.707l-0.225-0.227C20.197,16.976,19.233,16,17.75,16H17v-2H17.75z M11.5,22.837
			C9.995,21.494,7,18.425,7,16.5v-5.502h9V16.5C16,18.423,13.005,21.493,11.5,22.837z"/>
	</g>
</g>
<g id="Invisible_Shape">
	<rect fill="none" width="24" height="24"/>
</g>
</svg>
