<?xml version="1.0" encoding="utf-8"?>
<!-- Generator: Adobe Illustrator 16.0.3, SVG Export Plug-In . SVG Version: 6.00 Build 0)  -->
<!DOCTYPE svg PUBLIC "-//W3C//DTD SVG 1.1//EN" "http://www.w3.org/Graphics/SVG/1.1/DTD/svg11.dtd">
<svg version="1.1" xmlns="http://www.w3.org/2000/svg" xmlns:xlink="http://www.w3.org/1999/xlink" x="0px" y="0px" width="24px"
	 height="24px" viewBox="0 0 24 24" enable-background="new 0 0 24 24" xml:space="preserve">
<g id="Outline_Icons">
	<g>
		<path d="M23.671,6.467c-0.072-0.026-0.733-0.244-1.458,0.263c-1.113,0.78-1.688,2.819-1.712,6.062l-1.594,1.594l0.298-1.302
			c0.253-1.059-0.213-1.781-0.788-2.026c-0.528-0.226-1.292-0.095-1.807,0.702c-0.69,1.075-1.554,3.966-1.59,4.09
			C15.007,15.895,15,15.943,15,15.991V20h-0.5c-0.276,0-0.5,0.224-0.5,0.5v3c0,0.276,0.224,0.5,0.5,0.5h6c0.276,0,0.5-0.224,0.5-0.5
			v-3c0-0.276-0.224-0.5-0.5-0.5H20v-0.823c0.638-0.631,3.146-3.115,3.854-3.823C23.947,15.26,24,15.133,24,15V6.938
			C24,6.728,23.868,6.539,23.671,6.467z M20,23h-5v-2h5V23z M23,14.792c-0.991,0.989-3.852,3.82-3.852,3.82
			C19.054,18.707,19,18.834,19,18.968V20h-3v-3.936c0.256-0.851,0.956-2.992,1.452-3.764c0.174-0.271,0.397-0.398,0.573-0.323
			c0.182,0.078,0.324,0.384,0.206,0.878l-0.688,3c-0.05,0.218,0.05,0.442,0.245,0.55c0.195,0.108,0.438,0.075,0.596-0.084
			l2.969-2.968C21.447,13.26,21.5,13.133,21.5,13c0-3.904,0.789-5.078,1.26-5.431c0.086-0.064,0.167-0.105,0.24-0.132V14.792z"/>
		<path d="M9.5,20H9v-4.009c0-0.048-0.007-0.097-0.021-0.142c-0.036-0.124-0.899-3.015-1.59-4.09
			c-0.515-0.798-1.277-0.928-1.807-0.702c-0.575,0.245-1.041,0.967-0.789,2.021l0.299,1.306l-1.594-1.594
			C3.476,9.55,2.9,7.511,1.787,6.73C1.063,6.224,0.403,6.441,0.329,6.467C0.132,6.539,0,6.728,0,6.938V15
			c0,0.15,0.067,0.293,0.185,0.388c0.844,0.687,3.218,3.156,3.815,3.78V20H3.5C3.224,20,3,20.224,3,20.5v3C3,23.776,3.224,24,3.5,24
			h6c0.276,0,0.5-0.224,0.5-0.5v-3C10,20.224,9.776,20,9.5,20z M4.862,18.623C4.746,18.5,2.142,15.766,1,14.768V7.438
			c0.073,0.026,0.154,0.067,0.24,0.132C1.711,7.922,2.5,9.096,2.5,13c0,0.133,0.053,0.26,0.146,0.354l2.969,2.968
			c0.159,0.159,0.402,0.192,0.596,0.084c0.195-0.107,0.295-0.332,0.245-0.55l-0.688-3.004c-0.117-0.49,0.025-0.796,0.207-0.874
			c0.174-0.073,0.399,0.053,0.573,0.323C7.044,13.072,7.744,15.214,8,16.064V20H5v-1.032C5,18.839,4.951,18.717,4.862,18.623z M9,23
			H4v-2h5V23z"/>
		<path d="M7,10h10c1.379,0,2.5-1.122,2.5-2.5C19.5,7.224,19.276,7,19,7h-1V0.5C18,0.224,17.776,0,17.5,0h-11C6.224,0,6,0.224,6,0.5
			V7H5C4.724,7,4.5,7.224,4.5,7.5C4.5,8.878,5.621,10,7,10z M7,1h10v6H7V1z M18.414,8C18.208,8.582,17.652,9,17,9H7
			C6.348,9,5.792,8.582,5.586,8H18.414z"/>
	</g>
</g>
<g id="Invisible_Shape">
	<rect fill="none" width="24" height="24"/>
</g>
</svg>
