<?xml version="1.0" encoding="utf-8"?>
<!-- Generator: Adobe Illustrator 16.0.3, SVG Export Plug-In . SVG Version: 6.00 Build 0)  -->
<!DOCTYPE svg PUBLIC "-//W3C//DTD SVG 1.1//EN" "http://www.w3.org/Graphics/SVG/1.1/DTD/svg11.dtd">
<svg version="1.1" xmlns="http://www.w3.org/2000/svg" xmlns:xlink="http://www.w3.org/1999/xlink" x="0px" y="0px" width="24px"
	 height="24px" viewBox="0 0 24 24" enable-background="new 0 0 24 24" xml:space="preserve">
<g id="Outline_Icons">
	<g>
		<path d="M23.5,3h-23C0.224,3,0,3.224,0,3.5v9C0,12.776,0.224,13,0.5,13h9c0.276,0,0.5-0.224,0.5-0.5S9.776,12,9.5,12H1V4h22v5.521
			c0,0.276,0.224,0.5,0.5,0.5s0.5-0.224,0.5-0.5V3.5C24,3.224,23.776,3,23.5,3z"/>
		<path d="M6.591,6.629C6.438,6.396,6.129,6.334,5.898,6.485L5,7.074V6c0-0.276-0.224-0.5-0.5-0.5S4,5.724,4,6v1.065L3.113,6.474
			C2.885,6.322,2.574,6.382,2.42,6.612c-0.153,0.229-0.091,0.54,0.139,0.693l1.035,0.69l-1.04,0.683
			C2.323,8.83,2.259,9.14,2.41,9.371c0.096,0.146,0.256,0.226,0.418,0.226c0.095,0,0.189-0.026,0.274-0.082L4,8.926V10
			c0,0.276,0.224,0.5,0.5,0.5S5,10.276,5,10V8.935l0.887,0.592C5.972,9.583,6.068,9.61,6.164,9.61c0.161,0,0.319-0.078,0.416-0.223
			c0.153-0.229,0.091-0.54-0.139-0.693l-1.035-0.69l1.041-0.683C6.678,7.17,6.742,6.86,6.591,6.629z"/>
		<path d="M11,8.935l0.887,0.592c0.085,0.057,0.182,0.084,0.277,0.084c0.161,0,0.319-0.078,0.416-0.223
			c0.153-0.229,0.091-0.54-0.139-0.693l-1.035-0.69l1.041-0.683c0.23-0.151,0.295-0.461,0.144-0.692
			c-0.151-0.232-0.462-0.295-0.692-0.144L11,7.074V6c0-0.276-0.224-0.5-0.5-0.5S10,5.724,10,6v1.065L9.113,6.474
			C8.886,6.322,8.574,6.382,8.42,6.612c-0.153,0.229-0.091,0.54,0.139,0.693l1.035,0.69l-1.04,0.683
			C8.323,8.83,8.259,9.14,8.41,9.371c0.096,0.146,0.256,0.226,0.418,0.226c0.095,0,0.189-0.026,0.274-0.082L10,8.926V10
			c0,0.276,0.224,0.5,0.5,0.5S11,10.276,11,10V8.935z"/>
		<path d="M17.5,9.042c-3.584,0-6.5,2.916-6.5,6.5s2.916,6.5,6.5,6.5s6.5-2.916,6.5-6.5S21.084,9.042,17.5,9.042z M17.5,21.042
			c-3.032,0-5.5-2.468-5.5-5.5s2.468-5.5,5.5-5.5s5.5,2.468,5.5,5.5S20.532,21.042,17.5,21.042z"/>
		<path d="M20.131,13.705l-3.147,3.449l-2.13-2.13c-0.195-0.195-0.512-0.195-0.707,0s-0.195,0.512,0,0.707l2.5,2.5
			c0.094,0.094,0.221,0.146,0.354,0.146c0.004,0,0.008,0,0.012,0c0.137-0.003,0.266-0.062,0.357-0.163l3.5-3.836
			c0.187-0.204,0.172-0.521-0.032-0.706C20.634,13.486,20.317,13.501,20.131,13.705z"/>
	</g>
</g>
<g id="Invisible_Shape">
	<rect fill="none" width="24" height="24"/>
</g>
</svg>
