<?xml version="1.0" encoding="utf-8"?>
<!-- Generator: Adobe Illustrator 16.0.3, SVG Export Plug-In . SVG Version: 6.00 Build 0)  -->
<!DOCTYPE svg PUBLIC "-//W3C//DTD SVG 1.1//EN" "http://www.w3.org/Graphics/SVG/1.1/DTD/svg11.dtd">
<svg version="1.1" xmlns="http://www.w3.org/2000/svg" xmlns:xlink="http://www.w3.org/1999/xlink" x="0px" y="0px" width="24px"
	 height="24px" viewBox="0 0 24 24" enable-background="new 0 0 24 24" xml:space="preserve">
<g id="Outline_Icons">
	<g>
		<path d="M21.5,2h-19C1.121,2,0,3.121,0,4.5v7C0,12.879,1.121,14,2.5,14H11c0.276,0,0.5-0.224,0.5-0.5S11.276,13,11,13H2.5
			C1.673,13,1,12.327,1,11.5v-7C1,3.673,1.673,3,2.5,3h19C22.327,3,23,3.673,23,4.5v7c0,0.827-0.673,1.5-1.5,1.5h-4
			c-0.276,0-0.5,0.224-0.5,0.5s0.224,0.5,0.5,0.5h4c1.379,0,2.5-1.121,2.5-2.5v-7C24,3.121,22.879,2,21.5,2z"/>
		<path d="M2,8c0,1.654,1.346,3,3,3s3-1.346,3-3S6.654,5,5,5S2,6.346,2,8z M7,8c0,1.103-0.897,2-2,2S3,9.103,3,8s0.897-2,2-2
			S7,6.897,7,8z"/>
		<path d="M15,8c0-1.654-1.346-3-3-3S9,6.346,9,8s1.346,3,3,3S15,9.654,15,8z M12,10c-1.103,0-2-0.897-2-2s0.897-2,2-2s2,0.897,2,2
			S13.103,10,12,10z"/>
		<path d="M22,8c0-1.654-1.346-3-3-3s-3,1.346-3,3s1.346,3,3,3S22,9.654,22,8z M17,8c0-1.103,0.897-2,2-2s2,0.897,2,2s-0.897,2-2,2
			S17,9.103,17,8z"/>
		<path d="M23.224,17.553l-10-5c-0.192-0.095-0.426-0.058-0.577,0.094c-0.152,0.152-0.19,0.385-0.094,0.577l5,10
			C17.638,23.395,17.812,23.5,18,23.5c0.018,0,0.036-0.001,0.055-0.003c0.208-0.022,0.38-0.173,0.431-0.376l0.927-3.709l3.709-0.927
			c0.203-0.051,0.354-0.223,0.376-0.431S23.411,17.646,23.224,17.553z M18.879,18.515c-0.18,0.045-0.319,0.185-0.364,0.364
			l-0.672,2.688l-3.725-7.449l7.449,3.725L18.879,18.515z"/>
	</g>
</g>
<g id="Invisible_Shape">
	<rect fill="none" width="24" height="24"/>
</g>
</svg>
