<?xml version="1.0" encoding="utf-8"?>
<!-- Generator: Adobe Illustrator 16.0.3, SVG Export Plug-In . SVG Version: 6.00 Build 0)  -->
<!DOCTYPE svg PUBLIC "-//W3C//DTD SVG 1.1//EN" "http://www.w3.org/Graphics/SVG/1.1/DTD/svg11.dtd">
<svg version="1.1" xmlns="http://www.w3.org/2000/svg" xmlns:xlink="http://www.w3.org/1999/xlink" x="0px" y="0px" width="24px"
	 height="24px" viewBox="0 0 24 24" enable-background="new 0 0 24 24" xml:space="preserve">
<g id="Outline_Icons">
	<g>
		<path d="M6.057,12.741c0.228,0.018,0.444-0.126,0.515-0.348l0.35-1.097l0.35,1.097c0.066,0.209,0.261,0.349,0.477,0.349
			c0.013,0,0.025,0,0.038-0.001c0.23-0.018,0.419-0.191,0.456-0.421l0.825-5.187C9.109,6.861,8.924,6.605,8.65,6.562
			C8.38,6.52,8.121,6.705,8.078,6.978l-0.494,3.107L7.397,9.499c-0.133-0.416-0.82-0.416-0.953,0l-0.187,0.586L5.763,6.977
			C5.718,6.703,5.467,6.52,5.189,6.562c-0.272,0.044-0.458,0.3-0.415,0.573l0.826,5.187C5.638,12.55,5.826,12.724,6.057,12.741z"/>
		<path d="M11.137,12.741c0.228,0.018,0.444-0.126,0.515-0.348l0.35-1.097l0.35,1.097c0.066,0.209,0.261,0.349,0.477,0.349
			c0.013,0,0.025,0,0.038-0.001c0.23-0.018,0.419-0.191,0.456-0.421l0.824-5.187c0.043-0.272-0.143-0.528-0.416-0.572
			C13.459,6.52,13.2,6.705,13.157,6.978l-0.493,3.106l-0.187-0.585c-0.133-0.416-0.82-0.416-0.953,0l-0.187,0.586l-0.495-3.108
			c-0.045-0.273-0.297-0.457-0.573-0.415c-0.272,0.044-0.458,0.3-0.415,0.573l0.826,5.187C10.718,12.55,10.906,12.724,11.137,12.741
			z"/>
		<path d="M16.216,12.741c0.229,0.018,0.444-0.126,0.515-0.348l0.35-1.097l0.35,1.097c0.066,0.209,0.261,0.349,0.477,0.349
			c0.013,0,0.025,0,0.038-0.001c0.23-0.018,0.419-0.191,0.456-0.421l0.825-5.187c0.043-0.272-0.143-0.528-0.416-0.572
			c-0.271-0.042-0.529,0.144-0.572,0.416l-0.494,3.107l-0.187-0.586c-0.133-0.416-0.82-0.416-0.953,0l-0.187,0.586l-0.495-3.108
			c-0.045-0.273-0.297-0.457-0.573-0.415c-0.272,0.044-0.458,0.3-0.415,0.573l0.826,5.187C15.797,12.55,15.985,12.724,16.216,12.741
			z"/>
		<path d="M22,2H2C0.897,2,0,2.938,0,4.089v14.822C0,20.062,0.897,21,2,21h9v1H5c-0.276,0-0.5,0.224-0.5,0.5S4.724,23,5,23h14
			c0.276,0,0.5-0.224,0.5-0.5S19.276,22,19,22h-7v-1h10c1.103,0,2-0.938,2-2.089V4.089C24,2.938,23.103,2,22,2z M2,3h20
			c0.552,0,1,0.488,1,1.089V16H1V4.089C1,3.488,1.448,3,2,3z M22,20H2c-0.552,0-1-0.488-1-1.089V17h22v1.911
			C23,19.512,22.552,20,22,20z"/>
		<circle cx="12" cy="18.5" r="1"/>
	</g>
</g>
<g id="Invisible_Shape">
	<rect fill="none" width="24" height="24"/>
</g>
</svg>
