<?xml version="1.0" encoding="utf-8"?>
<!-- Generator: Adobe Illustrator 16.0.3, SVG Export Plug-In . SVG Version: 6.00 Build 0)  -->
<!DOCTYPE svg PUBLIC "-//W3C//DTD SVG 1.1//EN" "http://www.w3.org/Graphics/SVG/1.1/DTD/svg11.dtd">
<svg version="1.1" xmlns="http://www.w3.org/2000/svg" xmlns:xlink="http://www.w3.org/1999/xlink" x="0px" y="0px" width="24px"
	 height="24px" viewBox="0 0 24 24" enable-background="new 0 0 24 24" xml:space="preserve">
<g id="Outline_Icons">
	<g>
		<path d="M22.615,16.922l-3.605-1.044V11.5c0-0.827-0.673-1.5-1.5-1.5s-1.5,0.673-1.5,1.5v6.36
			c-0.693-0.719-1.47-1.002-2.055-1.002c-0.561,0-1.028,0.249-1.254,0.666c-0.146,0.27-0.312,0.845,0.223,1.661l3.061,4.592
			C16.077,23.916,16.233,24,16.4,24h6.12c0.241,0,0.449-0.173,0.492-0.41l0.76-4.187l0.085-0.367
			C24.07,18.114,23.524,17.186,22.615,16.922z M22.883,18.812L22.104,23h-5.436l-2.91-4.365c-0.21-0.322-0.227-0.543-0.177-0.636
			c0.047-0.086,0.19-0.141,0.374-0.141c0.63,0,1.522,0.577,2.099,1.865c0.096,0.215,0.327,0.332,0.561,0.285
			c0.23-0.05,0.396-0.253,0.396-0.489V11.5c0-0.275,0.225-0.5,0.5-0.5s0.5,0.225,0.5,0.5v4.754c0,0.223,0.147,0.418,0.361,0.48
			l3.967,1.148C22.737,17.998,22.977,18.406,22.883,18.812z"/>
		<path d="M22.5,3h-21C0.673,3,0,3.673,0,4.5v13C0,18.327,0.673,19,1.5,19H10v2H7c-0.276,0-0.5,0.224-0.5,0.5S6.724,22,7,22h5
			c0.276,0,0.5-0.224,0.5-0.5S12.276,21,12,21h-1v-2h0.5c0.276,0,0.5-0.224,0.5-0.5S11.776,18,11.5,18h-10C1.229,18,1,17.771,1,17.5
			v-13C1,4.225,1.225,4,1.5,4h21C22.775,4,23,4.225,23,4.5v11c0,0.276,0.224,0.5,0.5,0.5s0.5-0.224,0.5-0.5v-11
			C24,3.673,23.327,3,22.5,3z"/>
		<path d="M21,6v8.494c0,0.276,0.224,0.5,0.5,0.5s0.5-0.224,0.5-0.5V5.5C22,5.224,21.776,5,21.5,5h-19C2.224,5,2,5.224,2,5.5v11
			C2,16.776,2.224,17,2.5,17h9c0.276,0,0.5-0.224,0.5-0.5S11.776,16,11.5,16H3V6H21z"/>
	</g>
</g>
<g id="Invisible_Shape">
	<rect fill="none" width="24" height="24"/>
</g>
</svg>
