<?xml version="1.0" encoding="utf-8"?>
<!-- Generator: Adobe Illustrator 16.0.3, SVG Export Plug-In . SVG Version: 6.00 Build 0)  -->
<!DOCTYPE svg PUBLIC "-//W3C//DTD SVG 1.1//EN" "http://www.w3.org/Graphics/SVG/1.1/DTD/svg11.dtd">
<svg version="1.1" xmlns="http://www.w3.org/2000/svg" xmlns:xlink="http://www.w3.org/1999/xlink" x="0px" y="0px" width="24px"
	 height="24px" viewBox="0 0 24 24" enable-background="new 0 0 24 24" xml:space="preserve">
<g id="Outline_Icons">
	<g>
		<path d="M23.5,0h-20C3.224,0,3,0.224,3,0.5v20C3,20.776,3.224,21,3.5,21h20c0.276,0,0.5-0.224,0.5-0.5v-20
			C24,0.224,23.776,0,23.5,0z M23,20H11v-0.5c0-0.276-0.224-0.5-0.5-0.5S10,19.224,10,19.5V20H4v-6h0.5C4.776,14,5,13.776,5,13.5
			S4.776,13,4.5,13H4V1h19V20z"/>
		<path d="M12.5,12c0.128,0,0.256-0.049,0.354-0.146L20,4.707V8.5C20,8.776,20.224,9,20.5,9S21,8.776,21,8.5v-5
			c0-0.064-0.013-0.13-0.039-0.191c-0.05-0.123-0.148-0.22-0.271-0.271C20.63,3.013,20.565,3,20.5,3h-5C15.224,3,15,3.224,15,3.5
			S15.224,4,15.5,4h3.793l-7.146,7.146c-0.195,0.195-0.195,0.512,0,0.707C12.244,11.951,12.372,12,12.5,12z"/>
		<path d="M1.5,13h-1C0.224,13,0,13.224,0,13.5v1C0,14.776,0.224,15,0.5,15S1,14.776,1,14.5V14h0.5C1.776,14,2,13.776,2,13.5
			S1.776,13,1.5,13z"/>
		<path d="M0.5,18C0.776,18,1,17.776,1,17.5v-1C1,16.224,0.776,16,0.5,16S0,16.224,0,16.5v1C0,17.776,0.224,18,0.5,18z"/>
		<path d="M6.5,14h1C7.776,14,8,13.776,8,13.5S7.776,13,7.5,13h-1C6.224,13,6,13.224,6,13.5S6.224,14,6.5,14z"/>
		<path d="M4.5,23h-1C3.224,23,3,23.224,3,23.5S3.224,24,3.5,24h1C4.776,24,5,23.776,5,23.5S4.776,23,4.5,23z"/>
		<path d="M7.5,23h-1C6.224,23,6,23.224,6,23.5S6.224,24,6.5,24h1C7.776,24,8,23.776,8,23.5S7.776,23,7.5,23z"/>
		<path d="M1.5,23H1v-0.5C1,22.224,0.776,22,0.5,22S0,22.224,0,22.5v1C0,23.776,0.224,24,0.5,24h1C1.776,24,2,23.776,2,23.5
			S1.776,23,1.5,23z"/>
		<path d="M0.5,21C0.776,21,1,20.776,1,20.5v-1C1,19.224,0.776,19,0.5,19S0,19.224,0,19.5v1C0,20.776,0.224,21,0.5,21z"/>
		<path d="M9.5,14H10v0.5c0,0.276,0.224,0.5,0.5,0.5s0.5-0.224,0.5-0.5v-1c0-0.276-0.224-0.5-0.5-0.5h-1C9.224,13,9,13.224,9,13.5
			S9.224,14,9.5,14z"/>
		<path d="M10.5,16c-0.276,0-0.5,0.224-0.5,0.5v1c0,0.276,0.224,0.5,0.5,0.5s0.5-0.224,0.5-0.5v-1C11,16.224,10.776,16,10.5,16z"/>
		<path d="M10.5,22c-0.276,0-0.5,0.224-0.5,0.5V23H9.5C9.224,23,9,23.224,9,23.5S9.224,24,9.5,24h1c0.276,0,0.5-0.224,0.5-0.5v-1
			C11,22.224,10.776,22,10.5,22z"/>
	</g>
</g>
<g id="Invisible_Shape">
	<rect fill="none" width="24" height="24"/>
</g>
</svg>
