<?xml version="1.0" encoding="utf-8"?>
<!-- Generator: Adobe Illustrator 16.0.3, SVG Export Plug-In . SVG Version: 6.00 Build 0)  -->
<!DOCTYPE svg PUBLIC "-//W3C//DTD SVG 1.1//EN" "http://www.w3.org/Graphics/SVG/1.1/DTD/svg11.dtd">
<svg version="1.1" xmlns="http://www.w3.org/2000/svg" xmlns:xlink="http://www.w3.org/1999/xlink" x="0px" y="0px" width="24px"
	 height="24px" viewBox="0 0 24 24" enable-background="new 0 0 24 24" xml:space="preserve">
<g id="Outline_Icons">
	<g>
		<path d="M22.5,21c-0.276,0-0.5,0.224-0.5,0.5V22h-0.5c-0.276,0-0.5,0.224-0.5,0.5s0.224,0.5,0.5,0.5h1c0.276,0,0.5-0.224,0.5-0.5
			v-1C23,21.224,22.776,21,22.5,21z"/>
		<path d="M10.5,22h-1C9.224,22,9,22.224,9,22.5S9.224,23,9.5,23h1c0.276,0,0.5-0.224,0.5-0.5S10.776,22,10.5,22z"/>
		<path d="M7.5,22h-1C6.224,22,6,22.224,6,22.5S6.224,23,6.5,23h1C7.776,23,8,22.776,8,22.5S7.776,22,7.5,22z"/>
		<path d="M13.5,22h-1c-0.276,0-0.5,0.224-0.5,0.5s0.224,0.5,0.5,0.5h1c0.276,0,0.5-0.224,0.5-0.5S13.776,22,13.5,22z"/>
		<path d="M16.5,22h-1c-0.276,0-0.5,0.224-0.5,0.5s0.224,0.5,0.5,0.5h1c0.276,0,0.5-0.224,0.5-0.5S16.776,22,16.5,22z"/>
		<path d="M19.5,22h-1c-0.276,0-0.5,0.224-0.5,0.5s0.224,0.5,0.5,0.5h1c0.276,0,0.5-0.224,0.5-0.5S19.776,22,19.5,22z"/>
		<path d="M22.5,15c-0.276,0-0.5,0.224-0.5,0.5v1c0,0.276,0.224,0.5,0.5,0.5s0.5-0.224,0.5-0.5v-1C23,15.224,22.776,15,22.5,15z"/>
		<path d="M22.5,12c-0.276,0-0.5,0.224-0.5,0.5v1c0,0.276,0.224,0.5,0.5,0.5s0.5-0.224,0.5-0.5v-1C23,12.224,22.776,12,22.5,12z"/>
		<path d="M22.5,9C22.224,9,22,9.224,22,9.5v1c0,0.276,0.224,0.5,0.5,0.5s0.5-0.224,0.5-0.5v-1C23,9.224,22.776,9,22.5,9z"/>
		<path d="M22.5,6C22.224,6,22,6.224,22,6.5v1C22,7.776,22.224,8,22.5,8S23,7.776,23,7.5v-1C23,6.224,22.776,6,22.5,6z"/>
		<path d="M22.5,18c-0.276,0-0.5,0.224-0.5,0.5v1c0,0.276,0.224,0.5,0.5,0.5s0.5-0.224,0.5-0.5v-1C23,18.224,22.776,18,22.5,18z"/>
		<path d="M22.828,4.871c0.037-0.033,0.065-0.072,0.091-0.114c0.011-0.018,0.025-0.031,0.034-0.05C22.982,4.643,23,4.575,23,4.5
			c0-0.074-0.018-0.142-0.047-0.206c-0.008-0.019-0.023-0.032-0.034-0.05c-0.026-0.042-0.054-0.082-0.091-0.114
			c-0.006-0.006-0.009-0.015-0.016-0.02l-5-4c-0.216-0.173-0.53-0.137-0.703,0.078c-0.172,0.216-0.137,0.53,0.078,0.703L21.075,4
			H4.5C4.224,4,4,4.224,4,4.5v16.575l-3.109-3.887c-0.172-0.214-0.487-0.251-0.703-0.078c-0.215,0.173-0.25,0.487-0.078,0.703l4,5
			c0.005,0.007,0.014,0.009,0.02,0.016c0.033,0.037,0.072,0.065,0.115,0.091c0.018,0.011,0.031,0.025,0.05,0.034
			C4.357,22.982,4.426,23,4.5,23s0.143-0.018,0.206-0.047c0.019-0.008,0.032-0.022,0.05-0.034c0.042-0.026,0.082-0.054,0.115-0.091
			c0.006-0.006,0.015-0.009,0.02-0.016l4-5c0.172-0.216,0.137-0.53-0.078-0.703s-0.53-0.137-0.703,0.078L5,21.075V5h16.075
			l-3.887,3.11c-0.215,0.173-0.25,0.487-0.078,0.703C17.208,8.936,17.354,9,17.5,9c0.109,0,0.22-0.036,0.312-0.109l5-4
			C22.819,4.885,22.822,4.876,22.828,4.871z"/>
	</g>
</g>
<g id="Invisible_Shape">
	<rect fill="none" width="24" height="24"/>
</g>
</svg>
