<?xml version="1.0" encoding="utf-8"?>
<!-- Generator: Adobe Illustrator 16.0.3, SVG Export Plug-In . SVG Version: 6.00 Build 0)  -->
<!DOCTYPE svg PUBLIC "-//W3C//DTD SVG 1.1//EN" "http://www.w3.org/Graphics/SVG/1.1/DTD/svg11.dtd">
<svg version="1.1" xmlns="http://www.w3.org/2000/svg" xmlns:xlink="http://www.w3.org/1999/xlink" x="0px" y="0px" width="24px"
	 height="24px" viewBox="0 0 24 24" enable-background="new 0 0 24 24" xml:space="preserve">
<g id="Outline_Icons">
	<g>
		<path d="M23.5,15c-0.276,0-0.5,0.224-0.5,0.5V16h-0.5c-0.276,0-0.5,0.224-0.5,0.5s0.224,0.5,0.5,0.5h1c0.276,0,0.5-0.224,0.5-0.5
			v-1C24,15.224,23.776,15,23.5,15z"/>
		<path d="M23.5,0h-1C22.224,0,22,0.224,22,0.5S22.224,1,22.5,1H23v0.5C23,1.776,23.224,2,23.5,2S24,1.776,24,1.5v-1
			C24,0.224,23.776,0,23.5,0z"/>
		<path d="M23.5,12c-0.276,0-0.5,0.224-0.5,0.5v1c0,0.276,0.224,0.5,0.5,0.5s0.5-0.224,0.5-0.5v-1C24,12.224,23.776,12,23.5,12z"/>
		<path d="M23.5,9C23.224,9,23,9.224,23,9.5v1c0,0.276,0.224,0.5,0.5,0.5s0.5-0.224,0.5-0.5v-1C24,9.224,23.776,9,23.5,9z"/>
		<path d="M23.5,6C23.224,6,23,6.224,23,6.5v1C23,7.776,23.224,8,23.5,8S24,7.776,24,7.5v-1C24,6.224,23.776,6,23.5,6z"/>
		<path d="M23.5,3C23.224,3,23,3.224,23,3.5v1C23,4.776,23.224,5,23.5,5S24,4.776,24,4.5v-1C24,3.224,23.776,3,23.5,3z"/>
		<path d="M13.5,2C13.776,2,14,1.776,14,1.5V1h0.5C14.776,1,15,0.776,15,0.5S14.776,0,14.5,0h-1C13.224,0,13,0.224,13,0.5v1
			C13,1.776,13.224,2,13.5,2z"/>
		<path d="M13.5,11c0.276,0,0.5-0.224,0.5-0.5v-1C14,9.224,13.776,9,13.5,9S13,9.224,13,9.5v1C13,10.776,13.224,11,13.5,11z"/>
		<path d="M13.5,8C13.776,8,14,7.776,14,7.5v-1C14,6.224,13.776,6,13.5,6S13,6.224,13,6.5v1C13,7.776,13.224,8,13.5,8z"/>
		<path d="M13.5,5C13.776,5,14,4.776,14,4.5v-1C14,3.224,13.776,3,13.5,3S13,3.224,13,3.5v1C13,4.776,13.224,5,13.5,5z"/>
		<path d="M17.5,0h-1C16.224,0,16,0.224,16,0.5S16.224,1,16.5,1h1C17.776,1,18,0.776,18,0.5S17.776,0,17.5,0z"/>
		<path d="M20.5,0h-1C19.224,0,19,0.224,19,0.5S19.224,1,19.5,1h1C20.776,1,21,0.776,21,0.5S20.776,0,20.5,0z"/>
		<path d="M17.5,16H17v-2.5c0-0.276-0.224-0.5-0.5-0.5H14v-0.5c0-0.276-0.224-0.5-0.5-0.5S13,12.224,13,12.5V13H0.5
			C0.224,13,0,13.224,0,13.5v10C0,23.776,0.224,24,0.5,24h16c0.276,0,0.5-0.224,0.5-0.5V17h0.5c0.276,0,0.5-0.224,0.5-0.5
			S17.776,16,17.5,16z M16,23H1v-9h15V23z"/>
		<path d="M20.5,16h-1c-0.276,0-0.5,0.224-0.5,0.5s0.224,0.5,0.5,0.5h1c0.276,0,0.5-0.224,0.5-0.5S20.776,16,20.5,16z"/>
		<path d="M3.146,11.856c0.046,0.046,0.102,0.083,0.163,0.108C3.37,11.99,3.435,12.003,3.5,12.003s0.13-0.013,0.191-0.039
			c0.062-0.025,0.117-0.062,0.163-0.108l3-3c0.195-0.195,0.195-0.512,0-0.707c-0.195-0.196-0.512-0.196-0.707,0L4,10.296V7.5
			C4,5.57,5.57,4,7.5,4h2.793L8.146,6.146c-0.195,0.195-0.195,0.512,0,0.707C8.244,6.951,8.372,7,8.5,7s0.256-0.049,0.354-0.146l3-3
			c0.046-0.046,0.083-0.102,0.108-0.163c0.051-0.122,0.051-0.26,0-0.382c-0.025-0.062-0.062-0.117-0.108-0.163l-3-3
			c-0.195-0.195-0.512-0.195-0.707,0s-0.195,0.512,0,0.707L10.293,3H7.5C5.019,3,3,5.019,3,7.5v2.796L0.854,8.15
			c-0.195-0.196-0.512-0.196-0.707,0c-0.195,0.195-0.195,0.511,0,0.707L3.146,11.856z"/>
	</g>
</g>
<g id="Invisible_Shape">
	<rect fill="none" width="24" height="24"/>
</g>
</svg>
