<?xml version="1.0" encoding="utf-8"?>
<!-- Generator: Adobe Illustrator 16.0.3, SVG Export Plug-In . SVG Version: 6.00 Build 0)  -->
<!DOCTYPE svg PUBLIC "-//W3C//DTD SVG 1.1//EN" "http://www.w3.org/Graphics/SVG/1.1/DTD/svg11.dtd">
<svg version="1.1" xmlns="http://www.w3.org/2000/svg" xmlns:xlink="http://www.w3.org/1999/xlink" x="0px" y="0px" width="24px"
	 height="24px" viewBox="0 0 24 24" enable-background="new 0 0 24 24" xml:space="preserve">
<g id="Outline_Icons">
	<g>
		<path d="M20.146,19.146L19,20.293V15.5c0-0.276-0.224-0.5-0.5-0.5S18,15.224,18,15.5v4.793l-1.146-1.146
			c-0.195-0.195-0.512-0.195-0.707,0s-0.195,0.512,0,0.707l2,1.999c0.046,0.047,0.102,0.083,0.163,0.109
			C18.37,21.987,18.435,22,18.5,22s0.13-0.013,0.191-0.038c0.062-0.026,0.117-0.062,0.163-0.109l2-1.999
			c0.195-0.195,0.195-0.512,0-0.707S20.342,18.951,20.146,19.146z"/>
		<path d="M18.5,13c-3.033,0-5.5,2.467-5.5,5.5s2.467,5.5,5.5,5.5s5.5-2.467,5.5-5.5S21.533,13,18.5,13z M18.5,23
			c-2.481,0-4.5-2.018-4.5-4.5c0-2.481,2.019-4.5,4.5-4.5s4.5,2.019,4.5,4.5C23,20.982,20.981,23,18.5,23z"/>
		<path d="M13,7h5v4.5c0,0.276,0.224,0.5,0.5,0.5s0.5-0.224,0.5-0.5v-9C19,1.122,17.878,0,16.5,0h-14C1.122,0,0,1.122,0,2.5v15
			C0,18.878,1.122,20,2.5,20h9c0.276,0,0.5-0.224,0.5-0.5S11.776,19,11.5,19H7v-5h5.5c0.276,0,0.5-0.224,0.5-0.5V7z M18,2.5V6h-5V1
			h3.5C17.327,1,18,1.673,18,2.5z M12,6H7V1h5V6z M2.5,1H6v5H1V2.5C1,1.673,1.673,1,2.5,1z M1,7h5v6H1V7z M6,19H2.5
			C1.673,19,1,18.327,1,17.5V14h5V19z M7,7h5v6H7V7z"/>
	</g>
</g>
<g id="Invisible_Shape">
	<rect fill="none" width="24" height="24"/>
</g>
</svg>
