<?xml version="1.0" encoding="utf-8"?>
<!-- Generator: Adobe Illustrator 16.0.3, SVG Export Plug-In . SVG Version: 6.00 Build 0)  -->
<!DOCTYPE svg PUBLIC "-//W3C//DTD SVG 1.1//EN" "http://www.w3.org/Graphics/SVG/1.1/DTD/svg11.dtd">
<svg version="1.1" xmlns="http://www.w3.org/2000/svg" xmlns:xlink="http://www.w3.org/1999/xlink" x="0px" y="0px" width="24px"
	 height="24px" viewBox="0 0 24 24" enable-background="new 0 0 24 24" xml:space="preserve">
<g id="Outline_Icons">
	<g>
		<path d="M19.5,19.014c-0.551,0-1,0.449-1,1c0,0.365,0.207,0.672,0.5,0.847v0.653c0,0.276,0.224,0.5,0.5,0.5s0.5-0.224,0.5-0.5
			V20.86c0.293-0.175,0.5-0.481,0.5-0.847C20.5,19.462,20.051,19.014,19.5,19.014z"/>
		<path d="M23.5,17.014H23v-0.5c0-1.93-1.57-3.5-3.5-3.5s-3.5,1.57-3.5,3.5v0.5h-0.5c-0.276,0-0.5,0.224-0.5,0.5v6
			c0,0.276,0.224,0.5,0.5,0.5h8c0.276,0,0.5-0.224,0.5-0.5v-6C24,17.237,23.776,17.014,23.5,17.014z M17,16.514
			c0-1.378,1.122-2.5,2.5-2.5s2.5,1.122,2.5,2.5v0.5h-5V16.514z M23,23.014h-7v-5h7V23.014z"/>
		<path d="M13.5,19H7v-5h5.5c0.276,0,0.5-0.224,0.5-0.5V7h5v4.5c0,0.276,0.224,0.5,0.5,0.5s0.5-0.224,0.5-0.5v-9
			C19,1.122,17.878,0,16.5,0h-14C1.122,0,0,1.122,0,2.5v15C0,18.878,1.122,20,2.5,20h11c0.276,0,0.5-0.224,0.5-0.5
			S13.776,19,13.5,19z M12,13H7V7h5V13z M1,7h5v6H1V7z M7,6V1h5v5H7z M18,2.5V6h-5V1h3.5C17.327,1,18,1.673,18,2.5z M2.5,1H6v5H1
			V2.5C1,1.673,1.673,1,2.5,1z M1,17.5V14h5v5H2.5C1.673,19,1,18.327,1,17.5z"/>
	</g>
</g>
<g id="Invisible_Shape">
	<rect fill="none" width="24" height="24"/>
</g>
</svg>
