<?xml version="1.0" encoding="UTF-8"?>
<!-- Created with Inkscape (http://www.inkscape.org/) -->
<svg width="512" height="512" version="1.1" viewBox="0 0 135.46669 135.46668" xmlns="http://www.w3.org/2000/svg" xmlns:cc="http://creativecommons.org/ns#" xmlns:dc="http://purl.org/dc/elements/1.1/" xmlns:rdf="http://www.w3.org/1999/02/22-rdf-syntax-ns#" xmlns:xlink="http://www.w3.org/1999/xlink">
 <defs>
  <linearGradient id="linearGradient4526">
   <stop stop-color="#00bb7d" offset="0"/>
   <stop stop-color="#00b4ab" stop-opacity=".95294" offset="1"/>
  </linearGradient>
  <linearGradient id="linearGradient4532" x1="-76.989" x2="30.951" y1="114.97" y2="114.97" gradientTransform="translate(151.29 -.86699)" gradientUnits="userSpaceOnUse" xlink:href="#linearGradient4526"/>
  <clipPath id="clipPath13619">
   <rect x="719.94" y="49.693" width="14.646" height="31.762" ry="4.9407" fill="#deaa87"/>
  </clipPath>
  <clipPath id="clipPath13623">
   <rect x="719.94" y="49.693" width="14.646" height="31.762" ry="4.9407" fill="#deaa87"/>
  </clipPath>
  <clipPath id="clipPath19544">
   <rect x="475.73" y="312.41" width="120.76" height="58.213" fill="none" stroke="#000" stroke-linecap="round" stroke-linejoin="round" stroke-width=".89142"/>
  </clipPath>
  <linearGradient id="linearGradient5431" x1="-76.989" x2="30.951" y1="114.97" y2="114.97" gradientTransform="matrix(1.1642 0 0 1.1642 5.7441 -19.82)" gradientUnits="userSpaceOnUse" xlink:href="#linearGradient4526"/>
  <marker id="marker15569" overflow="visible" orient="auto">
   <path transform="matrix(-1.1,0,0,-1.1,-1.1,0)" d="m8.7186 4.0337-10.926-4.0177 10.926-4.0177c-1.7455 2.3721-1.7354 5.6175-6e-7 8.0354z" fill-rule="evenodd" stroke="#000" stroke-linejoin="round" stroke-width=".625"/>
  </marker>
  <marker id="marker15541" overflow="visible" orient="auto">
   <path transform="matrix(-1.1,0,0,-1.1,-1.1,0)" d="m8.7186 4.0337-10.926-4.0177 10.926-4.0177c-1.7455 2.3721-1.7354 5.6175-6e-7 8.0354z" fill-rule="evenodd" stroke="#000" stroke-linejoin="round" stroke-width=".625"/>
  </marker>
  <marker id="marker16267" overflow="visible" orient="auto">
   <path transform="matrix(-1.1,0,0,-1.1,-1.1,0)" d="m8.7186 4.0337-10.926-4.0177 10.926-4.0177c-1.7455 2.3721-1.7354 5.6175-6e-7 8.0354z" fill-rule="evenodd" stroke="#000" stroke-linejoin="round" stroke-width=".625"/>
  </marker>
  <clipPath id="clipPath13623-3">
   <rect x="719.94" y="49.693" width="14.646" height="31.762" ry="4.9407" fill="#deaa87"/>
  </clipPath>
  <clipPath id="clipPath13619-3">
   <rect x="719.94" y="49.693" width="14.646" height="31.762" ry="4.9407" fill="#deaa87"/>
  </clipPath>
  <clipPath id="clipPath13619-0">
   <rect x="719.94" y="49.693" width="14.646" height="31.762" ry="4.9407" fill="#deaa87"/>
  </clipPath>
  <clipPath id="clipPath13623-2">
   <rect x="719.94" y="49.693" width="14.646" height="31.762" ry="4.9407" fill="#deaa87"/>
  </clipPath>
  <clipPath id="clipPath13619-6">
   <rect x="719.94" y="49.693" width="14.646" height="31.762" ry="4.9407" fill="#deaa87"/>
  </clipPath>
  <clipPath id="clipPath13623-8">
   <rect x="719.94" y="49.693" width="14.646" height="31.762" ry="4.9407" fill="#deaa87"/>
  </clipPath>
 </defs>
 <metadata>
  <rdf:RDF>
   <cc:Work rdf:about="">
    <dc:format>image/svg+xml</dc:format>
    <dc:type rdf:resource="http://purl.org/dc/dcmitype/StillImage"/>
    <dc:title/>
   </cc:Work>
  </rdf:RDF>
 </metadata>
 <g transform="translate(91.854 -679.69)">
  <rect x="-91.854" y="912.6" width="134.94" height="67.469" fill="#f2f2f2"/>
  <ellipse cx="128.27" cy="114.1" rx="53.97" ry="51.938" fill="url(#linearGradient4532)" opacity=".5"/>
  <circle cx="208.9" cy="87.126" r="1.2354" fill="none" stroke="#1a1a1a" stroke-linecap="round" stroke-linejoin="round" stroke-width=".52917"/>
  <g fill="#1a1a1a" stroke="#1a1a1a" stroke-linecap="round" stroke-linejoin="round" stroke-width=".52917">
   <g fill-opacity=".95294">
    <rect x="207.36" y="94.342" width="7.0884" height=".45979" ry=".2299"/>
    <rect x="215.41" y="94.342" width="3.1419" height=".45979" ry=".2299"/>
    <rect x="206.75" y="112.08" width="4.1764" height=".45979" ry=".2299"/>
    <rect x="211.69" y="112.08" width="2.0307" height=".45979" ry=".2299"/>
   </g>
   <rect x="214.49" y="112.08" width="6.2838" height=".45979" ry=".2299"/>
   <rect x="207.09" y="122.07" width="2.3373" height=".45979" ry=".2299" fill-opacity=".95294"/>
   <rect x="210.27" y="122.07" width="4.368" height=".45979" ry=".2299" fill-opacity=".95294"/>
   <rect x="206.06" y="103.96" width="15.02" height=".45979" ry=".2299"/>
   <g fill-opacity=".95294">
    <rect transform="rotate(-60)" x="-7.7096" y="244.61" width="4.368" height=".45979" ry=".2299"/>
    <rect transform="rotate(60)" x="212.62" y="-117.86" width="4.368" height=".45979" ry=".2299"/>
    <rect transform="rotate(-45)" x="59.533" y="241.38" width="4.368" height=".45979" ry=".2299"/>
    <rect transform="rotate(45)" x="239.43" y="-61.947" width="4.368" height=".45979" ry=".2299"/>
   </g>
  </g>
  <g stroke-linecap="round" stroke-linejoin="bevel">
   <rect x="-94.328" y="223.42" width="134.94" height="88.374" ry="5.3068" fill="#666" stroke="#000" stroke-width=".52917" style="paint-order:markers fill stroke"/>
   <path d="m38.247 267.61a2.8232 2.8488 0 0 1 -2.804 2.8488 2.8232 2.8488 0 0 1 -2.8421 -2.8101 2.8232 2.8488 0 0 1 2.7654 -2.8869 2.8232 2.8488 0 0 1 2.8797 2.7709" fill="#999" stroke="#333" stroke-width=".42801" style="paint-order:markers fill stroke"/>
   <rect x="-87.464" y="229.93" width="117.88" height="75.342" fill="#fff" stroke="#000" stroke-width=".52917" style="paint-order:markers fill stroke"/>
  </g>
  <path d="m-74.026 274.13z" fill="none" stroke="#000" stroke-width=".27833px"/>
  <path d="m-69.124 267.75h84.928" fill="none" stroke="#000" stroke-width=".27833px"/>
  <path d="m-63.215 267.75s2.3707-11.249 5.6749-12.951c3.2955-1.697 5.384 7.6221 8.5457 7.3056 9.5517-0.95601 5.179-28.52 12.138-28.156 5.7303 0.29946 2.4722 24.028 10.956 26.233 5.2852 1.3737 6.7143-13.193 12.138-13.03 4.6319 0.13974 6.8685 11.939 11.5 12.084 1.9691 0.0617 4.4735-4.3666 6.429-4.1006 4.7645 0.64804 7.4161 12.615 7.4161 12.615z" fill="#00bb7d" opacity=".8"/>
  <path d="m-59.567 267.75s4.1374-10.378 8.9546-11.184c2.9295-0.49046 4.68 5.6479 7.5521 4.8362 3.6854-1.0415 3.2407-11.208 7.0126-11.607 3.7719-0.39847 4.7191 13.378 8.4328 12.609 7.0148-1.452 0.70206-25.291 8.0739-25.304 7.9365-0.0144 2.3727 21.876 10.033 24.181 1.7766 0.53454 4.7307-0.42613 6.5702-0.4042 5.0416 0.0601 10.152 6.8732 10.152 6.8732z" fill="#00b4aa" opacity=".8"/>
  <g fill="#ccc">
   <rect x="-74.026" y="274.13" width="7.713" height="25.168" style="paint-order:markers fill stroke"/>
   <rect x="-63.326" y="274.13" width="7.713" height="25.168" style="paint-order:markers fill stroke"/>
   <rect x="-52.626" y="274.13" width="7.713" height="25.168" style="paint-order:markers fill stroke"/>
   <rect x="-41.927" y="274.13" width="7.713" height="25.168" style="paint-order:markers fill stroke"/>
  </g>
  <g fill="#00bb7d">
   <rect x="-74.026" y="287.99" width="7.713" height="11.313" style="paint-order:markers fill stroke"/>
   <rect x="-63.326" y="278.07" width="7.713" height="21.228" style="paint-order:markers fill stroke"/>
   <rect x="-52.626" y="282.78" width="7.713" height="16.525" style="paint-order:markers fill stroke"/>
   <rect x="-41.927" y="292.95" width="7.713" height="6.3556" style="paint-order:markers fill stroke"/>
   <rect x="-21.093" y="275.2" width="5.9121" height="6.6254" ry="1.2711" style="paint-order:markers fill stroke"/>
  </g>
  <g fill="#ccc">
   <rect x="-12.246" y="275.09" width="8.8472" height="1.9067" style="paint-order:markers fill stroke"/>
   <rect x="-12.132" y="279.41" width="4.4236" height="1.9067" style="paint-order:markers fill stroke"/>
   <rect x="-6.1206" y="279.41" width="20.076" height="1.9067" style="paint-order:markers fill stroke"/>
   <rect x="-2.1506" y="275.09" width="4.6505" height="1.9067" style="paint-order:markers fill stroke"/>
   <rect x="3.8609" y="275.09" width="9.6412" height="1.9067" style="paint-order:markers fill stroke"/>
   <rect x="-11.905" y="289.33" width="3.9699" height="1.9067" style="paint-order:markers fill stroke"/>
   <rect x="-11.792" y="293.65" width="4.4236" height="1.9067" style="paint-order:markers fill stroke"/>
   <rect x="-5.7803" y="293.65" width="16.106" height="1.9067" style="paint-order:markers fill stroke"/>
   <rect x="-6.8011" y="289.33" width="13.157" height="1.9067" style="paint-order:markers fill stroke"/>
   <rect x="7.9443" y="289.33" width="5.8982" height="1.9067" style="paint-order:markers fill stroke"/>
  </g>
  <rect x="-21.093" y="288.93" width="5.9121" height="6.6254" ry="1.2711" fill="#00b4aa" style="paint-order:markers fill stroke"/>
  <g fill="#ccc">
   <rect x="-71.738" y="236.38" width="12.987" height="1.9067" ry=".95334" style="paint-order:markers fill stroke"/>
   <rect x="-57.9" y="236.38" width="6.125" height="1.9067" ry=".95334" style="paint-order:markers fill stroke"/>
   <rect x="-71.681" y="239.37" width="6.125" height="1.9067" ry=".95334" style="paint-order:markers fill stroke"/>
   <rect x="-64.875" y="239.37" width="3.5162" height="1.9067" ry=".95334" style="paint-order:markers fill stroke"/>
   <rect x="-60.508" y="239.37" width="8.4502" height="1.9067" ry=".95334" style="paint-order:markers fill stroke"/>
  </g>
  <rect x="-93.931" y="199.87" width="134.15" height="135.47" fill="none"/>
  <g fill="#000000" font-family="'Lao Sangam MN'" font-size="29.708px" letter-spacing="0px" stroke-width=".26458" word-spacing="0px">
   <text x="-168.86516" y="120.75974" style="font-feature-settings:normal;font-variant-caps:normal;font-variant-ligatures:normal;font-variant-numeric:normal;line-height:1.25" xml:space="preserve"><tspan x="-168.86516" y="120.75974" stroke-width=".26458">1</tspan></text>
   <text x="-163.66324" y="274.64987" style="font-feature-settings:normal;font-variant-caps:normal;font-variant-ligatures:normal;font-variant-numeric:normal;line-height:1.25" xml:space="preserve"><tspan x="-163.66324" y="274.64987" stroke-width=".26458">2</tspan></text>
   <text x="-163.66324" y="421.17062" style="font-feature-settings:normal;font-variant-caps:normal;font-variant-ligatures:normal;font-variant-numeric:normal;line-height:1.25" xml:space="preserve"><tspan x="-163.66324" y="421.17062" stroke-width=".26458">3</tspan></text>
  </g>
  <g transform="matrix(.34673 0 0 .39518 -62.674 95.104)">
   <g fill="none" stroke="#000" stroke-dasharray="6.97030945, 6.97030945" stroke-width="1.1617">
    <path d="m107.8 721.03v120.83" marker-end="url(#marker15569)"/>
    <path d="m200.01 691.09h48.986v120.33" marker-end="url(#marker15541)" stroke-linecap="round" stroke-linejoin="round"/>
    <path d="m15.616 691.09h-48.986v120.33" marker-end="url(#marker16267)"/>
   </g>
   <g stroke-width="1.4636">
    <g transform="translate(-2.6458 -2.1165)">
     <rect x="-40.006" y="881.04" width="18.6" height="5.4706" ry="2.7353" fill="#333"/>
     <path d="m-36.529 883.07c-14.583 0-26.599 10.597-28.802 24.542h69.251c-2.2037-13.945-14.22-24.542-28.803-24.542z" fill="#333"/>
     <path d="m-36.535 883.07v24.542h11.659v-24.542h-0.0062-11.646-0.0062z" fill="#c8b7b7"/>
     <path d="m-33.948 818.19c-12.164 0-21.956 9.7927-21.956 21.957v7.0329c1.3778-0.3377 2.8176-0.52046 4.3024-0.52046h46.094v-6.5125c0-12.164-9.7927-21.957-21.957-21.957z" fill="#1a1a1a"/>
     <rect x="-36.535" y="867.09" width="11.659" height="22.368" ry="5.8256" fill="#e9c6af"/>
     <path d="m-30.71 867.09c-3.2274 0-5.8254 2.598-5.8254 5.8254v3.6076c1.2559 0.48298 2.645 1.1272 4.0502 1.3562 1.1706 0.19077 3.5581 0 3.5581 0 1.43 0 2.7944-0.87322 4.0502-1.3562v-3.6076c0-3.2274-2.598-5.8254-5.8254-5.8254z" fill="#deaa87"/>
     <rect transform="matrix(.70865 0 0 .70865 -519.25 802.19)" x="715.35" y="59.927" width="9.8814" height="12.705" ry="4.9407" clip-path="url(#clipPath13623-3)" fill="#e9c6af"/>
     <rect transform="matrix(.70865 0 0 .70865 -519.25 802.19)" x="716.94" y="61.969" width="6.7052" height="8.621" ry="3.3526" clip-path="url(#clipPath13619-3)" fill="#deaa87"/>
     <rect transform="matrix(-.70865 0 0 .70865 457.84 802.35)" x="715.35" y="59.927" width="9.8814" height="12.705" ry="4.9407" clip-path="url(#clipPath13623-3)" fill="#e9c6af"/>
     <rect transform="matrix(-.70865 0 0 .70865 457.84 802.35)" x="716.94" y="61.969" width="6.7052" height="8.621" ry="3.3526" clip-path="url(#clipPath13619-3)" fill="#deaa87"/>
     <rect x="-52.34" y="822.56" width="43.269" height="53.131" ry="21.634" fill="#e9c6af"/>
     <ellipse transform="matrix(.95618 .29278 -.18857 .98206 0 0)" cx="134.56" cy="803.51" rx="16.091" ry="5.6103" fill="#1a1a1a"/>
     <ellipse transform="matrix(-.95618 .29278 .18857 .98206 0 0)" cx="195.61" cy="785.31" rx="16.091" ry="5.6103" fill="#1a1a1a"/>
    </g>
    <g transform="translate(-6.1703 -4.7625)">
     <rect x="88.787" y="852.5" width="50.397" height="63.916" ry="21.956" fill="#1a1a1a"/>
     <path d="m108.16 917.38c-14.583 0-26.599 10.597-28.802 24.542h69.251c-2.2037-13.945-14.22-24.542-28.803-24.542z" fill="#a7ac93"/>
     <rect x="108.16" y="901.4" width="11.659" height="22.368" ry="5.8256" fill="#e9c6af"/>
     <path d="m113.98 901.4c-3.2274 0-5.8253 2.598-5.8253 5.8254v3.6076c1.2559 0.48299 2.645 1.1272 4.0502 1.3562 1.1706 0.19078 3.5581 0 3.5581 0 1.43 0 2.7944-0.87322 4.0503-1.3562v-3.6076c0-3.2274-2.598-5.8254-5.8254-5.8254z" fill="#deaa87"/>
     <rect transform="matrix(.70865 0 0 .70865 -374.56 836.5)" x="715.35" y="59.927" width="9.8814" height="12.705" ry="4.9407" clip-path="url(#clipPath13623-3)" fill="#e9c6af"/>
     <rect transform="matrix(.70865 0 0 .70865 -374.56 836.5)" x="716.94" y="61.969" width="6.7052" height="8.621" ry="3.3526" clip-path="url(#clipPath13619-3)" fill="#deaa87"/>
     <rect transform="matrix(-.70865 0 0 .70865 602.53 836.65)" x="715.35" y="59.927" width="9.8814" height="12.705" ry="4.9407" clip-path="url(#clipPath13623-3)" fill="#e9c6af"/>
     <rect transform="matrix(-.70865 0 0 .70865 602.53 836.65)" x="716.94" y="61.969" width="6.7052" height="8.621" ry="3.3526" clip-path="url(#clipPath13619-3)" fill="#deaa87"/>
     <rect x="92.351" y="856.87" width="43.269" height="53.131" ry="21.634" fill="#e9c6af"/>
     <ellipse transform="matrix(.93158 .36353 -.14898 .98884 0 0)" cx="255.9" cy="780.47" rx="16.515" ry="7.101" fill="#1a1a1a"/>
     <ellipse transform="matrix(-.79828 .60229 .35624 .9344 0 0)" cx="221.22" cy="780.79" rx="12.272" ry="4.5869" fill="#1a1a1a"/>
     <path d="m108.16 917.38c-5.7484 0-11.097 1.6475-15.604 4.4965a21.552 9.505 0 0 0 -0.17899 1.1577 21.552 9.505 0 0 0 21.552 9.5048 21.552 9.505 0 0 0 21.552 -9.5048 21.552 9.505 0 0 0 -0.21242 -1.2474c-4.4771-2.7943-9.7745-4.4068-15.463-4.4068z" fill="#e9c6af"/>
     <circle cx="136.76" cy="888.18" r="1.3776" fill="#80b3ff"/>
     <circle cx="137.32" cy="888.4" r=".49841" fill="#d7eef4"/>
     <circle cx="91.115" cy="888.18" r="1.3776" fill="#80b3ff"/>
     <circle cx="91.681" cy="888.4" r=".49841" fill="#d7eef4"/>
    </g>
    <g transform="translate(14.817 -11.113)">
     <g>
      <path d="m228.59 892.07c-14.583 0-26.599 10.597-28.802 24.542h69.251c-2.2037-13.945-14.22-24.542-28.803-24.542z" fill="#045"/>
      <path d="m227.18 892.07 1.4062 24.542h11.659l1.4062-24.542h-14.476z" fill="#f9f9f9"/>
      <path d="m231.17 827.18c-12.164 0-21.956 9.7927-21.956 21.957v7.0329c1.3778-0.3377 2.8176-0.52046 4.3024-0.52046h46.094v-6.5125c0-12.164-9.7928-21.957-21.957-21.957z" fill="#1a1a1a"/>
      <rect x="228.58" y="876.09" width="11.659" height="22.368" ry="5.8256" fill="#e9c6af"/>
      <path d="m234.41 876.09c-3.2274 0-5.8253 2.598-5.8253 5.8254v3.6076c1.2559 0.48298 2.645 1.1272 4.0502 1.3562 1.1706 0.19077 3.5581 0 3.5581 0 1.43 0 2.7944-0.87322 4.0502-1.3562v-3.6076c0-3.2274-2.5979-5.8254-5.8253-5.8254z" fill="#deaa87"/>
      <rect transform="matrix(.70865 0 0 .70865 -254.13 811.18)" x="715.35" y="59.927" width="9.8814" height="12.705" ry="4.9407" clip-path="url(#clipPath13623-3)" fill="#e9c6af"/>
      <rect transform="matrix(.70865 0 0 .70865 -254.13 811.18)" x="716.94" y="61.969" width="6.7052" height="8.621" ry="3.3526" clip-path="url(#clipPath13619-3)" fill="#deaa87"/>
      <rect transform="matrix(-.70865 0 0 .70865 722.96 811.34)" x="715.35" y="59.927" width="9.8814" height="12.705" ry="4.9407" clip-path="url(#clipPath13623-3)" fill="#e9c6af"/>
      <rect transform="matrix(-.70865 0 0 .70865 722.96 811.34)" x="716.94" y="61.969" width="6.7052" height="8.621" ry="3.3526" clip-path="url(#clipPath13619-3)" fill="#deaa87"/>
      <rect x="212.78" y="831.56" width="43.269" height="53.131" ry="21.634" fill="#e9c6af"/>
      <ellipse transform="matrix(.95618 .29278 -.18857 .98206 0 0)" cx="398.14" cy="734.09" rx="16.091" ry="5.6103" fill="#1a1a1a"/>
      <ellipse transform="matrix(-.78326 .6217 .49107 .87112 0 0)" cx="221.45" cy="807.89" rx="16.617" ry="5.9141" fill="#1a1a1a"/>
     </g>
     <path d="m227.18 892.07-4.1256 8.771 3.048 2.5624-5.627 4.3765 4.9236 8.8316 3.1873 1e-5z" fill="#006680"/>
     <path d="m241.65 892.07 4.1256 8.771-3.048 2.5624 5.627 4.3765-4.9236 8.8316-3.1873 1e-5z" fill="#006680"/>
     <path d="m231.29 898.5h6.8221c0.1342 0 0.3149 0.12938 0.24227 0.24232l-2.3437 3.6473c-0.0726 0.11285-0.10807 0.24232-0.24228 0.24232h-2.1347c-0.1343 0-0.16981-0.12938-0.24236-0.24232l-2.3437-3.6473c-0.0726-0.11285 0.10806-0.24232 0.24234-0.24232z" fill="#00222b"/>
     <path d="m227.17 892.07h1.4174l5.9414 6.3816-6.742 4.2985z" fill="#fff"/>
     <path d="m241.65 892.07h-1.1756l-5.9414 6.3816 6.5172 4.0867z" fill="#fff"/>
     <path d="m233.75 902.6h1.9055c0.12765 0 0.21729 0.10348 0.23049 0.23048l1.4062 13.555c0.0133 0.127-0.10284 0.23048-0.23049 0.23048h-4.718c-0.12774 0-0.24369-0.10348-0.23049-0.23048l1.4062-13.555c0.0133-0.127 0.10275-0.23048 0.2305-0.23048z" fill="#00222b"/>
     <g fill="#1a1a1a">
      <path d="m260.26 837.93c-0.14731 3.1941-2.4452 5.8418-5.528 6.4762l-0.12047-3.3367 0.0779-3e-3c2.3503-0.0849 4.3775-1.3158 5.5703-3.1367z"/>
      <path d="m213.47 830.63c2.7059-1.7036 6.1917-1.3298 8.4733 0.83835l-2.67 2.0048-0.0469-0.0625c-1.4122-1.8807-3.5804-2.8415-5.7563-2.7806z"/>
      <path d="m221.69 825.62c-2.4922 2.0033-3.2745 5.4207-1.9679 8.2841l2.7653-1.8712-0.0452-0.0636c-1.3179-1.9479-1.52-4.3108-0.75347-6.3481z"/>
     </g>
    </g>
    <g transform="matrix(.43719 0 0 .43719 -55.72 479.35)">
     <path transform="matrix(.26458 0 0 .26458 -158.47 -376.45)" d="m1218.4 5208.8c-28.993 127.08-155.97 315.19-644.66 353.84l5.4629 1.8809 1.293-1.086 3.0859 2.5938 15.699 5.4062h622.7c19.985 0 36.074-16.091 36.074-36.076v-290.48c0-19.985-16.089-36.076-36.074-36.076z" fill="#fff" fill-opacity=".90526" opacity=".05"/>
     <path d="m-62.522 1001.4h55.789l1.8553 2.1167 2.3854-2.1167h167.34c5.2878 0 9.5448 4.257 9.5448 9.5448v76.858c0 5.2878-4.257 9.5448-9.5448 9.5448h-167.21l-2.518-2.1167-2.518 2.1167h-55.127c-5.2878 0-9.5448-4.257-9.5448-9.5448v-76.858c0-5.2878 4.257-9.5448 9.5448-9.5448z" fill="#d40000"/>
     <path transform="matrix(.26458 0 0 .26458 -158.47 -376.45)" d="m1218.7 5207.4c-28.239 126.5-153.33 314.67-638.15 354.69l5.877 4.9433 8.7266 3.0039h626.81c19.985 0 36.074-16.089 36.074-36.074v-290.49c0-19.985-16.089-36.074-36.074-36.074zm-638.29 354.7c-2.2306 0.1839-4.4319 0.379-6.6777 0.5566l4.2676 1.4687z" fill="#fff" opacity=".15"/>
     <path d="m-4.877 1003.8v91.714" fill="none" stroke="#fff" stroke-dasharray="1.93619707, 3.87239414" stroke-linecap="round" stroke-linejoin="round" stroke-width="1.9362"/>
     <g fill="#ff8080">
      <rect x="17.325" y="1078.5" width="86.212" height="2.6238" ry="1.3119"/>
      <rect x="17.325" y="1084.1" width="30.736" height="2.6238" ry="1.3119"/>
      <rect x="50.31" y="1084.1" width="34.485" height="2.6238" ry="1.3119"/>
      <rect x="87.419" y="1084.1" width="7.1218" height="2.6238" ry="1.3119"/>
     </g>
     <g transform="matrix(.90151 0 0 .90151 13.927 99.215)" fill="#ffd5d5" stroke-width="1.4636">
      <rect x="118.16" y="1032.1" width="46.485" height="9.9997" ry=".94591"/>
      <path d="m160.62 1056 1.367-9.9088c0.21396-1.5508-1.1402-2.8317-2.5564-2.8317h-14.875v12.74z"/>
      <path d="m144.55 1075.8h11.06c1.4162 0 2.3424-1.2809 2.5564-2.8317l1.367-9.9084h-14.984z"/>
      <path d="m123.26 1063.1 1.367 9.9084c0.21396 1.5508 1.1402 2.8317 2.5564 2.8317h11.06v-12.74z"/>
      <path d="m138.24 1043.3h-14.875c-1.4161 0-2.7703 1.2809-2.5564 2.8317l1.367 9.9088h16.065z"/>
      <g transform="matrix(.72101 0 0 .72101 227.28 261.4)" stroke-width="1.4636">
       <path d="m-143.83 1055.7a16.427 4.4426 32.04 0 0 -2.1043 0.7167 16.427 4.4426 32.04 0 0 11.21 12.343 16.427 4.4426 32.04 0 0 16.524 5.253 16.427 4.4426 32.04 0 0 -11.008 -12.278l-0.33899-0.2149a16.427 4.4426 32.04 0 0 -14.283 -5.8193zm4.6509 3.7481a9.9409 2.6885 32.04 0 1 8.6434 3.5217l0.20516 0.1297a9.9409 2.6885 32.04 0 1 6.6616 7.4306 9.9409 2.6885 32.04 0 1 -9.9999 -3.1786 9.9409 2.6885 32.04 0 1 -6.7836 -7.4699 9.9409 2.6885 32.04 0 1 1.2733 -0.4335z"/>
       <path d="m-94.404 1055.7a4.4426 16.427 57.96 0 1 2.1043 0.7167 4.4426 16.427 57.96 0 1 -11.21 12.343 4.4426 16.427 57.96 0 1 -16.524 5.2529 4.4426 16.427 57.96 0 1 11.008 -12.278l0.339-0.215a4.4426 16.427 57.96 0 1 14.283 -5.8192zm-4.6509 3.7481a2.6885 9.9409 57.96 0 0 -8.6434 3.5217l-0.20516 0.1297a2.6885 9.9409 57.96 0 0 -6.6616 7.4305 2.6885 9.9409 57.96 0 0 9.9999 -3.1786 2.6885 9.9409 57.96 0 0 6.7836 -7.4698 2.6885 9.9409 57.96 0 0 -1.2733 -0.4335z"/>
      </g>
     </g>
     <path d="m-4.877 1003.8v91.714" fill="none" stroke="#fff" stroke-dasharray="1.93619707, 3.87239414" stroke-linecap="round" stroke-linejoin="round" stroke-width="1.9362"/>
     <text transform="scale(.85481 1.1699)" x="8.9711285" y="917.75311" fill="#ffffff" font-family="'Heiti TC'" font-size="64.475px" letter-spacing="0px" stroke-width="2.3591" word-spacing="0px" style="font-feature-settings:normal;font-variant-caps:normal;font-variant-ligatures:normal;font-variant-numeric:normal;line-height:1.25" xml:space="preserve"><tspan x="8.9711285" y="917.75311" fill="#ffffff" font-family="'Heiti TC'" font-size="64.475px" stroke-width="2.3591" style="font-feature-settings:normal;font-variant-caps:normal;font-variant-ligatures:normal;font-variant-numeric:normal">70%</tspan></text>
     <g fill="#f4d7d7">
      <rect x="17.325" y="1078.5" width="86.212" height="2.6238" ry="1.3119"/>
      <rect x="17.325" y="1084.1" width="30.736" height="2.6238" ry="1.3119"/>
      <rect x="50.31" y="1084.1" width="34.485" height="2.6238" ry="1.3119"/>
      <rect x="87.419" y="1084.1" width="7.1218" height="2.6238" ry="1.3119"/>
     </g>
     <g stroke-width="1.4636">
      <g transform="matrix(.90151 0 0 .90151 13.927 99.215)" fill="#f9f9f9">
       <rect x="118.16" y="1032.1" width="46.485" height="9.9997" ry=".94591"/>
       <path d="m160.62 1056 1.367-9.9088c0.21396-1.5508-1.1402-2.8317-2.5564-2.8317h-14.875v12.74z"/>
       <path d="m144.55 1075.8h11.06c1.4162 0 2.3424-1.2809 2.5564-2.8317l1.367-9.9084h-14.984z"/>
       <path d="m123.26 1063.1 1.367 9.9084c0.21396 1.5508 1.1402 2.8317 2.5564 2.8317h11.06v-12.74z"/>
       <path d="m138.24 1043.3h-14.875c-1.4161 0-2.7703 1.2809-2.5564 2.8317l1.367 9.9088h16.065z"/>
       <g transform="matrix(.72101 0 0 .72101 227.28 261.4)" stroke-width="1.4636">
        <path d="m-143.83 1055.7a16.427 4.4426 32.04 0 0 -2.1043 0.7167 16.427 4.4426 32.04 0 0 11.21 12.343 16.427 4.4426 32.04 0 0 16.524 5.253 16.427 4.4426 32.04 0 0 -11.008 -12.278l-0.33899-0.2149a16.427 4.4426 32.04 0 0 -14.283 -5.8193zm4.6509 3.7481a9.9409 2.6885 32.04 0 1 8.6434 3.5217l0.20516 0.1297a9.9409 2.6885 32.04 0 1 6.6616 7.4306 9.9409 2.6885 32.04 0 1 -9.9999 -3.1786 9.9409 2.6885 32.04 0 1 -6.7836 -7.4699 9.9409 2.6885 32.04 0 1 1.2733 -0.4335z"/>
        <path d="m-94.404 1055.7a4.4426 16.427 57.96 0 1 2.1043 0.7167 4.4426 16.427 57.96 0 1 -11.21 12.343 4.4426 16.427 57.96 0 1 -16.524 5.2529 4.4426 16.427 57.96 0 1 11.008 -12.278l0.339-0.215a4.4426 16.427 57.96 0 1 14.283 -5.8192zm-4.6509 3.7481a2.6885 9.9409 57.96 0 0 -8.6434 3.5217l-0.20516 0.1297a2.6885 9.9409 57.96 0 0 -6.6616 7.4305 2.6885 9.9409 57.96 0 0 9.9999 -3.1786 2.6885 9.9409 57.96 0 0 6.7836 -7.4698 2.6885 9.9409 57.96 0 0 -1.2733 -0.4335z"/>
       </g>
      </g>
      <g transform="matrix(.13929 0 0 .13929 29.807 971.03)" fill="#fff">
       <path d="m-226.71 750.74c2.6165-7.7453-1.169-16.052-8.5347-19.24l-33.332 98.667 13.494 4.5586z"/>
       <path d="m-271.98 754.55c-3.6266-7.3269-0.98341-16.065 5.891-20.207l46.199 93.337-12.765 6.3185z"/>
       <path d="m-255.95 827.02a16.619 22.778 17.551 0 0 -23.843 12.298 16.619 22.778 17.551 0 0 5.2955 29.022 16.619 22.778 17.551 0 0 23.843 -12.298 16.619 22.778 17.551 0 0 -5.2952 -29.023zm-3.4072 7.5905a10.513 14.409 17.551 0 1 3.3498 18.36 10.513 14.409 17.551 0 1 -15.083 7.78 10.513 14.409 17.551 0 1 -3.3502 -18.36 10.513 14.409 17.551 0 1 15.083 -7.7797z"/>
       <path d="m-225.84 825.8a22.778 16.619 68.673 0 0 -10.842 24.539 22.778 16.619 68.673 0 0 22.339 19.27 22.778 16.619 68.673 0 0 10.842 -24.539 22.778 16.619 68.673 0 0 -22.339 -19.27zm2.1118 8.0477a14.409 10.513 68.673 0 1 14.131 12.19 14.409 10.513 68.673 0 1 -6.8585 15.523 14.409 10.513 68.673 0 1 -14.132 -12.19 14.409 10.513 68.673 0 1 6.8591 -15.524z"/>
      </g>
      <g transform="matrix(-.0030913 -.70847 .71829 -.003049 -758.69 961.12)" fill="#f9f9f9">
       <rect x="-141.69" y="973.9" width="7.1219" height="53.601" rx="0" ry="0"/>
       <rect x="-131.69" y="973.9" width="2.9987" height="53.601" rx="0" ry="0"/>
       <rect x="-124.68" y="973.9" width="2.249" height="53.601" rx="0" ry="0"/>
       <rect x="-119.17" y="973.9" width="4.498" height="53.601" rx="0" ry="0"/>
       <rect x="-112.17" y="973.9" width="3.7483" height="53.601" rx="0" ry="0"/>
       <rect x="-105.91" y="973.9" width="4.498" height="53.601" rx="0" ry="0"/>
       <rect x="-101.9" y="973.9" width="7.1219" height="53.601" rx="0" ry="0"/>
       <rect x="-91.146" y="973.9" width="1.4993" height="53.601" rx="0" ry="0"/>
       <rect x="-84.889" y="973.9" width="2.249" height="53.601" rx="0" ry="0"/>
       <rect x="-79.382" y="973.9" width="4.498" height="53.601" rx="0" ry="0"/>
       <rect x="-151.21" y="973.9" width="2.249" height="53.601" rx="0" ry="0"/>
       <rect x="-157.84" y="973.9" width="2.249" height="53.601" rx="0" ry="0"/>
       <rect x="-165.59" y="973.9" width="4.498" height="53.601" rx="0" ry="0"/>
       <rect x="-88.148" y="973.9" width="1.4993" height="53.601" rx="0" ry="0"/>
       <rect x="-154.49" y="973.9" width="1.4993" height="53.601" rx="0" ry="0"/>
       <rect x="-160.49" y="973.9" width="1.4993" height="53.601" rx="0" ry="0"/>
       <rect x="-127.88" y="973.9" width="1.4993" height="53.601" rx="0" ry="0"/>
       <rect x="-73.529" y="973.9" width="1.4993" height="53.601" rx="0" ry="0"/>
      </g>
     </g>
     <g fill="#f4d7d7">
      <rect x="-63.264" y="1082.2" width="27.363" height="2.6238" ry="1.3119"/>
      <rect x="-33.652" y="1082.2" width="10.121" height="2.6238" ry="1.3119"/>
      <rect x="-62.889" y="1087.1" width="9.7457" height="2.6238" ry="1.3119"/>
      <rect x="-51.644" y="1087.1" width="22.49" height="2.6238" ry="1.3119"/>
      <rect x="-27.655" y="1087.1" width="10.87" height="2.6238" ry="1.3119"/>
     </g>
    </g>
    <g transform="translate(162.31 753.53)">
     <g>
      <rect x="-146.69" y="-107.23" width="184.4" height="116.79" rx="9.7457" ry="9.7457" fill="#fff" stroke="#000" stroke-linecap="round" stroke-linejoin="bevel" stroke-width=".77448" style="paint-order:markers fill stroke"/>
      <path d="m-132.56-55.588 3e-5 -2.4954" fill="#00bb7d" style="paint-order:markers fill stroke"/>
      <path d="m-120.5-58.084v2.4954" fill="#00bb7d" style="paint-order:markers fill stroke"/>
     </g>
     <g fill="#ccc">
      <rect x="-135.21" y="-24.035" width="62.304" height="6.5755" ry="3.2877" style="paint-order:markers fill stroke"/>
      <rect x="-135.21" y="-14.805" width="31.44" height="6.5755" ry="3.2877" style="paint-order:markers fill stroke"/>
      <rect x="-102.77" y="-14.805" width="14.97" height="6.5755" ry="3.2877" style="paint-order:markers fill stroke"/>
     </g>
     <g transform="translate(-290.36 -472.59)" stroke-width="1.4636">
      <path transform="matrix(.26458 0 0 .26458 708.29 88.09)" d="m-2058 1243.6-1e-4 -60.806h45.6v60.806" fill="#00bb7d" style="paint-order:markers fill stroke"/>
      <path transform="matrix(.26458 0 0 .26458 708.29 88.09)" d="m-2012.4 1253v46.59h-45.6v-46.59" fill="#00b4aa" style="paint-order:markers fill stroke"/>
      <path transform="matrix(.26458 0 0 .26458 708.29 88.09)" d="m-1955.8 1253h-45.6v76.77h45.6z" fill="#00b4aa" style="paint-order:markers fill stroke"/>
      <path transform="matrix(.26458 0 0 .26458 708.29 88.09)" d="m-2001.4 1229.9v13.648h45.6v-13.648z" fill="#00bb7d" style="paint-order:markers fill stroke"/>
      <path transform="matrix(.26458 0 0 .26458 708.29 88.09)" d="m-1899.2 1253h-45.6v25.84h45.6z" fill="#00b4aa" style="paint-order:markers fill stroke"/>
      <path transform="matrix(.26458 0 0 .26458 708.29 88.09)" d="m-1944.8 1194.1v49.488h45.6v-49.488z" fill="#00bb7d" style="paint-order:markers fill stroke"/>
      <path transform="matrix(.26458 0 0 .26458 708.29 88.09)" d="m-1842.6 1253h-45.602v52.248h45.602z" fill="#00b4aa" style="paint-order:markers fill stroke"/>
      <path transform="matrix(.26458 0 0 .26458 708.29 88.09)" d="m-1888.2 1130v113.62h45.602v-113.62z" fill="#00bb7d" style="paint-order:markers fill stroke"/>
      <rect x="153.93" y="417.75" width="73.865" height="1.2477" ry=".62386" fill="#b3b3b3"/>
     </g>
     <g transform="translate(-296.35 -473.46)" stroke-width="1.4636">
      <g fill="#fff">
       <g stroke="#666" stroke-linecap="round" stroke-linejoin="round" stroke-width=".43072">
        <path d="m321.35 424.63a39.057 39.057 0 0 1 -39.037 39.057 39.057 39.057 0 0 1 -39.077 -39.017 39.057 39.057 0 0 1 38.998 -39.096 39.057 39.057 0 0 1 39.116 38.978"/>
        <path d="m315.87 423.74a33.59 33.59 0 0 1 -32.688 34.461 33.59 33.59 0 0 1 -34.468 -32.681 33.59 33.59 0 0 1 32.673 -34.475 33.59 33.59 0 0 1 34.482 32.666"/>
        <path d="m311.18 423.84a28.904 28.904 0 0 1 -28.11 29.675 28.904 28.904 0 0 1 -29.676 -28.11 28.904 28.904 0 0 1 28.109 -29.677 28.904 28.904 0 0 1 29.677 28.108"/>
        <path d="m306.31 423.99a24.023 24.023 0 0 1 -23.374 24.65 24.023 24.023 0 0 1 -24.654 -23.37 24.023 24.023 0 0 1 23.366 -24.658 24.023 24.023 0 0 1 24.662 23.362"/>
        <path d="m301.43 424.23a19.141 19.141 0 0 1 -18.714 19.528 19.141 19.141 0 0 1 -19.559 -18.681 19.141 19.141 0 0 1 18.648 -19.591 19.141 19.141 0 0 1 19.622 18.615"/>
        <path d="m295.96 424.33a13.674 13.674 0 0 1 -13.357 13.965 13.674 13.674 0 0 1 -13.984 -13.338 13.674 13.674 0 0 1 13.318 -14.002 13.674 13.674 0 0 1 14.021 13.298"/>
        <path d="m290.89 424.48a8.5976 8.5976 0 0 1 -8.4283 8.7423 8.5976 8.5976 0 0 1 -8.7637 -8.4061 8.5976 8.5976 0 0 1 8.3839 -8.7849 8.5976 8.5976 0 0 1 8.8062 8.3616"/>
        <path d="m286.79 424.51a4.4973 4.4973 0 0 1 -4.3811 4.6083 4.4973 4.4973 0 0 1 -4.6106 -4.3786 4.4973 4.4973 0 0 1 4.3761 -4.613 4.4973 4.4973 0 0 1 4.6154 4.3736"/>
       </g>
       <g>
        <path d="m282.29 381.01v87.237" stroke="#1a1a1a" stroke-width=".64608"/>
        <path d="m237.79 424.63h89.003" stroke="#1a1a1a" stroke-width=".64608"/>
        <path d="m248.47 405.1 67.649 39.057" stroke="#666" stroke-width=".43072"/>
        <path d="m251.77 394.11 61.04 61.04" stroke="#1a1a1a" stroke-width=".64608"/>
       </g>
       <g stroke="#666" stroke-width=".43072">
        <path d="m262.76 390.8 39.057 67.649"/>
        <path d="m272.18 386.9 20.217 75.452"/>
        <path d="m292.4 386.9-20.217 75.452"/>
        <path d="m301.82 390.8-39.057 67.649"/>
       </g>
       <path d="m313.64 393.28-62.698 62.698" stroke="#1a1a1a" stroke-width=".64608"/>
       <g stroke="#666" stroke-width=".43072">
        <path d="m316.12 405.1-67.649 39.057"/>
        <path d="m320.02 414.52-75.452 20.217"/>
        <path d="m320.02 434.73-75.452-20.217"/>
       </g>
      </g>
      <path d="m282.29 391.04 9.6691 23.921 23.921 9.6691-27.51 6.0795-6.0794 17.943-9.6691-14.353-29.388-9.6691 22.07-16.987z" fill="#00bb7d" fill-opacity=".58824"/>
      <path d="m282.29 410.95 9.5706-2.9026-0.97298 16.577 15.154 23.752-23.752-4.6104-23.752 4.6104 4.6104-23.752-1.2968-20.438 20.438 6.764" fill="#00b4aa" fill-opacity=".58824"/>
     </g>
    </g>
    <g transform="matrix(.44015 0 0 .44015 18.122 505.64)">
     <path d="m637.81 934.93c-7.6712 33.623-41.268 83.394-170.57 93.621l1.4454 0.4977 0.34209-0.2874 0.81649 0.6863 4.1538 1.4304h164.76c5.2878 0 9.5446-4.2574 9.5446-9.5452v-76.857c0-5.2878-4.2568-9.5452-9.5446-9.5452z" fill="#fff" fill-opacity=".90526" opacity=".05"/>
     <path d="m411.38 934.56h55.79l1.8553 2.1167 2.3854-2.1167h167.34c5.2878 0 9.5448 4.257 9.5448 9.5448v76.858c0 5.2878-4.257 9.5448-9.5448 9.5448h-167.21l-2.518-2.1167-2.518 2.1167h-55.127c-5.2878 0-9.5448-4.257-9.5448-9.5448v-76.858c0-5.2878 4.257-9.5448 9.5448-9.5448z" fill="#00aad4"/>
     <path d="m637.89 934.56c-7.4715 33.47-40.568 83.258-168.84 93.844l1.5549 1.3079 2.3089 0.7948h165.84c5.2878 0 9.5446-4.2568 9.5446-9.5446v-76.858c0-5.2878-4.2568-9.5446-9.5446-9.5446zm-168.88 93.848c-0.59017 0.049-1.1726 0.1003-1.7668 0.1473l1.1291 0.3886z" fill="#fff" opacity=".15"/>
     <path d="m469.03 937.05v91.714" fill="none" stroke="#fff" stroke-dasharray="1.93619707, 3.87239414" stroke-linecap="round" stroke-linejoin="round" stroke-width="1.9362"/>
     <g fill="#ff8080">
      <rect x="491.23" y="1011.7" width="86.212" height="2.6238" ry="1.3119"/>
      <rect x="491.23" y="1017.3" width="30.736" height="2.6238" ry="1.3119"/>
      <rect x="524.22" y="1017.3" width="34.485" height="2.6238" ry="1.3119"/>
      <rect x="561.32" y="1017.3" width="7.1218" height="2.6238" ry="1.3119"/>
     </g>
     <g fill="#ffd5d5">
      <rect x="594.35" y="962.84" width="41.906" height="9.0148" ry=".85275"/>
      <path d="m632.63 984.44 1.2324-8.9328c0.19289-1.3981-1.0279-2.5528-2.3046-2.5528h-13.41v11.486z"/>
      <path d="m618.15 1002.3h9.9708c1.2767 0 2.1117-1.1548 2.3046-2.5528l1.2324-8.9325h-13.508z"/>
      <path d="m598.95 990.82 1.2324 8.9325c0.19288 1.398 1.0279 2.5528 2.3046 2.5528h9.9708v-11.485z"/>
      <path d="m612.46 972.95h-13.41c-1.2767 0-2.4975 1.1547-2.3046 2.5528l1.2324 8.9328h14.483z"/>
      <g transform="matrix(.65 0 0 .65 692.73 268.08)" stroke-width="1.4636">
       <path d="m-143.83 1055.7a16.427 4.4426 32.04 0 0 -2.1043 0.7167 16.427 4.4426 32.04 0 0 11.21 12.343 16.427 4.4426 32.04 0 0 16.524 5.253 16.427 4.4426 32.04 0 0 -11.008 -12.278l-0.33899-0.2149a16.427 4.4426 32.04 0 0 -14.283 -5.8193zm4.6509 3.7481a9.9409 2.6885 32.04 0 1 8.6434 3.5217l0.20516 0.1297a9.9409 2.6885 32.04 0 1 6.6616 7.4306 9.9409 2.6885 32.04 0 1 -9.9999 -3.1786 9.9409 2.6885 32.04 0 1 -6.7836 -7.4699 9.9409 2.6885 32.04 0 1 1.2733 -0.4335z"/>
       <path d="m-94.404 1055.7a4.4426 16.427 57.96 0 1 2.1043 0.7167 4.4426 16.427 57.96 0 1 -11.21 12.343 4.4426 16.427 57.96 0 1 -16.524 5.2529 4.4426 16.427 57.96 0 1 11.008 -12.278l0.339-0.215a4.4426 16.427 57.96 0 1 14.283 -5.8192zm-4.6509 3.7481a2.6885 9.9409 57.96 0 0 -8.6434 3.5217l-0.20516 0.1297a2.6885 9.9409 57.96 0 0 -6.6616 7.4305 2.6885 9.9409 57.96 0 0 9.9999 -3.1786 2.6885 9.9409 57.96 0 0 6.7836 -7.4698 2.6885 9.9409 57.96 0 0 -1.2733 -0.4335z"/>
      </g>
     </g>
     <path d="m469.03 937.05v91.714" fill="none" stroke="#fff" stroke-dasharray="1.93619707, 3.87239414" stroke-linecap="round" stroke-linejoin="round" stroke-width="1.9362"/>
     <text transform="scale(.85481 1.1699)" x="579.15857" y="862.58191" fill="#ffffff" font-family="'Heiti TC'" font-size="64.475px" letter-spacing="0px" stroke-width="2.3591" word-spacing="0px" style="font-feature-settings:normal;font-variant-caps:normal;font-variant-ligatures:normal;font-variant-numeric:normal;line-height:1.25" xml:space="preserve"><tspan x="579.15857" y="862.58191" fill="#ffffff" font-family="'Heiti TC'" font-size="64.475px" stroke-width="2.3591" style="font-feature-settings:normal;font-variant-caps:normal;font-variant-ligatures:normal;font-variant-numeric:normal">2x1</tspan></text>
     <g fill="#aef">
      <rect x="491.23" y="1011.7" width="86.212" height="2.6238" ry="1.3119"/>
      <rect x="491.23" y="1017.3" width="30.736" height="2.6238" ry="1.3119"/>
      <rect x="524.22" y="1017.3" width="34.485" height="2.6238" ry="1.3119"/>
      <rect x="561.32" y="1017.3" width="7.1218" height="2.6238" ry="1.3119"/>
     </g>
     <g fill="#f9f9f9">
      <rect x="594.35" y="962.84" width="41.906" height="9.0148" ry=".85275"/>
      <path d="m632.63 984.44 1.2324-8.9328c0.19289-1.3981-1.0279-2.5528-2.3046-2.5528h-13.41v11.486z"/>
      <path d="m618.15 1002.3h9.9708c1.2767 0 2.1117-1.1548 2.3046-2.5528l1.2324-8.9325h-13.508z"/>
      <path d="m598.95 990.82 1.2324 8.9325c0.19288 1.398 1.0279 2.5528 2.3046 2.5528h9.9708v-11.485z"/>
      <path d="m612.46 972.95h-13.41c-1.2767 0-2.4975 1.1547-2.3046 2.5528l1.2324 8.9328h14.483z"/>
      <g transform="matrix(.65 0 0 .65 692.73 268.08)" stroke-width="1.4636">
       <path d="m-143.83 1055.7a16.427 4.4426 32.04 0 0 -2.1043 0.7167 16.427 4.4426 32.04 0 0 11.21 12.343 16.427 4.4426 32.04 0 0 16.524 5.253 16.427 4.4426 32.04 0 0 -11.008 -12.278l-0.33899-0.2149a16.427 4.4426 32.04 0 0 -14.283 -5.8193zm4.6509 3.7481a9.9409 2.6885 32.04 0 1 8.6434 3.5217l0.20516 0.1297a9.9409 2.6885 32.04 0 1 6.6616 7.4306 9.9409 2.6885 32.04 0 1 -9.9999 -3.1786 9.9409 2.6885 32.04 0 1 -6.7836 -7.4699 9.9409 2.6885 32.04 0 1 1.2733 -0.4335z"/>
       <path d="m-94.404 1055.7a4.4426 16.427 57.96 0 1 2.1043 0.7167 4.4426 16.427 57.96 0 1 -11.21 12.343 4.4426 16.427 57.96 0 1 -16.524 5.2529 4.4426 16.427 57.96 0 1 11.008 -12.278l0.339-0.215a4.4426 16.427 57.96 0 1 14.283 -5.8192zm-4.6509 3.7481a2.6885 9.9409 57.96 0 0 -8.6434 3.5217l-0.20516 0.1297a2.6885 9.9409 57.96 0 0 -6.6616 7.4305 2.6885 9.9409 57.96 0 0 9.9999 -3.1786 2.6885 9.9409 57.96 0 0 6.7836 -7.4698 2.6885 9.9409 57.96 0 0 -1.2733 -0.4335z"/>
      </g>
     </g>
     <g fill="#fff">
      <path d="m472.13 1008.8c0.36445-1.0788-0.16283-2.2359-1.1888-2.68l-4.6427 13.743 1.8796 0.635z"/>
      <path d="m465.83 1009.3c-0.50514-1.0205-0.13698-2.2376 0.82055-2.8146l6.435 13.001-1.7781 0.8801z"/>
      <path d="m468.06 1019.4a2.3149 3.1727 17.551 0 0 -3.321 1.713 2.3149 3.1727 17.551 0 0 0.7376 4.0425 2.3149 3.1727 17.551 0 0 3.321 -1.7129 2.3149 3.1727 17.551 0 0 -0.73756 -4.0426zm-0.47458 1.0573a1.4644 2.0071 17.551 0 1 0.46659 2.5573 1.4644 2.0071 17.551 0 1 -2.1009 1.0836 1.4644 2.0071 17.551 0 1 -0.46665 -2.5573 1.4644 2.0071 17.551 0 1 2.1009 -1.0836z"/>
      <path d="m472.26 1019.3a3.1727 2.3149 68.673 0 0 -1.5102 3.418 3.1727 2.3149 68.673 0 0 3.1115 2.6841 3.1727 2.3149 68.673 0 0 1.5102 -3.4179 3.1727 2.3149 68.673 0 0 -3.1115 -2.6842zm0.29415 1.121a2.0071 1.4644 68.673 0 1 1.9683 1.6979 2.0071 1.4644 68.673 0 1 -0.95532 2.1623 2.0071 1.4644 68.673 0 1 -1.9684 -1.698 2.0071 1.4644 68.673 0 1 0.95539 -2.1622z"/>
     </g>
     <g fill="#f9f9f9">
      <rect transform="matrix(-.0058036 -.99998 .99999 -.0031913 0 0)" x="-989.02" y="409.46" width="3.7934" height="38.501" rx="0" ry="0"/>
      <rect transform="matrix(-.0058036 -.99998 .99999 -.0031913 0 0)" x="-983.69" y="409.46" width="1.5972" height="38.501" rx="0" ry="0"/>
      <rect transform="matrix(-.0058036 -.99998 .99999 -.0031913 0 0)" x="-979.96" y="409.46" width="1.1979" height="38.501" rx="0" ry="0"/>
      <rect transform="matrix(-.0058036 -.99998 .99999 -.0031913 0 0)" x="-977.03" y="409.46" width="2.3958" height="38.501" rx="0" ry="0"/>
      <rect transform="matrix(-.0058036 -.99998 .99999 -.0031913 0 0)" x="-973.3" y="409.46" width="1.9965" height="38.501" rx="0" ry="0"/>
      <rect transform="matrix(-.0058036 -.99998 .99999 -.0031913 0 0)" x="-969.96" y="409.46" width="2.3958" height="38.501" rx="0" ry="0"/>
      <rect transform="matrix(-.0058036 -.99998 .99999 -.0031913 0 0)" x="-967.83" y="409.46" width="3.7934" height="38.501" rx="0" ry="0"/>
      <rect transform="matrix(-.0058036 -.99998 .99999 -.0031913 0 0)" x="-962.1" y="409.46" width=".79862" height="38.501" rx="0" ry="0"/>
      <rect transform="matrix(-.0058036 -.99998 .99999 -.0031913 0 0)" x="-958.77" y="409.46" width="1.1979" height="38.501" rx="0" ry="0"/>
      <rect transform="matrix(-.0058036 -.99998 .99999 -.0031913 0 0)" x="-955.83" y="409.46" width="2.3958" height="38.501" rx="0" ry="0"/>
      <rect transform="matrix(-.0058036 -.99998 .99999 -.0031913 0 0)" x="-994.09" y="409.46" width="1.1979" height="38.501" rx="0" ry="0"/>
      <rect transform="matrix(-.0058036 -.99998 .99999 -.0031913 0 0)" x="-997.62" y="409.46" width="1.1979" height="38.501" rx="0" ry="0"/>
      <rect transform="matrix(-.0058036 -.99998 .99999 -.0031913 0 0)" x="-1001.8" y="409.46" width="2.3958" height="38.501" rx="0" ry="0"/>
      <rect transform="matrix(-.0058036 -.99998 .99999 -.0031913 0 0)" x="-960.5" y="409.46" width=".79862" height="38.501" rx="0" ry="0"/>
      <rect transform="matrix(-.0058036 -.99998 .99999 -.0031913 0 0)" x="-995.84" y="409.46" width=".79862" height="38.501" rx="0" ry="0"/>
      <rect transform="matrix(-.0058036 -.99998 .99999 -.0031913 0 0)" x="-999.04" y="409.46" width=".79862" height="38.501" rx="0" ry="0"/>
      <rect transform="matrix(-.0058036 -.99998 .99999 -.0031913 0 0)" x="-981.67" y="409.46" width=".79862" height="38.501" rx="0" ry="0"/>
      <rect transform="matrix(-.0058036 -.99998 .99999 -.0031913 0 0)" x="-952.72" y="409.46" width=".79862" height="38.501" rx="0" ry="0"/>
     </g>
     <g fill="#aef">
      <rect x="410.64" y="1015.4" width="27.363" height="2.6238" ry="1.3119"/>
      <rect x="440.25" y="1015.4" width="10.121" height="2.6238" ry="1.3119"/>
      <rect x="411.02" y="1020.3" width="9.7457" height="2.6238" ry="1.3119"/>
      <rect x="422.26" y="1020.3" width="22.49" height="2.6238" ry="1.3119"/>
      <rect x="446.25" y="1020.3" width="10.87" height="2.6238" ry="1.3119"/>
     </g>
    </g>
    <g transform="matrix(.43028 0 0 .43028 -118.23 551.07)">
     <rect x="402.37" y="919.42" width="245.96" height="97.538" fill="#8dd35f"/>
     <path d="m440.3 925.7a31.492 28.979 0 0 1 -31.371 28.864v27.011a31.492 28.979 0 0 1 31.377 28.973 31.492 28.979 0 0 1 -7e-3 0.1216h169.37a31.492 28.979 0 0 1 -4e-3 -0.1216 31.492 28.979 0 0 1 31.492 -28.979 31.492 28.979 0 0 1 0.62034 0.0284v-27.05a31.492 28.979 0 0 1 -0.62034 0.0203 31.492 28.979 0 0 1 -31.487 -28.868z" fill="#0a4"/>
     <text transform="scale(.85481 1.1699)" x="515.69482" y="853.72174" fill="#ffffff" font-family="'Heiti TC'" font-size="64.475px" letter-spacing="0px" stroke-width="2.3591" word-spacing="0px" style="font-feature-settings:normal;font-variant-caps:normal;font-variant-ligatures:normal;font-variant-numeric:normal;line-height:1.25" xml:space="preserve"><tspan x="515.69482" y="853.72174" fill="#ffffff" font-family="'Heiti TC'" font-size="64.475px" stroke-width="2.3591" style="font-feature-settings:normal;font-variant-caps:normal;font-variant-ligatures:normal;font-variant-numeric:normal">$ 70 <tspan font-size="42.333px" stroke-width="2.3591">mil</tspan></tspan></text>
    </g>
   </g>
  </g>
  <text x="-163.66324" y="590.6665" fill="#000000" font-family="'Lao Sangam MN'" font-size="29.708px" letter-spacing="0px" stroke-width=".26458" word-spacing="0px" style="font-feature-settings:normal;font-variant-caps:normal;font-variant-ligatures:normal;font-variant-numeric:normal;line-height:1.25" xml:space="preserve"><tspan x="-163.66324" y="590.6665" stroke-width=".26458">4</tspan></text>
  <g transform="matrix(.91736 0 0 .91736 -37.355 108.84)" stroke-width="1.0901">
   <rect x="-35.298" y="547.95" width="20.998" height="6.1759" ry="3.0879" fill="#045"/>
   <rect x="-53.246" y="477.33" width="56.894" height="55.935" ry="26.802" fill="#1a1a1a"/>
   <path d="m-31.373 550.58c-16.463 0-30.028 11.963-32.515 27.705h78.178c-2.4878-15.742-16.053-27.705-32.516-27.705z" fill="#045"/>
   <path d="m-31.38 550.58v27.705h13.162v-27.705h-7e-3 -13.147-8e-3z" fill="#afdde9"/>
   <rect x="-31.38" y="532.54" width="13.162" height="25.251" ry="6.5766" fill="#e9c6af"/>
   <path d="m-24.803 532.54c-3.6435 0-6.5763 2.9329-6.5763 6.5764v4.0726c1.4178 0.54526 2.986 1.2725 4.5723 1.531 1.3215 0.21537 4.0168 0 4.0168 0 1.6144 0 3.1546-0.98578 4.5723-1.531v-4.0726c0-3.6435-2.9329-6.5764-6.5763-6.5764z" fill="#deaa87"/>
   <rect transform="matrix(.8 0 0 .8 -576.33 459.27)" x="715.35" y="59.927" width="9.8814" height="12.705" ry="4.9407" clip-path="url(#clipPath13623-2)" fill="#e9c6af"/>
   <rect transform="matrix(.8 0 0 .8 -576.33 459.27)" x="716.94" y="61.969" width="6.7052" height="8.621" ry="3.3526" clip-path="url(#clipPath13619-0)" fill="#deaa87"/>
   <rect transform="matrix(-.8 0 0 .8 526.73 459.45)" x="715.35" y="59.927" width="9.8814" height="12.705" ry="4.9407" clip-path="url(#clipPath13623-2)" fill="#e9c6af"/>
   <rect transform="matrix(-.8 0 0 .8 526.73 459.45)" x="716.94" y="61.969" width="6.7052" height="8.621" ry="3.3526" clip-path="url(#clipPath13619-0)" fill="#deaa87"/>
   <rect x="-49.222" y="482.27" width="48.846" height="59.98" ry="24.423" fill="#e9c6af"/>
   <circle cx="-35.191" cy="561.3" r="1.8092" fill="#0b2228"/>
   <circle cx="-14.729" cy="561.3" r="1.8092" fill="#0b2228"/>
   <rect x="-35.48" y="574.01" width=".57844" height="3.0931" ry=".28922" fill="#53676c"/>
   <rect x="-35.877" y="560.97" width="1.3725" height="14.132" ry=".58883" fill="#b7c4c8"/>
   <rect x="-15.018" y="574.01" width=".57844" height="3.0931" ry=".28922" fill="#53676c"/>
   <rect x="-15.415" y="560.97" width="1.3725" height="14.132" ry=".58883" fill="#b7c4c8"/>
   <g fill="#1a1a1a">
    <ellipse transform="matrix(.94863 .31638 -.17361 .98481 0 0)" cx="68.921" cy="475.98" rx="20.072" ry="7.5415"/>
    <ellipse transform="matrix(.92395 .38251 -.14061 .99007 0 0)" cx="53.703" cy="476.87" rx="20.799" ry="9.3979"/>
    <ellipse transform="matrix(-.77948 .62643 .034111 .99942 0 0)" cx="73.267" cy="446.77" rx="12.328" ry="5.9745"/>
    <path d="m7.4994 494.7c-0.1663 3.6059-2.7605 6.5949-6.2408 7.3111l-0.13595-3.7668 0.0884-3e-3c2.6533-0.0958 4.9418-1.4855 6.2884-3.541z"/>
   </g>
  </g>
  <rect x="-96.759" y="521.52" width="135.47" height="135.47" fill="none"/>
  <g transform="matrix(.91736 0 0 .91736 3.8386 52.706)" stroke-width="1.0901">
   <rect x="-11.889" y="609.48" width="20.998" height="6.1759" ry="3.0879" fill="#333"/>
   <path d="m-7.9639 611.78c-16.463 0-30.028 11.963-32.515 27.705h78.178c-2.4878-15.742-16.053-27.705-32.516-27.705z" fill="#333"/>
   <path d="m-7.9681 608.41v31.074h13.162v-31.074h-0.01011-13.147-0.01z" fill="#c8b7b7"/>
   <rect x="-25.63" y="539.25" width="48.481" height="26.968" ry="11.14" fill="#1a1a1a"/>
   <rect x="-7.9711" y="593.87" width="13.162" height="25.251" ry="6.5766" fill="#915128"/>
   <path d="m-1.3945 593.87c-3.6435 0-6.5764 2.9329-6.5764 6.5763v4.0726c1.4178 0.54525 2.986 1.2725 4.5723 1.531 1.3215 0.21538 4.0169 0 4.0169 0 1.6143 0 3.1545-0.98579 4.5723-1.531v-4.0726c0-3.6434-2.9329-6.5763-6.5764-6.5763z" fill="#543017"/>
   <rect transform="matrix(.8 0 0 .8 -552.92 520.6)" x="715.35" y="59.927" width="9.8814" height="12.705" ry="4.9407" clip-path="url(#clipPath13623-8)" fill="#915128"/>
   <rect transform="matrix(.8 0 0 .8 -552.92 520.6)" x="716.94" y="61.969" width="6.7052" height="8.621" ry="3.3526" clip-path="url(#clipPath13619-6)" fill="#543017"/>
   <rect transform="matrix(-.8 0 0 .8 550.14 520.78)" x="715.35" y="59.927" width="9.8814" height="12.705" ry="4.9407" clip-path="url(#clipPath13623-8)" fill="#915128"/>
   <rect transform="matrix(-.8 0 0 .8 550.14 520.78)" x="716.94" y="61.969" width="6.7052" height="8.621" ry="3.3526" clip-path="url(#clipPath13619-6)" fill="#543017"/>
   <rect x="-25.813" y="543.6" width="48.846" height="59.98" ry="24.423" fill="#915128"/>
   <ellipse transform="matrix(-.99317 -.11664 -.68875 .725 0 0)" cx="-469.72" cy="679.35" rx="21.59" ry="10.463" fill="#1a1a1a"/>
   <path d="m-25.735 581.13c0.99605 12.603 11.478 22.455 24.345 22.455 12.867 0 23.348-9.8514 24.345-22.454-4.1613 9.289-13.473 15.729-24.345 15.729-10.872 0-20.184-6.4407-24.345-15.73z" fill="#1a1a1a"/>
  </g>
  <rect x="245.32" y="57.36" width="134.94" height="134.94" fill="none" stroke="#000" stroke-linecap="round" stroke-linejoin="round" stroke-width=".52917"/>
  <text x="-163.66324" y="749.44702" fill="#000000" font-family="'Lao Sangam MN'" font-size="29.708px" letter-spacing="0px" stroke-width=".26458" word-spacing="0px" style="font-feature-settings:normal;font-variant-caps:normal;font-variant-ligatures:normal;font-variant-numeric:normal;line-height:1.25" xml:space="preserve"><tspan x="-163.66324" y="749.44702" stroke-width=".26458">5</tspan></text>
  <rect x="-91.854" y="679.69" width="135.47" height="135.47" fill="none"/>
  <g stroke="#1a1a1a">
   <g stroke-width=".52917">
    <path d="m40.929 703.38-47.844 68.183-29.092-13.496z" fill="#fff"/>
    <path d="m40.929 703.21-131.09 36.808 27.164 8.0628z" fill="#fff" stroke-linejoin="round"/>
    <path d="m40.929 703.38-103.93 44.696 14.02 30.849 12.969-20.858z" fill="#e6e6e6" stroke-linejoin="round"/>
    <path d="m-48.976 778.93 20.375-17.422-7.4058-3.4357z" fill="#999"/>
   </g>
   <path d="m-48.976 778.93c-6.6637 4.2198-14.215 12.62-22.783 12.62-19.072 0-12.462-20.293 1.402-16.827 2.6824 0.67069 4.4516 5.0484 5.6081 7.3617 8.23 16.462-19.802 24.1-23.484 25.941" fill="none" stroke-dasharray="2.11666706, 2.11666706" stroke-width=".52917"/>
  </g>
  <rect x="-91.854" y="847.58" width="134.94" height="134.94" fill="none" stroke="#000" stroke-linecap="round" stroke-linejoin="round" stroke-width=".52917"/>
  <text x="-163.66324" y="916.81024" fill="#000000" font-family="'Lao Sangam MN'" font-size="29.708px" letter-spacing="0px" stroke-width=".26458" word-spacing="0px" style="font-feature-settings:normal;font-variant-caps:normal;font-variant-ligatures:normal;font-variant-numeric:normal;line-height:1.25" xml:space="preserve"><tspan x="-163.66324" y="916.81024" stroke-width=".26458">6</tspan></text>
  <path d="m-91.854 912.6 67.469 37.042 67.469-37.042z" fill="#b3b3b3"/>
  <g>
   <path d="m-91.854 912.6 67.469-43.666 67.469 43.666z" fill="#e6e6e6"/>
   <path d="m-24.385 868.93-67.469 43.667h11.386l56.083-36.297 56.083 36.297h11.386z" fill="#b3b3b3"/>
   <rect x="-85.522" y="859.45" width="122.3" height="115.53" ry="5.824" fill="#fff" stroke="#000" stroke-linecap="round" stroke-linejoin="round" stroke-width=".52917"/>
   <rect x="-70.821" y="870.45" width="92.898" height="10.422" ry="3.9848" fill="#00a670"/>
  </g>
  <g fill="#00bb7d">
   <ellipse cx="-53.352" cy="911.99" rx="23.615" ry="23.143"/>
   <rect x="-26.405" y="894.36" width="46.605" height="5.824" ry="1.4177"/>
   <rect x="-26.405" y="904.78" width="37.222" height="4.2914" ry="1.0446"/>
   <rect x="-26.405" y="910.91" width="31.904" height="4.2914" ry="1.0446"/>
   <rect x="-26.405" y="917.04" width="19.08" height="4.2914" ry="1.0446"/>
  </g>
  <g fill="#808080">
   <rect x="-61.75" y="946.47" width="74.756" height="4.2914" ry="1.0446"/>
   <rect x="-51.116" y="953.37" width="53.487" height="4.2914" ry="1.0446"/>
   <rect x="-39.542" y="960.26" width="30.34" height="4.2914" ry="1.0446"/>
  </g>
  <path d="m-91.854 912.6 61.453 33.739-61.453 33.732z" fill="#f9f9f9"/>
  <path d="m-36.428 943.03-55.426 37.042 61.453-33.732-6.027-3.3094z" opacity=".2"/>
  <path d="m43.083 912.6-61.453 33.739 61.453 33.732z" fill="#f9f9f9"/>
  <path d="m-12.316 943.03 55.426 37.042-61.453-33.732 6.027-3.3094z" opacity=".2"/>
  <path d="m-91.854 912.6 50.779 27.879 10.674 5.8601 6.0157 3.3026 6.0157-3.3026 10.66-5.8529 50.793-27.886-55.162 25.473-0.0078 0.0103-12.312-6.7582-12.293 6.7479z" opacity=".15"/>
  <path d="m-91.854 980.07 67.482-37.042 67.482 37.042z" fill="#e6e6e6"/>
  <rect x="-68.87" y="872.19" width="88.996" height="6.9539" ry="2.6589" fill="#00bb7d"/>
 </g>
 <g transform="translate(91.854 -679.69)" display="none" stroke="#1a1a1a" stroke-linecap="round" stroke-linejoin="round" stroke-width=".26458">
  <g fill="none">
   <circle cx="-72.415" cy="74.676" r="1.2354" display="inline"/>
   <circle cx="-64.709" cy="100.69" r="1.2354" display="inline"/>
   <circle cx="27.071" cy="64.056" r="1.2354" display="inline"/>
   <circle cx="9.5147" cy="104.8" r="1.2354" display="inline"/>
   <circle cx="30.322" cy="140.35" r="1.2354" display="inline"/>
   <circle cx="-60.494" cy="148.37" r="1.2354" display="inline"/>
  </g>
  <g fill="#1a1a1a">
   <g fill-opacity=".95294">
    <rect x="8.0102" y="132.58" width="4.1764" height=".45979" ry=".2299" display="inline"/>
    <rect x="-79.989" y="118.49" width="4.1764" height=".45979" ry=".2299" display="inline"/>
    <rect x="9.0939" y="173.97" width="4.1764" height=".45979" ry=".2299" display="inline"/>
    <rect x="10.611" y="63.434" width="4.1764" height=".45979" ry=".2299" display="inline"/>
    <rect x="12.953" y="132.58" width="2.0307" height=".45979" ry=".2299" display="inline"/>
    <rect x="-75.046" y="118.49" width="2.0307" height=".45979" ry=".2299" display="inline"/>
    <rect x="14.037" y="173.97" width="2.0307" height=".45979" ry=".2299" display="inline"/>
    <rect x="15.554" y="63.434" width="2.0307" height=".45979" ry=".2299" display="inline"/>
    <rect x="15.75" y="132.58" width="6.2838" height=".45979" ry=".2299" display="inline"/>
    <rect x="-72.249" y="118.49" width="6.2838" height=".45979" ry=".2299" display="inline"/>
    <rect x="16.834" y="173.97" width="6.2838" height=".45979" ry=".2299" display="inline"/>
    <rect x="18.351" y="63.434" width="6.2838" height=".45979" ry=".2299" display="inline"/>
    <rect x="-69.718" y="174.54" width="2.3373" height=".45979" ry=".2299" display="inline"/>
    <rect x="13.351" y="135" width="2.3373" height=".45979" ry=".2299" display="inline"/>
    <rect x="-43.97" y="76.148" width="2.3373" height=".45979" ry=".2299" display="inline"/>
    <rect x="-66.538" y="174.54" width="4.368" height=".45979" ry=".2299" display="inline"/>
    <rect x="16.531" y="135" width="4.368" height=".45979" ry=".2299" display="inline"/>
    <rect x="-40.79" y="76.148" width="4.368" height=".45979" ry=".2299" display="inline"/>
    <rect x="-72.441" y="62.602" width="7.0884" height=".45979" ry=".2299" display="inline"/>
    <rect x="-77.426" y="64.336" width="7.0884" height=".45979" ry=".2299" display="inline"/>
    <rect x="-64.395" y="62.602" width="3.1419" height=".45979" ry=".2299" display="inline"/>
    <rect x="-69.38" y="64.336" width="3.1419" height=".45979" ry=".2299" display="inline"/>
   </g>
   <g>
    <rect x="-77.648" y="120.26" width="15.02" height=".45979" ry=".2299" display="inline"/>
    <rect x="15.076" y="175.43" width="15.02" height=".45979" ry=".2299" display="inline"/>
    <rect x="-69.525" y="172.37" width="15.02" height=".45979" ry=".2299" display="inline"/>
   </g>
   <g fill-opacity=".95294">
    <rect transform="rotate(-45)" x="-66.829" y="97.722" width="4.368" height=".45979" ry=".2299" display="inline"/>
    <rect transform="rotate(-45)" x="-97.175" y="111.06" width="4.368" height=".45979" ry=".2299" display="inline"/>
    <rect transform="rotate(-45)" x="-52.728" y="32.892" width="4.368" height=".45979" ry=".2299" display="inline"/>
    <rect transform="rotate(-45)" x="-163.38" y="87.76" width="4.368" height=".45979" ry=".2299" display="inline"/>
    <rect transform="rotate(45)" x="95.768" y="64.415" width="4.368" height=".45979" ry=".2299" display="inline"/>
    <rect transform="rotate(45)" x="109.1" y="94.761" width="4.368" height=".45979" ry=".2299" display="inline"/>
    <rect transform="rotate(45)" x="30.937" y="50.314" width="4.368" height=".45979" ry=".2299" display="inline"/>
    <rect transform="rotate(45)" x="85.806" y="160.97" width="4.368" height=".45979" ry=".2299" display="inline"/>
   </g>
  </g>
 </g>
 <g transform="translate(91.854 -679.69)">
  <g transform="matrix(1 0 0 1.0039 -2.7219e-6 -.71543)" stroke-width=".99804">
   <path d="m36.732 114.03c-1e-6 15.4-9.8768 17.283-19.611 26.224-11.375 10.448-18.214 22.383-36.914 22.383-24.296 0-18.089-1.1418-49.304-25.752-7.418-5.8484-11.511-12.842-11.511-22.856-1e-6 -8.896 6.04-15.483 11.001-23.261 5.8803-9.2206 2.103-18.469 10.139-24.469 10.633-7.9393 24.166 0.3849 38.666 0.3849 15.792 0 22.117-7.3653 33.155 1.892 6.2413 5.2341 4.4355 12.244 7.5465 21.359 3.4777 10.19 16.832 14.489 16.832 24.094z" fill="url(#linearGradient5431)" opacity=".35"/>
   <g transform="matrix(.87759 0 0 .87759 -.095671 13.965)" stroke-width="1.1373">
    <rect x="-33.556" y="117.37" width="14.268" height="4.1963" ry="2.0982" fill="#333"/>
    <path d="m-30.889 118.93c-11.186 0-20.403 8.1285-22.093 18.825h53.12c-1.6904-10.697-10.907-18.825-22.094-18.825z" fill="#333"/>
    <path d="m-30.894 118.93v18.825h8.9429v-18.825h-0.0047-8.933-0.0053z" fill="#c8b7b7"/>
    <path d="m-28.909 69.16c-9.3305 0-16.842 7.5117-16.842 16.842v5.3947c1.0568-0.25904 2.1613-0.39924 3.3003-0.39924h35.358v-4.9955c0-9.3305-7.5117-16.842-16.842-16.842z" fill="#1a1a1a"/>
    <rect x="-30.894" y="106.67" width="8.9432" height="17.158" ry="4.4687" fill="#e9c6af"/>
    <path d="m-26.425 106.67c-2.4756 0-4.4685 1.9928-4.4685 4.4684v2.7672c0.96335 0.37048 2.0289 0.8646 3.1068 1.0403 0.89792 0.14634 2.7293 0 2.7293 0 1.0969 0 2.1435-0.66981 3.1068-1.0403v-2.7672c0-2.4756-1.9928-4.4684-4.4685-4.4684z" fill="#deaa87"/>
    <rect transform="matrix(.54358 0 0 .54358 -401.17 56.888)" x="715.35" y="59.927" width="9.8814" height="12.705" ry="4.9407" clip-path="url(#clipPath13623)" fill="#e9c6af"/>
    <rect transform="matrix(.54358 0 0 .54358 -401.17 56.888)" x="716.94" y="61.969" width="6.7052" height="8.621" ry="3.3526" clip-path="url(#clipPath13619)" fill="#deaa87"/>
    <rect transform="matrix(-.54358 0 0 .54358 348.33 57.008)" x="715.35" y="59.927" width="9.8814" height="12.705" ry="4.9407" clip-path="url(#clipPath13623)" fill="#e9c6af"/>
    <rect transform="matrix(-.54358 0 0 .54358 348.33 57.008)" x="716.94" y="61.969" width="6.7052" height="8.621" ry="3.3526" clip-path="url(#clipPath13619)" fill="#deaa87"/>
    <rect x="-43.017" y="72.517" width="33.19" height="40.755" ry="16.595" fill="#e9c6af"/>
    <ellipse transform="matrix(.95618 .29278 -.18857 .98206 0 0)" cx="-5.5311" cy="80.121" rx="12.343" ry="4.3035" fill="#1a1a1a"/>
    <ellipse transform="matrix(-.95618 .29278 .18857 .98206 0 0)" cx="46.962" cy="64.472" rx="12.343" ry="4.3035" fill="#1a1a1a"/>
   </g>
   <g fill="none" stroke="#000" stroke-linecap="round" stroke-width=".52813">
    <path d="m-31.329 95.908c1.5289-1.1095 3.0874-1.3384 4.6954 0"/>
    <path d="m-23.449 99.16c0.25754 0.81744 0.71313 1.3873 1.3794 1.6939l-1.6093 1.5399"/>
    <path d="m-23.286 107.58c2.2469 0.27686 4.1257-0.73179 4.7008-2.51"/>
   </g>
   <ellipse cx="-32.204" cy="100.23" rx="1.5" ry="1.5306" fill="#d35f5f" fill-opacity=".95294" opacity=".35"/>
   <ellipse cx="-13.564" cy="100.23" rx="1.5" ry="1.5306" fill="#d35f5f" fill-opacity=".95294" opacity=".35"/>
   <path d="m-20.103 95.908c1.5289-1.1095 3.0874-1.3384 4.6954 0" fill="none" stroke="#000" stroke-linecap="round" stroke-width=".52813"/>
   <rect x="-90.487" y="47.498" width="134.94" height="134.94" fill="none"/>
   <g>
    <g stroke="#1a1a1a" stroke-linecap="round" stroke-linejoin="round" stroke-width=".52813">
     <rect x="-90.752" y="167" width="134.94" height="3.7266" ry=".99133" fill="#c87137"/>
     <rect x="-83.014" y="151.78" width="11.271" height="14.739" rx="1.1205" ry="1.1205" fill="#ececec"/>
     <path d="m-71.739 154.77v1.8676a2.184 2.5539 0 0 1 1.7782 2.4391v5e-3a2.184 2.5539 0 0 1 -1.7782 2.573v1.8696a3.7933 4.4063 0 0 0 3.3869 -4.4891v-9e-3a3.7933 4.4063 0 0 0 -3.3869 -4.2561z" fill="#e6e6e6"/>
    </g>
    <rect x="-81.689" y="153.2" width=".728" height="7.28" rx=".56027" ry=".39253" fill="#f9f9f9"/>
    <rect x="-81.689" y="161.48" width=".728" height="2.0691" rx=".56027" ry=".36325" fill="#f9f9f9"/>
    <path d="m-71.586 154.77v1.8676a1.4022 2.5539 0 0 1 0.54975 0.42788v-2.0691a2.4354 4.4063 0 0 0 -0.54975 -0.22635zm0.54975 6.457a1.4022 2.5539 0 0 1 -0.54975 0.42788v1.8697a2.4354 4.4063 0 0 0 0.54975 -0.231z" opacity=".15" stroke="#1a1a1a" stroke-linecap="round" stroke-linejoin="round" stroke-width=".26407"/>
   </g>
   <g fill="#1a1a1a" shape-rendering="auto">
    <path d="m-76.111 150.34c-0.0115-0.0446-0.02-0.089-0.02556-0.13349-0.04619-0.35533 0.07923-0.71171 0.21107-1.0855 0.13184-0.37377 0.26932-0.76466 0.23383-1.1888-0.01764-0.21074-0.0786-0.4289-0.20304-0.6557 0.31532 0.3642 0.45046 0.70192 0.48697 1.0227 0.04678 0.41101-0.06879 0.79743-0.18332 1.1763-0.11452 0.37885-0.22837 0.75023-0.16631 1.1293 0.02894 0.17701 0.09754 0.35445 0.22006 0.53353-0.33902-0.27591-0.50737-0.53924-0.57368-0.79838z" color="#000000" color-rendering="auto" dominant-baseline="auto" image-rendering="auto" solid-color="#000000" style="font-feature-settings:normal;font-variant-alternates:normal;font-variant-caps:normal;font-variant-ligatures:normal;font-variant-numeric:normal;font-variant-position:normal;isolation:auto;mix-blend-mode:normal;shape-padding:0;text-decoration-color:#000000;text-decoration-line:none;text-decoration-style:solid;text-indent:0;text-orientation:mixed;text-transform:none;white-space:normal"/>
    <path d="m-77.926 149.97c-0.0186-0.0719-0.03226-0.14358-0.04124-0.21532-0.0745-0.57321 0.12781-1.1481 0.34048-1.751 0.21268-0.60293 0.43444-1.2335 0.3772-1.9176-0.02846-0.33995-0.12679-0.69188-0.32752-1.0577 0.50864 0.58751 0.72664 1.1323 0.78554 1.6497 0.07547 0.66302-0.11096 1.2863-0.29571 1.8975-0.18474 0.61111-0.36839 1.2102-0.26828 1.8217 0.04669 0.28552 0.15734 0.57174 0.35497 0.86064-0.54688-0.44508-0.81844-0.86987-0.9254-1.2879z" color="#000000" color-rendering="auto" dominant-baseline="auto" image-rendering="auto" solid-color="#000000" style="font-feature-settings:normal;font-variant-alternates:normal;font-variant-caps:normal;font-variant-ligatures:normal;font-variant-numeric:normal;font-variant-position:normal;isolation:auto;mix-blend-mode:normal;shape-padding:0;text-decoration-color:#000000;text-decoration-line:none;text-decoration-style:solid;text-indent:0;text-orientation:mixed;text-transform:none;white-space:normal"/>
    <path d="m-79.444 148.08c-0.0115 0.0446-0.02 0.089-0.02556 0.13349-0.04619 0.35533 0.07923 0.71171 0.21107 1.0855 0.13184 0.37377 0.26932 0.76466 0.23383 1.1888-0.01764 0.21074-0.0786 0.4289-0.20304 0.6557 0.31532-0.3642 0.45046-0.70192 0.48697-1.0227 0.04678-0.41101-0.06879-0.79743-0.18332-1.1763-0.11452-0.37885-0.22837-0.75023-0.16631-1.1293 0.02894-0.17701 0.09754-0.35445 0.22006-0.53353-0.33902 0.27591-0.50737 0.53924-0.57368 0.79838z" color="#000000" color-rendering="auto" dominant-baseline="auto" image-rendering="auto" solid-color="#000000" style="font-feature-settings:normal;font-variant-alternates:normal;font-variant-caps:normal;font-variant-ligatures:normal;font-variant-numeric:normal;font-variant-position:normal;isolation:auto;mix-blend-mode:normal;shape-padding:0;text-decoration-color:#000000;text-decoration-line:none;text-decoration-style:solid;text-indent:0;text-orientation:mixed;text-transform:none;white-space:normal"/>
   </g>
   <g stroke="#1a1a1a" stroke-linecap="round" stroke-linejoin="round">
    <rect x="-56.6" y="125.29" width="66.634" height="41.182" ry="2.2223" fill="#ececec" stroke-width=".52813"/>
    <path d="m-19.162 145.78c0.05731 2.2752-1.74 4.1663-4.0152 4.2248-2.2752 0.0584-4.1672-1.738-4.2268-4.0131-0.02978-1.1376 1.605-0.812 2.3308-1.5772 0.72581-0.76521 0.54266-2.6212 1.6802-2.6515 2.2751-0.0607 4.1689 1.7338 4.2307 4.0089" fill="#fff" stroke-width=".52813"/>
    <path d="m-23.283 139.94 1.3324-2.1867" fill="none" stroke-width=".52813"/>
   </g>
   <g>
    <path d="m-83.014 165.38v0.46571c0 0.37246 0.50009 0.6722 1.1209 0.6722h9.0294c0.62077 0 1.1209-0.29974 1.1209-0.6722v-0.46571z" opacity=".15"/>
    <rect x="-54.379" y="128.71" width="1.0531" height="15.104" rx=".81048" ry=".81438" fill="#f9f9f9"/>
    <rect x="-54.379" y="144.9" width="1.0531" height="3.5863" rx=".81048" ry=".62961" fill="#f9f9f9"/>
    <path d="m-56.6 164.06v0.69236c2e-6 0.95295 0.99092 1.7203 2.2221 1.7203h62.189c1.2312 0 2.2221-0.76739 2.2221-1.7203v-0.69236z" opacity=".15"/>
    <path transform="scale(.26458)" d="m-343 640.45v1.0703c0 2.0757 1.6704 3.7461 3.7461 3.7461h502.51c2.0757 0 3.7461-1.6704 3.7461-3.7461v-1.0703z" opacity=".2"/>
   </g>
   <g transform="translate(81.475 -32.186)" fill="none" stroke="#1a1a1a" stroke-width=".52813">
    <path d="m-95.888 92.012a7.6084 7.6084 0 0 1 -7.5567 7.6082 7.6084 7.6084 0 0 1 -7.6594 -7.5049 7.6084 7.6084 0 0 1 7.4527 -7.7101 7.6084 7.6084 0 0 1 7.7606 7.4002" stroke-linecap="round" stroke-linejoin="round"/>
    <path d="m-103.05 98.284a6.2882 6.2882 0 0 1 -5.7657 -2.9193 6.2882 6.2882 0 0 1 -0.14684 -6.461 6.2882 6.2882 0 0 1 5.6271 -3.1782" stroke-linecap="round" stroke-linejoin="round"/>
    <text x="-106.91685" y="95.702919" font-family="'Lao Sangam MN'" font-size="11.774px" letter-spacing="0px" word-spacing="0px" style="font-feature-settings:normal;font-variant-caps:normal;font-variant-ligatures:normal;font-variant-numeric:normal;line-height:1.25" xml:space="preserve"><tspan x="-106.91685" y="95.702919" fill="none" stroke="#1a1a1a" stroke-width=".52813">$</tspan></text>
   </g>
   <g fill="none" stroke-width=".99804">
    <path transform="matrix(.11426 .035014 0 -.14086 -30.891 116.44)" d="m565.93 310.63c0.20362 14.997-2.9788 28.693-8.2555 38.567-4.9918 9.3406-11.858 9.6732-19.505 10.038-9.515 0.4534-18.061-2.2115-23.42-15.262-3.5002-8.5245-5.6406-19.096-5.8033-30.627-0.41176-29.183 35.372-40.265 27.731-54.242-64.933-118.78 21.875 12.075 29.25 51.423" clip-path="url(#clipPath19544)" stroke="#1a1a1a" stroke-linecap="round" stroke-linejoin="round" stroke-width="4.1631"/>
    <path d="m25.276 88.371 11.457 3.5111v13.644l-11.457-3.5111z"/>
    <g stroke="#1a1a1a" stroke-linecap="round" stroke-linejoin="round" stroke-width=".52813">
     <path d="m32.453 108.59v-13.644l4.2807-3.0599v13.644z"/>
     <path d="m20.996 91.431 4.2807-3.0599v4.3718z"/>
     <path d="m25.276 88.371 11.457 3.5111-4.2807 3.0599-7.1763-2.1992z"/>
     <path d="m32.453 108.59 2.3208-5.1789 1.9599 2.1189z"/>
    </g>
    <g stroke-linecap="round" stroke-linejoin="round">
     <path d="m34.773 103.41v-3.9256" stroke="#000" stroke-width=".52813"/>
     <path d="m21.019 91.439 11.457 3.5111v13.644l-11.457-3.5111z" stroke="#1a1a1a" stroke-width=".52813"/>
     <path transform="matrix(.11426 .035014 0 -.14086 -34.721 119.69)" d="m565.93 310.63c0.20362 14.997-2.9788 28.693-8.2555 38.567-4.9918 9.3406-11.858 9.6732-19.505 10.038-9.515 0.4534-18.061-2.2115-23.42-15.262-3.5002-8.5245-5.6406-19.096-5.8033-30.627-0.41176-29.183 12.002-53.464 27.731-54.242 15.73-0.77832 28.823 22.24 29.25 51.423" clip-path="url(#clipPath19544)" stroke="#1a1a1a" stroke-width="4.1631"/>
    </g>
    <path d="m30.249 95.564c0.0043 0.23953-0.12933 0.39338-0.29844 0.34369-0.16911-0.04967-0.30974-0.28414-0.31416-0.52372-0.0043-0.23959 0.12903-0.39367 0.29813-0.34421 0.1691 0.04945 0.30986 0.28375 0.31446 0.52339"/>
    <path d="m32.19 94.861c-0.31612 4.2599-11.194 10.213-11.194 10.213l11.457 3.5111v-13.644z" opacity=".127"/>
    <path d="m27.546 90.285c0.0043 0.23954-0.12933 0.39339-0.29844 0.34369-0.16911-0.0497-0.30974-0.28413-0.31416-0.52371-0.0043-0.23959 0.12903-0.39367 0.29813-0.34421 0.1691 0.04946 0.30986 0.28374 0.31446 0.52338"/>
    <path d="m34.064 92.282c0.0043 0.23954-0.12932 0.39339-0.29843 0.34369-0.16911-0.04969-0.30974-0.28413-0.31417-0.52372-0.0043-0.23959 0.12903-0.39367 0.29814-0.34421 0.1691 0.04946 0.30986 0.28374 0.31446 0.52338"/>
    <path d="m23.731 93.566c0.0043 0.23954-0.12933 0.39338-0.29844 0.34368-0.16911-0.04967-0.30974-0.28412-0.31416-0.52371-0.0043-0.23959 0.12903-0.39367 0.29813-0.34421 0.1691 0.04946 0.30986 0.28374 0.31446 0.52338"/>
   </g>
   <rect x="-29.71" y="47.943" width="20.188" height="20.188" fill="none" style="paint-order:markers fill stroke"/>
   <g transform="matrix(1.3914 0 0 1.3939 -46.308 15.614)" fill="none" stroke="#000" stroke-width=".37923">
    <path d="m-27.148 64.371c-2.3089-0.04348-0.52885-0.13045 0.54897-2.4341 1.0778-2.3037 1.4535-6.824 2.4845-9.0841 1.0311-2.2601 2.7176-2.2601 3.704 0.02703 0.98639 2.2871 1.273 6.8619 2.551 9.1657 1.278 2.3037 3.5471 2.3363 1.483 2.3526-2.0641 0.0163-8.4626 0.0163-10.771-0.02719z"/>
    <path d="m-22.659 64.414c-2.2401-1.1e-5 0.62776-3.5e-5 1.8656-1.7557 1.2379-1.7556 0.84588-5.2669 1.6184-7.0224 0.77248-1.7556 2.7095-1.7556 3.4874-1.18e-4 0.77799 1.7554 0.39734 5.2668 1.8651 7.0225 1.4678 1.7557 4.7837 1.7557 2.768 1.7557-2.0158 0-9.3644 0-11.605-1.2e-5z"/>
    <path d="m-28.862 64.414h18.539" stroke-linecap="round" stroke-linejoin="round"/>
   </g>
   <g fill="none">
    <path d="m-21.891 67.465v6.0689" stroke-width="0"/>
    <g stroke="#000" stroke-width=".52813">
     <path d="m-22.108 68.332v10.404" stroke-dasharray="0.52813214, 1.5843964"/>
     <path d="m18.169 101.87-23.184 0.11034" stroke-dasharray="0.52813214, 1.58439638"/>
     <path d="m-40.531 101.87-23.184 0.11034" stroke-dasharray="0.52813214, 1.58439638"/>
    </g>
   </g>
  </g>
 </g>
</svg>
