<?xml version="1.0" encoding="utf-8"?>
<!-- Generator: Adobe Illustrator 16.0.3, SVG Export Plug-In . SVG Version: 6.00 Build 0)  -->
<!DOCTYPE svg PUBLIC "-//W3C//DTD SVG 1.1//EN" "http://www.w3.org/Graphics/SVG/1.1/DTD/svg11.dtd">
<svg version="1.1" xmlns="http://www.w3.org/2000/svg" xmlns:xlink="http://www.w3.org/1999/xlink" x="0px" y="0px" width="24px"
	 height="24px" viewBox="0 0 24 24" enable-background="new 0 0 24 24" xml:space="preserve">
<g id="Outline_Icons_1_">
	<g id="Outline_Icons">
	</g>
	<g id="New_icons_1_">
		<g>
			<path d="M7.312,10.286c-0.211-0.177-0.527-0.147-0.704,0.063l-2.525,3.023c-0.25-1.798,0.118-3.627,1.082-5.241
				c1.178-1.974,3.103-3.4,5.281-3.915c2.874-0.68,5.876,0.271,7.834,2.485c0.183,0.208,0.5,0.228,0.706,0.043
				c0.207-0.183,0.226-0.498,0.043-0.705c-2.204-2.491-5.582-3.563-8.813-2.796c-2.439,0.575-4.593,2.17-5.909,4.375
				c-0.895,1.499-1.326,3.164-1.293,4.839l-1.598-2.379C1.26,9.849,0.95,9.787,0.721,9.942c-0.229,0.154-0.29,0.465-0.136,0.693
				l2.787,4.15c0.088,0.131,0.232,0.213,0.389,0.221c0.008,0.001,0.017,0.001,0.026,0.001c0.148,0,0.289-0.065,0.384-0.18
				l3.205-3.838C7.553,10.778,7.524,10.463,7.312,10.286z"/>
			<path d="M23.988,14.38l-2.786-4.15c-0.087-0.131-0.232-0.213-0.389-0.221c-0.122-0.011-0.231,0.039-0.324,0.113
				c-0.016,0.009-0.028,0.021-0.042,0.032c-0.014,0.013-0.032,0.019-0.044,0.033l-0.047,0.057c-0.008,0.01-0.017,0.017-0.023,0.027
				l-3.136,3.754c-0.177,0.212-0.149,0.527,0.063,0.704c0.211,0.177,0.527,0.147,0.704-0.063l2.405-2.879
				c0.086,3.619-2.554,7.128-6.244,8c-2.694,0.641-5.487-0.145-7.464-2.095c-0.197-0.193-0.513-0.191-0.707,0.006
				c-0.194,0.196-0.192,0.513,0.005,0.707c1.714,1.689,3.971,2.601,6.306,2.6c0.694,0,1.396-0.08,2.091-0.245
				c4.04-0.953,6.893-4.552,7.021-8.476l1.781,2.652c0.096,0.145,0.254,0.222,0.416,0.222c0.096,0,0.193-0.027,0.278-0.085
				C24.081,14.919,24.142,14.608,23.988,14.38z"/>
			<path d="M11.285,18.451c0.069,0.033,0.142,0.049,0.215,0.049c0.148,0,0.293-0.066,0.391-0.188l6-7.5
				c0.12-0.15,0.143-0.355,0.06-0.529C17.867,10.11,17.692,10,17.5,10h-4.376l0.865-3.892c0.051-0.23-0.066-0.466-0.282-0.563
				c-0.214-0.099-0.47-0.032-0.61,0.159l-5.5,7.5c-0.111,0.152-0.128,0.354-0.042,0.521C7.639,13.895,7.812,14,8,14h3.858
				l-0.847,3.894C10.962,18.121,11.075,18.352,11.285,18.451z M8.987,13l3.509-4.785l-0.484,2.177
				c-0.033,0.148,0.003,0.303,0.098,0.421C12.205,10.932,12.348,11,12.5,11h3.959l-4.018,5.022l0.525-2.416
				c0.032-0.148-0.004-0.303-0.1-0.42C12.773,13.068,12.63,13,12.479,13H8.987z"/>
		</g>
	</g>
</g>
<g id="Invisible_Shape">
	<rect fill="none" width="24" height="24"/>
</g>
</svg>
