<?xml version="1.0" encoding="utf-8"?>
<!-- Generator: Adobe Illustrator 16.0.3, SVG Export Plug-In . SVG Version: 6.00 Build 0)  -->
<!DOCTYPE svg PUBLIC "-//W3C//DTD SVG 1.1//EN" "http://www.w3.org/Graphics/SVG/1.1/DTD/svg11.dtd">
<svg version="1.1" xmlns="http://www.w3.org/2000/svg" xmlns:xlink="http://www.w3.org/1999/xlink" x="0px" y="0px" width="24px"
	 height="24px" viewBox="0 0 24 24" enable-background="new 0 0 24 24" xml:space="preserve">
<g id="Outline_Icons_1_">
	<g id="Outline_Icons">
	</g>
	<g id="New_icons_1_">
		<g>
			<path d="M22.775,10.465c-0.276-0.608-0.773-1.072-1.397-1.306c-0.626-0.234-1.305-0.212-1.913,0.063
				c-0.454,0.206-0.826,0.535-1.084,0.949l-3.42-1.282C14.981,8.762,15,8.633,15,8.5c0-0.225-0.039-0.438-0.095-0.645l3.646-1.823
				C19.032,6.642,19.751,7,20.506,7c0.375,0,0.755-0.085,1.113-0.263c1.232-0.617,1.734-2.122,1.119-3.354
				c-0.299-0.598-0.812-1.043-1.447-1.254c-0.634-0.212-1.311-0.163-1.908,0.135c-0.598,0.299-1.044,0.812-1.255,1.445
				c-0.158,0.472-0.17,0.969-0.043,1.438l-3.629,1.814C13.998,6.381,13.296,6,12.5,6C11.122,6,10,7.121,10,8.5s1.122,2.5,2.5,2.5
				c0.891,0,1.668-0.472,2.111-1.175l3.419,1.282c-0.077,0.48-0.013,0.973,0.192,1.426c0.276,0.608,0.773,1.072,1.398,1.307
				c0.286,0.107,0.583,0.161,0.878,0.161c0.352,0,0.703-0.075,1.033-0.226c0.608-0.276,1.073-0.772,1.308-1.397
				C23.075,11.752,23.052,11.072,22.775,10.465z M19.076,4.025c0.127-0.38,0.395-0.688,0.754-0.867C20.044,3.051,20.273,3,20.498,3
				c0.551,0,1.082,0.305,1.345,0.83c0.369,0.739,0.068,1.643-0.671,2.013C20.432,6.21,19.53,5.91,19.16,5.173
				c-0.001-0.001,0-0.002-0.001-0.003c0,0-0.001-0.002-0.002-0.003C18.979,4.81,18.95,4.404,19.076,4.025z M12.5,10
				C11.673,10,11,9.327,11,8.5S11.673,7,12.5,7S14,7.673,14,8.5S13.327,10,12.5,10z M21.904,12.026
				c-0.141,0.375-0.419,0.673-0.785,0.839c-0.365,0.165-0.773,0.178-1.146,0.039c-0.376-0.142-0.674-0.42-0.839-0.784
				c-0.165-0.364-0.179-0.77-0.039-1.144c0-0.001,0.002-0.002,0.002-0.003s0-0.003,0-0.005c0.141-0.374,0.418-0.671,0.781-0.836
				c0.198-0.09,0.408-0.135,0.619-0.135c0.178,0,0.357,0.032,0.529,0.097c0.375,0.141,0.672,0.419,0.838,0.783
				C22.031,11.243,22.045,11.651,21.904,12.026z"/>
			<path d="M14.5,14c-0.276,0-0.5,0.224-0.5,0.5V19H4V9h4.5C8.776,9,9,8.776,9,8.5S8.776,8,8.5,8H4V6.5C4,5.673,4.673,5,5.5,5h3
				C8.776,5,9,4.776,9,4.5S8.776,4,8.5,4h-3C4.122,4,3,5.121,3,6.5v15C3,22.879,4.122,24,5.5,24h7c1.378,0,2.5-1.121,2.5-2.5v-7
				C15,14.224,14.776,14,14.5,14z M12.5,23h-7C4.673,23,4,22.327,4,21.5V20h10v1.5C14,22.327,13.327,23,12.5,23z"/>
			<path d="M8.5,6h-1C7.224,6,7,6.224,7,6.5S7.224,7,7.5,7h1C8.776,7,9,6.776,9,6.5S8.776,6,8.5,6z"/>
			<path d="M9,20.5c-0.551,0-1,0.448-1,1s0.449,1,1,1s1-0.448,1-1S9.551,20.5,9,20.5z M9,21.5L9,21.5h0.5H9z"/>
		</g>
	</g>
</g>
<g id="Invisible_Shape">
	<rect fill="none" width="24" height="24"/>
</g>
</svg>
