<?xml version="1.0" encoding="utf-8"?>
<!-- Generator: Adobe Illustrator 16.0.3, SVG Export Plug-In . SVG Version: 6.00 Build 0)  -->
<!DOCTYPE svg PUBLIC "-//W3C//DTD SVG 1.1//EN" "http://www.w3.org/Graphics/SVG/1.1/DTD/svg11.dtd">
<svg version="1.1" xmlns="http://www.w3.org/2000/svg" xmlns:xlink="http://www.w3.org/1999/xlink" x="0px" y="0px" width="24px"
	 height="24px" viewBox="0 0 24 24" enable-background="new 0 0 24 24" xml:space="preserve">
<g id="Outline_Icons_1_">
	<g id="Outline_Icons">
	</g>
	<g id="New_icons_1_">
		<g>
			<path d="M16.5,0h-9C6.122,0,5,1.121,5,2.5v19C5,22.879,6.122,24,7.5,24h9c1.378,0,2.5-1.121,2.5-2.5v-19
				C19,1.121,17.878,0,16.5,0z M6,5h12v14H6V5z M7.5,1h9C17.327,1,18,1.673,18,2.5V4H6V2.5C6,1.673,6.673,1,7.5,1z M16.5,23h-9
				C6.673,23,6,22.327,6,21.5V20h12v1.5C18,22.327,17.327,23,16.5,23z"/>
			<path d="M9.5,3h5C14.776,3,15,2.776,15,2.5S14.776,2,14.5,2h-5C9.224,2,9,2.224,9,2.5S9.224,3,9.5,3z"/>
			<path d="M12,20.5c-0.551,0-1,0.448-1,1s0.449,1,1,1s1-0.448,1-1S12.551,20.5,12,20.5z M12,21.501L12,21.501l0.5-0.001L12,21.501z
				"/>
			<path d="M17.47,10.33C17.398,10.132,17.21,10,17,10h-3.17l-1.37-3.197c-0.157-0.367-0.762-0.367-0.919,0L10.17,10H7
				c-0.21,0-0.398,0.132-0.47,0.33c-0.072,0.197-0.012,0.419,0.15,0.554l2.728,2.273l-1.375,3.667
				c-0.08,0.214-0.005,0.455,0.182,0.586c0.187,0.129,0.439,0.119,0.612-0.03L12,14.658l3.175,2.722
				c0.093,0.08,0.209,0.12,0.325,0.12c0.1,0,0.2-0.03,0.287-0.09c0.187-0.131,0.262-0.372,0.182-0.586l-1.375-3.667l2.728-2.273
				C17.482,10.749,17.542,10.527,17.47,10.33z M13.68,12.616c-0.163,0.136-0.223,0.36-0.148,0.56l0.817,2.18l-2.024-1.735
				C12.232,13.54,12.116,13.5,12,13.5s-0.232,0.04-0.325,0.12l-2.024,1.735l0.817-2.18c0.075-0.199,0.015-0.424-0.148-0.56L8.381,11
				H10.5c0.2,0,0.381-0.119,0.459-0.303L12,8.27l1.041,2.428C13.119,10.881,13.3,11,13.5,11h2.119L13.68,12.616z"/>
		</g>
	</g>
</g>
<g id="Invisible_Shape">
	<rect fill="none" width="24" height="24"/>
</g>
</svg>
