<?xml version="1.0" encoding="utf-8"?>
<!-- Generator: Adobe Illustrator 16.0.3, SVG Export Plug-In . SVG Version: 6.00 Build 0)  -->
<!DOCTYPE svg PUBLIC "-//W3C//DTD SVG 1.1//EN" "http://www.w3.org/Graphics/SVG/1.1/DTD/svg11.dtd">
<svg version="1.1" xmlns="http://www.w3.org/2000/svg" xmlns:xlink="http://www.w3.org/1999/xlink" x="0px" y="0px" width="24px"
	 height="24px" viewBox="0 0 24 24" enable-background="new 0 0 24 24" xml:space="preserve">
<g id="Outline_Icons_1_">
	<g id="Outline_Icons">
		<g>
			<path d="M22,1H10C8.897,1,8,1.897,8,3v7c0,1.103,0.897,2,2,2h12c1.103,0,2-0.897,2-2V3C24,1.897,23.103,1,22,1z M23,10
				c0,0.552-0.449,1-1,1H10c-0.551,0-1-0.448-1-1V3c0-0.552,0.449-1,1-1h12c0.551,0,1,0.448,1,1V10z"/>
			<path d="M21.922,3.731c-0.147-0.232-0.457-0.302-0.69-0.153L16,6.907l-5.231-3.329c-0.233-0.147-0.542-0.079-0.69,0.153
				c-0.148,0.233-0.08,0.542,0.153,0.69L13.497,6.5l-3.266,2.078c-0.233,0.148-0.302,0.457-0.153,0.69
				C10.173,9.418,10.335,9.5,10.5,9.5c0.092,0,0.185-0.025,0.268-0.078l3.66-2.329l1.303,0.829C15.813,7.974,15.907,8,16,8
				s0.187-0.026,0.269-0.078l1.303-0.829l3.66,2.329C21.315,9.475,21.408,9.5,21.5,9.5c0.165,0,0.327-0.082,0.422-0.231
				c0.148-0.233,0.08-0.542-0.153-0.69L18.503,6.5l3.266-2.078C22.001,4.273,22.07,3.965,21.922,3.731z"/>
			<path d="M11.5,14c-0.276,0-0.5,0.224-0.5,0.5V19H1V9h4.5C5.776,9,6,8.776,6,8.5S5.776,8,5.5,8H1V6.5C1,5.673,1.673,5,2.5,5h3
				C5.776,5,6,4.776,6,4.5S5.776,4,5.5,4h-3C1.122,4,0,5.121,0,6.5v15C0,22.879,1.122,24,2.5,24h7c1.378,0,2.5-1.121,2.5-2.5v-7
				C12,14.224,11.776,14,11.5,14z M9.5,23h-7C1.673,23,1,22.327,1,21.5V20h10v1.5C11,22.327,10.327,23,9.5,23z"/>
			<path d="M5.5,6h-1C4.224,6,4,6.224,4,6.5S4.224,7,4.5,7h1C5.776,7,6,6.776,6,6.5S5.776,6,5.5,6z"/>
			<path d="M6,20.5c-0.551,0-1,0.448-1,1s0.449,1,1,1s1-0.448,1-1S6.551,20.5,6,20.5z M6,21.5L6,21.5h0.5H6z"/>
		</g>
	</g>
	<g id="New_icons_1_">
	</g>
</g>
<g id="Invisible_Shape">
	<rect fill="none" width="24" height="24"/>
</g>
</svg>
