<?xml version="1.0" encoding="utf-8"?>
<!-- Generator: Adobe Illustrator 16.0.3, SVG Export Plug-In . SVG Version: 6.00 Build 0)  -->
<!DOCTYPE svg PUBLIC "-//W3C//DTD SVG 1.1//EN" "http://www.w3.org/Graphics/SVG/1.1/DTD/svg11.dtd">
<svg version="1.1" xmlns="http://www.w3.org/2000/svg" xmlns:xlink="http://www.w3.org/1999/xlink" x="0px" y="0px" width="24px"
	 height="24px" viewBox="0 0 24 24" enable-background="new 0 0 24 24" xml:space="preserve">
<g id="Outline_Icons_1_">
	<g id="Outline_Icons">
		<g>
			<path d="M12,11.604c-0.866,0-1.57-0.704-1.57-1.57s0.705-1.57,1.57-1.57c0.865,0,1.568,0.704,1.568,1.57
				c0,0.276,0.224,0.5,0.5,0.5s0.5-0.224,0.5-0.5c0-1.246-0.891-2.286-2.068-2.52V6.583c0-0.276-0.224-0.5-0.5-0.5
				s-0.5,0.224-0.5,0.5v0.932c-1.179,0.233-2.07,1.273-2.07,2.52c0,1.417,1.153,2.57,2.57,2.57c0.865,0,1.568,0.704,1.568,1.57
				s-0.704,1.57-1.568,1.57c-0.866,0-1.57-0.704-1.57-1.57c0-0.276-0.224-0.5-0.5-0.5s-0.5,0.224-0.5,0.5
				c0,1.246,0.892,2.286,2.07,2.52v0.931c0,0.276,0.224,0.5,0.5,0.5s0.5-0.224,0.5-0.5v-0.931c1.177-0.233,2.068-1.273,2.068-2.52
				C14.568,12.758,13.416,11.604,12,11.604z"/>
			<path d="M16.5,0h-9C6.122,0,5,1.121,5,2.5v19C5,22.879,6.122,24,7.5,24h9c1.378,0,2.5-1.121,2.5-2.5v-19
				C19,1.121,17.878,0,16.5,0z M6,5h12v14H6V5z M7.5,1h9C17.327,1,18,1.673,18,2.5V4H6V2.5C6,1.673,6.673,1,7.5,1z M16.5,23h-9
				C6.673,23,6,22.327,6,21.5V20h12v1.5C18,22.327,17.327,23,16.5,23z"/>
			<path d="M9.5,3h5C14.776,3,15,2.776,15,2.5S14.776,2,14.5,2h-5C9.224,2,9,2.224,9,2.5S9.224,3,9.5,3z"/>
			<path d="M12,20.5c-0.551,0-1,0.448-1,1s0.449,1,1,1s1-0.448,1-1S12.551,20.5,12,20.5z M12,21.5L12,21.5h0.5H12z"/>
		</g>
	</g>
	<g id="New_icons_1_">
	</g>
</g>
<g id="Invisible_Shape">
	<rect fill="none" width="24" height="24"/>
</g>
</svg>
