<?xml version="1.0" encoding="utf-8"?>
<!-- Generator: Adobe Illustrator 16.0.3, SVG Export Plug-In . SVG Version: 6.00 Build 0)  -->
<!DOCTYPE svg PUBLIC "-//W3C//DTD SVG 1.1//EN" "http://www.w3.org/Graphics/SVG/1.1/DTD/svg11.dtd">
<svg version="1.1" xmlns="http://www.w3.org/2000/svg" xmlns:xlink="http://www.w3.org/1999/xlink" x="0px" y="0px" width="24px"
	 height="24px" viewBox="0 0 24 24" enable-background="new 0 0 24 24" xml:space="preserve">
<g id="Outline_Icons_1_">
	<g id="Outline_Icons">
		<g>
			<path d="M9.5,3h5C14.776,3,15,2.776,15,2.5S14.776,2,14.5,2h-5C9.224,2,9,2.224,9,2.5S9.224,3,9.5,3z"/>
			<path d="M18.668,13.458l-2.5-0.893c-0.154-0.055-0.326-0.03-0.459,0.064l-2.747,1.97l-3.725-2.004
				c-0.157-0.085-0.346-0.08-0.497,0.014l-3.5,2.128C5.091,14.827,5,14.989,5,15.164V21.5C5,22.879,6.122,24,7.5,24h9
				c1.378,0,2.5-1.121,2.5-2.5v-7.571C19,13.718,18.867,13.529,18.668,13.458z M9.015,13.612l3.748,2.016
				c0.168,0.09,0.373,0.077,0.528-0.034l2.787-1.999L18,14.281V19H6v-3.555L9.015,13.612z M16.5,23h-9C6.673,23,6,22.327,6,21.5V20
				h12v1.5C18,22.327,17.327,23,16.5,23z"/>
			<path d="M16.5,0h-9C6.122,0,5,1.121,5,2.5v8.51c0,0.18,0.097,0.346,0.253,0.435c0.156,0.09,0.349,0.087,0.503-0.005l3.037-1.811
				l3.97,1.885c0.068,0.033,0.142,0.049,0.214,0.049c0.114,0,0.227-0.039,0.318-0.114l2.892-2.386l2.155,0.721
				c0.151,0.048,0.32,0.023,0.451-0.068C18.923,9.62,19,9.47,19,9.309V2.5C19,1.121,17.878,0,16.5,0z M7.5,1h9
				C17.327,1,18,1.673,18,2.5V4H6V2.5C6,1.673,6.673,1,7.5,1z M16.241,8.025c-0.163-0.053-0.344-0.021-0.477,0.089l-2.86,2.36
				L8.98,8.611C8.912,8.578,8.839,8.562,8.766,8.562c-0.089,0-0.177,0.023-0.256,0.07L6,10.13V5h12v3.614L16.241,8.025z"/>
			<path d="M3,11H0.5C0.224,11,0,11.224,0,11.5S0.224,12,0.5,12H3c0.276,0,0.5-0.224,0.5-0.5S3.276,11,3,11z"/>
			<path d="M2.146,8.854C2.244,8.951,2.372,9,2.5,9s0.256-0.049,0.354-0.146c0.195-0.195,0.195-0.512,0-0.707l-2-2
				c-0.195-0.195-0.512-0.195-0.707,0s-0.195,0.512,0,0.707L2.146,8.854z"/>
			<path d="M2.146,14.146l-2,2c-0.195,0.195-0.195,0.512,0,0.707C0.244,16.951,0.372,17,0.5,17s0.256-0.049,0.354-0.146l2-2
				c0.195-0.195,0.195-0.512,0-0.707S2.342,13.951,2.146,14.146z"/>
			<path d="M23.5,11H21c-0.276,0-0.5,0.224-0.5,0.5S20.724,12,21,12h2.5c0.276,0,0.5-0.224,0.5-0.5S23.776,11,23.5,11z"/>
			<path d="M21.5,9c0.128,0,0.256-0.049,0.354-0.146l2-2c0.195-0.195,0.195-0.512,0-0.707s-0.512-0.195-0.707,0l-2,2
				c-0.195,0.195-0.195,0.512,0,0.707C21.244,8.951,21.372,9,21.5,9z"/>
			<path d="M21.854,14.146c-0.195-0.195-0.512-0.195-0.707,0s-0.195,0.512,0,0.707l2,2C23.244,16.951,23.372,17,23.5,17
				s0.256-0.049,0.354-0.146c0.195-0.195,0.195-0.512,0-0.707L21.854,14.146z"/>
			<path d="M12,20.5c-0.551,0-1,0.448-1,1s0.449,1,1,1s1-0.448,1-1S12.551,20.5,12,20.5z M12,21.5L12,21.5h0.5H12z"/>
		</g>
	</g>
	<g id="New_icons_1_">
	</g>
</g>
<g id="Invisible_Shape">
	<rect fill="none" width="24" height="24"/>
</g>
</svg>
