<?xml version="1.0" encoding="utf-8"?>
<!-- Generator: Adobe Illustrator 16.0.3, SVG Export Plug-In . SVG Version: 6.00 Build 0)  -->
<!DOCTYPE svg PUBLIC "-//W3C//DTD SVG 1.1//EN" "http://www.w3.org/Graphics/SVG/1.1/DTD/svg11.dtd">
<svg version="1.1" xmlns="http://www.w3.org/2000/svg" xmlns:xlink="http://www.w3.org/1999/xlink" x="0px" y="0px" width="24px"
	 height="24px" viewBox="0 0 24 24" enable-background="new 0 0 24 24" xml:space="preserve">
<g id="Outline_Icons_1_">
	<g id="Outline_Icons">
	</g>
	<g id="New_icons_1_">
		<g>
			<path d="M17.5,6h-5C12.224,6,12,6.224,12,6.5S12.224,7,12.5,7h5C17.776,7,18,6.776,18,6.5S17.776,6,17.5,6z"/>
			<path d="M15.5,8h-3C12.224,8,12,8.224,12,8.5S12.224,9,12.5,9h3C15.776,9,16,8.776,16,8.5S15.776,8,15.5,8z"/>
			<path d="M12.5,14c-0.276,0-0.5,0.224-0.5,0.5V19H2V9h4.5C6.776,9,7,8.776,7,8.5S6.776,8,6.5,8H2V6.5C2,5.673,2.673,5,3.5,5h3
				C6.776,5,7,4.776,7,4.5S6.776,4,6.5,4h-3C2.122,4,1,5.121,1,6.5v15C1,22.879,2.122,24,3.5,24h7c1.378,0,2.5-1.121,2.5-2.5v-7
				C13,14.224,12.776,14,12.5,14z M10.5,23h-7C2.673,23,2,22.327,2,21.5V20h10v1.5C12,22.327,11.327,23,10.5,23z"/>
			<path d="M6.5,6h-1C5.224,6,5,6.224,5,6.5S5.224,7,5.5,7h1C6.776,7,7,6.776,7,6.5S6.776,6,6.5,6z"/>
			<path d="M7,20.5c-0.551,0-1,0.448-1,1s0.449,1,1,1s1-0.448,1-1S7.551,20.5,7,20.5z M7,21.5L7,21.5h0.5H7z"/>
			<path d="M20.5,1h-9C10.122,1,9,2.121,9,3.5v6c0,1.379,1.122,2.5,2.5,2.5h9c1.378,0,2.5-1.121,2.5-2.5v-6
				C23,2.121,21.878,1,20.5,1z M11.5,2h9C21.327,2,22,2.673,22,3.5V4H10V3.5C10,2.673,10.673,2,11.5,2z M20.5,11h-9
				c-0.827,0-1.5-0.673-1.5-1.5V5h12v4.5C22,10.327,21.327,11,20.5,11z"/>
		</g>
	</g>
</g>
<g id="Invisible_Shape">
	<rect fill="none" width="24" height="24"/>
</g>
</svg>
