<?xml version="1.0" encoding="utf-8"?>
<!-- Generator: Adobe Illustrator 16.0.3, SVG Export Plug-In . SVG Version: 6.00 Build 0)  -->
<!DOCTYPE svg PUBLIC "-//W3C//DTD SVG 1.1//EN" "http://www.w3.org/Graphics/SVG/1.1/DTD/svg11.dtd">
<svg version="1.1" xmlns="http://www.w3.org/2000/svg" xmlns:xlink="http://www.w3.org/1999/xlink" x="0px" y="0px" width="24px"
	 height="24px" viewBox="0 0 24 24" enable-background="new 0 0 24 24" xml:space="preserve">
<g id="Outline_Icons_1_">
	<g id="Outline_Icons">
	</g>
	<g id="New_icons_1_">
		<g>
			<path d="M13.5,14c-0.276,0-0.5,0.224-0.5,0.5V19H3V9h4.5C7.776,9,8,8.776,8,8.5S7.776,8,7.5,8H3V6.5C3,5.673,3.673,5,4.5,5h3
				C7.776,5,8,4.776,8,4.5S7.776,4,7.5,4h-3C3.122,4,2,5.121,2,6.5v15C2,22.879,3.122,24,4.5,24h7c1.378,0,2.5-1.121,2.5-2.5v-7
				C14,14.224,13.776,14,13.5,14z M11.5,23h-7C3.673,23,3,22.327,3,21.5V20h10v1.5C13,22.327,12.327,23,11.5,23z"/>
			<path d="M7.5,6h-1C6.224,6,6,6.224,6,6.5S6.224,7,6.5,7h1C7.776,7,8,6.776,8,6.5S7.776,6,7.5,6z"/>
			<path d="M8,20.5c-0.551,0-1,0.448-1,1s0.449,1,1,1s1-0.448,1-1S8.551,20.5,8,20.5z M8,21.5L8,21.5h0.5H8z"/>
			<path d="M15,2c-2.757,0-5,2.243-5,5s2.243,5,5,5s5-2.243,5-5S17.757,2,15,2z M15,11c-2.206,0-4-1.794-4-4s1.794-4,4-4
				s4,1.794,4,4S17.206,11,15,11z"/>
			<path d="M15,5c-1.103,0-2,0.897-2,2s0.897,2,2,2s2-0.897,2-2S16.103,5,15,5z M15,8c-0.551,0-1-0.448-1-1s0.449-1,1-1s1,0.448,1,1
				S15.551,8,15,8z"/>
		</g>
	</g>
</g>
<g id="Invisible_Shape">
	<rect fill="none" width="24" height="24"/>
</g>
</svg>
