<?xml version="1.0" encoding="utf-8"?>
<!-- Generator: Adobe Illustrator 16.0.3, SVG Export Plug-In . SVG Version: 6.00 Build 0)  -->
<!DOCTYPE svg PUBLIC "-//W3C//DTD SVG 1.1//EN" "http://www.w3.org/Graphics/SVG/1.1/DTD/svg11.dtd">
<svg version="1.1" xmlns="http://www.w3.org/2000/svg" xmlns:xlink="http://www.w3.org/1999/xlink" x="0px" y="0px" width="24px"
	 height="24px" viewBox="0 0 24 24" enable-background="new 0 0 24 24" xml:space="preserve">
<g id="Outline_Icons_1_">
	<g id="Outline_Icons">
	</g>
	<g id="New_icons_1_">
		<g>
			<path d="M5.854,0.647C5.808,0.601,5.752,0.563,5.691,0.538c-0.122-0.05-0.26-0.05-0.382,0C5.248,0.563,5.192,0.601,5.146,0.647
				l-3,2.999c-0.195,0.195-0.195,0.512,0,0.707s0.512,0.195,0.707,0L5,2.207V11c0,0.276,0.224,0.5,0.5,0.5S6,11.276,6,11V2.207
				l2.146,2.146C8.244,4.451,8.372,4.5,8.5,4.5s0.256-0.049,0.354-0.146c0.195-0.195,0.195-0.512,0-0.707L5.854,0.647z"/>
			<path d="M17.854,7.646c-0.195-0.195-0.512-0.195-0.707,0L15,9.793V1c0-0.276-0.224-0.5-0.5-0.5S14,0.724,14,1v8.793l-2.146-2.146
				c-0.195-0.195-0.512-0.195-0.707,0s-0.195,0.512,0,0.707l3,2.999c0.046,0.047,0.102,0.084,0.163,0.109
				C14.37,11.486,14.435,11.5,14.5,11.5s0.13-0.014,0.191-0.038c0.062-0.025,0.117-0.062,0.163-0.109l3-2.999
				C18.049,8.158,18.049,7.842,17.854,7.646z"/>
			<path d="M14.5,13h-1c-1.378,0-2.5,1.121-2.5,2.5v5c0,1.379,1.122,2.5,2.5,2.5h1c1.378,0,2.5-1.121,2.5-2.5v-2.001
				c0-0.276-0.224-0.5-0.5-0.5h-3c-0.276,0-0.5,0.224-0.5,0.5s0.224,0.5,0.5,0.5H16V20.5c0,0.827-0.673,1.5-1.5,1.5h-1
				c-0.827,0-1.5-0.673-1.5-1.5v-5c0-0.827,0.673-1.5,1.5-1.5h1c0.827,0,1.5,0.673,1.5,1.5v1c0,0.276,0.224,0.5,0.5,0.5
				s0.5-0.224,0.5-0.5v-1C17,14.121,15.878,13,14.5,13z"/>
			<path d="M8,14c0.276,0,0.5-0.224,0.5-0.5S8.276,13,8,13l-4.5,0.001c-0.276,0-0.5,0.224-0.5,0.5V17.5
				c0,0.133,0.053,0.26,0.146,0.354S3.368,18,3.5,18h0l2.419-0.002c1.375,0,1.58,1.187,1.58,1.895C7.5,20.387,7.386,22,5.92,22H3.5
				C3.224,22,3,22.224,3,22.5S3.224,23,3.5,23h2.42c1.904,0,2.58-1.674,2.58-3.107c0-1.399-0.678-2.895-2.581-2.895L4,17v-2.999
				L8,14z"/>
		</g>
	</g>
</g>
<g id="Invisible_Shape">
	<rect fill="none" width="24" height="24"/>
</g>
</svg>
