<?xml version="1.0" encoding="utf-8"?>
<!-- Generator: Adobe Illustrator 16.0.3, SVG Export Plug-In . SVG Version: 6.00 Build 0)  -->
<!DOCTYPE svg PUBLIC "-//W3C//DTD SVG 1.1//EN" "http://www.w3.org/Graphics/SVG/1.1/DTD/svg11.dtd">
<svg version="1.1" xmlns="http://www.w3.org/2000/svg" xmlns:xlink="http://www.w3.org/1999/xlink" x="0px" y="0px" width="24px"
	 height="24px" viewBox="0 0 24 24" enable-background="new 0 0 24 24" xml:space="preserve">
<g id="Outline_Icons">
	<g>
		<path d="M12,24C5.383,24,0,18.617,0,12S5.383,0,12,0s12,5.383,12,12S18.617,24,12,24z M12,1C5.935,1,1,5.935,1,12s4.935,11,11,11
			s11-4.935,11-11S18.065,1,12,1z"/>
		<path d="M16.5,17h-9C7.224,17,7,16.776,7,16.5v-2C7,14.224,7.224,14,7.5,14h9c0.276,0,0.5,0.224,0.5,0.5v2
			C17,16.776,16.776,17,16.5,17z M8,16h8v-1H8V16z"/>
		<path d="M16.5,13h-9c-0.197,0-0.376-0.116-0.457-0.297c-0.081-0.18-0.047-0.391,0.085-0.538l4.5-5
			c0.189-0.209,0.554-0.209,0.743,0l4.5,5c0.132,0.147,0.166,0.358,0.085,0.538C16.876,12.884,16.697,13,16.5,13z M8.623,12h6.755
			L12,8.247L8.623,12z"/>
	</g>
</g>
<g id="Invisible_Shape">
	<rect fill="none" width="24" height="24"/>
</g>
</svg>
