<?xml version="1.0" encoding="utf-8"?>
<!-- Generator: Adobe Illustrator 16.0.3, SVG Export Plug-In . SVG Version: 6.00 Build 0)  -->
<!DOCTYPE svg PUBLIC "-//W3C//DTD SVG 1.1//EN" "http://www.w3.org/Graphics/SVG/1.1/DTD/svg11.dtd">
<svg version="1.1" xmlns="http://www.w3.org/2000/svg" xmlns:xlink="http://www.w3.org/1999/xlink" x="0px" y="0px" width="24px"
	 height="24px" viewBox="0 0 24 24" enable-background="new 0 0 24 24" xml:space="preserve">
<g id="Outline_Icons">
	<path d="M18,13.5c1.469,0,2.85-0.572,3.889-1.611c2.144-2.145,2.144-5.634,0-7.779C20.851,3.072,19.47,2.5,18,2.5
		s-2.851,0.572-3.89,1.61c-1.505,1.505-1.93,3.667-1.323,5.567L12,10.465l-0.788-0.788c0.607-1.9,0.182-4.062-1.323-5.567
		C8.85,3.072,7.469,2.5,6,2.5s-2.85,0.572-3.889,1.61c-2.144,2.145-2.144,5.635,0,7.779C3.149,12.929,4.531,13.5,6,13.5
		c0.582,0,1.141-0.114,1.679-0.287L8.465,14l-2.132,2.132c-0.975,0.975-0.976,2.561-0.001,3.535c0.472,0.473,1.1,0.732,1.768,0.732
		c0.668,0,1.296-0.26,1.769-0.732L12,17.535l2.131,2.132c0.472,0.473,1.1,0.732,1.769,0.732c0.668,0,1.296-0.26,1.768-0.732
		c0.975-0.974,0.974-2.56-0.001-3.535L15.535,14l0.786-0.786C16.859,13.387,17.419,13.5,18,13.5z M21.182,4.817
		c1.303,1.304,1.634,3.214,1,4.83l-3.159,0.269l0.873-3.198c0.047-0.173-0.002-0.358-0.129-0.485
		c-0.126-0.128-0.312-0.176-0.485-0.129l-3.199,0.872l0.27-3.159C16.872,3.613,17.427,3.5,18,3.5
		C19.203,3.5,20.333,3.968,21.182,4.817z M14.818,4.817c0.149-0.148,0.316-0.27,0.48-0.395l-0.271,3.182
		c-0.014,0.163,0.052,0.322,0.178,0.427c0.125,0.104,0.294,0.14,0.452,0.098l3.045-0.831l-0.831,3.044
		c-0.043,0.158-0.006,0.326,0.098,0.452c0.096,0.115,0.237,0.18,0.384,0.18c0.014,0,0.028,0,0.042-0.002l3.178-0.271
		c-0.124,0.164-0.243,0.331-0.392,0.48C20.332,12.033,19.202,12.5,18,12.5c-1.202,0-2.332-0.467-3.183-1.318
		C13.063,9.428,13.063,6.572,14.818,4.817z M2.818,4.817C3.667,3.968,4.797,3.5,6,3.5c0.574,0,1.129,0.113,1.647,0.317l0.27,3.159
		L4.717,6.104C4.545,6.058,4.358,6.105,4.232,6.233C4.105,6.36,4.056,6.546,4.103,6.719l0.873,3.198L1.817,9.647
		C1.184,8.031,1.515,6.121,2.818,4.817z M2.818,11.183c-0.149-0.149-0.268-0.316-0.392-0.48l3.178,0.271
		c0.014,0.002,0.028,0.002,0.042,0.002c0.147,0,0.289-0.065,0.384-0.18c0.104-0.125,0.141-0.293,0.098-0.452L5.298,7.299L8.344,8.13
		C8.5,8.174,8.669,8.137,8.795,8.032c0.125-0.105,0.192-0.264,0.178-0.427L8.702,4.423c0.165,0.125,0.332,0.246,0.48,0.395
		c1.755,1.755,1.755,4.61,0,6.365C8.332,12.033,7.202,12.5,6,12.5C4.798,12.5,3.668,12.033,2.818,11.183z M8.665,12.785
		c0.439-0.245,0.858-0.53,1.224-0.896c0.37-0.37,0.653-0.79,0.895-1.227l0.509,0.509l-2.121,2.121L8.665,12.785z M16.959,16.839
		c0.585,0.585,0.585,1.537,0,2.121c-0.565,0.568-1.554,0.566-2.122,0l-2.131-2.132l2.121-2.121L16.959,16.839z M9.162,18.96
		c-0.566,0.565-1.556,0.566-2.122,0c-0.584-0.584-0.584-1.536,0.001-2.121l6.175-6.176c0.242,0.437,0.525,0.856,0.895,1.227
		c0.366,0.366,0.785,0.65,1.225,0.896L9.162,18.96z"/>
</g>
<g id="Invisible_Shape">
	<rect fill="none" width="24" height="24"/>
</g>
</svg>
