<?xml version="1.0" encoding="utf-8"?>
<!-- Generator: Adobe Illustrator 16.0.3, SVG Export Plug-In . SVG Version: 6.00 Build 0)  -->
<!DOCTYPE svg PUBLIC "-//W3C//DTD SVG 1.1//EN" "http://www.w3.org/Graphics/SVG/1.1/DTD/svg11.dtd">
<svg version="1.1" xmlns="http://www.w3.org/2000/svg" xmlns:xlink="http://www.w3.org/1999/xlink" x="0px" y="0px" width="24px"
	 height="24px" viewBox="0 0 24 24" enable-background="new 0 0 24 24" xml:space="preserve">
<g id="Outline_Icons">
	<g>
		<path d="M9.5,18c0.996,0,2.5,0,2.5-1.5v-3V8.768l5-3.333V11h-1.5c-1.208,0-2.5,0.657-2.5,2.5s1.292,2.5,2.5,2.5
			c0.996,0,2.5,0,2.5-1.5v-3v-7c0-0.185-0.102-0.354-0.264-0.44c-0.163-0.089-0.36-0.077-0.513,0.024l-6,4
			C11.083,8.177,11,8.333,11,8.5V13H9.5C8.292,13,7,13.657,7,15.5S8.292,18,9.5,18z M17,14.5c0,0.381-0.207,0.5-1.5,0.5
			c-0.684,0-1.5-0.26-1.5-1.5s0.816-1.5,1.5-1.5H17V14.5z M9.5,14H11v2.5c0,0.381-0.207,0.5-1.5,0.5C8.816,17,8,16.74,8,15.5
			S8.816,14,9.5,14z"/>
		<path d="M23.5,1h-23C0.224,1,0,1.224,0,1.5v20C0,21.776,0.224,22,0.5,22h23c0.276,0,0.5-0.224,0.5-0.5v-20
			C24,1.224,23.776,1,23.5,1z M1,2h2v19H1V2z M23,21H4V2h19V21z"/>
	</g>
</g>
<g id="Invisible_Shape">
	<rect fill="none" width="24" height="24"/>
</g>
</svg>
