<?xml version="1.0" encoding="utf-8"?>
<!-- Generator: Adobe Illustrator 16.0.3, SVG Export Plug-In . SVG Version: 6.00 Build 0)  -->
<!DOCTYPE svg PUBLIC "-//W3C//DTD SVG 1.1//EN" "http://www.w3.org/Graphics/SVG/1.1/DTD/svg11.dtd">
<svg version="1.1" xmlns="http://www.w3.org/2000/svg" xmlns:xlink="http://www.w3.org/1999/xlink" x="0px" y="0px" width="24px"
	 height="24px" viewBox="0 0 24 24" enable-background="new 0 0 24 24" xml:space="preserve">
<g id="Outline_Icons">
	<path d="M21.5,4H19V3.5C19,3.224,18.776,3,18.5,3h-2C16.224,3,16,3.224,16,3.5V4h-1V3.5C15,3.224,14.776,3,14.5,3h-2
		C12.224,3,12,3.224,12,3.5V4h-1V3.5C11,3.224,10.776,3,10.5,3h-2C8.224,3,8,3.224,8,3.5V4H7V3.5C7,3.224,6.776,3,6.5,3h-2
		C4.224,3,4,3.224,4,3.5V4H1.5C1.224,4,1,4.224,1,4.5v15C1,19.776,1.224,20,1.5,20h20c0.276,0,0.5-0.224,0.5-0.5v-15
		C22,4.224,21.776,4,21.5,4z M17,4h1v9h-1V4z M16,5v8.5c0,0.276,0.224,0.5,0.5,0.5H17v5h-3v-5h0.5c0.276,0,0.5-0.224,0.5-0.5V5H16z
		 M13,4h1v9h-1V4z M12,5v8.5c0,0.276,0.224,0.5,0.5,0.5H13v5h-3v-5h0.5c0.276,0,0.5-0.224,0.5-0.5V5H12z M9,4h1v9H9V4z M8,5v8.5
		C8,13.776,8.224,14,8.5,14H9v5H6v-5h0.5C6.776,14,7,13.776,7,13.5V5H8z M5,4h1v9H5V4z M2,5h2v8.5C4,13.776,4.224,14,4.5,14H5v5H2V5
		z M21,19h-3v-5h0.5c0.276,0,0.5-0.224,0.5-0.5V5h2V19z"/>
</g>
<g id="Invisible_Shape">
	<rect fill="none" width="24" height="24"/>
</g>
</svg>
