<?xml version="1.0" encoding="utf-8"?>
<!-- Generator: Adobe Illustrator 16.0.3, SVG Export Plug-In . SVG Version: 6.00 Build 0)  -->
<!DOCTYPE svg PUBLIC "-//W3C//DTD SVG 1.1//EN" "http://www.w3.org/Graphics/SVG/1.1/DTD/svg11.dtd">
<svg version="1.1" xmlns="http://www.w3.org/2000/svg" xmlns:xlink="http://www.w3.org/1999/xlink" x="0px" y="0px" width="24px"
	 height="24px" viewBox="0 0 24 24" enable-background="new 0 0 24 24" xml:space="preserve">
<g id="Outline_Icons">
	<g>
		<path d="M6.5,17C7.496,17,9,17,9,15.5v-3V7.768l5-3.333V10h-1.5c-1.208,0-2.5,0.657-2.5,2.5s1.292,2.5,2.5,2.5
			c0.996,0,2.5,0,2.5-1.5v-3v-7c0-0.185-0.102-0.354-0.264-0.44c-0.163-0.088-0.36-0.078-0.513,0.024l-6,4
			C8.083,7.177,8,7.333,8,7.5V12H6.5C5.292,12,4,12.657,4,14.5S5.292,17,6.5,17z M14,13.5c0,0.381-0.207,0.5-1.5,0.5
			c-0.684,0-1.5-0.26-1.5-1.5s0.816-1.5,1.5-1.5H14V13.5z M6.5,13H8v2.5C8,15.881,7.793,16,6.5,16C5.816,16,5,15.74,5,14.5
			S5.816,13,6.5,13z"/>
		<path d="M21,20.5v-20C21,0.224,20.776,0,20.5,0h-20C0.224,0,0,0.224,0,0.5v20C0,20.776,0.224,21,0.5,21h20
			C20.776,21,21,20.776,21,20.5z M20,20H1V1h19V20z"/>
		<path d="M23.5,3h-1C22.224,3,22,3.224,22,3.5S22.224,4,22.5,4H23v19H4v-0.5C4,22.224,3.776,22,3.5,22S3,22.224,3,22.5v1
			C3,23.776,3.224,24,3.5,24h20c0.276,0,0.5-0.224,0.5-0.5v-20C24,3.224,23.776,3,23.5,3z"/>
	</g>
</g>
<g id="Invisible_Shape">
	<rect fill="none" width="24" height="24"/>
</g>
</svg>
