<?xml version="1.0" encoding="utf-8"?>
<!-- Generator: Adobe Illustrator 16.0.3, SVG Export Plug-In . SVG Version: 6.00 Build 0)  -->
<!DOCTYPE svg PUBLIC "-//W3C//DTD SVG 1.1//EN" "http://www.w3.org/Graphics/SVG/1.1/DTD/svg11.dtd">
<svg version="1.1" xmlns="http://www.w3.org/2000/svg" xmlns:xlink="http://www.w3.org/1999/xlink" x="0px" y="0px" width="24px"
	 height="24px" viewBox="0 0 24 24" enable-background="new 0 0 24 24" xml:space="preserve">
<g id="Outline_Icons">
	<g>
		<path d="M12,24C5.383,24,0,18.617,0,12S5.383,0,12,0s12,5.383,12,12S18.617,24,12,24z M12,1C5.935,1,1,5.935,1,12s4.935,11,11,11
			s11-4.935,11-11S18.065,1,12,1z"/>
		<path d="M11,17c-0.113,0-0.226-0.038-0.316-0.113l-5.5-4.5C5.067,12.292,5,12.15,5,12s0.067-0.292,0.184-0.387l5.5-4.5
			c0.148-0.124,0.355-0.148,0.531-0.065C11.389,7.131,11.5,7.307,11.5,7.5v2.065l3.723-2.481c0.153-0.103,0.351-0.112,0.513-0.024
			C15.898,7.146,16,7.315,16,7.5v9c0,0.185-0.102,0.354-0.264,0.44c-0.162,0.088-0.36,0.077-0.513-0.024L11.5,14.435V16.5
			c0,0.193-0.111,0.369-0.286,0.452C11.146,16.984,11.073,17,11,17z M11,13c0.097,0,0.194,0.028,0.277,0.084L15,15.565V8.435
			l-3.723,2.481c-0.153,0.102-0.352,0.113-0.513,0.024c-0.163-0.087-0.264-0.256-0.264-0.44V8.555L6.29,12l4.21,3.445V13.5
			c0-0.185,0.102-0.354,0.264-0.44C10.838,13.02,10.919,13,11,13z"/>
	</g>
</g>
<g id="Invisible_Shape">
	<rect fill="none" width="24" height="24"/>
</g>
</svg>
