<?xml version="1.0" encoding="utf-8"?>
<!-- Generator: Adobe Illustrator 16.0.3, SVG Export Plug-In . SVG Version: 6.00 Build 0)  -->
<!DOCTYPE svg PUBLIC "-//W3C//DTD SVG 1.1//EN" "http://www.w3.org/Graphics/SVG/1.1/DTD/svg11.dtd">
<svg version="1.1" xmlns="http://www.w3.org/2000/svg" xmlns:xlink="http://www.w3.org/1999/xlink" x="0px" y="0px" width="24px"
	 height="24px" viewBox="0 0 24 24" enable-background="new 0 0 24 24" xml:space="preserve">
<g id="Outline_Icons">
	<g>
		<path d="M12,14.5c-1.378,0-2.5-1.121-2.5-2.5s1.122-2.5,2.5-2.5s2.5,1.121,2.5,2.5S13.378,14.5,12,14.5z M12,10.5
			c-0.827,0-1.5,0.673-1.5,1.5s0.673,1.5,1.5,1.5s1.5-0.673,1.5-1.5S12.827,10.5,12,10.5z"/>
		<path d="M12,21c-4.962,0-9-4.037-9-9s4.038-9,9-9s9,4.037,9,9S16.962,21,12,21z M12,4c-4.411,0-8,3.589-8,8s3.589,8,8,8
			s8-3.589,8-8S16.411,4,12,4z"/>
		<path d="M21,24c-0.801,0-1.554-0.312-2.121-0.879l-1.524-1.524c-3.287,1.838-7.422,1.838-10.709,0l-1.524,1.524
			c-1.134,1.133-3.108,1.133-4.242,0c-1.169-1.17-1.169-3.072,0-4.242l1.524-1.524C1.484,15.714,1,13.871,1,12
			s0.484-3.714,1.403-5.354L0.879,5.121c-1.169-1.17-1.169-3.072,0-4.242c1.134-1.133,3.108-1.133,4.242,0l1.524,1.524
			c3.283-1.838,7.426-1.838,10.709,0l1.524-1.524c1.134-1.133,3.108-1.133,4.242,0c1.169,1.17,1.169,3.072,0,4.242l-1.524,1.524
			C22.516,8.287,23,10.13,23,12s-0.484,3.713-1.403,5.354l1.524,1.524c1.169,1.17,1.169,3.072,0,4.242
			C22.554,23.688,21.801,24,21,24z M17.436,20.471c0.129,0,0.257,0.05,0.354,0.146l1.797,1.797c0.756,0.756,2.072,0.756,2.828,0
			c0.78-0.779,0.78-2.049,0-2.828l-1.797-1.797c-0.163-0.163-0.193-0.416-0.074-0.613C21.496,15.607,22,13.817,22,12
			s-0.504-3.607-1.457-5.176c-0.12-0.197-0.089-0.45,0.074-0.613l1.797-1.797c0.78-0.779,0.78-2.049,0-2.828
			c-0.756-0.756-2.072-0.756-2.828,0l-1.797,1.797c-0.162,0.164-0.416,0.193-0.613,0.074c-3.138-1.906-7.214-1.906-10.352,0
			c-0.196,0.119-0.45,0.09-0.613-0.074L4.414,1.586c-0.756-0.756-2.072-0.756-2.828,0c-0.78,0.779-0.78,2.049,0,2.828l1.797,1.797
			c0.163,0.163,0.193,0.416,0.074,0.613C2.503,8.392,2,10.182,2,12s0.503,3.608,1.457,5.176c0.12,0.197,0.089,0.45-0.074,0.613
			l-1.797,1.797c-0.78,0.779-0.78,2.049,0,2.828c0.756,0.756,2.072,0.756,2.828,0l1.797-1.797c0.163-0.164,0.417-0.192,0.613-0.074
			c3.142,1.906,7.211,1.906,10.353,0C17.256,20.494,17.346,20.471,17.436,20.471z"/>
		<circle cx="3" cy="3" r="1"/>
		<circle cx="21" cy="3" r="1"/>
		<circle cx="21" cy="21" r="1"/>
		<circle cx="3" cy="21" r="1"/>
	</g>
</g>
<g id="Invisible_Shape">
	<rect fill="none" width="24" height="24"/>
</g>
</svg>
