<?xml version="1.0" encoding="utf-8"?>
<!-- Generator: Adobe Illustrator 16.0.3, SVG Export Plug-In . SVG Version: 6.00 Build 0)  -->
<!DOCTYPE svg PUBLIC "-//W3C//DTD SVG 1.1//EN" "http://www.w3.org/Graphics/SVG/1.1/DTD/svg11.dtd">
<svg version="1.1" xmlns="http://www.w3.org/2000/svg" xmlns:xlink="http://www.w3.org/1999/xlink" x="0px" y="0px" width="24px"
	 height="24px" viewBox="0 0 24 24" enable-background="new 0 0 24 24" xml:space="preserve">
<g id="Outline_Icons">
	<g>
		<path d="M13.5,21c-3.591,0-7.058-2.041-8.555-5H3c-1.654,0-3-1.346-3-3v-2c0-1.654,1.346-3,3-3h1.945C6.442,5.041,9.909,3,13.5,3
			C13.776,3,14,3.224,14,3.5v17C14,20.776,13.776,21,13.5,21z M3,9c-1.103,0-2,0.897-2,2v2c0,1.103,0.897,2,2,2h2.26
			c0.196,0,0.375,0.115,0.456,0.294c1.171,2.588,4.18,4.503,7.285,4.69V4.016c-3.104,0.188-6.113,2.103-7.285,4.69
			C5.634,8.885,5.456,9,5.26,9H3z"/>
		<path d="M18.5,18c-0.179,0-0.353-0.097-0.442-0.266c-0.129-0.244-0.036-0.547,0.208-0.676c1.683-0.893,2.729-2.831,2.729-5.06
			c0-2.228-1.045-4.165-2.729-5.058c-0.244-0.129-0.337-0.432-0.208-0.676c0.129-0.243,0.434-0.338,0.676-0.207
			c2.012,1.065,3.261,3.342,3.261,5.94c0,2.601-1.25,4.877-3.261,5.942C18.66,17.981,18.58,18,18.5,18z"/>
		<path d="M17,16.5c-0.208,0-0.403-0.131-0.474-0.34c-0.088-0.261,0.052-0.545,0.313-0.634c1.587-0.538,2.152-2.234,2.153-3.524
			c0.001-1.289-0.562-2.986-2.153-3.528c-0.262-0.09-0.401-0.373-0.312-0.635c0.089-0.261,0.373-0.397,0.634-0.312
			c1.722,0.587,2.833,2.344,2.831,4.477c-0.002,2.133-1.113,3.888-2.832,4.471C17.107,16.491,17.053,16.5,17,16.5z"/>
	</g>
</g>
<g id="Invisible_Shape">
	<rect fill="none" width="24" height="24"/>
</g>
</svg>
