<?xml version="1.0" encoding="utf-8"?>
<!-- Generator: Adobe Illustrator 16.0.3, SVG Export Plug-In . SVG Version: 6.00 Build 0)  -->
<!DOCTYPE svg PUBLIC "-//W3C//DTD SVG 1.1//EN" "http://www.w3.org/Graphics/SVG/1.1/DTD/svg11.dtd">
<svg version="1.1" xmlns="http://www.w3.org/2000/svg" xmlns:xlink="http://www.w3.org/1999/xlink" x="0px" y="0px" width="24px"
	 height="24px" viewBox="0 0 24 24" enable-background="new 0 0 24 24" xml:space="preserve">
<g id="Outline_Icons">
	<g>
		<path d="M4.5,15C4.776,15,5,14.776,5,14.5S4.776,14,4.5,14H2c-0.551,0-1-0.448-1-1v-3c0-0.552,0.449-1,1-1h3.5
			c0.133,0,0.26-0.053,0.354-0.146L12,2.707V7c0,0.276,0.224,0.5,0.5,0.5S13,7.276,13,7V1.5c0-0.202-0.122-0.385-0.309-0.462
			c-0.187-0.076-0.402-0.034-0.545,0.108L5.293,8H2c-1.103,0-2,0.897-2,2v3c0,1.103,0.897,2,2,2H4.5z"/>
		<path d="M15.5,11c-0.276,0-0.5,0.224-0.5,0.5c0,1.103-0.897,2-2,2V13c0-0.276-0.224-0.5-0.5-0.5S12,12.724,12,13v7.293
			l-2.646-2.646c-0.195-0.195-0.512-0.195-0.707,0s-0.195,0.512,0,0.707l3.5,3.5C12.242,21.949,12.37,22,12.5,22
			c0.064,0,0.129-0.013,0.191-0.038C12.878,21.885,13,21.702,13,21.5v-7c1.654,0,3-1.346,3-3C16,11.224,15.776,11,15.5,11z"/>
		<path d="M21.854,1.146c-0.195-0.195-0.512-0.195-0.707,0l-20,20c-0.195,0.195-0.195,0.512,0,0.707C1.244,21.951,1.372,22,1.5,22
			s0.256-0.049,0.354-0.146l20-20C22.049,1.658,22.049,1.342,21.854,1.146z"/>
	</g>
</g>
<g id="Invisible_Shape">
	<rect fill="none" width="24" height="24"/>
</g>
</svg>
