<?xml version="1.0" encoding="utf-8"?>
<!-- Generator: Adobe Illustrator 16.0.3, SVG Export Plug-In . SVG Version: 6.00 Build 0)  -->
<!DOCTYPE svg PUBLIC "-//W3C//DTD SVG 1.1//EN" "http://www.w3.org/Graphics/SVG/1.1/DTD/svg11.dtd">
<svg version="1.1" xmlns="http://www.w3.org/2000/svg" xmlns:xlink="http://www.w3.org/1999/xlink" x="0px" y="0px" width="24px"
	 height="24px" viewBox="0 0 24 24" enable-background="new 0 0 24 24" xml:space="preserve">
<g id="Outline_Icons">
	<g>
		<path d="M17.5,11c-3.584,0-6.5,2.916-6.5,6.5s2.916,6.5,6.5,6.5s6.5-2.916,6.5-6.5S21.084,11,17.5,11z M17.5,23
			c-3.032,0-5.5-2.468-5.5-5.5c0-3.031,2.468-5.5,5.5-5.5s5.5,2.469,5.5,5.5C23,20.532,20.532,23,17.5,23z"/>
		<path d="M17.5,15.146c0.491,0,0.891,0.399,0.891,0.891c0,0.276,0.224,0.5,0.5,0.5s0.5-0.224,0.5-0.5
			c0-0.869-0.592-1.594-1.391-1.814v-0.504c0-0.276-0.224-0.5-0.5-0.5s-0.5,0.224-0.5,0.5v0.504
			c-0.799,0.221-1.391,0.945-1.391,1.814c0,1.043,0.848,1.891,1.891,1.891c0.491,0,0.891,0.4,0.891,0.893
			c0,0.491-0.399,0.891-0.891,0.891s-0.891-0.399-0.891-0.891c0-0.276-0.224-0.5-0.5-0.5s-0.5,0.224-0.5,0.5
			c0,0.869,0.592,1.594,1.391,1.814v0.502c0,0.276,0.224,0.5,0.5,0.5s0.5-0.224,0.5-0.5v-0.502c0.799-0.221,1.391-0.945,1.391-1.814
			c0-1.044-0.848-1.893-1.891-1.893c-0.491,0-0.891-0.399-0.891-0.891S17.009,15.146,17.5,15.146z"/>
		<path d="M10.5,21H1V1h10v4.5C11,5.776,11.224,6,11.5,6H16v3.5c0,0.276,0.224,0.5,0.5,0.5S17,9.776,17,9.5v-4
			c0-0.066-0.014-0.132-0.039-0.192c-0.025-0.062-0.062-0.116-0.108-0.161l-4.998-5c-0.046-0.045-0.101-0.082-0.162-0.107
			C11.632,0.014,11.566,0,11.5,0h-11C0.224,0,0,0.224,0,0.5v21C0,21.776,0.224,22,0.5,22h10c0.276,0,0.5-0.224,0.5-0.5
			S10.776,21,10.5,21z M12,1.707L15.293,5H12V1.707z"/>
		<path d="M7.5,7h-2C5.224,7,5,7.224,5,7.5V12H3.5C3.224,12,3,12.224,3,12.5V16H2.5C2.224,16,2,16.224,2,16.5S2.224,17,2.5,17h1h2h2
			h2c0.276,0,0.5-0.224,0.5-0.5v-6c0-0.276-0.224-0.5-0.5-0.5H8V7.5C8,7.224,7.776,7,7.5,7z M4,13h1v3H4V13z M6,12.5V8h1v2.5V16H6
			V12.5z M9,11v5H8v-5H9z"/>
	</g>
</g>
<g id="Invisible_Shape">
	<rect fill="none" width="24" height="24"/>
</g>
</svg>
