<?xml version="1.0" encoding="utf-8"?>
<!-- Generator: Adobe Illustrator 16.0.3, SVG Export Plug-In . SVG Version: 6.00 Build 0)  -->
<!DOCTYPE svg PUBLIC "-//W3C//DTD SVG 1.1//EN" "http://www.w3.org/Graphics/SVG/1.1/DTD/svg11.dtd">
<svg version="1.1" xmlns="http://www.w3.org/2000/svg" xmlns:xlink="http://www.w3.org/1999/xlink" x="0px" y="0px" width="24px"
	 height="24px" viewBox="0 0 24 24" enable-background="new 0 0 24 24" xml:space="preserve">
<g id="Outline_Icons">
	<g>
		<path d="M23.776,20.469c-0.275-0.608-0.771-1.073-1.397-1.308c-1.099-0.414-2.374,0.054-2.992,1.011l-3.426-1.283
			C15.98,18.762,16,18.633,16,18.5c0-0.225-0.039-0.438-0.095-0.645l3.645-1.82C20.018,16.631,20.721,17,21.502,17
			c0.39,0,0.765-0.089,1.115-0.264c0.597-0.298,1.043-0.812,1.254-1.445c0.211-0.633,0.163-1.311-0.135-1.908
			c-0.6-1.2-2.145-1.723-3.354-1.119c-1.08,0.539-1.599,1.761-1.298,2.885l-3.629,1.814C14.998,16.381,14.296,16,13.5,16
			c-1.379,0-2.5,1.121-2.5,2.5s1.121,2.5,2.5,2.5c0.891,0,1.669-0.472,2.111-1.175l3.421,1.282
			c-0.184,1.148,0.459,2.309,1.589,2.733c0.282,0.106,0.578,0.16,0.878,0.16c1.036,0,1.978-0.651,2.341-1.621
			C24.075,21.755,24.053,21.075,23.776,20.469z M20.83,13.158C21.04,13.054,21.265,13,21.498,13c0.573,0,1.088,0.318,1.344,0.83
			c0.179,0.358,0.208,0.765,0.081,1.145c-0.127,0.381-0.395,0.688-0.753,0.867c-0.727,0.363-1.646,0.049-2.008-0.665
			c-0.001-0.002-0.001-0.005-0.002-0.007s-0.003-0.004-0.005-0.006C19.792,14.426,20.092,13.527,20.83,13.158z M13.5,20
			c-0.827,0-1.5-0.673-1.5-1.5s0.673-1.5,1.5-1.5s1.5,0.673,1.5,1.5S14.327,20,13.5,20z M22.904,22.028
			c-0.282,0.75-1.174,1.16-1.932,0.877c-0.773-0.29-1.166-1.157-0.877-1.931c0-0.001,0.001-0.001,0.001-0.002s0-0.002,0-0.002
			C20.316,20.39,20.879,20,21.499,20c0.18,0,0.357,0.033,0.528,0.097c0.376,0.142,0.674,0.421,0.839,0.784
			C23.031,21.245,23.045,21.653,22.904,22.028z"/>
		<path d="M9.5,21H1V1h10v4.5C11,5.776,11.224,6,11.5,6H16v7.5c0,0.276,0.224,0.5,0.5,0.5s0.5-0.224,0.5-0.5v-8
			c0-0.066-0.014-0.132-0.039-0.192c-0.025-0.062-0.062-0.116-0.108-0.161l-4.998-5c-0.046-0.045-0.101-0.082-0.162-0.107
			C11.632,0.014,11.566,0,11.5,0h-11C0.224,0,0,0.224,0,0.5v21C0,21.776,0.224,22,0.5,22h9c0.276,0,0.5-0.224,0.5-0.5
			S9.776,21,9.5,21z M12,1.707L15.293,5H12V1.707z"/>
		<path d="M9.5,10H8V7.5C8,7.224,7.776,7,7.5,7h-2C5.224,7,5,7.224,5,7.5V12H3.5C3.224,12,3,12.224,3,12.5V16H2.5
			C2.224,16,2,16.224,2,16.5S2.224,17,2.5,17h1h2h2h2c0.276,0,0.5-0.224,0.5-0.5v-6C10,10.224,9.776,10,9.5,10z M4,13h1v3H4V13z
			 M6,12.5V8h1v2.5V16H6V12.5z M8,16v-5h1v5H8z"/>
	</g>
</g>
<g id="Invisible_Shape">
	<rect fill="none" width="24" height="24"/>
</g>
</svg>
