<?xml version="1.0" encoding="utf-8"?>
<!-- Generator: Adobe Illustrator 16.0.3, SVG Export Plug-In . SVG Version: 6.00 Build 0)  -->
<!DOCTYPE svg PUBLIC "-//W3C//DTD SVG 1.1//EN" "http://www.w3.org/Graphics/SVG/1.1/DTD/svg11.dtd">
<svg version="1.1" xmlns="http://www.w3.org/2000/svg" xmlns:xlink="http://www.w3.org/1999/xlink" x="0px" y="0px" width="24px"
	 height="24px" viewBox="0 0 24 24" enable-background="new 0 0 24 24" xml:space="preserve">
<g id="Outline_Icons">
	<g>
		<path d="M23.623,13.875c-0.272-0.071-0.54,0.094-0.607,0.361l-0.347,1.361c-1.271-2.041-3.787-3.083-6.204-2.381
			c-2.913,0.85-4.592,3.909-3.744,6.819c0.411,1.41,1.348,2.576,2.635,3.284c0.823,0.451,1.727,0.681,2.639,0.681
			c0.517,0,1.036-0.073,1.546-0.223c0.266-0.077,0.418-0.354,0.341-0.619c-0.078-0.266-0.358-0.415-0.62-0.341
			c-1.155,0.339-2.371,0.202-3.424-0.375c-1.054-0.578-1.819-1.533-2.155-2.687c-0.694-2.382,0.68-4.885,3.062-5.579
			c2.067-0.605,4.234,0.361,5.219,2.193l-1.777-0.453c-0.272-0.072-0.54,0.094-0.607,0.361c-0.068,0.268,0.094,0.539,0.361,0.607
			l2.739,0.697c0.017,0.004,0.033,0.004,0.05,0.006c0.009,0.002,0.018,0.003,0.026,0.004c0.016,0.002,0.031,0.006,0.047,0.006
			c0.013,0,0.022-0.011,0.035-0.012c0.035-0.002,0.069,0.002,0.104-0.008c0.057-0.017,0.105-0.047,0.15-0.079
			c0.006-0.004,0.012-0.005,0.018-0.009c0.079-0.062,0.131-0.15,0.161-0.246c0.003-0.009,0.013-0.014,0.016-0.023l0.698-2.74
			C24.053,14.215,23.891,13.943,23.623,13.875z"/>
		<path d="M11.5,21H1V1h10v4.5C11,5.776,11.224,6,11.5,6H16v5.5c0,0.276,0.224,0.5,0.5,0.5s0.5-0.224,0.5-0.5v-6
			c0-0.066-0.014-0.132-0.039-0.192c-0.025-0.062-0.062-0.116-0.108-0.161l-4.998-5c-0.046-0.045-0.101-0.082-0.162-0.107
			C11.632,0.014,11.566,0,11.5,0h-11C0.224,0,0,0.224,0,0.5v21C0,21.776,0.224,22,0.5,22h11c0.276,0,0.5-0.224,0.5-0.5
			S11.776,21,11.5,21z M12,1.707L15.293,5H12V1.707z"/>
		<path d="M11.146,9.146L8.25,12.043l-1.646-1.646c-0.195-0.195-0.512-0.195-0.707,0L4,12.293V7.5C4,7.224,3.776,7,3.5,7
			S3,7.224,3,7.5v10C3,17.776,3.224,18,3.5,18h7c0.276,0,0.5-0.224,0.5-0.5S10.776,17,10.5,17H4v-3.293l2.25-2.25l1.646,1.646
			c0.195,0.195,0.512,0.195,0.707,0l3.25-3.25c0.195-0.195,0.195-0.512,0-0.707S11.342,8.951,11.146,9.146z"/>
	</g>
</g>
<g id="Invisible_Shape">
	<rect fill="none" width="24" height="24"/>
</g>
</svg>
