<?xml version="1.0" encoding="utf-8"?>
<!-- Generator: Adobe Illustrator 16.0.3, SVG Export Plug-In . SVG Version: 6.00 Build 0)  -->
<!DOCTYPE svg PUBLIC "-//W3C//DTD SVG 1.1//EN" "http://www.w3.org/Graphics/SVG/1.1/DTD/svg11.dtd">
<svg version="1.1" xmlns="http://www.w3.org/2000/svg" xmlns:xlink="http://www.w3.org/1999/xlink" x="0px" y="0px" width="24px"
	 height="24px" viewBox="0 0 24 24" enable-background="new 0 0 24 24" xml:space="preserve">
<g id="Outline_Icons">
	<g>
		<path d="M17.5,0h-12C5.224,0,5,0.224,5,0.5v2C5,2.776,5.224,3,5.5,3h12C17.776,3,18,2.776,18,2.5v-2C18,0.224,17.776,0,17.5,0z
			 M17,2H6V1h11V2z"/>
		<path d="M11.004,13.026c-0.175-0.061-0.36,0.029-0.494,0.16s-0.171,0.369-0.115,0.548c0.327,1.064,0.846,2.746,0.349,4.206
			c-0.22-0.297-0.467-0.637-0.645-0.884c-0.094-0.131-0.245-0.209-0.406-0.209H9.691c-0.161,0-0.312,0.079-0.406,0.21
			c-0.128,0.179-1.247,1.787-1.247,2.982C8.038,22.223,9.815,24,12,24c2.184,0,3.961-1.777,3.961-3.961
			C15.961,16.986,13.83,13.971,11.004,13.026z M12,23c-1.633,0-2.962-1.328-2.962-2.961c0-0.509,0.359-1.252,0.681-1.804
			c0.278,0.38,0.611,0.826,0.757,0.986c0.105,0.115,0.259,0.175,0.415,0.162s0.296-0.1,0.379-0.233
			c0.965-1.545,0.715-3.372,0.354-4.76c1.956,1.093,3.337,3.357,3.337,5.649C14.961,21.672,13.633,23,12,23z"/>
		<path d="M11.5,7.5C11.776,7.5,12,7.276,12,7V5c0-0.276-0.224-0.5-0.5-0.5S11,4.724,11,5v2C11,7.276,11.224,7.5,11.5,7.5z"/>
		<path d="M11,11c0,0.276,0.224,0.5,0.5,0.5S12,11.276,12,11V9c0-0.276-0.224-0.5-0.5-0.5S11,8.724,11,9V11z"/>
		<path d="M14.57,5.535c-0.069-0.267-0.338-0.429-0.609-0.36c-0.267,0.069-0.428,0.341-0.359,0.609L14.1,7.72
			c0.059,0.226,0.262,0.375,0.484,0.375c0.041,0,0.083-0.005,0.125-0.016c0.267-0.069,0.428-0.341,0.359-0.609L14.57,5.535z"/>
		<path d="M14.167,10.17c-0.268,0.068-0.429,0.341-0.36,0.608l0.498,1.938c0.059,0.226,0.262,0.375,0.484,0.375
			c0.041,0,0.083-0.005,0.124-0.016c0.268-0.069,0.429-0.341,0.36-0.609l-0.498-1.938C14.706,10.263,14.43,10.1,14.167,10.17z"/>
		<path d="M17.297,8.78c-0.069-0.268-0.346-0.429-0.608-0.36c-0.268,0.069-0.429,0.341-0.36,0.609l0.498,1.938
			c0.059,0.226,0.262,0.375,0.484,0.375c0.041,0,0.083-0.005,0.124-0.015c0.268-0.069,0.429-0.342,0.36-0.609L17.297,8.78z"/>
		<path d="M6.374,8.42C6.112,8.352,5.835,8.513,5.766,8.78l-0.498,1.937c-0.068,0.268,0.093,0.54,0.36,0.609
			c0.041,0.01,0.083,0.015,0.124,0.015c0.223,0,0.426-0.15,0.484-0.375l0.498-1.938C6.803,8.761,6.642,8.489,6.374,8.42z"/>
		<path d="M8.441,8.098c0.226,0,0.43-0.152,0.485-0.381l0.478-1.943C9.471,5.506,9.307,5.235,9.038,5.17
			C8.767,5.1,8.499,5.268,8.434,5.536L7.956,7.479C7.89,7.747,8.054,8.017,8.322,8.083C8.362,8.093,8.402,8.098,8.441,8.098z"/>
		<path d="M8.289,13.095c0.226,0,0.43-0.152,0.485-0.38l0.478-1.942c0.066-0.269-0.098-0.539-0.366-0.605
			c-0.271-0.069-0.539,0.098-0.604,0.366l-0.478,1.942c-0.066,0.269,0.098,0.54,0.366,0.605C8.21,13.09,8.25,13.095,8.289,13.095z"
			/>
	</g>
</g>
<g id="invisible_shape">
	<rect fill="none" width="24" height="24"/>
</g>
</svg>
