<?xml version="1.0" encoding="utf-8"?>
<!-- Generator: Adobe Illustrator 16.0.3, SVG Export Plug-In . SVG Version: 6.00 Build 0)  -->
<!DOCTYPE svg PUBLIC "-//W3C//DTD SVG 1.1//EN" "http://www.w3.org/Graphics/SVG/1.1/DTD/svg11.dtd">
<svg version="1.1" xmlns="http://www.w3.org/2000/svg" xmlns:xlink="http://www.w3.org/1999/xlink" x="0px" y="0px" width="24px"
	 height="24px" viewBox="0 0 24 24" enable-background="new 0 0 24 24" xml:space="preserve">
<g id="Outline_Icons">
	<g>
		<path d="M2.5,18.5c0,1.654,1.346,3,3,3s3-1.346,3-3s-1.346-3-3-3S2.5,16.846,2.5,18.5z M5.5,16.5c1.103,0,2,0.897,2,2
			s-0.897,2-2,2s-2-0.897-2-2S4.397,16.5,5.5,16.5z"/>
		<path d="M21.944,14.26l-0.959-3.88C20.931,10.157,20.729,10,20.5,10H19V8c0-3.86-3.141-7-7-7S5,4.14,5,8v2H3.5
			c-0.229,0-0.43,0.157-0.485,0.379l-0.95,3.826C0.75,15.257,0,16.812,0,18.5C0,21.533,2.468,24,5.5,24s5.5-2.467,5.5-5.5
			c0-1.676-0.71-3.139-2.056-4.24l-0.959-3.88C7.931,10.157,7.729,10,7.5,10H6V8c0-3.309,2.691-6,6-6s6,2.691,6,6v2h-1.5
			c-0.229,0-0.43,0.157-0.485,0.379l-0.95,3.826C13.75,15.257,13,16.812,13,18.5c0,3.033,2.468,5.5,5.5,5.5s5.5-2.467,5.5-5.5
			C24,16.824,23.29,15.361,21.944,14.26z M8.015,14.665c0.027,0.109,0.09,0.206,0.179,0.275C9.393,15.87,10,17.067,10,18.5
			c0,2.482-2.019,4.5-4.5,4.5S1,20.982,1,18.5c0-1.431,0.659-2.745,1.808-3.605c0.092-0.069,0.157-0.168,0.186-0.28L3.891,11h3.218
			L8.015,14.665z M18.5,23c-2.481,0-4.5-2.018-4.5-4.5c0-1.431,0.659-2.745,1.808-3.605c0.092-0.069,0.157-0.168,0.186-0.28
			L16.891,11h3.218l0.906,3.665c0.027,0.109,0.09,0.206,0.179,0.275C22.393,15.87,23,17.067,23,18.5C23,20.982,20.981,23,18.5,23z"
			/>
		<path d="M18.5,15.5c-1.654,0-3,1.346-3,3s1.346,3,3,3s3-1.346,3-3S20.154,15.5,18.5,15.5z M18.5,20.5c-1.103,0-2-0.897-2-2
			s0.897-2,2-2s2,0.897,2,2S19.603,20.5,18.5,20.5z"/>
	</g>
</g>
<g id="invisible_shape">
	<rect fill="none" width="24" height="24"/>
</g>
</svg>
