<?xml version="1.0" encoding="utf-8"?>
<!-- Generator: Adobe Illustrator 16.0.3, SVG Export Plug-In . SVG Version: 6.00 Build 0)  -->
<!DOCTYPE svg PUBLIC "-//W3C//DTD SVG 1.1//EN" "http://www.w3.org/Graphics/SVG/1.1/DTD/svg11.dtd">
<svg version="1.1" xmlns="http://www.w3.org/2000/svg" xmlns:xlink="http://www.w3.org/1999/xlink" x="0px" y="0px" width="24px"
	 height="24px" viewBox="0 0 24 24" enable-background="new 0 0 24 24" xml:space="preserve">
<g id="Outline_Icons">
	<g>
		<path d="M11.932,7.203c1.959,0,3.922-0.671,5.413-2.009c0.206-0.185,0.223-0.501,0.038-0.706
			c-0.185-0.207-0.501-0.223-0.706-0.038C14.084,6.776,9.866,6.8,7.273,4.504C7.067,4.319,6.751,4.34,6.567,4.546
			C6.384,4.753,6.403,5.069,6.61,5.252C8.079,6.554,10.004,7.203,11.932,7.203z"/>
		<path d="M10,10c0-1.103-0.897-2-2-2s-2,0.897-2,2s0.897,2,2,2S10,11.103,10,10z M8,11c-0.551,0-1-0.448-1-1s0.449-1,1-1
			s1,0.448,1,1S8.551,11,8,11z"/>
		<path d="M16,8c-1.103,0-2,0.897-2,2s0.897,2,2,2s2-0.897,2-2S17.103,8,16,8z M16,11c-0.551,0-1-0.448-1-1s0.449-1,1-1s1,0.448,1,1
			S16.551,11,16,11z"/>
		<path d="M12,0C5.383,0,0,5.383,0,12s5.383,12,12,12s12-5.383,12-12S18.617,0,12,0z M12,23C5.935,23,1,18.065,1,12S5.935,1,12,1
			s11,4.935,11,11S18.065,23,12,23z"/>
		<path d="M12,14c-1.93,0-3.5,1.57-3.5,3.5S10.07,21,12,21s3.5-1.57,3.5-3.5S13.93,14,12,14z M12,20c-1.378,0-2.5-1.121-2.5-2.5
			S10.622,15,12,15s2.5,1.121,2.5,2.5S13.378,20,12,20z"/>
	</g>
</g>
<g id="Invisible_Shape">
	<rect fill="none" width="24" height="24"/>
</g>
</svg>
