<?xml version="1.0" encoding="utf-8"?>
<!-- Generator: Adobe Illustrator 16.0.3, SVG Export Plug-In . SVG Version: 6.00 Build 0)  -->
<!DOCTYPE svg PUBLIC "-//W3C//DTD SVG 1.1//EN" "http://www.w3.org/Graphics/SVG/1.1/DTD/svg11.dtd">
<svg version="1.1" xmlns="http://www.w3.org/2000/svg" xmlns:xlink="http://www.w3.org/1999/xlink" x="0px" y="0px" width="24px"
	 height="24px" viewBox="0 0 24 24" enable-background="new 0 0 24 24" xml:space="preserve">
<g id="Outline_Icons">
	<g>
		<path d="M12,0C5.383,0,0,5.383,0,12s5.383,12,12,12s12-5.383,12-12S18.617,0,12,0z M12,23C5.935,23,1,18.065,1,12S5.935,1,12,1
			s11,4.935,11,11S18.065,23,12,23z"/>
		<path d="M5.439,8.984c0.106,0,0.213-0.034,0.304-0.104c0.975-0.748,2.134-1.227,3.352-1.385C9.369,7.46,9.562,7.21,9.526,6.936
			c-0.036-0.273-0.29-0.469-0.56-0.432C7.574,6.685,6.249,7.232,5.135,8.088C4.916,8.256,4.874,8.569,5.042,8.789
			C5.141,8.917,5.289,8.984,5.439,8.984z"/>
		<path d="M15.033,6.504c-0.274-0.037-0.525,0.158-0.56,0.432C14.437,7.21,14.63,7.46,14.904,7.496
			c1.219,0.158,2.377,0.637,3.352,1.385c0.091,0.069,0.198,0.104,0.304,0.104c0.15,0,0.299-0.067,0.397-0.195
			c0.168-0.219,0.127-0.533-0.092-0.701C17.751,7.232,16.426,6.685,15.033,6.504z"/>
		<path d="M18.745,14.564c-0.243-0.138-0.545-0.051-0.681,0.19c-1.223,2.177-3.479,3.476-6.035,3.476
			c-2.647,0-4.924-1.29-6.089-3.452c-0.131-0.243-0.433-0.332-0.677-0.203C5.02,14.706,4.929,15.01,5.06,15.253
			c1.342,2.49,3.947,3.978,6.969,3.978c2.922,0,5.504-1.49,6.907-3.985C19.071,15.004,18.986,14.699,18.745,14.564z"/>
	</g>
</g>
<g id="Invisible_Shape">
	<rect fill="none" width="24" height="24"/>
</g>
</svg>
