<?xml version="1.0" encoding="utf-8"?>
<!-- Generator: Adobe Illustrator 16.0.3, SVG Export Plug-In . SVG Version: 6.00 Build 0)  -->
<!DOCTYPE svg PUBLIC "-//W3C//DTD SVG 1.1//EN" "http://www.w3.org/Graphics/SVG/1.1/DTD/svg11.dtd">
<svg version="1.1" xmlns="http://www.w3.org/2000/svg" xmlns:xlink="http://www.w3.org/1999/xlink" x="0px" y="0px" width="24px"
	 height="24px" viewBox="0 0 24 24" enable-background="new 0 0 24 24" xml:space="preserve">
<g id="Outline_Icons">
	<g>
		<path d="M23.5,6h-23C0.224,6,0,6.224,0,6.5v12C0,18.776,0.224,19,0.5,19h23c0.276,0,0.5-0.224,0.5-0.5v-12
			C24,6.224,23.776,6,23.5,6z M23,18H1V7h22V18z"/>
		<path d="M12.5,16c0.276,0,0.5-0.224,0.5-0.5v-6C13,9.224,12.776,9,12.5,9S12,9.224,12,9.5v6C12,15.776,12.224,16,12.5,16z"/>
		<path d="M15.5,16c0.276,0,0.5-0.224,0.5-0.5v-2.499h1.5c0.276,0,0.5-0.224,0.5-0.5c0-0.276-0.224-0.5-0.5-0.5H16v-2h2
			c0.276,0,0.5-0.224,0.5-0.5c0-0.276-0.224-0.5-0.5-0.5h-2.5c-0.276,0-0.5,0.224-0.5,0.5V15.5C15,15.776,15.224,16,15.5,16z"/>
		<path d="M8,16c2,0,2-2.022,2-3.5c0-0.276-0.224-0.5-0.5-0.5H8c-0.276,0-0.5,0.224-0.5,0.5S7.724,13,8,13h0.996
			C8.966,14.489,8.774,15,8,15c-0.542,0-1-1.145-1-2.5C7,10,7.753,10,8,10c0.808,0,0.939,0.289,1.013,0.61
			c0.061,0.269,0.326,0.441,0.598,0.378c0.269-0.061,0.438-0.329,0.377-0.598C9.78,9.468,9.111,9,8,9c-1.327,0-2,1.178-2,3.5
			C6,14.186,6.626,16,8,16z"/>
	</g>
</g>
<g id="Invisible_Shape">
	<rect fill="none" width="24" height="24"/>
</g>
</svg>
