<?xml version="1.0" encoding="utf-8"?>
<!-- Generator: Adobe Illustrator 16.0.3, SVG Export Plug-In . SVG Version: 6.00 Build 0)  -->
<!DOCTYPE svg PUBLIC "-//W3C//DTD SVG 1.1//EN" "http://www.w3.org/Graphics/SVG/1.1/DTD/svg11.dtd">
<svg version="1.1" xmlns="http://www.w3.org/2000/svg" xmlns:xlink="http://www.w3.org/1999/xlink" x="0px" y="0px" width="24px"
	 height="24px" viewBox="0 0 24 24" enable-background="new 0 0 24 24" xml:space="preserve">
<g id="Outline_Icons">
	<g>
		<path d="M19.646,18.146L18,19.793V15c0-0.276-0.224-0.5-0.5-0.5S17,14.724,17,15v4.793l-1.646-1.646
			c-0.195-0.195-0.512-0.195-0.707,0s-0.195,0.512,0,0.707l2.499,2.499c0.047,0.047,0.103,0.083,0.164,0.109
			c0.061,0.025,0.125,0.038,0.19,0.038s0.13-0.013,0.191-0.038c0.061-0.026,0.116-0.062,0.163-0.109l2.499-2.499
			c0.195-0.195,0.195-0.512,0-0.707S19.842,17.951,19.646,18.146z"/>
		<path d="M17.5,11.5c-3.584,0-6.5,2.916-6.5,6.5c0,3.584,2.916,6.5,6.5,6.5S24,21.584,24,18C24,14.416,21.084,11.5,17.5,11.5z
			 M17.5,23.5c-3.032,0-5.5-2.467-5.5-5.5s2.468-5.5,5.5-5.5S23,14.967,23,18S20.532,23.5,17.5,23.5z"/>
		<path d="M7.646,14.854c0.111,0.111,0.269,0.165,0.425,0.142c0.156-0.022,0.292-0.117,0.367-0.256l2.498-4.58l0.463,1.122
			c0.105,0.256,0.396,0.376,0.652,0.272c0.255-0.105,0.377-0.397,0.271-0.653L11.462,8.81c-0.073-0.178-0.242-0.298-0.435-0.309
			c-0.223-0.019-0.374,0.091-0.466,0.26l-2.681,4.913l-1.527-1.527c-0.113-0.114-0.275-0.166-0.434-0.14s-0.295,0.126-0.367,0.27
			l-2.5,5c-0.077,0.155-0.069,0.339,0.021,0.486C3.166,17.911,3.327,18,3.5,18h5.459c0.276,0,0.5-0.224,0.5-0.5S9.235,17,8.959,17
			h-4.65l1.828-3.656L7.646,14.854z"/>
		<path d="M5,9c1.103,0,2-0.897,2-2c0-1.103-0.897-2-2-2S3,5.897,3,7C3,8.103,3.897,9,5,9z M5,6c0.552,0,1,0.449,1,1S5.552,8,5,8
			S4,7.551,4,7S4.448,6,5,6z"/>
		<path d="M10.5,21H1V1h10v4.5C11,5.776,11.224,6,11.5,6H16v3.5c0,0.276,0.224,0.5,0.5,0.5S17,9.776,17,9.5v-4
			c0-0.067-0.014-0.132-0.039-0.192c-0.025-0.061-0.062-0.116-0.108-0.162l-4.998-4.999c-0.046-0.045-0.101-0.083-0.162-0.107
			C11.632,0.014,11.566,0,11.5,0h-11C0.224,0,0,0.224,0,0.5v21C0,21.776,0.224,22,0.5,22h10c0.276,0,0.5-0.224,0.5-0.5
			S10.776,21,10.5,21z M12,1.707L15.293,5H12V1.707z"/>
	</g>
</g>
<g id="Invisible_Shape">
	<rect fill="none" width="24" height="24"/>
</g>
</svg>
