<?xml version="1.0" encoding="utf-8"?>
<!-- Generator: Adobe Illustrator 16.0.3, SVG Export Plug-In . SVG Version: 6.00 Build 0)  -->
<!DOCTYPE svg PUBLIC "-//W3C//DTD SVG 1.1//EN" "http://www.w3.org/Graphics/SVG/1.1/DTD/svg11.dtd">
<svg version="1.1" xmlns="http://www.w3.org/2000/svg" xmlns:xlink="http://www.w3.org/1999/xlink" x="0px" y="0px" width="24px"
	 height="24px" viewBox="0 0 24 24" enable-background="new 0 0 24 24" xml:space="preserve">
<g id="Outline_Icons">
	<g>
		<path d="M19.5,0h-15C2.019,0,0,2.019,0,4.5v15C0,21.981,2.019,24,4.5,24h15c2.481,0,4.5-2.019,4.5-4.5v-15
			C24,2.019,21.981,0,19.5,0z M23,19.5c0,1.93-1.57,3.5-3.5,3.5h-15C2.57,23,1,21.43,1,19.5v-15C1,2.57,2.57,1,4.5,1h15
			C21.43,1,23,2.57,23,4.5V19.5z"/>
		<path d="M18.062,7.616L14.62,8.99l-3.854-2.414c-0.151-0.094-0.338-0.102-0.495-0.021L8.236,7.606
			c-0.157,0.081-0.26,0.24-0.27,0.417s0.075,0.346,0.222,0.444l2.903,1.931L8.23,11.541l-2.462-1.103
			c-0.146-0.063-0.314-0.055-0.454,0.024L3.31,11.616c-0.151,0.086-0.246,0.246-0.25,0.42s0.083,0.338,0.229,0.433l4.561,2.944
			c0.135,0.088,0.305,0.104,0.455,0.045l3.483-1.374l-1.517,3.938c-0.075,0.194-0.021,0.414,0.133,0.553
			c0.094,0.084,0.213,0.127,0.333,0.127c0.079,0,0.158-0.019,0.23-0.057l2.273-1.181c0.088-0.046,0.161-0.117,0.208-0.204
			l2.689-4.913l3.301-1.455c0.438-0.193,0.772-0.545,0.943-0.991c0.171-0.446,0.157-0.932-0.039-1.365
			C19.964,7.694,18.927,7.271,18.062,7.616z M9.45,8.104l1.026-0.529l2.993,1.875l-1.248,0.499L9.45,8.104z M19.449,9.545
			c-0.075,0.195-0.222,0.35-0.413,0.434l-3.456,1.523c-0.101,0.044-0.184,0.12-0.237,0.217l-2.698,4.928l-0.966,0.503l1.451-3.768
			c0.071-0.185,0.026-0.395-0.115-0.534c-0.095-0.095-0.223-0.146-0.352-0.146c-0.062,0-0.124,0.012-0.184,0.035l-4.304,1.697
			l-3.656-2.36l1.072-0.617l2.423,1.084c0.124,0.054,0.263,0.058,0.39,0.008l10.029-4.004c0.38-0.152,0.832,0.035,0.999,0.404
			C19.518,9.137,19.523,9.35,19.449,9.545z"/>
	</g>
</g>
<g id="invisible_shape">
	<rect fill="none" width="24" height="24"/>
</g>
</svg>
