<?xml version="1.0" encoding="utf-8"?>
<!-- Generator: Adobe Illustrator 16.0.3, SVG Export Plug-In . SVG Version: 6.00 Build 0)  -->
<!DOCTYPE svg PUBLIC "-//W3C//DTD SVG 1.1//EN" "http://www.w3.org/Graphics/SVG/1.1/DTD/svg11.dtd">
<svg version="1.1" xmlns="http://www.w3.org/2000/svg" xmlns:xlink="http://www.w3.org/1999/xlink" x="0px" y="0px" width="24px"
	 height="24px" viewBox="0 0 24 24" enable-background="new 0 0 24 24" xml:space="preserve">
<g id="Outline_Icons">
	<g>
		<path d="M23.419,13.469c-0.277-0.046-0.531,0.136-0.578,0.408C21.932,19.163,17.373,23,12,23C5.935,23,1,18.065,1,12S5.935,1,12,1
			c0.455,0,0.906,0.029,1.352,0.084L9.849,3.065c-0.24,0.136-0.325,0.441-0.189,0.681l0.775,1.374L8.681,8.077L3.868,9.521
			C3.74,9.56,3.633,9.646,3.571,9.765c-0.063,0.117-0.076,0.255-0.037,0.382l2,6.5c0.046,0.15,0.16,0.27,0.307,0.323l5.171,1.88V21
			c0,0.276,0.224,0.5,0.5,0.5s0.5-0.224,0.5-0.5v-2.5c0-0.21-0.131-0.398-0.329-0.47l-5.266-1.915l-1.779-5.781l4.518-1.355
			c0.12-0.036,0.223-0.116,0.287-0.224l2-3.375c0.091-0.154,0.093-0.345,0.005-0.5l-0.671-1.19l4.073-2.303
			c1.877,0.503,3.585,1.504,4.96,2.895l-1.671,1.887c-0.183,0.207-0.164,0.523,0.043,0.706C18.275,6.958,18.394,7,18.512,7
			c0.138,0,0.275-0.057,0.375-0.168l1.599-1.806c0.198,0.24,0.398,0.477,0.576,0.735c0.156,0.227,0.468,0.283,0.695,0.128
			c0.228-0.157,0.285-0.469,0.128-0.696c-0.311-0.45-0.655-0.869-1.019-1.268c-0.013-0.015-0.02-0.032-0.034-0.045
			c-0.008-0.008-0.018-0.009-0.027-0.016c-1.583-1.712-3.617-2.926-5.858-3.494c-0.012-0.004-0.022-0.008-0.034-0.011
			C13.97,0.124,12.993,0,12,0C5.383,0,0,5.383,0,12c0,6.617,5.383,12,12,12c5.861,0,10.835-4.187,11.827-9.953
			C23.874,13.774,23.691,13.516,23.419,13.469z"/>
		<path d="M23.844,8.834c-0.379-0.843-1.417-1.266-2.281-0.92L18.12,9.288l-3.854-2.414c-0.15-0.095-0.338-0.103-0.495-0.021
			l-2.034,1.051c-0.157,0.081-0.26,0.239-0.27,0.417c-0.01,0.177,0.075,0.346,0.222,0.444l2.903,1.931l-2.862,1.143l-2.462-1.102
			c-0.146-0.064-0.314-0.057-0.454,0.024L6.81,11.914C6.659,12,6.564,12.16,6.56,12.334c-0.004,0.175,0.083,0.339,0.229,0.433
			l4.561,2.944c0.135,0.088,0.305,0.104,0.455,0.046l3.483-1.374l-1.517,3.938c-0.075,0.194-0.021,0.414,0.133,0.553
			C13.998,18.957,14.117,19,14.237,19c0.079,0,0.158-0.019,0.23-0.056l2.273-1.182c0.088-0.046,0.161-0.117,0.208-0.204l2.689-4.913
			l3.301-1.453c0.437-0.194,0.772-0.546,0.943-0.991C24.053,9.754,24.04,9.269,23.844,8.834z M12.95,8.403l1.026-0.53l2.993,1.874
			l-1.249,0.499L12.95,8.403z M22.948,9.843c-0.075,0.195-0.221,0.349-0.413,0.434l-3.456,1.522
			c-0.101,0.044-0.184,0.121-0.237,0.217l-2.698,4.928l-0.966,0.502l1.451-3.768c0.071-0.186,0.026-0.395-0.115-0.535
			C16.42,13.051,16.292,13,16.163,13c-0.062,0-0.124,0.011-0.184,0.035l-4.304,1.696l-3.656-2.36l1.072-0.617l2.423,1.084
			c0.123,0.055,0.264,0.058,0.39,0.008l10.029-4.003c0.382-0.152,0.833,0.035,0.999,0.403C23.018,9.436,23.023,9.647,22.948,9.843z"
			/>
	</g>
</g>
<g id="invisible_shape">
	<rect fill="none" width="24" height="24"/>
</g>
</svg>
