<?xml version="1.0" encoding="utf-8"?>
<!-- Generator: Adobe Illustrator 16.0.3, SVG Export Plug-In . SVG Version: 6.00 Build 0)  -->
<!DOCTYPE svg PUBLIC "-//W3C//DTD SVG 1.1//EN" "http://www.w3.org/Graphics/SVG/1.1/DTD/svg11.dtd">
<svg version="1.1" xmlns="http://www.w3.org/2000/svg" xmlns:xlink="http://www.w3.org/1999/xlink" x="0px" y="0px" width="24px"
	 height="24px" viewBox="0 0 24 24" enable-background="new 0 0 24 24" xml:space="preserve">
<g id="Outline_Icons">
	<g>
		<path d="M21.731,0.578c-0.166-0.086-0.363-0.073-0.518,0.033c-1.68,1.173-3.319,1.768-4.871,1.768
			c-1.729,0-3.308-0.779-4.445-2.192c-0.189-0.236-0.606-0.235-0.796,0c-1.14,1.417-2.718,2.198-4.444,2.198
			c-1.548,0-3.187-0.597-4.871-1.772C1.635,0.504,1.435,0.492,1.269,0.578C1.104,0.664,1,0.835,1,1.021v14.812
			c0,0.045,0.006,0.089,0.018,0.133c0.062,0.226,1.626,5.57,10.348,8.016C11.409,23.994,11.454,24,11.5,24s0.091-0.006,0.135-0.018
			c8.722-2.446,10.285-7.79,10.348-8.016C21.994,15.922,22,15.878,22,15.833V1.021C22,0.835,21.896,0.664,21.731,0.578z M21,15.757
			c-0.186,0.557-1.906,5.047-9.5,7.224c-7.554-2.166-9.31-6.667-9.5-7.225V1.943c3.53,2.13,7.149,1.815,9.5-0.691
			c2.35,2.5,5.979,2.811,9.5,0.691V15.757z"/>
		<path d="M13.5,9c0,0.276,0.224,0.5,0.5,0.5s0.5-0.224,0.5-0.5c0-1.483-1.084-2.71-2.5-2.949V5c0-0.276-0.224-0.5-0.5-0.5
			S11,4.724,11,5v1.051C9.584,6.29,8.5,7.517,8.5,9s1.084,2.71,2.5,2.949v3.979c-0.86-0.223-1.5-1-1.5-1.929
			c0-0.276-0.224-0.5-0.5-0.5S8.5,13.724,8.5,14c0,1.483,1.084,2.71,2.5,2.949V18c0,0.276,0.224,0.5,0.5,0.5S12,18.276,12,18v-1.051
			c1.416-0.239,2.5-1.466,2.5-2.949s-1.084-2.71-2.5-2.949V7.071C12.86,7.294,13.5,8.071,13.5,9z M9.5,9
			c0-0.929,0.64-1.706,1.5-1.929v3.857C10.14,10.706,9.5,9.929,9.5,9z M13.5,14c0,0.929-0.64,1.706-1.5,1.929v-3.857
			C12.86,12.294,13.5,13.071,13.5,14z"/>
	</g>
</g>
<g id="Invisibla_Shape">
	<rect fill="none" width="24" height="24"/>
</g>
</svg>
