<?xml version="1.0" encoding="utf-8"?>
<!-- Generator: Adobe Illustrator 16.0.3, SVG Export Plug-In . SVG Version: 6.00 Build 0)  -->
<!DOCTYPE svg PUBLIC "-//W3C//DTD SVG 1.1//EN" "http://www.w3.org/Graphics/SVG/1.1/DTD/svg11.dtd">
<svg version="1.1" xmlns="http://www.w3.org/2000/svg" xmlns:xlink="http://www.w3.org/1999/xlink" x="0px" y="0px" width="24px"
	 height="24px" viewBox="0 0 24 24" enable-background="new 0 0 24 24" xml:space="preserve">
<g id="Outline_Icons">
	<g>
		<path d="M22.664,9.292c0.057,0.227,0.261,0.377,0.484,0.377c0.04,0,0.081-0.005,0.123-0.015c0.268-0.068,0.43-0.34,0.361-0.607
			c-0.64-2.531-2.126-4.823-4.184-6.454c-0.215-0.172-0.531-0.136-0.702,0.081c-0.172,0.216-0.136,0.531,0.081,0.702
			C20.715,4.872,22.077,6.973,22.664,9.292z"/>
		<path d="M9.52,1.281c2.335-0.538,4.832-0.296,7.018,0.695c0.066,0.031,0.137,0.044,0.206,0.044c0.19,0,0.372-0.109,0.455-0.293
			c0.114-0.252,0.003-0.548-0.249-0.662c-2.384-1.08-5.107-1.346-7.654-0.758C9.026,0.368,8.858,0.637,8.92,0.906
			C8.982,1.175,9.247,1.343,9.52,1.281z"/>
		<path d="M1,12c0-0.743,0.074-1.485,0.221-2.205c0.055-0.271-0.12-0.535-0.391-0.589c-0.268-0.054-0.534,0.119-0.59,0.39
			C0.081,10.381,0,11.19,0,12c0,1.833,0.402,3.592,1.195,5.228c0.087,0.179,0.265,0.282,0.45,0.282c0.073,0,0.147-0.016,0.218-0.05
			c0.249-0.121,0.353-0.42,0.232-0.668C1.368,15.293,1,13.681,1,12z"/>
		<path d="M9.564,22.729c-2.334-0.528-4.469-1.836-6.012-3.684c-0.177-0.213-0.492-0.241-0.704-0.063
			c-0.212,0.177-0.24,0.492-0.063,0.704c1.683,2.016,4.012,3.442,6.559,4.019c0.037,0.009,0.074,0.012,0.11,0.012
			c0.229,0,0.436-0.158,0.487-0.39C10.003,23.058,9.834,22.791,9.564,22.729z"/>
		<path d="M18.863,20.597c-1.9,1.52-4.192,2.35-6.628,2.401c-0.275,0.005-0.495,0.234-0.489,0.51c0.006,0.273,0.229,0.49,0.5,0.49
			c0.003,0,0.007,0,0.011,0c2.657-0.056,5.157-0.962,7.231-2.62c0.216-0.172,0.25-0.487,0.078-0.703S19.081,20.425,18.863,20.597z"
			/>
		<path d="M23.5,11.477c-0.276,0-0.5,0.247-0.5,0.523c0,2.438-0.781,4.748-2.259,6.679c-0.167,0.219-0.126,0.533,0.094,0.7
			c0.091,0.069,0.197,0.103,0.304,0.103c0.15,0,0.299-0.067,0.397-0.196C23.147,17.179,24,14.66,24,12v-0.047
			C24,11.677,23.776,11.477,23.5,11.477z"/>
		<path d="M1.408,7.485c0.069,0.034,0.143,0.05,0.216,0.05c0.186,0,0.365-0.105,0.451-0.284C3.112,5.087,4.86,3.294,6.998,2.201
			c0.246-0.126,0.344-0.427,0.218-0.673C7.09,1.283,6.789,1.187,6.543,1.311c-2.331,1.192-4.238,3.147-5.37,5.508
			C1.054,7.067,1.159,7.366,1.408,7.485z"/>
		<path d="M8.647,5.858C6.477,7.047,5,9.354,5,12c0,3.86,3.141,7,7,7c0.504,0,0.995-0.056,1.469-0.158c0.008,0,0.015,0,0.021-0.001
			c0.012-0.002,0.021-0.009,0.031-0.011c2.957-0.659,5.211-3.192,5.451-6.284c0.001-0.016,0.009-0.029,0.009-0.045
			c0-0.009-0.005-0.018-0.006-0.027C18.986,12.316,19,12.16,19,12c0-3.86-3.141-7-7-7c-1.206,0-2.342,0.307-3.334,0.847
			C8.663,5.848,8.66,5.848,8.657,5.849C8.653,5.852,8.651,5.855,8.647,5.858z M6,12c0-2.101,1.087-3.95,2.727-5.021l3.254,5.693
			l0.856,5.263C12.562,17.973,12.285,18,12,18C8.691,18,6,15.309,6,12z M13.814,17.719L13.047,13h4.863
			C17.533,15.229,15.929,17.046,13.814,17.719z M18,12h-5.251L9.606,6.502C10.34,6.181,11.149,6,12,6C15.309,6,18,8.691,18,12z"/>
	</g>
</g>
<g id="Invisibla_Shape">
	<rect fill="none" width="24" height="24"/>
</g>
</svg>
