<?xml version="1.0" encoding="utf-8"?>
<!-- Generator: Adobe Illustrator 16.0.3, SVG Export Plug-In . SVG Version: 6.00 Build 0)  -->
<!DOCTYPE svg PUBLIC "-//W3C//DTD SVG 1.1//EN" "http://www.w3.org/Graphics/SVG/1.1/DTD/svg11.dtd">
<svg version="1.1" xmlns="http://www.w3.org/2000/svg" xmlns:xlink="http://www.w3.org/1999/xlink" x="0px" y="0px" width="24px"
	 height="24px" viewBox="0 0 24 24" enable-background="new 0 0 24 24" xml:space="preserve">
<g id="Outline_Icons">
	<g>
		<path d="M21.988,11.392C21.938,11.163,21.734,11,21.5,11h-3.599l-1.913-8.608C15.938,2.163,15.734,2,15.5,2h-7
			C8.266,2,8.062,2.163,8.012,2.392L6.099,11H2.5c-0.234,0-0.438,0.163-0.488,0.392l-2,9c-0.032,0.148,0.003,0.303,0.099,0.421
			C0.205,20.931,0.349,21,0.5,21h11c0.151,0,0.295-0.069,0.39-0.187c0.096-0.119,0.131-0.273,0.099-0.421L10.123,12h3.754
			l-1.865,8.392c-0.032,0.148,0.003,0.303,0.099,0.421C12.205,20.931,12.349,21,12.5,21h11c0.151,0,0.295-0.069,0.39-0.187
			c0.096-0.119,0.131-0.273,0.099-0.421L21.988,11.392z M8.901,3h6.197l1.778,8H14.5h-5H7.123L8.901,3z M10.877,20H1.123l1.778-8
			H6.5h2.599L10.877,20z M13.123,20l1.778-8H17.5h3.599l1.778,8H13.123z"/>
		<path d="M9.829,7.521c0.036,0.008,0.073,0.012,0.108,0.012c0.229,0,0.437-0.159,0.488-0.392L10.901,5H12
			c0.276,0,0.5-0.224,0.5-0.5S12.276,4,12,4h-1.5c-0.234,0-0.438,0.163-0.488,0.392L9.449,6.924C9.39,7.194,9.56,7.461,9.829,7.521z
			"/>
		<path d="M6,13H4.5c-0.234,0-0.438,0.163-0.488,0.392l-0.562,2.533c-0.06,0.27,0.11,0.537,0.38,0.597
			c0.036,0.008,0.073,0.012,0.108,0.012c0.229,0,0.437-0.159,0.488-0.392L4.901,14H6c0.276,0,0.5-0.224,0.5-0.5S6.276,13,6,13z"/>
		<path d="M18,13h-1.5c-0.234,0-0.438,0.163-0.488,0.392l-0.562,2.533c-0.06,0.27,0.11,0.537,0.38,0.597
			c0.036,0.008,0.073,0.012,0.108,0.012c0.229,0,0.437-0.159,0.488-0.392L16.901,14H18c0.276,0,0.5-0.224,0.5-0.5S18.276,13,18,13z"
			/>
	</g>
</g>
<g id="Invisibla_Shape">
	<rect fill="none" width="24" height="24"/>
</g>
</svg>
