<?xml version="1.0" encoding="utf-8"?>
<!-- Generator: Adobe Illustrator 16.0.3, SVG Export Plug-In . SVG Version: 6.00 Build 0)  -->
<!DOCTYPE svg PUBLIC "-//W3C//DTD SVG 1.1//EN" "http://www.w3.org/Graphics/SVG/1.1/DTD/svg11.dtd">
<svg version="1.1" xmlns="http://www.w3.org/2000/svg" xmlns:xlink="http://www.w3.org/1999/xlink" x="0px" y="0px" width="24px"
	 height="24px" viewBox="0 0 24 24" enable-background="new 0 0 24 24" xml:space="preserve">
<g id="Outline_Icons">
	<g>
		<path d="M23.854,0.146c-0.195-0.195-0.512-0.195-0.707,0l-23,23c-0.195,0.195-0.195,0.512,0,0.707C0.244,23.951,0.372,24,0.5,24
			s0.256-0.049,0.354-0.146l23-23C24.049,0.659,24.049,0.342,23.854,0.146z"/>
		<path d="M5,9c2.206,0,4-1.794,4-4S7.206,1,5,1S1,2.794,1,5S2.794,9,5,9z M5,2c1.654,0,3,1.346,3,3S6.654,8,5,8S2,6.654,2,5
			S3.346,2,5,2z"/>
		<path d="M19,15c-2.206,0-4,1.794-4,4s1.794,4,4,4s4-1.794,4-4S21.206,15,19,15z M19,22c-1.654,0-3-1.346-3-3s1.346-3,3-3
			s3,1.346,3,3S20.654,22,19,22z"/>
	</g>
</g>
<g id="Invisibla_Shape">
	<rect fill="none" width="24" height="24"/>
</g>
</svg>
