<?xml version="1.0" encoding="utf-8"?>
<!-- Generator: Adobe Illustrator 16.0.3, SVG Export Plug-In . SVG Version: 6.00 Build 0)  -->
<!DOCTYPE svg PUBLIC "-//W3C//DTD SVG 1.1//EN" "http://www.w3.org/Graphics/SVG/1.1/DTD/svg11.dtd">
<svg version="1.1" xmlns="http://www.w3.org/2000/svg" xmlns:xlink="http://www.w3.org/1999/xlink" x="0px" y="0px" width="24px"
	 height="24px" viewBox="0 0 24 24" enable-background="new 0 0 24 24" xml:space="preserve">
<g id="Outline_Icons">
	<g>
		<path d="M22.5,4C22.776,4,23,3.776,23,3.5v-3C23,0.224,22.776,0,22.5,0h-22C0.224,0,0,0.224,0,0.5v3C0,3.776,0.224,4,0.5,4H2v13
			H0.521c-0.276,0-0.5,0.224-0.5,0.5s0.224,0.5,0.5,0.5H2.5H11v2.071c-0.86,0.223-1.5,1-1.5,1.929c0,1.103,0.897,2,2,2s2-0.897,2-2
			c0-0.929-0.64-1.706-1.5-1.929V18h8.5h1.979c0.276,0,0.5-0.224,0.5-0.5s-0.224-0.5-0.5-0.5H21V4H22.5z M12.5,22
			c0,0.551-0.448,1-1,1s-1-0.449-1-1s0.448-1,1-1S12.5,21.449,12.5,22z M20,17H3V4h17V17z M20.5,3h-18H1V1h21v2H20.5z"/>
		<path d="M4.5,15h3C7.776,15,8,14.776,8,14.5v-3C8,11.224,7.776,11,7.5,11H7V8h2v0.5C9,8.776,9.224,9,9.5,9H11v2h-1
			c-0.276,0-0.5,0.224-0.5,0.5v3c0,0.276,0.224,0.5,0.5,0.5h3c0.276,0,0.5-0.224,0.5-0.5v-3c0-0.276-0.224-0.5-0.5-0.5h-1V9h1.5
			C13.776,9,14,8.776,14,8.5V8h2v3h-0.5c-0.276,0-0.5,0.224-0.5,0.5v3c0,0.276,0.224,0.5,0.5,0.5h3c0.276,0,0.5-0.224,0.5-0.5v-3
			c0-0.276-0.224-0.5-0.5-0.5H17V7.5C17,7.224,16.776,7,16.5,7H14V5.5C14,5.224,13.776,5,13.5,5h-4C9.224,5,9,5.224,9,5.5V7H6.5
			C6.224,7,6,7.224,6,7.5V11H4.5C4.224,11,4,11.224,4,11.5v3C4,14.776,4.224,15,4.5,15z M18,12v2h-2v-2H18z M12.5,12v2h-2v-2H12.5z
			 M10,6h3v2h-3V6z M5,12h2v2H5V12z"/>
	</g>
</g>
<g id="Invisibla_Shape">
	<rect fill="none" width="24" height="24"/>
</g>
</svg>
