<?xml version="1.0" encoding="utf-8"?>
<!-- Generator: Adobe Illustrator 16.0.3, SVG Export Plug-In . SVG Version: 6.00 Build 0)  -->
<!DOCTYPE svg PUBLIC "-//W3C//DTD SVG 1.1//EN" "http://www.w3.org/Graphics/SVG/1.1/DTD/svg11.dtd">
<svg version="1.1" xmlns="http://www.w3.org/2000/svg" xmlns:xlink="http://www.w3.org/1999/xlink" x="0px" y="0px" width="24px"
	 height="24px" viewBox="0 0 24 24" enable-background="new 0 0 24 24" xml:space="preserve">
<g id="Outline_Icons">
	<g>
		<path d="M22.5,4C22.776,4,23,3.776,23,3.5v-3C23,0.224,22.776,0,22.5,0h-22C0.224,0,0,0.224,0,0.5v3C0,3.776,0.224,4,0.5,4H2v13
			H0.521c-0.276,0-0.5,0.224-0.5,0.5s0.224,0.5,0.5,0.5H2.5H11v2.071c-0.86,0.223-1.5,1-1.5,1.929c0,1.103,0.897,2,2,2s2-0.897,2-2
			c0-0.929-0.64-1.706-1.5-1.929V18h8.5h1.979c0.276,0,0.5-0.224,0.5-0.5s-0.224-0.5-0.5-0.5H21V4H22.5z M12.5,22
			c0,0.551-0.448,1-1,1s-1-0.449-1-1s0.448-1,1-1S12.5,21.449,12.5,22z M1,1h21v2h-1.5h-18H1V1z M20,17H3V4h17V17z"/>
		<path d="M8.5,15c0.211,0,0.413-0.034,0.616-0.062c0.015,0.001,0.027,0.008,0.042,0.008c0.027,0,0.056-0.002,0.083-0.007
			c0.018-0.003,0.031-0.014,0.048-0.018C11.394,14.545,13,12.711,13,10.5C13,8.019,10.981,6,8.5,6C7.73,6,7.016,6.212,6.382,6.555
			C6.343,6.566,6.304,6.572,6.268,6.593C6.238,6.61,6.22,6.635,6.195,6.655C4.887,7.443,4,8.864,4,10.5C4,12.982,6.019,15,8.5,15z
			 M9.562,13.818L9.091,11h2.858C11.756,12.333,10.815,13.415,9.562,13.818z M11.949,10H8.79L7.22,7.25C7.617,7.093,8.047,7,8.5,7
			C10.259,7,11.704,8.309,11.949,10z M6.355,7.755l1.666,2.917l0.555,3.321C8.551,13.993,8.526,14,8.5,14C6.57,14,5,12.43,5,10.5
			C5,9.382,5.537,8.396,6.355,7.755z"/>
		<path d="M15.521,7h2.938c0.276,0,0.5-0.224,0.5-0.5S18.734,6,18.458,6h-2.938c-0.276,0-0.5,0.224-0.5,0.5S15.244,7,15.521,7z"/>
		<path d="M15.521,9h2.938c0.276,0,0.5-0.224,0.5-0.5S18.734,8,18.458,8h-2.938c-0.276,0-0.5,0.224-0.5,0.5S15.244,9,15.521,9z"/>
		<path d="M15.521,11h2.938c0.276,0,0.5-0.224,0.5-0.5s-0.224-0.5-0.5-0.5h-2.938c-0.276,0-0.5,0.224-0.5,0.5S15.244,11,15.521,11z"
			/>
	</g>
</g>
<g id="Invisibla_Shape">
	<rect fill="none" width="24" height="24"/>
</g>
</svg>
