<?xml version="1.0" encoding="utf-8"?>
<!-- Generator: Adobe Illustrator 16.0.3, SVG Export Plug-In . SVG Version: 6.00 Build 0)  -->
<!DOCTYPE svg PUBLIC "-//W3C//DTD SVG 1.1//EN" "http://www.w3.org/Graphics/SVG/1.1/DTD/svg11.dtd">
<svg version="1.1" xmlns="http://www.w3.org/2000/svg" xmlns:xlink="http://www.w3.org/1999/xlink" x="0px" y="0px" width="24px"
	 height="24px" viewBox="0 0 24 24" enable-background="new 0 0 24 24" xml:space="preserve">
<g id="Outline_Icons">
	<g>
		<path d="M22.5,4C22.776,4,23,3.776,23,3.5v-3C23,0.224,22.776,0,22.5,0h-22C0.224,0,0,0.224,0,0.5v3C0,3.776,0.224,4,0.5,4H2v13
			H0.521c-0.276,0-0.5,0.224-0.5,0.5s0.224,0.5,0.5,0.5H2.5H11v2.071c-0.86,0.223-1.5,1-1.5,1.929c0,1.103,0.897,2,2,2s2-0.897,2-2
			c0-0.929-0.64-1.706-1.5-1.929V18h8.5h1.979c0.276,0,0.5-0.224,0.5-0.5s-0.224-0.5-0.5-0.5H21V4H22.5z M12.5,22
			c0,0.551-0.448,1-1,1s-1-0.449-1-1s0.448-1,1-1S12.5,21.449,12.5,22z M1,1h21v2h-1.5h-18H1V1z M20,17H3V4h17V17z"/>
		<path d="M10.269,13.215c0.072,0.039,0.152,0.057,0.231,0.057c0.101,0,0.2-0.03,0.285-0.089l3.272-2.272
			c0.135-0.093,0.215-0.247,0.215-0.411s-0.08-0.317-0.215-0.41l-3.272-2.273c-0.151-0.106-0.353-0.119-0.517-0.032
			C10.104,7.871,10,8.042,10,8.228v4.545C10,12.958,10.104,13.13,10.269,13.215z M11,9.184l1.896,1.316L11,11.816V9.184z"/>
		<path d="M11.5,16c3.032,0,5.5-2.467,5.5-5.5S14.532,5,11.5,5S6,7.467,6,10.5S8.468,16,11.5,16z M11.5,6c2.481,0,4.5,2.019,4.5,4.5
			c0,2.482-2.019,4.5-4.5,4.5S7,12.982,7,10.5C7,8.019,9.019,6,11.5,6z"/>
	</g>
</g>
<g id="Invisibla_Shape">
	<rect fill="none" width="24" height="24"/>
</g>
</svg>
