<?xml version="1.0" encoding="utf-8"?>
<!-- Generator: Adobe Illustrator 16.0.3, SVG Export Plug-In . SVG Version: 6.00 Build 0)  -->
<!DOCTYPE svg PUBLIC "-//W3C//DTD SVG 1.1//EN" "http://www.w3.org/Graphics/SVG/1.1/DTD/svg11.dtd">
<svg version="1.1" xmlns="http://www.w3.org/2000/svg" xmlns:xlink="http://www.w3.org/1999/xlink" x="0px" y="0px" width="24px"
	 height="24px" viewBox="0 0 24 24" enable-background="new 0 0 24 24" xml:space="preserve">
<g id="Outline_Icons">
	<g>
		<path d="M23.998,0.492c0-0.039-0.013-0.075-0.022-0.113c-0.007-0.026-0.007-0.054-0.018-0.078
			c-0.008-0.018-0.023-0.031-0.032-0.048c-0.023-0.04-0.047-0.08-0.08-0.111c-0.002-0.001-0.002-0.004-0.004-0.006
			c-0.017-0.016-0.038-0.022-0.057-0.034c-0.032-0.024-0.064-0.049-0.103-0.064c-0.036-0.014-0.073-0.017-0.11-0.022
			C23.548,0.011,23.525,0,23.5,0h-7C16.224,0,16,0.224,16,0.5S16.224,1,16.5,1h5.846l-6.395,6.821L11.312,4.11
			c-0.199-0.159-0.486-0.144-0.666,0.037l-9,9c-0.195,0.195-0.195,0.512,0,0.707C1.744,13.951,1.872,14,2,14
			s0.256-0.049,0.354-0.146l8.684-8.684l4.65,3.721c0.204,0.163,0.498,0.142,0.678-0.049L23,1.765V7c0,0.276,0.224,0.5,0.5,0.5
			S24,7.276,24,7V0.5C24,0.497,23.998,0.495,23.998,0.492z"/>
		<path d="M23,14.176V12.5c0-0.717-0.668-2-2-2c-1.007,0-1.589,0.959-1.837,1.5h-3.326c-0.248-0.541-0.83-1.5-1.837-1.5
			c-1.332,0-2,1.283-2,2v1.616c-0.025,0.035-0.059,0.063-0.083,0.099C11.317,15.081,11,16.095,11,17.15
			c0,1.411,0.56,2.727,1.637,3.758c0.048,0.034,1.143,0.787,2.469,1.38C15.653,23.02,16.519,23.5,17.5,23.5
			c0.882,0,1.668-0.389,2.217-0.997c1.6-0.745,3.039-2.081,3.152-2.196c0.708-0.91,1.082-2.001,1.082-3.157
			c0-1.055-0.317-2.07-0.918-2.934C23.023,14.202,23.01,14.19,23,14.176z M18,17.927c0.257-0.064,0.52-0.163,0.739-0.256L19.43,20
			H18.5c-0.225,0-0.5-0.276-0.5-0.5V17.927z M17.5,17c-0.207,0-0.611-0.144-0.954-0.295l0.012-0.039
			C16.698,16.268,17.077,16,17.5,16c0.424,0,0.803,0.268,0.936,0.644l0.019,0.062C18.111,16.856,17.707,17,17.5,17z M16.261,17.671
			c0.22,0.093,0.482,0.191,0.739,0.256V19.5c0,0.224-0.275,0.5-0.5,0.5h-0.928L16.261,17.671z M17.5,22.5
			c-0.618,0-1.165-0.288-1.532-0.73c-0.031-0.098-0.092-0.179-0.175-0.243c-0.099-0.162-0.173-0.338-0.222-0.526H16.5
			c0.369,0,0.726-0.169,1-0.427c0.274,0.258,0.631,0.427,1,0.427h0.929C19.205,21.86,18.429,22.5,17.5,22.5z M22.133,19.635
			c-0.01,0.009-0.731,0.675-1.677,1.299c0.021-0.143,0.044-0.285,0.044-0.434c0-0.202-0.021-0.403-0.071-0.642l-1.042-3.522
			C19.106,15.537,18.348,15,17.5,15c-0.846,0-1.604,0.536-1.894,1.358l-1.046,3.541c-0.04,0.197-0.061,0.399-0.061,0.601
			c0,0.134,0.022,0.263,0.04,0.393c-0.736-0.401-1.266-0.757-1.272-0.757C12.45,19.347,12,18.286,12,17.15
			c0-0.85,0.256-1.668,0.739-2.365c0.284-0.41,0.636-0.762,1.046-1.046c0.227-0.157,0.283-0.469,0.126-0.696
			c-0.158-0.227-0.471-0.283-0.696-0.125c-0.077,0.054-0.141,0.122-0.215,0.179V12.5c0-0.241,0.301-1,1-1
			c0.517,0,0.924,0.858,1.026,1.159C15.095,12.862,15.286,13,15.5,13h4c0.215,0,0.406-0.138,0.475-0.341
			C20.056,12.414,20.469,11.5,21,11.5c0.699,0,1,0.759,1,1v0.635c-0.072-0.058-0.136-0.126-0.212-0.18
			c-0.225-0.159-0.536-0.109-0.697,0.117c-0.16,0.225-0.108,0.537,0.117,0.697c0.392,0.28,0.729,0.622,1.005,1.018
			c0.482,0.696,0.738,1.513,0.738,2.364C22.951,18.082,22.65,18.96,22.133,19.635z"/>
		<circle cx="20.5" cy="15" r="0.5"/>
		<circle cx="15" cy="15" r="0.5"/>
	</g>
</g>
<g id="Invisibla_Shape">
</g>
</svg>
