<?xml version="1.0" encoding="utf-8"?>
<!-- Generator: Adobe Illustrator 16.0.3, SVG Export Plug-In . SVG Version: 6.00 Build 0)  -->
<!DOCTYPE svg PUBLIC "-//W3C//DTD SVG 1.1//EN" "http://www.w3.org/Graphics/SVG/1.1/DTD/svg11.dtd">
<svg version="1.1" xmlns="http://www.w3.org/2000/svg" xmlns:xlink="http://www.w3.org/1999/xlink" x="0px" y="0px" width="24px"
	 height="24px" viewBox="0 0 24 24" enable-background="new 0 0 24 24" xml:space="preserve">
<g id="Outline_Icons">
	<g>
		<path d="M6.671,12.938c3.373-1.244,7.281-1.244,10.654,0c0.056,0.021,0.114,0.031,0.173,0.031c0.101,0,0.201-0.03,0.286-0.09
			c0.134-0.094,0.214-0.247,0.214-0.41v-4c0-0.209-0.131-0.396-0.327-0.469c-3.594-1.328-7.752-1.328-11.346,0
			C6.129,8.073,5.998,8.261,5.998,8.47v4c0,0.163,0.08,0.316,0.214,0.41C6.347,12.974,6.52,12.995,6.671,12.938z M6.998,8.822
			c3.18-1.09,6.82-1.09,10,0v2.947c-1.599-0.511-3.276-0.769-5-0.769s-3.401,0.258-5,0.769V8.822z"/>
		<path d="M12,1.001c-0.829,0-1.5,0.672-1.5,1.5h3C13.5,1.673,12.827,1.001,12,1.001z"/>
		<path d="M23.968,23.278L23,17.926v-3.925c0-6.065-4.936-11-11.002-11C5.934,3.001,1,7.936,1,14.001v3.925l-0.992,5.486
			c-0.036,0.2,0.053,0.402,0.225,0.511c0.17,0.11,0.392,0.104,0.558-0.015c3.377-2.402,7.96-2.907,11.21-2.907
			c3.249,0,7.832,0.505,11.21,2.907c0.087,0.062,0.188,0.093,0.29,0.093c0.008,0.001,0.016,0.001,0.02,0c0.276,0,0.5-0.224,0.5-0.5
			C24.02,23.421,24.001,23.346,23.968,23.278z M11.998,4.001c5.515,0,10.002,4.486,10.002,10v3.187
			c-3.143-1.445-6.501-2.187-10-2.187c-3.5,0-6.858,0.741-10,2.187v-3.187C2,8.487,6.485,4.001,11.998,4.001z M12,20.001
			c-3.093,0-7.354,0.445-10.803,2.457l0.75-4.149C5.09,16.777,8.471,16.001,12,16.001c3.527,0,6.908,0.776,10.053,2.308l0.751,4.149
			C19.353,20.446,15.093,20.001,12,20.001z"/>
	</g>
</g>
<g id="invisible_shape">
	<rect fill="none" width="24" height="24"/>
</g>
</svg>
