<?xml version="1.0" encoding="utf-8"?>
<!-- Generator: Adobe Illustrator 16.0.3, SVG Export Plug-In . SVG Version: 6.00 Build 0)  -->
<!DOCTYPE svg PUBLIC "-//W3C//DTD SVG 1.1//EN" "http://www.w3.org/Graphics/SVG/1.1/DTD/svg11.dtd">
<svg version="1.1" xmlns="http://www.w3.org/2000/svg" xmlns:xlink="http://www.w3.org/1999/xlink" x="0px" y="0px" width="24px"
	 height="24px" viewBox="0 0 24 24" enable-background="new 0 0 24 24" xml:space="preserve">
<g id="Outline_Icons">
	<g>
		<path d="M19.5,9.001H15c-0.414,0-0.8,0.127-1.119,0.344C13.607,8.565,12.872,8.001,12,8.001c-0.871,0-1.607,0.564-1.881,1.344
			C9.8,9.128,9.415,9.001,9,9.001H4.5c-1.654,0-3,1.346-3,3c0,2.897,1.893,5,4.5,5c2.757,0,5-2.243,5-5v-1v-1c0-0.552,0.448-1,1-1
			s1,0.448,1,1v1v1c0,2.757,2.243,5,5,5c2.607,0,4.5-2.103,4.5-5C22.5,10.347,21.154,9.001,19.5,9.001z M10,12.001
			c0,2.206-1.794,4-4,4c-2.061,0-3.5-1.645-3.5-4c0-1.103,0.897-2,2-2H9c0.552,0,1,0.448,1,1V12.001z M18,16.001
			c-2.206,0-4-1.794-4-4v-1c0-0.552,0.448-1,1-1h4.5c1.103,0,2,0.897,2,2C21.5,14.356,20.061,16.001,18,16.001z"/>
		<path d="M2,9.501c0-0.276-0.224-0.5-0.5-0.5c-0.827,0-1.5,0.673-1.5,1.5c0,0.276,0.224,0.5,0.5,0.5s0.5-0.224,0.5-0.5
			c0-0.275,0.225-0.5,0.5-0.5C1.776,10.001,2,9.777,2,9.501z"/>
		<path d="M22.5,9.001c-0.276,0-0.5,0.224-0.5,0.5s0.224,0.5,0.5,0.5c0.275,0,0.5,0.225,0.5,0.5c0,0.276,0.224,0.5,0.5,0.5
			s0.5-0.224,0.5-0.5C24,9.674,23.327,9.001,22.5,9.001z"/>
	</g>
</g>
<g id="invisible_shape">
	<rect fill="none" width="24" height="24"/>
</g>
</svg>
