<?xml version="1.0" encoding="utf-8"?>
<!-- Generator: Adobe Illustrator 16.0.3, SVG Export Plug-In . SVG Version: 6.00 Build 0)  -->
<!DOCTYPE svg PUBLIC "-//W3C//DTD SVG 1.1//EN" "http://www.w3.org/Graphics/SVG/1.1/DTD/svg11.dtd">
<svg version="1.1" xmlns="http://www.w3.org/2000/svg" xmlns:xlink="http://www.w3.org/1999/xlink" x="0px" y="0px" width="24px"
	 height="24px" viewBox="0 0 24 24" enable-background="new 0 0 24 24" xml:space="preserve">
<g id="Outline_Icons">
	<path d="M20.488,5.894c-0.035-0.162-0.148-0.296-0.303-0.357l-5-2c-0.184-0.075-0.396-0.032-0.539,0.11
		C13.786,4.507,12.64,5,11.5,5S9.214,4.507,8.354,3.646c-0.143-0.143-0.355-0.186-0.539-0.11l-5,2
		C2.66,5.598,2.547,5.731,2.512,5.894l-2.5,11.5c-0.032,0.148,0.004,0.303,0.099,0.42C0.206,17.932,0.349,18,0.5,18h3
		c0.219,0,0.412-0.142,0.478-0.351L6,11.159V12.5v2v2v2v3C6,21.776,6.224,22,6.5,22h10c0.276,0,0.5-0.224,0.5-0.5v-3v-2v-2v-2
		v-1.214l2.023,6.365C19.09,17.859,19.282,18,19.5,18h3c0.151,0,0.294-0.068,0.39-0.187c0.095-0.117,0.131-0.271,0.099-0.42
		L20.488,5.894z M16,18H7v-1h9V18z M16,16H7v-1h9V16z M16,14H7v-1h9V14z M7,21v-2h9v2H7z M19.865,17l-2.258-7.077
		c-0.058-0.451-0.41-0.939-0.879-0.939C16.558,8.983,16,9.061,16,10.052V12H7v-2c0-0.509-0.342-1.054-0.851-1.054
		c-0.209,0-0.708,0.102-0.793,0.946L3.133,17H1.12L3.433,6.365L7.89,4.583C8.905,5.487,10.203,6,11.5,6s2.595-0.513,3.61-1.417
		l4.457,1.782L21.88,17H19.865z"/>
</g>
<g id="invisible_shape">
	<rect fill="none" width="24" height="24"/>
</g>
</svg>
