<?xml version="1.0" encoding="utf-8"?>
<!-- Generator: Adobe Illustrator 16.0.3, SVG Export Plug-In . SVG Version: 6.00 Build 0)  -->
<!DOCTYPE svg PUBLIC "-//W3C//DTD SVG 1.1//EN" "http://www.w3.org/Graphics/SVG/1.1/DTD/svg11.dtd">
<svg version="1.1" xmlns="http://www.w3.org/2000/svg" xmlns:xlink="http://www.w3.org/1999/xlink" x="0px" y="0px" width="24px"
	 height="24px" viewBox="0 0 24 24" enable-background="new 0 0 24 24" xml:space="preserve">
<g id="Outline_Icons">
	<g>
		<path d="M6.5,0.001c-3.584,0-6.5,2.916-6.5,6.5s2.916,6.5,6.5,6.5s6.5-2.916,6.5-6.5S10.084,0.001,6.5,0.001z M6.5,12.001
			c-3.032,0-5.5-2.468-5.5-5.5s2.468-5.5,5.5-5.5s5.5,2.468,5.5,5.5S9.532,12.001,6.5,12.001z"/>
		<circle cx="14.5" cy="6.001" r="0.5"/>
		<path d="M10,6.501c0,1.93-1.57,3.5-3.5,3.5c-0.276,0-0.5,0.224-0.5,0.5s0.224,0.5,0.5,0.5c2.481,0,4.5-2.019,4.5-4.5
			c0-0.276-0.224-0.5-0.5-0.5S10,6.225,10,6.501z"/>
		<path d="M21.999,7.001c-1.103,0-2,0.897-2,2v11.5c0,1.379-1.121,2.5-2.5,2.5s-2.5-1.121-2.5-2.5V7.5c0-0.276-0.224-0.5-0.5-0.5
			s-0.5,0.224-0.5,0.5v13.001c0,1.93,1.57,3.5,3.5,3.5s3.5-1.57,3.5-3.5v-11.5c0-0.552,0.448-1,1-1s1,0.448,1,1v1.439
			c0,0.276,0.224,0.5,0.5,0.5s0.5-0.224,0.5-0.5V9.001C23.999,7.898,23.102,7.001,21.999,7.001z"/>
	</g>
</g>
<g id="invisible_shape">
	<rect fill="none" width="24" height="24"/>
</g>
</svg>
