<?xml version="1.0" encoding="utf-8"?>
<!-- Generator: Adobe Illustrator 16.0.3, SVG Export Plug-In . SVG Version: 6.00 Build 0)  -->
<!DOCTYPE svg PUBLIC "-//W3C//DTD SVG 1.1//EN" "http://www.w3.org/Graphics/SVG/1.1/DTD/svg11.dtd">
<svg version="1.1" xmlns="http://www.w3.org/2000/svg" xmlns:xlink="http://www.w3.org/1999/xlink" x="0px" y="0px" width="24px"
	 height="24px" viewBox="0 0 24 24" enable-background="new 0 0 24 24" xml:space="preserve">
<g id="Outline_Icons">
	<path d="M19,6.451V3.5C19,3.224,18.776,3,18.5,3h-13C5.224,3,5,3.224,5,3.5v2.951L2.01,21.402
		c-0.037,0.186,0.034,0.376,0.184,0.492C2.841,22.398,3.854,23,5,23c1.415,0,2.674-0.588,3.5-1.604C9.326,22.412,10.585,23,12,23
		s2.674-0.588,3.5-1.604C16.326,22.412,17.585,23,19,23c1.016,0,1.939-0.366,2.824-1.119c0.138-0.118,0.201-0.301,0.166-0.479
		L19,6.451z M6,4h12v2H6V4z M5,22c-0.758,0-1.479-0.391-1.947-0.714L5.91,7h3.053L8.01,20.34C7.406,21.379,6.29,22,5,22z M12,22
		c-1.276,0-2.381-0.608-2.989-1.627L9.966,7h4.068l0.955,13.373C14.381,21.392,13.276,22,12,22z M19,22
		c-1.29,0-2.406-0.621-3.01-1.66L15.037,7h3.053l2.86,14.301C20.326,21.771,19.686,22,19,22z"/>
</g>
<g id="invisible_shape">
	<rect fill="none" width="24" height="24"/>
</g>
</svg>
