<?xml version="1.0" encoding="utf-8"?>
<!-- Generator: Adobe Illustrator 16.0.3, SVG Export Plug-In . SVG Version: 6.00 Build 0)  -->
<!DOCTYPE svg PUBLIC "-//W3C//DTD SVG 1.1//EN" "http://www.w3.org/Graphics/SVG/1.1/DTD/svg11.dtd">
<svg version="1.1" xmlns="http://www.w3.org/2000/svg" xmlns:xlink="http://www.w3.org/1999/xlink" x="0px" y="0px" width="24px"
	 height="24px" viewBox="0 0 24 24" enable-background="new 0 0 24 24" xml:space="preserve">
<g id="Outline_Icons">
	<path d="M18.834,17.269c0-1.166,0.468-2.172,0.919-3.145c0.986-2.123,1.995-4.32-1.753-7.835V0.501c0-0.276-0.224-0.5-0.5-0.5
		S17,0.225,17,0.501v5.932c-0.002,0.019-0.016,0.034-0.016,0.053c0,3.303-9.965,3.303-9.965,0C7.02,6.461,7.003,6.443,7,6.42V0.501
		c0-0.276-0.224-0.5-0.5-0.5S6,0.225,6,0.501v5.792c-3.73,3.502-2.689,5.685-1.672,7.793c0.472,0.976,0.959,1.985,0.959,3.159
		c0,1.716-0.385,3.28-1.176,4.784c-0.21,0.403-0.195,0.913,0.037,1.297c0.243,0.406,0.665,0.659,1.1,0.659h13.625
		c0.491,0,0.89-0.367,1.102-0.714c0.229-0.384,0.244-0.908,0.036-1.306C19.463,20.923,18.834,19.447,18.834,17.269z M19.118,22.755
		c-0.088,0.145-0.206,0.227-0.246,0.23H5.248c-0.078,0-0.182-0.074-0.242-0.175c-0.052-0.085-0.055-0.228-0.009-0.317
		c0.868-1.649,1.29-3.366,1.29-5.248c0-1.403-0.562-2.567-1.059-3.595c-0.927-1.92-1.673-3.465,0.984-6.177
		c0.722,1.729,3.335,2.527,5.789,2.527s5.068-0.799,5.789-2.528c2.682,2.732,1.957,4.291,1.056,6.229
		c-0.475,1.021-1.013,2.179-1.013,3.566c0,2.397,0.69,4.019,1.291,5.161C19.172,22.519,19.167,22.672,19.118,22.755z"/>
</g>
<g id="invisible_shape">
	<rect fill="none" width="24" height="24"/>
</g>
</svg>
