<?xml version="1.0" encoding="utf-8"?>
<!-- Generator: Adobe Illustrator 16.0.3, SVG Export Plug-In . SVG Version: 6.00 Build 0)  -->
<!DOCTYPE svg PUBLIC "-//W3C//DTD SVG 1.1//EN" "http://www.w3.org/Graphics/SVG/1.1/DTD/svg11.dtd">
<svg version="1.1" xmlns="http://www.w3.org/2000/svg" xmlns:xlink="http://www.w3.org/1999/xlink" x="0px" y="0px" width="24px"
	 height="24px" viewBox="0 0 24 24" enable-background="new 0 0 24 24" xml:space="preserve">
<g id="Outline_Icons_1_">
	<g id="Outline_Icons">
		<g>
			<path d="M14.11,19.308l-3.61-1.292v-1.45c1.174-0.944,1.947-2.532,1.947-4.33C12.447,9.349,10.452,7,8,7
				s-4.447,2.349-4.447,5.236c0,1.797,0.773,3.385,1.947,4.33v1.45l-3.61,1.292C0.759,19.713,0,20.801,0,22.012V23.5
				C0,23.776,0.224,24,0.5,24h15c0.276,0,0.5-0.224,0.5-0.5v-1.488C16,20.801,15.241,19.714,14.11,19.308z M8,8
				c1.657,0,3.043,1.445,3.372,3.363c-1.058,0.184-1.705-0.171-2.345-1.292C8.936,9.911,8.776,9.813,8.583,9.818
				C8.4,9.822,8.234,9.925,8.149,10.087c-0.342,0.658-1.547,1.256-2.528,1.256c-0.348,0-0.648-0.07-0.943-0.177
				C5.066,9.35,6.401,8,8,8z M4.556,12.193c0.336,0.097,0.685,0.15,1.065,0.15c1.064,0,2.228-0.487,2.935-1.17
				c0.634,0.838,1.381,1.237,2.324,1.237c0.176,0,0.367-0.029,0.558-0.057C11.385,14.637,9.868,16.477,8,16.477
				C6.129,16.477,4.536,14.608,4.556,12.193z M15,23H1v-0.988c0-0.791,0.493-1.499,1.227-1.762l3.941-1.412
				c0.199-0.071,0.332-0.26,0.332-0.471v-1.219c0.471,0.2,0.971,0.328,1.5,0.328s1.029-0.128,1.5-0.328v1.219
				c0,0.211,0.133,0.399,0.332,0.471l3.941,1.412C14.507,20.513,15,21.221,15,22.012V23z"/>
			<path d="M20.11,19.308l-3.61-1.292v-1.45c1.174-0.944,1.947-2.532,1.947-4.33C18.447,9.628,16.63,7,14,7
				c-0.276,0-0.5,0.224-0.5,0.5S13.724,8,14,8c1.657,0,3.043,1.445,3.372,3.363c-1.056,0.184-1.704-0.171-2.345-1.292
				c-0.137-0.239-0.443-0.324-0.682-0.186c-0.24,0.137-0.323,0.442-0.186,0.682c0.717,1.254,1.574,1.845,2.721,1.845
				c0.176,0,0.367-0.029,0.558-0.057c-0.053,2.282-1.569,4.122-3.438,4.122c-0.276,0-0.5,0.224-0.5,0.5s0.224,0.5,0.5,0.5
				c0.529,0,1.029-0.128,1.5-0.328v1.219c0,0.211,0.133,0.399,0.332,0.471l3.941,1.412C20.507,20.513,21,21.221,21,22.012V23h-2.969
				c-0.276,0-0.5,0.224-0.5,0.5s0.224,0.5,0.5,0.5H21.5c0.276,0,0.5-0.224,0.5-0.5v-1.488C22,20.801,21.241,19.714,20.11,19.308z"/>
			<path d="M23.521,4h-6c-0.276,0-0.5,0.224-0.5,0.5s0.224,0.5,0.5,0.5h6c0.276,0,0.5-0.224,0.5-0.5S23.797,4,23.521,4z"/>
		</g>
	</g>
	<g id="New_icons_1_">
	</g>
</g>
<g id="Invisible_Shape">
	<rect fill="none" width="24" height="24"/>
</g>
</svg>
