<?xml version="1.0" encoding="utf-8"?>
<!-- Generator: Adobe Illustrator 16.0.3, SVG Export Plug-In . SVG Version: 6.00 Build 0)  -->
<!DOCTYPE svg PUBLIC "-//W3C//DTD SVG 1.1//EN" "http://www.w3.org/Graphics/SVG/1.1/DTD/svg11.dtd">
<svg version="1.1" xmlns="http://www.w3.org/2000/svg" xmlns:xlink="http://www.w3.org/1999/xlink" x="0px" y="0px" width="24px"
	 height="24px" viewBox="0 0 24 24" enable-background="new 0 0 24 24" xml:space="preserve">
<g id="Outline_Icons_1_">
	<g id="Outline_Icons">
		<g>
			<path d="M23.854,23.146l-2.707-2.706C21.673,19.763,22,18.923,22,18c0-2.206-1.794-4-4-4s-4,1.794-4,4s1.794,4,4,4
				c0.922,0,1.762-0.326,2.439-0.853l2.707,2.706C23.244,23.951,23.372,24,23.5,24s0.256-0.049,0.354-0.146
				C24.049,23.658,24.049,23.342,23.854,23.146z M15,18c0-1.654,1.346-3,3-3s3,1.346,3,3s-1.346,3-3,3S15,19.654,15,18z"/>
			<path d="M13,7c0,1.986-1.148,2.519-1.191,2.538C11.622,9.615,11.5,9.797,11.5,10v2.5c0,0.17,0.087,0.329,0.23,0.421
				c0.567,0.363,1.919,0.688,2.578,0.907c0.262,0.085,0.545-0.055,0.632-0.317c0.087-0.262-0.055-0.545-0.317-0.632
				c-0.554-0.184-1.616-0.458-2.123-0.681v-1.909c0.492-0.329,1.403-1.179,1.493-2.995c0.245-0.247,0.382-0.707,0.382-1.329
				c0-0.546-0.106-0.968-0.298-1.229c0.209-0.6,0.596-1.713,0.312-2.856c-0.332-1.334-2.207-1.808-3.711-1.808
				c-1.333,0-2.956,0.372-3.54,1.383c-0.515-0.03-0.912,0.11-1.189,0.417C5.3,2.584,5.664,3.901,5.894,4.668
				C5.75,4.758,5.624,4.881,5.521,5.035C5.346,5.298,5.25,5.641,5.25,6c0,0.659,0.302,1.18,0.763,1.395
				C6.13,9.142,7.017,9.966,7.5,10.289v1.855c-0.562,0.192-1.125,0.373-1.672,0.549c-2.514,0.807-4.5,1.444-4.899,2.649
				c-0.48,1.45-0.904,3.968-0.922,4.075c-0.024,0.145,0.017,0.293,0.112,0.405C0.213,19.936,0.353,20,0.5,20h11
				c0.276,0,0.5-0.224,0.5-0.5S11.776,19,11.5,19H1.097c0.154-0.833,0.459-2.373,0.781-3.343c0.239-0.723,2.373-1.407,4.255-2.012
				c0.665-0.213,1.354-0.435,2.033-0.674c0.2-0.07,0.334-0.26,0.334-0.472V10c0-0.198-0.123-0.379-0.303-0.459
				C8.148,9.519,7,8.986,7,7c0-0.276-0.224-0.5-0.5-0.5C6.328,6.5,6.25,6.208,6.25,6c0-0.159,0.039-0.313,0.104-0.41
				C6.409,5.507,6.456,5.5,6.5,5.5C6.776,5.5,7,5.276,7,5c0-0.129-0.041-0.262-0.121-0.529c-0.12-0.397-0.485-1.604-0.191-1.927
				c0.091-0.1,0.334-0.121,0.665-0.054c0.262,0.054,0.519-0.11,0.583-0.37c0.148-0.598,1.327-1.049,2.74-1.049
				c1.414,0,2.592,0.451,2.741,1.049c0.213,0.855-0.111,1.787-0.286,2.288C13.047,4.653,13,4.788,13,4.93
				c0,0.133,0.053,0.26,0.146,0.354c0.045,0.045,0.098,0.081,0.156,0.106c0.095,0.25,0.095,0.901,0,1.151
				C13.125,6.617,13,6.794,13,7z"/>
		</g>
	</g>
	<g id="New_icons_1_">
	</g>
</g>
<g id="Invisible_Shape">
	<rect fill="none" width="24" height="24"/>
</g>
</svg>
