<?xml version="1.0" encoding="utf-8"?>
<!-- Generator: Adobe Illustrator 16.0.3, SVG Export Plug-In . SVG Version: 6.00 Build 0)  -->
<!DOCTYPE svg PUBLIC "-//W3C//DTD SVG 1.1//EN" "http://www.w3.org/Graphics/SVG/1.1/DTD/svg11.dtd">
<svg version="1.1" xmlns="http://www.w3.org/2000/svg" xmlns:xlink="http://www.w3.org/1999/xlink" x="0px" y="0px" width="24px"
	 height="24px" viewBox="0 0 24 24" enable-background="new 0 0 24 24" xml:space="preserve">
<g id="Outline_Icons_1_">
	<g id="Outline_Icons">
	</g>
	<g id="New_icons_1_">
		<g>
			<path d="M23.808,21.145c-0.229-0.483-0.632-0.848-1.135-1.027c-0.874-0.315-1.822,0.027-2.322,0.763l-3.369-1.203
				C16.987,19.618,17,19.561,17,19.5c0-0.144-0.017-0.283-0.046-0.418l3.544-1.772c0.402,0.462,0.944,0.691,1.504,0.691
				c0.819,0,1.61-0.515,1.895-1.368c0.169-0.507,0.13-1.049-0.108-1.527c-0.798-1.598-3.127-1.413-3.686,0.261
				c-0.115,0.344-0.126,0.703-0.052,1.048L16.5,18.191c-0.367-0.42-0.9-0.691-1.5-0.691c-1.103,0-2,0.897-2,2c0,1.103,0.897,2,2,2
				c0.688,0,1.295-0.349,1.655-0.878l3.36,1.2c-0.111,1.218,0.849,2.18,1.986,2.18c0.8,0,1.584-0.493,1.882-1.329
				C24.063,22.169,24.036,21.627,23.808,21.145z M21.052,15.684C21.191,15.264,21.579,15,21.999,15c0.367,0,0.721,0.202,0.896,0.552
				c0.247,0.496,0.049,1.094-0.448,1.342c-0.239,0.12-0.51,0.138-0.763,0.054C21.163,16.775,20.876,16.21,21.052,15.684z M15,20.5
				c-0.551,0-1-0.449-1-1c0-0.551,0.449-1,1-1s1,0.449,1,1C16,20.051,15.551,20.5,15,20.5z M22.941,22.335
				C22.941,22.335,22.941,22.335,22.941,22.335c-0.185,0.517-0.752,0.793-1.278,0.606c-0.515-0.184-0.789-0.747-0.605-1.272
				c0.001-0.002,0.003-0.002,0.004-0.005c0.001-0.003,0-0.006,0.001-0.009C21.211,21.252,21.593,21,22,21
				C22.695,21,23.173,21.687,22.941,22.335z"/>
			<path d="M13,11.941c1.503-1.162,2.5-3.165,2.5-5.441C15.5,2.916,13.033,0,10,0S4.5,2.916,4.5,6.5c0,2.276,0.997,4.279,2.5,5.441
				v2.207l-4.678,1.671C0.933,16.315,0,17.639,0,19.114V21.5C0,21.776,0.224,22,0.5,22h10c0.276,0,0.5-0.224,0.5-0.5
				S10.776,21,10.5,21H1v-1.886c0-1.053,0.667-1.999,1.659-2.354l5.009-1.789C7.867,14.9,8,14.711,8,14.5v-1.951
				C8.621,12.836,9.294,13,10,13s1.379-0.164,2-0.451V14.5c0,0.276,0.224,0.5,0.5,0.5s0.5-0.224,0.5-0.5V11.941z M10,1
				c2.204,0,4.039,1.947,4.423,4.507c-0.007,0.001-0.011,0.001-0.018,0.002c-1.451,0.282-2.352-0.192-3.206-1.687
				c-0.09-0.158-0.241-0.25-0.443-0.252c-0.183,0.003-0.35,0.106-0.434,0.269C9.86,4.724,8.308,5.5,7,5.5
				c-0.509,0-0.946-0.084-1.376-0.26C6.092,2.813,7.874,1,10,1z M5.5,6.5c0-0.081,0.007-0.16,0.01-0.24C5.979,6.418,6.464,6.5,7,6.5
				c1.374,0,2.88-0.653,3.735-1.55c0.797,1.11,1.737,1.636,2.931,1.636c0.264,0,0.545-0.034,0.834-0.085c0,3.033-2.019,5.5-4.5,5.5
				S5.5,9.533,5.5,6.5z"/>
		</g>
	</g>
</g>
<g id="Invisible_Shape">
	<rect fill="none" width="24" height="24"/>
</g>
</svg>
