<?xml version="1.0" encoding="utf-8"?>
<!-- Generator: Adobe Illustrator 16.0.3, SVG Export Plug-In . SVG Version: 6.00 Build 0)  -->
<!DOCTYPE svg PUBLIC "-//W3C//DTD SVG 1.1//EN" "http://www.w3.org/Graphics/SVG/1.1/DTD/svg11.dtd">
<svg version="1.1" xmlns="http://www.w3.org/2000/svg" xmlns:xlink="http://www.w3.org/1999/xlink" x="0px" y="0px" width="24px"
	 height="24px" viewBox="0 0 24 24" enable-background="new 0 0 24 24" xml:space="preserve">
<g id="Outline_Icons_1_">
	<g id="Outline_Icons">
		<g>
			<path d="M22.731,14.057c-0.166-0.086-0.365-0.073-0.518,0.034c-1.541,1.077-2.722,0.65-3.316-0.108
				c-0.189-0.242-0.604-0.242-0.794,0c-0.769,0.981-2.009,1.021-3.317,0.107c-0.152-0.106-0.352-0.12-0.517-0.033
				C14.104,14.143,14,14.313,14,14.5v5.924c0,0.045,0.006,0.089,0.018,0.132c0.027,0.098,0.697,2.404,4.348,3.426
				C18.409,23.994,18.455,24,18.5,24s0.091-0.006,0.135-0.019c3.651-1.021,4.321-3.328,4.348-3.426
				C22.994,20.513,23,20.469,23,20.424V14.5C23,14.313,22.896,14.143,22.731,14.057z M22,20.343c-0.117,0.317-0.807,1.84-3.5,2.636
				c-2.701-0.799-3.387-2.327-3.5-2.635V15.37c1.478,0.698,2.712,0.332,3.5-0.358c0.788,0.692,2.021,1.059,3.5,0.359V20.343z"/>
			<path d="M19,16.5c0-0.276-0.224-0.5-0.5-0.5S18,16.224,18,16.5V18h-1.5c-0.276,0-0.5,0.224-0.5,0.5s0.224,0.5,0.5,0.5H18v1.5
				c0,0.276,0.224,0.5,0.5,0.5s0.5-0.224,0.5-0.5V19h1.5c0.276,0,0.5-0.224,0.5-0.5S20.776,18,20.5,18H19V16.5z"/>
			<path d="M15.5,6.5C15.5,2.916,13.033,0,10,0S4.5,2.916,4.5,6.5c0,2.276,0.997,4.279,2.5,5.441v2.207l-4.678,1.671
				C0.933,16.315,0,17.639,0,19.114V21.5C0,21.776,0.224,22,0.5,22h12c0.276,0,0.5-0.224,0.5-0.5S12.776,21,12.5,21H1v-1.886
				c0-1.053,0.667-1.999,1.659-2.354l5.009-1.789C7.867,14.9,8,14.711,8,14.5v-1.951C8.621,12.836,9.294,13,10,13
				s1.379-0.164,2-0.451V14.5c0,0.276,0.224,0.5,0.5,0.5s0.5-0.224,0.5-0.5v-2.559C14.503,10.779,15.5,8.776,15.5,6.5z M10,1
				c2.204,0,4.039,1.947,4.423,4.507c-0.007,0.001-0.011,0.001-0.018,0.002c-1.452,0.282-2.352-0.192-3.206-1.687
				c-0.09-0.158-0.263-0.25-0.443-0.252c-0.183,0.003-0.35,0.106-0.434,0.269C9.86,4.724,8.308,5.5,7,5.5
				c-0.509,0-0.946-0.084-1.376-0.26C6.092,2.813,7.874,1,10,1z M5.5,6.5c0-0.081,0.007-0.16,0.01-0.24C5.979,6.418,6.464,6.5,7,6.5
				c1.374,0,2.88-0.653,3.735-1.55c0.797,1.11,1.737,1.636,2.931,1.636c0.264,0,0.545-0.034,0.834-0.085c0,3.033-2.019,5.5-4.5,5.5
				S5.5,9.533,5.5,6.5z"/>
		</g>
	</g>
	<g id="New_icons_1_">
	</g>
</g>
<g id="Invisible_Shape">
	<rect fill="none" width="24" height="24"/>
</g>
</svg>
