<?xml version="1.0" encoding="utf-8"?>
<!-- Generator: Adobe Illustrator 16.0.3, SVG Export Plug-In . SVG Version: 6.00 Build 0)  -->
<!DOCTYPE svg PUBLIC "-//W3C//DTD SVG 1.1//EN" "http://www.w3.org/Graphics/SVG/1.1/DTD/svg11.dtd">
<svg version="1.1" xmlns="http://www.w3.org/2000/svg" xmlns:xlink="http://www.w3.org/1999/xlink" x="0px" y="0px" width="24px"
	 height="24px" viewBox="0 0 24 24" enable-background="new 0 0 24 24" xml:space="preserve">
<g id="Outline_Icons_1_">
	<g id="Outline_Icons">
		<g>
			<path d="M18.5,13c-3.033,0-5.5,2.467-5.5,5.5c0,3.033,2.467,5.5,5.5,5.5s5.5-2.467,5.5-5.5C24,15.467,21.533,13,18.5,13z
				 M18.5,23c-2.481,0-4.5-2.019-4.5-4.5s2.019-4.5,4.5-4.5s4.5,2.019,4.5,4.5S20.981,23,18.5,23z"/>
			<path d="M21,18h-5c-0.276,0-0.5,0.224-0.5,0.5S15.724,19,16,19h5c0.276,0,0.5-0.224,0.5-0.5S21.276,18,21,18z"/>
			<path d="M13,11.941c1.503-1.162,2.5-3.165,2.5-5.441C15.5,2.916,13.033,0,10,0S4.5,2.916,4.5,6.5c0,2.276,0.997,4.279,2.5,5.441
				v2.207l-4.678,1.671C0.933,16.315,0,17.639,0,19.114V21.5C0,21.776,0.224,22,0.5,22h11c0.276,0,0.5-0.224,0.5-0.5
				S11.776,21,11.5,21H1v-1.886c0-1.053,0.667-1.999,1.659-2.354l5.009-1.789C7.867,14.9,8,14.711,8,14.5v-1.951
				C8.621,12.836,9.294,13,10,13s1.379-0.164,2-0.451V14.5c0,0.276,0.224,0.5,0.5,0.5s0.5-0.224,0.5-0.5V11.941z M10,1
				c2.204,0,4.039,1.947,4.423,4.507c-0.007,0.001-0.011,0.001-0.018,0.002c-1.453,0.28-2.352-0.192-3.206-1.687
				c-0.09-0.159-0.22-0.231-0.444-0.252c-0.183,0.003-0.349,0.106-0.434,0.269C9.861,4.724,8.308,5.5,7,5.5
				c-0.509,0-0.946-0.084-1.376-0.26C6.092,2.813,7.874,1,10,1z M5.5,6.5c0-0.081,0.007-0.16,0.01-0.24C5.979,6.418,6.464,6.5,7,6.5
				c1.374,0,2.881-0.653,3.735-1.55c0.797,1.109,1.737,1.635,2.931,1.635c0.264,0,0.545-0.034,0.834-0.085
				c0,3.033-2.019,5.5-4.5,5.5S5.5,9.533,5.5,6.5z"/>
		</g>
	</g>
	<g id="New_icons_1_">
	</g>
</g>
<g id="Invisible_Shape">
	<rect fill="none" width="24" height="24"/>
</g>
</svg>
