<?xml version="1.0" encoding="utf-8"?>
<!-- Generator: Adobe Illustrator 16.0.3, SVG Export Plug-In . SVG Version: 6.00 Build 0)  -->
<!DOCTYPE svg PUBLIC "-//W3C//DTD SVG 1.1//EN" "http://www.w3.org/Graphics/SVG/1.1/DTD/svg11.dtd">
<svg version="1.1" xmlns="http://www.w3.org/2000/svg" xmlns:xlink="http://www.w3.org/1999/xlink" x="0px" y="0px" width="24px"
	 height="24px" viewBox="0 0 24 24" enable-background="new 0 0 24 24" xml:space="preserve">
<g id="Outline_Icons_1_">
	<g id="Outline_Icons">
		<g>
			<path d="M18.118,15.026L14,13.641V8c0-1.103-0.9-2-2.008-2C10.894,6,10,6.89,10,7.984v9.42C8.517,15.438,7.511,15,6.451,15
				c-0.507,0-0.911,0.232-1.14,0.655c-0.355,0.659-0.175,1.565,0.191,2.124l4.016,6C9.611,23.917,9.767,24,9.934,24h7.984
				c0.241,0,0.447-0.172,0.491-0.409l1.017-5.479C19.701,16.918,19.407,15.442,18.118,15.026z M18.447,17.909L17.502,23H10.2
				l-3.864-5.774c-0.211-0.323-0.28-0.845-0.145-1.096C6.226,16.067,6.276,16,6.451,16c0.762,0,1.669,0.252,3.63,3.272
				c0.12,0.185,0.348,0.27,0.561,0.207S11,19.222,11,19V7.984C11,7.442,11.445,7,11.992,7C12.548,7,13,7.449,13,8v6
				c0,0.215,0.137,0.405,0.341,0.474l4.465,1.502C18.5,16.2,18.627,17.124,18.447,17.909z"/>
			<path d="M7.322,12.805c0.195-0.195,0.195-0.512,0-0.708c-2.534-2.535-2.534-6.659,0-9.193C8.549,1.677,10.181,1,11.917,1h0.001
				c1.736,0,3.368,0.676,4.596,1.904c2.534,2.534,2.534,6.659,0,9.193c-0.195,0.195-0.195,0.512,0,0.708
				c0.098,0.097,0.226,0.146,0.354,0.146s0.256-0.049,0.354-0.146c2.924-2.925,2.924-7.684,0-10.608
				c-1.416-1.416-3.3-2.196-5.303-2.196h-0.001C9.913,0,8.03,0.781,6.615,2.197c-2.924,2.925-2.924,7.684,0,10.608
				C6.811,13,7.127,13,7.322,12.805z"/>
		</g>
	</g>
	<g id="New_icons_1_">
	</g>
</g>
<g id="Invisible_Shape">
	<rect fill="none" width="24" height="24"/>
</g>
</svg>
