<?xml version="1.0" encoding="utf-8"?>
<!-- Generator: Adobe Illustrator 16.0.3, SVG Export Plug-In . SVG Version: 6.00 Build 0)  -->
<!DOCTYPE svg PUBLIC "-//W3C//DTD SVG 1.1//EN" "http://www.w3.org/Graphics/SVG/1.1/DTD/svg11.dtd">
<svg version="1.1" xmlns="http://www.w3.org/2000/svg" xmlns:xlink="http://www.w3.org/1999/xlink" x="0px" y="0px" width="24px"
	 height="24px" viewBox="0 0 24 24" enable-background="new 0 0 24 24" xml:space="preserve">
<g id="Outline_Icons_1_">
	<g id="Outline_Icons">
		<g>
			<path d="M12,9.5c-1.379,0-2.5,1.122-2.5,2.5s1.121,2.5,2.5,2.5s2.5-1.122,2.5-2.5S13.379,9.5,12,9.5z M12,13.5
				c-0.827,0-1.5-0.673-1.5-1.5s0.673-1.5,1.5-1.5s1.5,0.673,1.5,1.5S12.827,13.5,12,13.5z"/>
			<path d="M23.838,11.631l-6-5.5c-0.146-0.134-0.359-0.169-0.539-0.089C17.117,6.122,17,6.302,17,6.5v11
				c0,0.199,0.117,0.378,0.299,0.458C17.363,17.986,17.432,18,17.5,18c0.123,0,0.244-0.045,0.338-0.131l6-5.5
				C23.941,12.274,24,12.14,24,12C24,11.86,23.941,11.726,23.838,11.631z M18,16.363V7.637L22.76,12L18,16.363z"/>
			<path d="M6.701,6.042c-0.18-0.081-0.393-0.045-0.539,0.089l-6,5.5C0.059,11.726,0,11.86,0,12c0,0.14,0.059,0.274,0.162,0.369
				l6,5.5C6.256,17.955,6.377,18,6.5,18c0.068,0,0.137-0.014,0.201-0.042C6.883,17.878,7,17.699,7,17.5v-11
				C7,6.302,6.883,6.122,6.701,6.042z M6,16.363L1.24,12L6,7.637V16.363z"/>
		</g>
	</g>
	<g id="New_icons_1_">
	</g>
</g>
<g id="Invisible_Shape">
	<rect fill="none" width="24" height="24"/>
</g>
</svg>
