<?xml version="1.0" encoding="utf-8"?>
<!-- Generator: Adobe Illustrator 16.0.3, SVG Export Plug-In . SVG Version: 6.00 Build 0)  -->
<!DOCTYPE svg PUBLIC "-//W3C//DTD SVG 1.1//EN" "http://www.w3.org/Graphics/SVG/1.1/DTD/svg11.dtd">
<svg version="1.1" xmlns="http://www.w3.org/2000/svg" xmlns:xlink="http://www.w3.org/1999/xlink" x="0px" y="0px" width="24px"
	 height="24px" viewBox="0 0 24 24" enable-background="new 0 0 24 24" xml:space="preserve">
<g id="Outline_Icons_1_">
	<g id="Outline_Icons">
		<g>
			<path d="M16.257,5.26c-0.238-0.139-0.545-0.059-0.684,0.182c-0.139,0.239-0.057,0.545,0.182,0.683
				C18.373,7.642,20,10.462,20,13.484c0,4.687-3.813,8.5-8.5,8.5S3,18.171,3,13.484c0-3.02,1.624-5.839,4.239-7.355
				c0.238-0.138,0.32-0.445,0.182-0.684c-0.14-0.24-0.447-0.319-0.684-0.182C3.815,6.959,2,10.109,2,13.484
				c0,5.239,4.262,9.5,9.5,9.5s9.5-4.261,9.5-9.5C21,10.106,19.183,6.955,16.257,5.26z"/>
			<path d="M6.231,12.875c0.165,0.146,0.404,0.166,0.591,0.053l4.68-2.843l4.741,2.845C16.322,12.977,16.411,13,16.5,13
				c0.12,0,0.239-0.043,0.333-0.127c0.163-0.145,0.213-0.38,0.122-0.58l-5-11C11.874,1.115,11.696,1,11.5,1h-0.001
				c-0.196,0-0.375,0.116-0.455,0.295l-4.938,11C6.017,12.495,6.067,12.73,6.231,12.875z M11.503,2.714l3.878,8.531l-3.624-2.174
				C11.678,9.024,11.589,9,11.5,9c-0.09,0-0.18,0.024-0.26,0.073l-3.563,2.165L11.503,2.714z"/>
		</g>
	</g>
	<g id="New_icons_1_">
	</g>
</g>
<g id="Invisible_Shape">
	<rect fill="none" width="24" height="24"/>
</g>
</svg>
