<?xml version="1.0" encoding="utf-8"?>
<!-- Generator: Adobe Illustrator 16.0.3, SVG Export Plug-In . SVG Version: 6.00 Build 0)  -->
<!DOCTYPE svg PUBLIC "-//W3C//DTD SVG 1.1//EN" "http://www.w3.org/Graphics/SVG/1.1/DTD/svg11.dtd">
<svg version="1.1" xmlns="http://www.w3.org/2000/svg" xmlns:xlink="http://www.w3.org/1999/xlink" x="0px" y="0px" width="24px"
	 height="24px" viewBox="0 0 24 24" enable-background="new 0 0 24 24" xml:space="preserve">
<g id="Outline_Icons">
	<g>
		<path d="M20.686,2.607L9.079,14.222c-0.227-0.074-0.459-0.123-0.691-0.123c-0.647,0-1.399,0.304-1.92,1.087
			c-0.52-0.783-1.272-1.087-1.919-1.087c-1.172,0-2.383,0.972-2.383,2.599c0,2.238,3.598,4.92,4.008,5.219
			c0.088,0.063,0.19,0.096,0.294,0.096s0.206-0.032,0.294-0.096c0.41-0.299,4.008-2.98,4.008-5.219c0-0.842-0.327-1.503-0.802-1.95
			L21.393,3.314c0.195-0.195,0.195-0.512,0-0.707S20.881,2.412,20.686,2.607z M6.468,20.886C5.33,20,3.166,18.039,3.166,16.697
			c0-1.001,0.703-1.599,1.383-1.599c0.675,0,1.21,0.553,1.433,1.479c0.054,0.225,0.255,0.383,0.486,0.383s0.432-0.158,0.486-0.383
			c0.223-0.927,0.759-1.479,1.434-1.479c0.679,0,1.382,0.598,1.382,1.599C9.77,18.039,7.605,20,6.468,20.886z"/>
		<path d="M23.16,0.84c-0.947-0.949-2.588-0.947-3.535,0L8.97,11.494c-0.782-0.32-1.632-0.488-2.479-0.488
			c-1.733,0-3.363,0.674-4.588,1.898c-2.533,2.534-2.533,6.659,0,9.193C3.131,23.325,4.763,24,6.499,24s3.368-0.675,4.597-1.902
			c1.855-1.858,2.401-4.658,1.41-7.068L23.16,4.374c0.474-0.474,0.735-1.102,0.735-1.768S23.634,1.313,23.16,0.84z M22.453,3.667
			L11.557,14.564c-0.149,0.149-0.188,0.378-0.098,0.568c1.001,2.1,0.57,4.614-1.07,6.258C9.35,22.429,7.969,23,6.499,23
			c-1.469,0-2.85-0.571-3.889-1.609c-2.144-2.145-2.144-5.635,0-7.779c1.036-1.035,2.414-1.605,3.881-1.605
			c0.818,0,1.64,0.185,2.375,0.535c0.19,0.092,0.419,0.052,0.568-0.098L20.332,1.547c0.568-0.568,1.548-0.572,2.121,0
			c0.285,0.285,0.442,0.661,0.442,1.06C22.896,3.006,22.738,3.382,22.453,3.667z"/>
		<path d="M21.634,7.461c-0.191-0.197-0.51-0.202-0.707-0.01c-0.198,0.192-0.202,0.509-0.01,0.707l0.672,0.69
			C21.687,8.949,21.817,9,21.947,9c0.126,0,0.252-0.047,0.349-0.142c0.198-0.192,0.202-0.509,0.01-0.707L21.634,7.461z"/>
		<path d="M18.094,10.992c-0.195-0.195-0.512-0.195-0.707,0s-0.195,0.512,0,0.707l0.707,0.707c0.098,0.098,0.226,0.146,0.354,0.146
			s0.256-0.049,0.354-0.146c0.195-0.195,0.195-0.512,0-0.707L18.094,10.992z"/>
		<path d="M14.558,14.527c-0.195-0.195-0.512-0.195-0.707,0s-0.195,0.512,0,0.707l0.708,0.707c0.098,0.098,0.226,0.146,0.354,0.146
			s0.256-0.049,0.354-0.146c0.195-0.195,0.195-0.512,0-0.707L14.558,14.527z"/>
	</g>
</g>
<g id="invisible_shape">
	<rect fill="none" width="24" height="24"/>
</g>
</svg>
