<?xml version="1.0" encoding="utf-8"?>
<!-- Generator: Adobe Illustrator 16.0.3, SVG Export Plug-In . SVG Version: 6.00 Build 0)  -->
<!DOCTYPE svg PUBLIC "-//W3C//DTD SVG 1.1//EN" "http://www.w3.org/Graphics/SVG/1.1/DTD/svg11.dtd">
<svg version="1.1" xmlns="http://www.w3.org/2000/svg" xmlns:xlink="http://www.w3.org/1999/xlink" x="0px" y="0px" width="24px"
	 height="24px" viewBox="0 0 24 24" enable-background="new 0 0 24 24" xml:space="preserve">
<g id="Outline_Icons">
	<g>
		<path d="M23.5,2H20V0.5C20,0.224,19.776,0,19.5,0h-3C16.224,0,16,0.224,16,0.5V2H8V0.5C8,0.224,7.776,0,7.5,0h-3
			C4.224,0,4,0.224,4,0.5V2H0.5C0.224,2,0,2.224,0,2.5v21C0,23.776,0.224,24,0.5,24h23c0.276,0,0.5-0.224,0.5-0.5v-21
			C24,2.224,23.776,2,23.5,2z M17,1h2v3h-2V1z M5,1h2v3H5V1z M4,3v1.5C4,4.776,4.224,5,4.5,5h3C7.776,5,8,4.776,8,4.5V3h8v1.5
			C16,4.776,16.224,5,16.5,5h3C19.776,5,20,4.776,20,4.5V3h3v4H1V3H4z M1,23V8h22v15H1z"/>
		<path d="M14.272,11c-0.771,0-1.674,0.372-2.272,1.343C11.401,11.372,10.499,11,9.728,11C8.387,11,7,12.096,7,13.93
			c0,2.554,4.229,5.635,4.71,5.978C11.797,19.969,11.898,20,12,20s0.203-0.031,0.29-0.093C12.771,19.564,17,16.483,17,13.93
			C17,12.096,15.613,11,14.272,11z M12,18.88c-1.339-1.01-4-3.347-4-4.95C8,12.722,8.879,12,9.728,12
			c0.846,0,1.514,0.664,1.787,1.775c0.109,0.447,0.861,0.447,0.971,0C12.759,12.664,13.427,12,14.272,12
			C15.121,12,16,12.722,16,13.93C16,15.533,13.339,17.87,12,18.88z"/>
	</g>
</g>
<g id="invisible_shape">
	<rect fill="none" width="24" height="24"/>
</g>
</svg>
