<?xml version="1.0" encoding="utf-8"?>
<!-- Generator: Adobe Illustrator 16.0.3, SVG Export Plug-In . SVG Version: 6.00 Build 0)  -->
<!DOCTYPE svg PUBLIC "-//W3C//DTD SVG 1.1//EN" "http://www.w3.org/Graphics/SVG/1.1/DTD/svg11.dtd">
<svg version="1.1" xmlns="http://www.w3.org/2000/svg" xmlns:xlink="http://www.w3.org/1999/xlink" x="0px" y="0px" width="24px"
	 height="24px" viewBox="0 0 24 24" enable-background="new 0 0 24 24" xml:space="preserve">
<g id="Outline_Icons">
	<g>
		<path d="M23.5,10h-0.599l-0.828-3.728c-0.659-2.965-3.161-5.053-6.154-5.237C15.722,0.437,15.164,0,14.5,0h-5
			C8.836,0,8.277,0.437,8.081,1.037C5.129,1.227,2.575,3.356,1.927,6.272L1.099,10H0.5C0.224,10,0,10.224,0,10.5v2
			C0,12.776,0.224,13,0.5,13h0.582l1.926,10.59C3.052,23.827,3.259,24,3.5,24h17c0.241,0,0.448-0.173,0.492-0.41L22.918,13H23.5
			c0.276,0,0.5-0.224,0.5-0.5v-2C24,10.224,23.776,10,23.5,10z M9.5,1h5C14.775,1,15,1.224,15,1.5C15,1.776,14.775,2,14.5,2h-5
			C9.225,2,9,1.776,9,1.5C9,1.224,9.225,1,9.5,1z M2.903,6.489c0.549-2.47,2.703-4.275,5.199-4.454C8.319,2.598,8.861,3,9.5,3h5
			c0.639,0,1.182-0.403,1.397-0.966c2.531,0.173,4.641,1.945,5.199,4.456L21.877,10H2.123L2.903,6.489z M20.083,23H3.917L2.099,13
			h19.803L20.083,23z M23,12h-0.5h-21H1v-1h0.5h21H23V12z"/>
		<path d="M14.5,21c0.276,0,0.5-0.224,0.5-0.5v-6c0-0.276-0.224-0.5-0.5-0.5S14,14.224,14,14.5v6C14,20.776,14.224,21,14.5,21z"/>
		<path d="M18.5,21c0.276,0,0.5-0.224,0.5-0.5v-6c0-0.276-0.224-0.5-0.5-0.5S18,14.224,18,14.5v6C18,20.776,18.224,21,18.5,21z"/>
		<path d="M9.5,21c0.276,0,0.5-0.224,0.5-0.5v-6c0-0.276-0.224-0.5-0.5-0.5S9,14.224,9,14.5v6C9,20.776,9.224,21,9.5,21z"/>
		<path d="M5.5,21C5.776,21,6,20.776,6,20.5v-6C6,14.224,5.776,14,5.5,14S5,14.224,5,14.5v6C5,20.776,5.224,21,5.5,21z"/>
	</g>
</g>
<g id="Invisible_Shape">
	<rect fill="none" width="24" height="24"/>
</g>
</svg>
