<?xml version="1.0" encoding="utf-8"?>
<!-- Generator: Adobe Illustrator 16.0.3, SVG Export Plug-In . SVG Version: 6.00 Build 0)  -->
<!DOCTYPE svg PUBLIC "-//W3C//DTD SVG 1.1//EN" "http://www.w3.org/Graphics/SVG/1.1/DTD/svg11.dtd">
<svg version="1.1" xmlns="http://www.w3.org/2000/svg" xmlns:xlink="http://www.w3.org/1999/xlink" x="0px" y="0px" width="24px"
	 height="24px" viewBox="0 0 24 24" enable-background="new 0 0 24 24" xml:space="preserve">
<g id="Outline_Icons">
	<g>
		<path d="M18.5,13c-3.032,0-5.5,2.467-5.5,5.5s2.468,5.5,5.5,5.5s5.5-2.467,5.5-5.5S21.532,13,18.5,13z M18.5,23
			c-2.481,0-4.5-2.018-4.5-4.5c0-2.481,2.019-4.5,4.5-4.5s4.5,2.019,4.5,4.5C23,20.982,20.981,23,18.5,23z"/>
		<path d="M21,18h-2v-2c0-0.276-0.224-0.5-0.5-0.5S18,15.724,18,16v2h-2c-0.276,0-0.5,0.224-0.5,0.5S15.724,19,16,19h2v2
			c0,0.276,0.224,0.5,0.5,0.5S19,21.276,19,21v-2h2c0.276,0,0.5-0.224,0.5-0.5S21.276,18,21,18z"/>
		<path d="M11.512,18H3.913l-1.778-8h16.754l-0.422,1.898c-0.06,0.27,0.11,0.537,0.38,0.597c0.274,0.059,0.537-0.111,0.597-0.38
			L19.913,10h0.599c0.276,0,0.5-0.224,0.5-0.5v-2c0-0.276-0.224-0.5-0.5-0.5h-20c-0.276,0-0.5,0.224-0.5,0.5v2
			c0,0.276,0.224,0.5,0.5,0.5H1.11l1.913,8.608C3.074,18.838,3.277,19,3.512,19h8c0.276,0,0.5-0.224,0.5-0.5S11.788,18,11.512,18z
			 M1.012,8h19v1h-0.5h-18h-0.5V8z"/>
		<path d="M3.512,6c0.113,0,0.227-0.038,0.32-0.115l6-5c0.212-0.177,0.24-0.493,0.063-0.705C9.718-0.034,9.402-0.06,9.191,0.116
			l-6,5C2.979,5.292,2.951,5.608,3.128,5.82C3.227,5.939,3.369,6,3.512,6z"/>
		<path d="M17.191,5.885C17.285,5.962,17.398,6,17.512,6c0.143,0,0.285-0.061,0.384-0.18c0.177-0.212,0.148-0.528-0.063-0.705l-6-5
			c-0.212-0.175-0.527-0.149-0.704,0.064c-0.177,0.212-0.148,0.528,0.063,0.705L17.191,5.885z"/>
	</g>
</g>
<g id="Invisible_Shape">
	<rect fill="none" width="24" height="24"/>
</g>
</svg>
