<?xml version="1.0" encoding="utf-8"?>
<!-- Generator: Adobe Illustrator 16.0.3, SVG Export Plug-In . SVG Version: 6.00 Build 0)  -->
<!DOCTYPE svg PUBLIC "-//W3C//DTD SVG 1.1//EN" "http://www.w3.org/Graphics/SVG/1.1/DTD/svg11.dtd">
<svg version="1.1" xmlns="http://www.w3.org/2000/svg" xmlns:xlink="http://www.w3.org/1999/xlink" x="0px" y="0px" width="24px"
	 height="24px" viewBox="0 0 24 24" enable-background="new 0 0 24 24" xml:space="preserve">
<g id="Outline_Icons">
	<g>
		<path d="M5.5,7C5.776,7,6,6.776,6,6.5C6,2.721,9.11,1,12,1s6,1.721,6,5.5C18,6.776,18.224,7,18.5,7S19,6.776,19,6.5
			C19,2.233,15.479,0,12,0S5,2.233,5,6.5C5,6.776,5.224,7,5.5,7z"/>
		<path d="M22.997,17.56L21.032,6.429c-0.044-0.254-0.263-0.438-0.536-0.411c-0.258,0.022-0.456,0.239-0.456,0.498
			c0,0.827-0.673,1.5-1.5,1.5h-13c-0.827,0-1.5-0.673-1.5-1.5c0-0.259-0.198-0.476-0.456-0.498C3.305,5.983,3.092,6.175,3.048,6.429
			L1.083,17.561c-0.282,1.606,0.157,3.244,1.207,4.494c1.047,1.246,2.581,1.961,4.21,1.961h11.08c1.629,0,3.164-0.716,4.212-1.963
			C22.841,20.803,23.28,19.166,22.997,17.56z M21.026,21.41c-0.857,1.021-2.113,1.606-3.446,1.606H6.5
			c-1.332,0-2.588-0.585-3.444-1.605c-0.858-1.023-1.219-2.363-0.988-3.677l1.674-9.483C4.196,8.723,4.835,9.016,5.54,9.016h13
			c0.705,0,1.344-0.293,1.799-0.765l1.674,9.483C22.243,19.047,21.884,20.387,21.026,21.41z"/>
		<path d="M19,10H5.5C5.224,10,5,10.224,5,10.5S5.224,11,5.5,11H6v1.5C6,12.776,6.224,13,6.5,13S7,12.776,7,12.5V11h12
			c0.276,0,0.5-0.224,0.5-0.5S19.276,10,19,10z"/>
	</g>
</g>
<g id="Invisible_Shape">
	<rect fill="none" width="24" height="24"/>
</g>
</svg>
