<?xml version="1.0" encoding="utf-8"?>
<!-- Generator: Adobe Illustrator 16.0.3, SVG Export Plug-In . SVG Version: 6.00 Build 0)  -->
<!DOCTYPE svg PUBLIC "-//W3C//DTD SVG 1.1//EN" "http://www.w3.org/Graphics/SVG/1.1/DTD/svg11.dtd">
<svg version="1.1" xmlns="http://www.w3.org/2000/svg" xmlns:xlink="http://www.w3.org/1999/xlink" x="0px" y="0px" width="24px"
	 height="24px" viewBox="0 0 24 24" enable-background="new 0 0 24 24" xml:space="preserve">
<g id="Outline_Icons">
	<g>
		<path d="M12.007,13.127c-0.653-1.13-1.664-1.561-2.524-1.561c-1.463,0-2.976,1.21-2.976,3.233c0,2.842,4.675,6.289,5.208,6.672
			c0.087,0.063,0.189,0.094,0.292,0.094s0.205-0.031,0.292-0.094c0.533-0.384,5.208-3.831,5.208-6.672
			c0-2.023-1.513-3.233-2.976-3.233C13.67,11.566,12.659,11.998,12.007,13.127z M16.507,14.799c0,1.844-3.015,4.516-4.5,5.645
			c-1.485-1.128-4.5-3.799-4.5-5.645c0-1.397,1.004-2.233,1.976-2.233c0.965,0,1.728,0.765,2.038,2.045
			c0.109,0.448,0.863,0.449,0.973,0c0.311-1.279,1.072-2.044,2.038-2.044C15.502,12.566,16.507,13.402,16.507,14.799z"/>
		<path d="M23.979,8.378c-0.006-0.02-0.006-0.042-0.014-0.06c-0.01-0.021-0.028-0.039-0.04-0.06c-0.022-0.035-0.042-0.072-0.071-0.1
			c-0.002-0.002-0.003-0.005-0.005-0.006l-2.125-2c-0.092-0.086-0.214-0.135-0.34-0.136L18.503,6c-0.001,0-0.002,0-0.003,0
			c-0.274,0-0.498,0.223-0.5,0.498C17.998,6.774,18.221,6.999,18.497,7l2.686,0.015l1.063,1.001h-5.239v-2c0-2.757-2.243-5-5-5
			s-5,2.243-5,5v2H1.822l1.126-1.001L5.503,7C5.779,6.999,6.002,6.774,6,6.498C5.998,6.222,5.774,6,5.5,6C5.499,6,5.498,6,5.497,6
			L2.754,6.016C2.633,6.017,2.516,6.062,2.425,6.143l-2.25,2C0.171,8.146,0.17,8.15,0.167,8.153C0.138,8.18,0.118,8.214,0.097,8.247
			C0.082,8.269,0.063,8.288,0.053,8.312C0.041,8.338,0.038,8.368,0.031,8.396C0.022,8.432,0.011,8.466,0.01,8.502
			c0,0.005-0.003,0.009-0.003,0.014v15c0,0.276,0.224,0.5,0.5,0.5h23c0.276,0,0.5-0.224,0.5-0.5v-15
			c0-0.002-0.001-0.004-0.001-0.007C24.005,8.465,23.991,8.422,23.979,8.378z M8.007,6.016c0-2.206,1.794-4,4-4s4,1.794,4,4v2h-8
			V6.016z M23.007,23.016h-22v-14h6.5h9h6.5V23.016z"/>
		<path d="M14.5,6h-5C9.224,6,9,6.224,9,6.5S9.224,7,9.5,7h5C14.776,7,15,6.776,15,6.5S14.776,6,14.5,6z"/>
	</g>
</g>
<g id="Invisible_Shape">
	<rect fill="none" width="24" height="24"/>
</g>
</svg>
