<?xml version="1.0" encoding="utf-8"?>
<!-- Generator: Adobe Illustrator 16.0.3, SVG Export Plug-In . SVG Version: 6.00 Build 0)  -->
<!DOCTYPE svg PUBLIC "-//W3C//DTD SVG 1.1//EN" "http://www.w3.org/Graphics/SVG/1.1/DTD/svg11.dtd">
<svg version="1.1" xmlns="http://www.w3.org/2000/svg" xmlns:xlink="http://www.w3.org/1999/xlink" x="0px" y="0px" width="24px"
	 height="24px" viewBox="0 0 24 24" enable-background="new 0 0 24 24" xml:space="preserve">
<g id="Outline_Icons">
	<g>
		<path d="M13.147,7.853c0.047,0.047,0.103,0.083,0.163,0.109C13.372,7.987,13.437,8,13.502,8s0.13-0.013,0.191-0.038
			c0.061-0.026,0.116-0.062,0.163-0.109l2.999-2.999c0.195-0.195,0.195-0.512,0-0.707s-0.512-0.195-0.707,0l-2.146,2.146V0.5
			c0-0.276-0.224-0.5-0.5-0.5s-0.5,0.224-0.5,0.5v5.793l-2.146-2.146c-0.195-0.195-0.512-0.195-0.707,0s-0.195,0.512,0,0.707
			L13.147,7.853z"/>
		<path d="M20.977,18.659l3-9c0.051-0.152,0.025-0.321-0.069-0.451C23.813,9.077,23.663,9,23.502,9H5.81L4.488,3.385
			C4.436,3.16,4.234,3,4.002,3h-3.5c-0.276,0-0.5,0.224-0.5,0.5S0.226,4,0.502,4h3.104l3.79,16.104
			C6.591,20.363,6.002,21.11,6.002,22c0,1.103,0.897,2,2,2s2-0.897,2-2c0-0.365-0.105-0.705-0.278-1h7.557
			c-0.173,0.295-0.278,0.635-0.278,1c0,1.103,0.897,2,2,2s2-0.897,2-2c0-1.103-0.897-2-2-2H8.398l-0.235-1h12.339
			C20.717,19,20.908,18.862,20.977,18.659z M9.002,22c0,0.551-0.448,1-1,1s-1-0.449-1-1s0.448-1,1-1S9.002,21.449,9.002,22z
			 M20.002,22c0,0.551-0.448,1-1,1s-1-0.449-1-1s0.448-1,1-1S20.002,21.449,20.002,22z M7.928,18l-1.883-8h16.764l-2.667,8H7.928z"
			/>
	</g>
</g>
<g id="Invisible_Shape">
	<rect fill="none" width="24" height="24"/>
</g>
</svg>
