<?xml version="1.0" encoding="utf-8"?>
<!-- Generator: Adobe Illustrator 16.0.3, SVG Export Plug-In . SVG Version: 6.00 Build 0)  -->
<!DOCTYPE svg PUBLIC "-//W3C//DTD SVG 1.1//EN" "http://www.w3.org/Graphics/SVG/1.1/DTD/svg11.dtd">
<svg version="1.1" xmlns="http://www.w3.org/2000/svg" xmlns:xlink="http://www.w3.org/1999/xlink" x="0px" y="0px" width="24px"
	 height="24px" viewBox="0 0 24 24" enable-background="new 0 0 24 24" xml:space="preserve">
<g id="Outline_Icons">
	<g>
		<path d="M21.5,20c0,0-0.001,0-0.002,0c-0.276,0.001-0.499,0.226-0.498,0.502L21.005,22h-18L3,20.498
			C2.998,20.222,2.81,20.018,2.498,20C2.222,20.001,1.999,20.226,2,20.502l0.007,2C2.008,22.777,2.231,23,2.507,23h19
			c0.133,0,0.261-0.053,0.354-0.147c0.094-0.094,0.146-0.221,0.146-0.355l-0.007-2C21.999,20.223,21.775,20,21.5,20z"/>
		<path d="M23.957,6.29c-0.002-0.004-0.001-0.009-0.003-0.013l-2-4C21.869,2.107,21.696,2,21.507,2h-19
			C2.317,2,2.145,2.107,2.06,2.276l-2,4C0.058,6.281,0.059,6.285,0.057,6.29c-0.03,0.064-0.05,0.135-0.05,0.21v1
			c0,0.89,0.359,1.777,0.986,2.436c0.298,0.312,0.643,0.553,1.013,0.723L2,12.999C1.999,13.275,2.223,13.5,2.499,13.5H2.5
			c0.275,0,0.499-0.223,0.5-0.498l0.005-2.074c0.824,0.09,1.687-0.126,2.418-0.689c0.893,1.095,2.239,1.756,3.633,1.756
			c1.104,0,2.135-0.402,2.951-1.143c0.818,0.74,1.852,1.142,2.959,1.142c1.414,0,2.732-0.646,3.626-1.754
			c0.639,0.491,1.344,0.748,2.068,0.748c0.118,0,0.23-0.024,0.345-0.038L21,12.999c-0.001,0.276,0.223,0.501,0.499,0.501H21.5
			c0.275,0,0.499-0.223,0.5-0.498l0.006-2.327c1.165-0.552,2.001-1.781,2.001-3.175v-1C24.007,6.424,23.987,6.354,23.957,6.29z
			 M22.698,6h-3.801l-0.75-3h3.051L22.698,6z M11.507,3v3H6.147l0.75-3H11.507z M12.507,3h4.609l0.75,3h-5.359V3z M2.815,3h3.051
			l-0.75,3H1.315L2.815,3z M1.717,9.245c-0.451-0.473-0.71-1.11-0.71-1.745V7h4v2.27C3.947,10.206,2.6,10.171,1.717,9.245z
			 M6.007,9.34V7h5.5v2.926c-0.66,0.683-1.519,1.069-2.451,1.069C7.854,10.995,6.701,10.362,6.007,9.34z M14.966,10.994
			c-0.937,0-1.799-0.386-2.459-1.069V7h5.5v2.341C17.306,10.376,16.182,10.994,14.966,10.994z M23.007,7.5
			c0,1.325-1.097,2.487-2.347,2.487c-0.571,0-1.137-0.254-1.653-0.716V7h4V7.5z"/>
		<path d="M21.007,15c0.276,0,0.5-0.224,0.5-0.5s-0.224-0.5-0.5-0.5H19.5c-0.276,0-0.5,0.224-0.5,0.5v4c0,0.276,0.224,0.5,0.5,0.5
			h1.507c0.276,0,0.5-0.224,0.5-0.5s-0.224-0.5-0.5-0.5H20v-1.217h0.5c0.276,0,0.5-0.223,0.5-0.5c0-0.276-0.224-0.5-0.5-0.5H20V15
			H21.007z"/>
		<path d="M4.521,15c0.167,0,0.374,0,0.49,0.541c0.058,0.27,0.32,0.444,0.595,0.384c0.27-0.058,0.441-0.324,0.384-0.594
			C5.752,14.231,5.06,14,4.521,14C3,14,3,15.688,3,16.5S3,19,4.521,19c0.539,0,1.231-0.231,1.468-1.33
			c0.059-0.27-0.113-0.536-0.383-0.594c-0.265-0.058-0.536,0.113-0.594,0.383C4.895,18,4.688,18,4.521,18C4.289,18,4,18,4,16.5
			S4.289,15,4.521,15z"/>
		<path d="M7.5,14C7.224,14,7,14.224,7,14.5v4C7,18.776,7.224,19,7.5,19h1.507c0.276,0,0.5-0.224,0.5-0.5S9.283,18,9.007,18H8v-3.5
			C8,14.224,7.776,14,7.5,14z"/>
		<path d="M14,16.5c0-1.472-0.822-2.5-2-2.5s-2,1.028-2,2.5c0,1.472,0.822,2.5,2,2.5S14,17.972,14,16.5z M11,16.5
			c0-0.746,0.31-1.5,1-1.5s1,0.754,1,1.5c0,0.747-0.31,1.5-1,1.5S11,17.247,11,16.5z"/>
		<path d="M16.436,15c0.229,0,0.421,0.204,0.437,0.463c0.017,0.275,0.235,0.497,0.528,0.47c0.275-0.016,0.485-0.252,0.47-0.528
			C17.824,14.618,17.194,14,16.436,14C15.644,14,15,14.672,15,15.499c0,0.519,0.219,1.195,1.353,1.497
			c0.383,0.098,0.519,0.229,0.519,0.503c0,0.276-0.196,0.5-0.437,0.5c-0.229,0-0.42-0.205-0.436-0.466
			c-0.016-0.275-0.224-0.483-0.528-0.47c-0.275,0.016-0.485,0.252-0.47,0.528c0.046,0.79,0.676,1.408,1.434,1.408
			c0.792,0,1.437-0.673,1.437-1.5c0-0.429-0.165-1.191-1.354-1.495C16.135,15.902,16,15.77,16,15.499C16,15.224,16.195,15,16.436,15
			z"/>
	</g>
</g>
<g id="Invisible_Shape">
	<rect fill="none" width="24" height="24"/>
</g>
</svg>
