<?xml version="1.0" encoding="utf-8"?>
<!-- Generator: Adobe Illustrator 16.0.3, SVG Export Plug-In . SVG Version: 6.00 Build 0)  -->
<!DOCTYPE svg PUBLIC "-//W3C//DTD SVG 1.1//EN" "http://www.w3.org/Graphics/SVG/1.1/DTD/svg11.dtd">
<svg version="1.1" xmlns="http://www.w3.org/2000/svg" xmlns:xlink="http://www.w3.org/1999/xlink" x="0px" y="0px" width="24px"
	 height="24px" viewBox="0 0 24 24" enable-background="new 0 0 24 24" xml:space="preserve">
<g id="Outline_Icons_1_">
	<g id="Outline_Icons">
		<g>
			<path d="M12,0.858c-6.617,0-12,4.434-12,9.883c0,2.573,1.177,4.984,3.325,6.83l-2.41,4.812c-0.095,0.189-0.06,0.42,0.089,0.572
				c0.096,0.099,0.226,0.151,0.358,0.151c0.071,0,0.144-0.016,0.211-0.047l6.437-2.996c1.275,0.371,2.617,0.559,3.99,0.559
				c6.617,0,12-4.433,12-9.881C24,5.292,18.617,0.858,12,0.858z M12,19.622c-1.341,0-2.647-0.191-3.883-0.57
				C8,19.016,7.872,19.024,7.76,19.077l-5.308,2.471l1.946-3.884c0.105-0.211,0.049-0.467-0.135-0.614
				C2.159,15.367,1,13.126,1,10.741c0-4.898,4.935-8.883,11-8.883s11,3.984,11,8.883C23,15.638,18.065,19.622,12,19.622z"/>
			<path d="M9.5,9.982h-2c-0.276,0-0.5,0.224-0.5,0.5v2c0,0.276,0.224,0.5,0.5,0.5H9v1c0,0.271-0.229,0.5-0.5,0.5
				c-0.276,0-0.5,0.224-0.5,0.5s0.224,0.5,0.5,0.5c0.827,0,1.5-0.673,1.5-1.5v-1.5v-0.5v-1.5C10,10.206,9.776,9.982,9.5,9.982z
				 M8,11.982v-1h1v1H8z"/>
			<path d="M9.5,5.358c-0.276,0-0.5,0.224-0.5,0.5v2.5c0,0.276,0.224,0.5,0.5,0.5s0.5-0.224,0.5-0.5v-2.5
				C10,5.582,9.776,5.358,9.5,5.358z"/>
			<path d="M13.5,5.358c-0.276,0-0.5,0.224-0.5,0.5s0.224,0.5,0.5,0.5c1.378,0,2.5,1.121,2.5,2.5v3c0,1.379-1.122,2.5-2.5,2.5
				c-0.276,0-0.5,0.224-0.5,0.5s0.224,0.5,0.5,0.5c1.93,0,3.5-1.57,3.5-3.5v-3C17,6.929,15.43,5.358,13.5,5.358z"/>
		</g>
	</g>
	<g id="New_icons_1_">
	</g>
</g>
<g id="Invisible_Shape">
	<rect fill="none" width="24" height="24"/>
</g>
</svg>
