<?xml version="1.0" encoding="utf-8"?>
<!-- Generator: Adobe Illustrator 16.0.3, SVG Export Plug-In . SVG Version: 6.00 Build 0)  -->
<!DOCTYPE svg PUBLIC "-//W3C//DTD SVG 1.1//EN" "http://www.w3.org/Graphics/SVG/1.1/DTD/svg11.dtd">
<svg version="1.1" xmlns="http://www.w3.org/2000/svg" xmlns:xlink="http://www.w3.org/1999/xlink" x="0px" y="0px" width="24px"
	 height="24px" viewBox="0 0 24 24" enable-background="new 0 0 24 24" xml:space="preserve">
<g id="Outline_Icons_1_">
	<g id="Outline_Icons">
		<g>
			<path d="M23.354,21.646L20.5,18.793c0.616-0.77,1-1.732,1-2.793c0-2.481-2.018-4.5-4.499-4.5c-2.482,0-4.501,2.019-4.501,4.5
				s2.019,4.5,4.501,4.5c1.06,0,2.022-0.384,2.792-1l2.853,2.854C22.744,22.451,22.872,22.5,23,22.5s0.256-0.049,0.354-0.146
				C23.549,22.158,23.549,21.842,23.354,21.646z M13.5,16c0-1.93,1.57-3.5,3.501-3.5c1.929,0,3.499,1.57,3.499,3.5
				s-1.57,3.5-3.499,3.5C15.07,19.5,13.5,17.93,13.5,16z"/>
			<path d="M11,14H8.5c-0.133,0-0.26,0.053-0.354,0.146L5,17.293V14.5C5,14.224,4.776,14,4.5,14H1V1h20v9.5
				c0,0.276,0.224,0.5,0.5,0.5s0.5-0.224,0.5-0.5v-10C22,0.224,21.776,0,21.5,0h-21C0.224,0,0,0.224,0,0.5v14
				C0,14.776,0.224,15,0.5,15H4v3.5c0,0.202,0.122,0.385,0.309,0.462C4.371,18.987,4.436,19,4.5,19c0.13,0,0.258-0.051,0.354-0.146
				L8.707,15H11c0.276,0,0.5-0.224,0.5-0.5S11.276,14,11,14z"/>
		</g>
	</g>
	<g id="New_icons_1_">
	</g>
</g>
<g id="Invisible_Shape">
	<rect fill="none" width="24" height="24"/>
</g>
</svg>
