<?xml version="1.0" encoding="utf-8"?>
<!-- Generator: Adobe Illustrator 16.0.3, SVG Export Plug-In . SVG Version: 6.00 Build 0)  -->
<!DOCTYPE svg PUBLIC "-//W3C//DTD SVG 1.1//EN" "http://www.w3.org/Graphics/SVG/1.1/DTD/svg11.dtd">
<svg version="1.1" xmlns="http://www.w3.org/2000/svg" xmlns:xlink="http://www.w3.org/1999/xlink" x="0px" y="0px" width="24px"
	 height="24px" viewBox="0 0 24 24" enable-background="new 0 0 24 24" xml:space="preserve">
<g id="Outline_Icons_1_">
	<g id="Outline_Icons">
		<g>
			<path d="M19.646,17.646L18,19.293V14.5c0-0.276-0.224-0.5-0.5-0.5S17,14.224,17,14.5v4.793l-1.646-1.646
				c-0.195-0.195-0.512-0.195-0.707,0s-0.195,0.512,0,0.707l2.5,2.499c0.046,0.047,0.102,0.083,0.163,0.109
				C17.37,20.986,17.435,21,17.5,21s0.13-0.014,0.191-0.038c0.062-0.026,0.117-0.062,0.163-0.109l2.5-2.499
				c0.195-0.195,0.195-0.512,0-0.707S19.842,17.451,19.646,17.646z"/>
			<path d="M17.5,11c-3.584,0-6.5,2.916-6.5,6.5s2.916,6.5,6.5,6.5s6.5-2.916,6.5-6.5S21.084,11,17.5,11z M17.5,23
				c-3.033,0-5.5-2.468-5.5-5.5s2.467-5.5,5.5-5.5s5.5,2.468,5.5,5.5S20.533,23,17.5,23z"/>
			<path d="M9.5,14h-1c-0.133,0-0.26,0.053-0.354,0.146L5,17.293V14.5C5,14.224,4.776,14,4.5,14H1V1h20v8.5
				c0,0.276,0.224,0.5,0.5,0.5S22,9.776,22,9.5v-9C22,0.224,21.776,0,21.5,0h-21C0.224,0,0,0.224,0,0.5v14C0,14.776,0.224,15,0.5,15
				H4v3.5c0,0.202,0.122,0.385,0.309,0.462C4.371,18.987,4.436,19,4.5,19c0.13,0,0.258-0.051,0.354-0.146L8.707,15H9.5
				c0.276,0,0.5-0.224,0.5-0.5S9.776,14,9.5,14z"/>
		</g>
	</g>
	<g id="New_icons_1_">
	</g>
</g>
<g id="Invisible_Shape">
	<rect fill="none" width="24" height="24"/>
</g>
</svg>
