<?xml version="1.0" encoding="utf-8"?>
<!-- Generator: Adobe Illustrator 16.0.3, SVG Export Plug-In . SVG Version: 6.00 Build 0)  -->
<!DOCTYPE svg PUBLIC "-//W3C//DTD SVG 1.1//EN" "http://www.w3.org/Graphics/SVG/1.1/DTD/svg11.dtd">
<svg version="1.1" xmlns="http://www.w3.org/2000/svg" xmlns:xlink="http://www.w3.org/1999/xlink" x="0px" y="0px" width="24px"
	 height="24px" viewBox="0 0 24 24" enable-background="new 0 0 24 24" xml:space="preserve">
<g id="Outline_Icons_1_">
	<g id="Outline_Icons">
		<g>
			<path d="M23.5,0.982h-23c-0.276,0-0.5,0.224-0.5,0.5v16c0,0.276,0.224,0.5,0.5,0.5H7v3.5c0,0.202,0.122,0.385,0.309,0.462
				c0.062,0.025,0.127,0.038,0.191,0.038c0.13,0,0.258-0.051,0.354-0.146l3.854-3.854H23.5c0.276,0,0.5-0.224,0.5-0.5v-16
				C24,1.206,23.776,0.982,23.5,0.982z M23,16.982H11.5c-0.133,0-0.26,0.053-0.354,0.146L8,20.275v-2.793c0-0.276-0.224-0.5-0.5-0.5
				H1v-15h22V16.982z"/>
			<path d="M6,10.982c1.103,0,2-0.897,2-2s-0.897-2-2-2s-2,0.897-2,2S4.897,10.982,6,10.982z M6,7.982c0.551,0,1,0.448,1,1
				s-0.449,1-1,1s-1-0.448-1-1S5.449,7.982,6,7.982z"/>
			<path d="M12,10.982c1.103,0,2-0.897,2-2s-0.897-2-2-2s-2,0.897-2,2S10.897,10.982,12,10.982z M12,7.982c0.551,0,1,0.448,1,1
				s-0.449,1-1,1s-1-0.448-1-1S11.449,7.982,12,7.982z"/>
			<path d="M18,10.982c1.103,0,2-0.897,2-2s-0.897-2-2-2s-2,0.897-2,2S16.897,10.982,18,10.982z M18,7.982c0.551,0,1,0.448,1,1
				s-0.449,1-1,1s-1-0.448-1-1S17.449,7.982,18,7.982z"/>
		</g>
	</g>
	<g id="New_icons_1_">
	</g>
</g>
<g id="Invisible_Shape">
	<rect fill="none" width="24" height="24"/>
</g>
</svg>
