<?xml version="1.0" encoding="utf-8"?>
<!-- Generator: Adobe Illustrator 16.0.3, SVG Export Plug-In . SVG Version: 6.00 Build 0)  -->
<!DOCTYPE svg PUBLIC "-//W3C//DTD SVG 1.1//EN" "http://www.w3.org/Graphics/SVG/1.1/DTD/svg11.dtd">
<svg version="1.1" xmlns="http://www.w3.org/2000/svg" xmlns:xlink="http://www.w3.org/1999/xlink" x="0px" y="0px" width="24px"
	 height="24px" viewBox="0 0 24 24" enable-background="new 0 0 24 24" xml:space="preserve">
<g id="Outline_Icons_1_">
	<g id="Outline_Icons">
		<g>
			<path d="M22.5,1.982h-21c-0.827,0-1.5,0.673-1.5,1.5v13c0,0.827,0.673,1.5,1.5,1.5H3v3.5c0,0.202,0.122,0.385,0.309,0.462
				c0.062,0.025,0.127,0.038,0.191,0.038c0.13,0,0.258-0.051,0.354-0.146l3.854-3.854H22.5c0.827,0,1.5-0.673,1.5-1.5v-13
				C24,2.655,23.327,1.982,22.5,1.982z M23,16.482c0,0.275-0.224,0.5-0.5,0.5h-15c-0.133,0-0.26,0.053-0.354,0.146L4,20.275v-2.793
				c0-0.276-0.224-0.5-0.5-0.5h-2c-0.276,0-0.5-0.225-0.5-0.5v-13c0-0.275,0.224-0.5,0.5-0.5h21c0.276,0,0.5,0.225,0.5,0.5V16.482z"
				/>
			<path d="M8.5,8.982c-0.551,0-1,0.448-1,1s0.449,1,1,1s1-0.448,1-1S9.051,8.982,8.5,8.982z M8.5,9.982L8.5,9.982H9H8.5z"/>
			<path d="M16.5,8.982c-0.551,0-1,0.448-1,1s0.449,1,1,1s1-0.448,1-1S17.051,8.982,16.5,8.982z M16.5,9.982L16.5,9.982H17H16.5z"/>
			<path d="M12.5,8.982c-0.551,0-1,0.448-1,1s0.449,1,1,1s1-0.448,1-1S13.051,8.982,12.5,8.982z M12.5,9.982L12.5,9.982H13H12.5z"/>
		</g>
	</g>
	<g id="New_icons_1_">
	</g>
</g>
<g id="Invisible_Shape">
	<rect fill="none" width="24" height="24"/>
</g>
</svg>
