<?xml version="1.0" encoding="utf-8"?>
<!-- Generator: Adobe Illustrator 16.0.3, SVG Export Plug-In . SVG Version: 6.00 Build 0)  -->
<!DOCTYPE svg PUBLIC "-//W3C//DTD SVG 1.1//EN" "http://www.w3.org/Graphics/SVG/1.1/DTD/svg11.dtd">
<svg version="1.1" xmlns="http://www.w3.org/2000/svg" xmlns:xlink="http://www.w3.org/1999/xlink" x="0px" y="0px" width="24px"
	 height="24px" viewBox="0 0 24 24" enable-background="new 0 0 24 24" xml:space="preserve">
<g id="Outline_Icons_1_">
	<g id="Outline_Icons">
		<g>
			<path d="M20.146,19.146L19,20.293V15.5c0-0.276-0.224-0.5-0.5-0.5S18,15.224,18,15.5v4.793l-1.146-1.146
				c-0.195-0.195-0.512-0.195-0.707,0s-0.195,0.512,0,0.707l2,1.999c0.046,0.047,0.102,0.083,0.163,0.109
				C18.37,21.986,18.435,22,18.5,22s0.13-0.014,0.191-0.038c0.062-0.026,0.117-0.062,0.163-0.109l2-1.999
				c0.195-0.195,0.195-0.512,0-0.707S20.342,18.951,20.146,19.146z"/>
			<path d="M18.5,13c-3.033,0-5.5,2.468-5.5,5.5s2.467,5.5,5.5,5.5s5.5-2.468,5.5-5.5S21.533,13,18.5,13z M18.5,23
				c-2.481,0-4.5-2.019-4.5-4.5s2.019-4.5,4.5-4.5s4.5,2.019,4.5,4.5S20.981,23,18.5,23z"/>
			<path d="M12,14.5h-0.5c-0.133,0-0.26,0.053-0.354,0.146L8,17.793V15c0-0.276-0.224-0.5-0.5-0.5H7c-3.309,0-6-2.691-6-6
				C1,5.037,3.804,2,7,2h8c3.196,0,6,3.037,6,6.5c0,0.797-0.156,1.572-0.464,2.307c-0.107,0.255,0.013,0.548,0.268,0.654
				c0.251,0.104,0.547-0.013,0.654-0.268C21.818,10.336,22,9.43,22,8.5C22,4.505,18.729,1,15,1H7C3.271,1,0,4.505,0,8.5
				c0,3.859,3.14,7,7,7V19c0,0.202,0.122,0.385,0.309,0.462C7.371,19.487,7.436,19.5,7.5,19.5c0.13,0,0.258-0.051,0.354-0.146
				l3.854-3.854H12c0.276,0,0.5-0.224,0.5-0.5S12.276,14.5,12,14.5z"/>
		</g>
	</g>
	<g id="New_icons_1_">
	</g>
</g>
<g id="Invisible_Shape">
	<rect fill="none" width="24" height="24"/>
</g>
</svg>
