<?xml version="1.0" encoding="utf-8"?>
<!-- Generator: Adobe Illustrator 16.0.3, SVG Export Plug-In . SVG Version: 6.00 Build 0)  -->
<!DOCTYPE svg PUBLIC "-//W3C//DTD SVG 1.1//EN" "http://www.w3.org/Graphics/SVG/1.1/DTD/svg11.dtd">
<svg version="1.1" xmlns="http://www.w3.org/2000/svg" xmlns:xlink="http://www.w3.org/1999/xlink" x="0px" y="0px" width="24px"
	 height="24px" viewBox="0 0 24 24" enable-background="new 0 0 24 24" xml:space="preserve">
<g id="Outline_Icons_1_">
	<g id="Outline_Icons">
		<g>
			<path d="M17.854,14.159c-0.046-0.047-0.102-0.083-0.163-0.108c-0.122-0.051-0.26-0.051-0.382,0
				c-0.062,0.025-0.117,0.062-0.163,0.108l-2.5,2.499c-0.195,0.195-0.195,0.512,0,0.707s0.512,0.195,0.707,0L17,15.719v4.793
				c0,0.276,0.224,0.5,0.5,0.5s0.5-0.224,0.5-0.5v-4.793l1.646,1.646c0.098,0.098,0.226,0.146,0.354,0.146s0.256-0.049,0.354-0.146
				c0.195-0.195,0.195-0.512,0-0.707L17.854,14.159z"/>
			<path d="M17.5,11.012c-3.584,0-6.5,2.916-6.5,6.5s2.916,6.5,6.5,6.5s6.5-2.916,6.5-6.5S21.084,11.012,17.5,11.012z M17.5,23.012
				c-3.033,0-5.5-2.468-5.5-5.5s2.467-5.5,5.5-5.5s5.5,2.468,5.5,5.5S20.533,23.012,17.5,23.012z"/>
			<path d="M10.918,1C16.477,1,21,4.589,21,9c0,0.305-0.022,0.618-0.067,0.932c-0.039,0.273,0.151,0.526,0.425,0.565
				c0.276,0.037,0.526-0.15,0.565-0.425C21.974,9.713,22,9.352,22,9c0-4.963-4.971-9-11.082-9C4.898,0,0,4.036,0,8.998
				c0,2.391,0.998,4.508,2.89,6.145l-1.847,4.154C0.959,19.486,1,19.709,1.148,19.855C1.244,19.95,1.371,20,1.5,20
				c0.07,0,0.141-0.015,0.207-0.045l5.331-2.423c0.838,0.233,1.768,0.347,2.42,0.401c0.279,0.024,0.517-0.182,0.54-0.456
				c0.023-0.275-0.181-0.518-0.457-0.54c-0.935-0.078-1.763-0.222-2.395-0.416c-0.115-0.035-0.242-0.027-0.354,0.023L2.492,18.5
				l1.465-3.297c0.092-0.208,0.033-0.451-0.145-0.594C1.973,13.138,1,11.197,1,8.998C1,4.588,5.449,1,10.918,1z"/>
		</g>
	</g>
	<g id="New_icons_1_">
	</g>
</g>
<g id="Invisible_Shape">
	<rect fill="none" width="24" height="24"/>
</g>
</svg>
