<?xml version="1.0" encoding="utf-8"?>
<!-- Generator: Adobe Illustrator 16.0.3, SVG Export Plug-In . SVG Version: 6.00 Build 0)  -->
<!DOCTYPE svg PUBLIC "-//W3C//DTD SVG 1.1//EN" "http://www.w3.org/Graphics/SVG/1.1/DTD/svg11.dtd">
<svg version="1.1" xmlns="http://www.w3.org/2000/svg" xmlns:xlink="http://www.w3.org/1999/xlink" x="0px" y="0px" width="24px"
	 height="24px" viewBox="0 0 24 24" enable-background="new 0 0 24 24" xml:space="preserve">
<g id="Outline_Icons_1_">
	<g id="Outline_Icons">
		<g>
			<path d="M19,9.5v-4C19,3.019,16.981,1,14.5,1h-10C2.019,1,0,3.019,0,5.5v4C0,11.981,2.019,14,4.5,14H5v3.5
				c0,0.197,0.116,0.375,0.295,0.456C5.361,17.985,5.431,18,5.5,18c0.12,0,0.239-0.043,0.332-0.126L10.19,14h4.31
				C16.981,14,19,11.981,19,9.5z M10,13c-0.123,0-0.241,0.045-0.332,0.126L6,16.387V13.5C6,13.224,5.776,13,5.5,13h-1
				C2.57,13,1,11.43,1,9.5v-4C1,3.57,2.57,2,4.5,2h10C16.43,2,18,3.57,18,5.5v4c0,1.93-1.57,3.5-3.5,3.5H10z"/>
			<path d="M21,12c-0.276,0-0.5,0.224-0.5,0.5S20.724,13,21,13c1.103,0,2,0.897,2,2v2c0,1.103-0.897,2-2,2h-1.5
				c-0.276,0-0.5,0.224-0.5,0.5v1.793l-2.146-2.146C16.76,19.053,16.633,19,16.5,19H14c-1.103,0-2-0.897-2-2
				c0-0.276-0.224-0.5-0.5-0.5S11,16.724,11,17c0,1.654,1.346,3,3,3h2.293l2.854,2.854C19.242,22.949,19.37,23,19.5,23
				c0.064,0,0.129-0.013,0.191-0.038C19.878,22.885,20,22.702,20,22.5V20h1c1.654,0,3-1.346,3-3v-2C24,13.346,22.654,12,21,12z"/>
		</g>
	</g>
	<g id="New_icons_1_">
	</g>
</g>
<g id="Invisible_Shape">
	<rect fill="none" width="24" height="24"/>
</g>
</svg>
