<?xml version="1.0" encoding="utf-8"?>
<!-- Generator: Adobe Illustrator 16.0.3, SVG Export Plug-In . SVG Version: 6.00 Build 0)  -->
<!DOCTYPE svg PUBLIC "-//W3C//DTD SVG 1.1//EN" "http://www.w3.org/Graphics/SVG/1.1/DTD/svg11.dtd">
<svg version="1.1" xmlns="http://www.w3.org/2000/svg" xmlns:xlink="http://www.w3.org/1999/xlink" x="0px" y="0px" width="24px"
	 height="24px" viewBox="0 0 24 24" enable-background="new 0 0 24 24" xml:space="preserve">
<g id="Outline_Icons_1_">
	<g id="Outline_Icons">
	</g>
	<g id="New_icons_1_">
		<g>
			<path d="M5.5,14h-5C0.224,14,0,14.224,0,14.5V17c0,1.083,0.336,1.729,1,1.932V23.5C1,23.776,1.224,24,1.5,24h3
				C4.776,24,5,23.776,5,23.5v-4.568c0.663-0.202,0.999-0.85,1-1.932v-2.5C6,14.224,5.776,14,5.5,14z M5,16.999
				C4.999,18,4.722,18,4.5,18C4.224,18,4,18.224,4,18.5V23H2v-4.5C2,18.224,1.776,18,1.5,18C1.277,18,1,18,1,17v-2h4V16.999z"/>
			<path d="M3,13c1.103,0,2-0.897,2-2S4.103,9,3,9s-2,0.897-2,2S1.897,13,3,13z M3,10c0.551,0,1,0.448,1,1s-0.449,1-1,1
				s-1-0.448-1-1S2.449,10,3,10z"/>
			<path d="M23.5,0h-15C8.224,0,8,0.224,8,0.5v10C8,10.776,8.224,11,8.5,11H11v3c0,0.202,0.122,0.385,0.309,0.462
				c0.062,0.025,0.127,0.038,0.191,0.038c0.13,0,0.258-0.051,0.354-0.146L15.207,11H23.5c0.276,0,0.5-0.224,0.5-0.5v-10
				C24,0.224,23.776,0,23.5,0z M23,10h-8c-0.133,0-0.26,0.053-0.354,0.146L12,12.793V10.5c0-0.276-0.224-0.5-0.5-0.5H9V1h14V10z"/>
			<circle cx="16.518" cy="8.235" r="0.494"/>
			<path d="M15.035,4.482c0.276,0,0.5-0.224,0.5-0.5C15.535,3.44,15.976,3,16.518,3S17.5,3.44,17.5,3.982
				c0,0.541-0.441,0.981-0.982,0.981c-0.276,0-0.5,0.224-0.5,0.5V6.5c0,0.276,0.224,0.5,0.5,0.5s0.5-0.224,0.5-0.5V5.9
				C17.87,5.678,18.5,4.902,18.5,3.982C18.5,2.89,17.611,2,16.518,2s-1.982,0.89-1.982,1.982
				C14.535,4.259,14.759,4.482,15.035,4.482z"/>
		</g>
	</g>
</g>
<g id="Invisible_Shape" display="none">
	<rect display="inline" fill="none" width="24" height="24"/>
</g>
</svg>
