<?xml version="1.0" encoding="utf-8"?>
<!-- Generator: Adobe Illustrator 16.0.3, SVG Export Plug-In . SVG Version: 6.00 Build 0)  -->
<!DOCTYPE svg PUBLIC "-//W3C//DTD SVG 1.1//EN" "http://www.w3.org/Graphics/SVG/1.1/DTD/svg11.dtd">
<svg version="1.1" xmlns="http://www.w3.org/2000/svg" xmlns:xlink="http://www.w3.org/1999/xlink" x="0px" y="0px" width="24px"
	 height="24px" viewBox="0 0 24 24" enable-background="new 0 0 24 24" xml:space="preserve">
<g id="Outline_Icons_1_">
	<g id="Outline_Icons">
		<g>
			<path d="M17,0c-3.86,0-7,2.916-7,6.5h1C11,3.468,13.691,1,17,1s6,2.468,6,5.5c0,2.222-1.444,4.213-3.679,5.072
				c-0.059,0.022-0.113,0.057-0.16,0.1c-0.202,0.186-0.818,0.709-1.509,1.297c-0.564,0.48-1.17,0.995-1.653,1.414
				c-0.001-0.741-0.001-1.605,0.001-1.949c0.002-0.251-0.183-0.465-0.431-0.499c-0.482-0.067-0.956-0.19-1.409-0.366L13.798,12.5
				c0.389,0.151,0.791,0.269,1.2,0.352c-0.001,0.554,0,1.393,0.001,2.001l0,0.647c0,0.202,0.122,0.385,0.309,0.462
				C15.371,15.987,15.436,16,15.5,16c0.13,0,0.258-0.051,0.354-0.146c0.282-0.281,1.482-1.303,2.447-2.123
				c0.637-0.541,1.21-1.029,1.467-1.259C22.342,11.443,24,9.109,24,6.5C24,2.916,20.86,0,17,0z"/>
			<rect x="19" y="6" width="1" height="1"/>
			<rect x="16.5" y="6" width="1" height="1"/>
			<rect x="14" y="6" width="1" height="1"/>
			<path d="M10.5,17.663v-1.384c0.371-0.285,0.917-0.952,0.991-2.429c0.417-0.277,0.655-0.896,0.655-1.498
				c0-0.334-0.076-0.631-0.22-0.86c-0.068-0.108-0.151-0.201-0.245-0.275c0.22-0.514,0.54-1.394,0.304-2.338
				C11.638,7.492,9.891,7,8.5,7C7.261,7,5.739,7.391,5.176,8.456C4.722,8.422,4.381,8.563,4.157,8.839
				c-0.512,0.626-0.103,1.653,0.199,2.366c-0.103,0.076-0.193,0.173-0.268,0.289c-0.149,0.233-0.229,0.535-0.229,0.875
				c0,0.596,0.235,1.206,0.649,1.481c0.075,1.477,0.62,2.144,0.991,2.429v1.384C3.624,18.428,0,20.03,0,21v2.5
				C0,23.776,0.224,24,0.5,24h15c0.276,0,0.5-0.224,0.5-0.5V21C16,20.03,12.376,18.428,10.5,17.663z M15,23H1v-1.896
				c0.387-0.428,2.605-1.608,5.186-2.641C6.375,18.389,6.5,18.204,6.5,18v-2c0-0.196-0.137-0.383-0.315-0.465
				C6.178,15.532,5.5,15.204,5.5,13.5c0-0.276-0.164-0.485-0.44-0.485c-0.115-0.078-0.271-0.562-0.168-0.895C4.929,12,4.96,12,5,12
				c0.276,0,0.5-0.224,0.5-0.5c0-0.16-0.064-0.311-0.191-0.611C4.888,9.897,4.872,9.57,4.926,9.478c0-0.002,0.106-0.062,0.474,0.013
				c0.26,0.053,0.52-0.109,0.585-0.369C6.147,8.472,7.205,8,8.5,8s2.353,0.472,2.515,1.121c0.181,0.726-0.135,1.437-0.323,1.86
				c-0.1,0.225-0.16,0.359-0.16,0.519c0,0.276,0.253,0.503,0.53,0.503c0.021,0.015,0.082,0.12,0.084,0.337
				C11.15,12.683,11.012,12.966,11,13c-0.276,0-0.5,0.224-0.5,0.5c0,1.693-0.669,2.028-0.665,2.028C9.634,15.599,9.5,15.787,9.5,16
				v2c0,0.204,0.125,0.389,0.314,0.464c2.58,1.032,4.799,2.213,5.186,2.641V23z"/>
		</g>
	</g>
	<g id="New_icons_1_">
	</g>
</g>
<g id="Invisible_Shape">
	<rect fill="none" width="24" height="24"/>
</g>
</svg>
