<?xml version="1.0" encoding="utf-8"?>
<!-- Generator: Adobe Illustrator 16.0.3, SVG Export Plug-In . SVG Version: 6.00 Build 0)  -->
<!DOCTYPE svg PUBLIC "-//W3C//DTD SVG 1.1//EN" "http://www.w3.org/Graphics/SVG/1.1/DTD/svg11.dtd">
<svg version="1.1" xmlns="http://www.w3.org/2000/svg" xmlns:xlink="http://www.w3.org/1999/xlink" x="0px" y="0px" width="24px"
	 height="24px" viewBox="0 0 24 24" enable-background="new 0 0 24 24" xml:space="preserve">
<g id="Outline_Icons_1_">
	<g id="Outline_Icons">
		<g>
			<path d="M19,0h-6c-2.753,0-4.992,2.243-4.992,5h1c0-2.206,1.791-4,3.992-4h6c2.206,0,4,1.794,4,4s-1.794,4-4,4h-2
				c-0.114,0-0.224,0.039-0.312,0.109L15,10.46V9.5C15,9.224,14.776,9,14.5,9H13v1h1v1.5c0,0.192,0.11,0.367,0.283,0.45
				C14.353,11.983,14.426,12,14.5,12c0.111,0,0.222-0.037,0.312-0.109L17.175,10H19c2.757,0,5-2.243,5-5S21.757,0,19,0z"/>
			<path d="M14.11,19.311l-3.61-1.293v-1.734c1.115-0.953,1.849-2.489,1.849-4.231c0-2.887-1.995-5.235-4.447-5.235
				s-4.447,2.349-4.447,5.235c0,1.845,0.818,3.462,2.046,4.396v1.57l-3.609,1.293C0.76,19.713,0,20.799,0,22.012V23.5
				C0,23.776,0.224,24,0.5,24h15c0.276,0,0.5-0.224,0.5-0.5v-1.488C16,20.799,15.24,19.713,14.11,19.311z M7.901,7.816
				c1.657,0,3.043,1.445,3.372,3.362c-1.053,0.179-1.695-0.177-2.333-1.292C8.85,9.728,8.685,9.668,8.497,9.635
				C8.313,9.639,8.147,9.741,8.062,9.903c-0.343,0.656-1.548,1.255-2.529,1.255c-0.358,0-0.664-0.066-0.956-0.168
				C4.964,9.17,6.301,7.816,7.901,7.816z M4.454,12.052c0-0.017,0.004-0.03,0.004-0.046c0.334,0.093,0.684,0.152,1.075,0.152
				c1.064,0,2.228-0.487,2.936-1.169c0.634,0.839,1.38,1.237,2.32,1.237c0.174,0,0.363-0.029,0.55-0.056
				c-0.053,2.28-1.57,4.118-3.438,4.118C6,16.289,4.454,14.389,4.454,12.052z M15,23H1v-0.988c0-0.791,0.493-1.498,1.227-1.76
				l3.941-1.412C6.367,18.769,6.5,18.58,6.5,18.369v-1.372c0.443,0.175,0.909,0.292,1.401,0.292c0.565,0,1.101-0.137,1.599-0.364
				v1.444c0,0.211,0.133,0.399,0.332,0.471l3.942,1.412C14.507,20.514,15,21.221,15,22.012V23z"/>
			<rect x="19" y="5" width="1" height="1"/>
			<rect x="16" y="5" width="1" height="1"/>
			<rect x="13" y="5" width="1" height="1"/>
		</g>
	</g>
	<g id="New_icons_1_">
	</g>
</g>
<g id="Invisible_Shape">
	<rect fill="none" width="24" height="24"/>
</g>
</svg>
