<?xml version="1.0" encoding="utf-8"?>
<!-- Generator: Adobe Illustrator 16.0.3, SVG Export Plug-In . SVG Version: 6.00 Build 0)  -->
<!DOCTYPE svg PUBLIC "-//W3C//DTD SVG 1.1//EN" "http://www.w3.org/Graphics/SVG/1.1/DTD/svg11.dtd">
<svg version="1.1" xmlns="http://www.w3.org/2000/svg" xmlns:xlink="http://www.w3.org/1999/xlink" x="0px" y="0px" width="24px"
	 height="24px" viewBox="0 0 24 24" enable-background="new 0 0 24 24" xml:space="preserve">
<g id="Outline_Icons">
	<g>
		<path d="M11.996,0c-6.617,0-12,5.383-12,12s5.383,12,12,12s12-5.383,12-12S18.613,0,11.996,0z M11.996,23c-6.065,0-11-4.935-11-11
			s4.935-11,11-11s11,4.935,11,11S18.062,23,11.996,23z"/>
		<path d="M11.996,6c-3.309,0-6,2.691-6,6s2.691,6,6,6s6-2.691,6-6S15.305,6,11.996,6z M11.996,17c-2.757,0-5-2.243-5-5s2.243-5,5-5
			s5,2.243,5,5S14.753,17,11.996,17z"/>
		<path d="M13.688,11.4c0.19-0.252,0.308-0.562,0.308-0.9c0-0.827-0.673-1.5-1.5-1.5h-1c-0.827,0-1.5,0.673-1.5,1.5
			c0,0.341,0.119,0.652,0.311,0.904C9.82,11.77,9.5,12.346,9.5,13c0,1.103,0.897,2,2,2h1c1.103,0,2-0.897,2-2
			C14.5,12.344,14.178,11.766,13.688,11.4z M11.496,11c-0.276,0-0.5-0.225-0.5-0.5s0.224-0.5,0.5-0.5h1c0.276,0,0.5,0.225,0.5,0.5
			s-0.224,0.5-0.5,0.5H11.5H11.496z M12.5,14h-1c-0.551,0-1-0.448-1-1s0.449-1,1-1h0.996H12.5c0.551,0,1,0.448,1,1
			S13.051,14,12.5,14z"/>
	</g>
</g>
<g id="invisible_shape">
	<rect fill="none" width="24" height="24"/>
</g>
</svg>
