<?xml version="1.0" encoding="utf-8"?>
<!-- Generator: Adobe Illustrator 16.0.3, SVG Export Plug-In . SVG Version: 6.00 Build 0)  -->
<!DOCTYPE svg PUBLIC "-//W3C//DTD SVG 1.1//EN" "http://www.w3.org/Graphics/SVG/1.1/DTD/svg11.dtd">
<svg version="1.1" xmlns="http://www.w3.org/2000/svg" xmlns:xlink="http://www.w3.org/1999/xlink" x="0px" y="0px" width="24px"
	 height="24px" viewBox="0 0 24 24" enable-background="new 0 0 24 24" xml:space="preserve">
<g id="Outline_Icons">
	<g>
		<path d="M22.838,20.427l-3.151-9.819c-0.195-0.61-0.88-0.966-1.494-0.768L18.004,9.9L16.5,4.927c-0.041-2.722-2.269-4.924-5-4.924
			c-2.731,0-4.958,2.202-5,4.924L4.996,9.9L4.806,9.84c-0.613-0.198-1.299,0.157-1.494,0.768l-3.151,9.818
			c-0.153,0.477-0.111,0.984,0.118,1.431c0.229,0.445,0.617,0.774,1.094,0.929l1.964,0.629c0.187,0.061,0.379,0.091,0.574,0.091
			c0.817,0,1.534-0.523,1.785-1.303l3.151-9.818c0.097-0.303,0.071-0.625-0.075-0.907s-0.392-0.49-0.693-0.586L8.015,10.87
			l0.617-1.77c1.718,1.207,4.017,1.207,5.735,0l0.617,1.769l-0.062,0.021c-0.302,0.097-0.548,0.305-0.694,0.587
			s-0.172,0.604-0.075,0.906l3.151,9.82c0.25,0.778,0.968,1.302,1.785,1.302c0.194,0,0.387-0.03,0.574-0.09l1.964-0.631
			c0.477-0.153,0.865-0.482,1.094-0.928C22.949,21.41,22.991,20.902,22.838,20.427z M7.895,12.078l-3.151,9.818
			c-0.145,0.45-0.645,0.713-1.101,0.565l-1.963-0.629c-0.223-0.072-0.404-0.226-0.511-0.434s-0.126-0.445-0.055-0.668l3.152-9.819
			c0.026-0.081,0.095-0.122,0.201-0.122c0.011,0,0.022,0.001,0.034,0.001l3.274,1.052c0.063,0.021,0.095,0.066,0.108,0.092
			S7.915,12.014,7.895,12.078z M15.076,8.097c-0.056-0.161-0.189-0.282-0.354-0.322c-0.167-0.038-0.34,0.008-0.462,0.124
			C12.71,9.374,10.286,9.373,8.74,7.899C8.617,7.781,8.442,7.736,8.278,7.774c-0.166,0.04-0.299,0.161-0.355,0.322l-0.86,2.468
			l-1.116-0.358l1.531-5.059C7.492,5.101,7.5,5.052,7.5,5.003c0-2.206,1.795-4,4.001-4c2.206,0,4,1.794,4,4
			c0,0.049,0.007,0.098,0.021,0.145l1.53,5.059l-1.117,0.358L15.076,8.097z M21.831,21.399c-0.107,0.208-0.289,0.361-0.511,0.433
			l-1.964,0.631c-0.456,0.143-0.956-0.116-1.101-0.565l-3.151-9.82c-0.021-0.063-0.001-0.117,0.012-0.143s0.045-0.071,0.109-0.093
			l3.331-1.06c0.068,0,0.149,0.04,0.178,0.13l3.151,9.82C21.958,20.954,21.938,21.191,21.831,21.399z"/>
		<path d="M11.5,2.503c-1.378,0-2.5,1.121-2.5,2.5s1.122,2.5,2.5,2.5s2.5-1.121,2.5-2.5S12.878,2.503,11.5,2.503z M11.5,6.503
			c-0.827,0-1.5-0.673-1.5-1.5s0.673-1.5,1.5-1.5s1.5,0.673,1.5,1.5S12.327,6.503,11.5,6.503z"/>
	</g>
</g>
<g id="invisible_shape">
	<rect fill="none" width="24" height="24"/>
</g>
</svg>
