<?xml version="1.0" encoding="utf-8"?>
<!-- Generator: Adobe Illustrator 16.0.3, SVG Export Plug-In . SVG Version: 6.00 Build 0)  -->
<!DOCTYPE svg PUBLIC "-//W3C//DTD SVG 1.1//EN" "http://www.w3.org/Graphics/SVG/1.1/DTD/svg11.dtd">
<svg version="1.1" xmlns="http://www.w3.org/2000/svg" xmlns:xlink="http://www.w3.org/1999/xlink" x="0px" y="0px" width="24px"
	 height="24px" viewBox="0 0 24 24" enable-background="new 0 0 24 24" xml:space="preserve">
<g id="Outline_Icons">
	<path d="M23.853,7.149l-5.499-5.5c-0.038-0.038-0.082-0.069-0.13-0.094l-3.002-1.5c-0.005-0.003-0.01-0.002-0.015-0.004
		c-0.008-0.004-0.016-0.009-0.025-0.012c-0.003-0.001-0.006-0.005-0.009-0.006c-0.022-0.009-0.046-0.006-0.069-0.011
		c-0.031-0.007-0.061-0.018-0.092-0.018c-0.005,0-0.009-0.003-0.014-0.003h-6c-0.004,0-0.008,0.003-0.012,0.003
		c-0.071,0.002-0.144,0.016-0.211,0.05L8.767,0.06l0,0l-2.99,1.496C5.729,1.58,5.685,1.611,5.647,1.649l-5.5,5.5
		c-0.195,0.195-0.195,0.512,0,0.707l2.999,3c0.183,0.185,0.475,0.197,0.674,0.03l2.319-1.933l0.853,5.543l-1.569,8.919
		c-0.002,0.014,0.003,0.026,0.002,0.039c-0.004,0.042-0.001,0.082,0.005,0.122c0.004,0.027,0.006,0.053,0.015,0.079
		c0.014,0.043,0.037,0.081,0.062,0.119c0.01,0.016,0.013,0.034,0.025,0.049c0.003,0.004,0.008,0.006,0.012,0.009
		c0.032,0.036,0.072,0.062,0.114,0.088c0.019,0.012,0.034,0.028,0.054,0.037c0.002,0.001,0.003,0.003,0.006,0.004
		c0.064,0.028,0.131,0.041,0.198,0.041h12.083c0.147,0,0.287-0.064,0.381-0.177c0.095-0.112,0.136-0.261,0.112-0.405L17.005,14.5
		l0.854-5.547l2.321,1.934c0.198,0.166,0.49,0.154,0.673-0.03l3-3C24.048,7.661,24.048,7.345,23.853,7.149z M14.279,1.003
		l-2.271,6.101L9.72,1.003H14.279z M6.675,7.535C6.506,7.471,6.316,7.504,6.178,7.619L3.53,9.826L1.208,7.503l5.089-5.089
		l2.429-1.215l2.75,7.335l-2.035,5.469H7.928L6.993,7.927C6.965,7.749,6.844,7.599,6.675,7.535z M7.918,15.003h1.11l-1.877,4.363
		L7.918,15.003z M17.408,23.003H6.675l3.441-8h1.188l-1.28,3.842c-0.087,0.262,0.054,0.545,0.316,0.633
		c0.263,0.088,0.545-0.056,0.632-0.316l1.026-3.077l1.026,3.077c0.07,0.209,0.265,0.342,0.474,0.342
		c0.052,0,0.105-0.008,0.158-0.025c0.262-0.088,0.403-0.371,0.316-0.633l-1.28-3.842h3.383L17.408,23.003z M20.469,9.826
		l-2.65-2.207c-0.139-0.115-0.329-0.147-0.497-0.084c-0.169,0.063-0.29,0.214-0.317,0.392l-0.935,6.076h-5.562l4.766-12.804
		l2.431,1.215l5.088,5.089L20.469,9.826z"/>
</g>
<g id="invisible_shape">
	<rect fill="none" width="24" height="24"/>
</g>
</svg>
