<?xml version="1.0" encoding="utf-8"?>
<!-- Generator: Adobe Illustrator 16.0.3, SVG Export Plug-In . SVG Version: 6.00 Build 0)  -->
<!DOCTYPE svg PUBLIC "-//W3C//DTD SVG 1.1//EN" "http://www.w3.org/Graphics/SVG/1.1/DTD/svg11.dtd">
<svg version="1.1" xmlns="http://www.w3.org/2000/svg" xmlns:xlink="http://www.w3.org/1999/xlink" x="0px" y="0px" width="24px"
	 height="24px" viewBox="0 0 24 24" enable-background="new 0 0 24 24" xml:space="preserve">
<g id="Outline_Icons_1_">
	<g>
		<path d="M12,17.5v-7c0-0.276-0.224-0.5-0.5-0.5h-1V9.5C10.5,7.57,8.93,6,7,6S3.5,7.57,3.5,9.5V10h-1C2.224,10,2,10.224,2,10.5v7
			C2,17.776,2.224,18,2.5,18h9C11.776,18,12,17.776,12,17.5z M4.5,9.5C4.5,8.122,5.621,7,7,7s2.5,1.122,2.5,2.5V10h-5V9.5z M11,17H3
			v-6h8V17z"/>
		<path d="M7,12c-0.552,0-1,0.449-1,1c0,0.365,0.207,0.672,0.5,0.847V15.5C6.5,15.776,6.724,16,7,16s0.5-0.224,0.5-0.5v-1.653
			C7.793,13.672,8,13.365,8,13C8,12.449,7.552,12,7,12z"/>
		<path d="M21.5,0h-15C6.224,0,6,0.224,6,0.5v3.969c0,0.276,0.224,0.5,0.5,0.5S7,4.745,7,4.469V1h14v22H7v-3.5
			C7,19.224,6.776,19,6.5,19S6,19.224,6,19.5v4C6,23.776,6.224,24,6.5,24h15c0.276,0,0.5-0.224,0.5-0.5v-23
			C22,0.224,21.776,0,21.5,0z"/>
	</g>
</g>
<g id="Invisible_Shape">
	<rect fill="none" width="24" height="24"/>
</g>
</svg>
