<?xml version="1.0" encoding="utf-8"?>
<!-- Generator: Adobe Illustrator 16.0.3, SVG Export Plug-In . SVG Version: 6.00 Build 0)  -->
<!DOCTYPE svg PUBLIC "-//W3C//DTD SVG 1.1//EN" "http://www.w3.org/Graphics/SVG/1.1/DTD/svg11.dtd">
<svg version="1.1" xmlns="http://www.w3.org/2000/svg" xmlns:xlink="http://www.w3.org/1999/xlink" x="0px" y="0px" width="24px"
	 height="24px" viewBox="0 0 24 24" enable-background="new 0 0 24 24" xml:space="preserve">
<g id="Outline_Icons_1_">
	<g>
		<path d="M16.5,9h-1V8.5C15.5,6.57,13.93,5,12,5S8.5,6.57,8.5,8.5V9h-1C7.224,9,7,9.224,7,9.5v7C7,16.776,7.224,17,7.5,17h9
			c0.276,0,0.5-0.224,0.5-0.5v-7C17,9.224,16.776,9,16.5,9z M9.5,8.5C9.5,7.122,10.621,6,12,6s2.5,1.122,2.5,2.5V9h-5V8.5z M16,16H8
			v-6h8V16z"/>
		<path d="M12,11c-0.552,0-1,0.449-1,1c0,0.365,0.207,0.672,0.5,0.847V14.5c0,0.276,0.224,0.5,0.5,0.5s0.5-0.224,0.5-0.5v-1.653
			C12.793,12.672,13,12.365,13,12C13,11.449,12.552,11,12,11z"/>
		<path d="M12,0C5.383,0,0,5.383,0,12c0,6.617,5.383,12,12,12s12-5.383,12-12C24,5.383,18.617,0,12,0z M12,23
			C5.935,23,1,18.065,1,12S5.935,1,12,1s11,4.935,11,11S18.065,23,12,23z"/>
	</g>
</g>
<g id="Invisible_Shape">
	<rect fill="none" width="24" height="24"/>
</g>
</svg>
