<?xml version="1.0" encoding="utf-8"?>
<!-- Generator: Adobe Illustrator 16.0.3, SVG Export Plug-In . SVG Version: 6.00 Build 0)  -->
<!DOCTYPE svg PUBLIC "-//W3C//DTD SVG 1.1//EN" "http://www.w3.org/Graphics/SVG/1.1/DTD/svg11.dtd">
<svg version="1.1" xmlns="http://www.w3.org/2000/svg" xmlns:xlink="http://www.w3.org/1999/xlink" x="0px" y="0px" width="24px"
	 height="24px" viewBox="0 0 24 24" enable-background="new 0 0 24 24" xml:space="preserve">
<g id="Outline_Icons">
	<g>
		<path d="M22,13.571V11c0-2.897-1.893-5-4.5-5H16V0.5C16,0.224,15.776,0,15.5,0h-7C8.223,0,8,0.224,8,0.5V6H6.5
			C3.892,6,2,8.103,2,11v2.571c-0.86,0.224-1.5,1-1.5,1.929c0,1.103,0.897,2,2,2s2-0.897,2-2c0-0.929-0.64-1.705-1.5-1.929V11
			c0-2.066,1.107-3.584,2.77-3.926c-1.088,3.193-1.01,6.423,0.266,9.611C6.111,16.876,6.295,17,6.5,17H7v6H6
			c-0.276,0-0.5,0.224-0.5,0.5S5.723,24,6,24h12c0.276,0,0.5-0.224,0.5-0.5S18.276,23,18,23h-1v-6h0.5
			c0.205,0,0.388-0.124,0.464-0.314c1.275-3.188,1.354-6.418,0.266-9.611C19.892,7.416,21,8.934,21,11v2.571
			c-0.86,0.224-1.5,1-1.5,1.929c0,1.103,0.897,2,2,2s2-0.897,2-2C23.5,14.571,22.86,13.795,22,13.571z M3.5,15.5
			c0,0.552-0.449,1-1,1s-1-0.448-1-1s0.449-1,1-1S3.5,14.948,3.5,15.5z M17.727,14H6.272c-0.481-2.333-0.297-4.678,0.57-7h10.314
			C18.024,9.322,18.208,11.667,17.727,14z M9,1h6v5H9V1z M8,23v-6h2v6H8z M13,17v6h-1h-1v-6H13z M16,23h-2v-6h2V23z M6.842,16
			c-0.125-0.333-0.229-0.666-0.326-1h10.967c-0.097,0.334-0.202,0.667-0.326,1H6.842z M21.5,16.5c-0.551,0-1-0.448-1-1s0.449-1,1-1
			s1,0.448,1,1S22.051,16.5,21.5,16.5z"/>
		<path d="M13.5,2h-3C10.224,2,10,2.224,10,2.5v2C10,4.776,10.224,5,10.5,5h3C13.776,5,14,4.776,14,4.5v-2C14,2.224,13.776,2,13.5,2
			z M13,4h-2V3h2V4z"/>
		<path d="M8.5,8C8.223,8,8,8.224,8,8.5v3C8,11.776,8.223,12,8.5,12S9,11.776,9,11.5v-3C9,8.224,8.776,8,8.5,8z"/>
		<path d="M10.5,8C10.223,8,10,8.224,10,8.5v3c0,0.276,0.224,0.5,0.5,0.5s0.5-0.224,0.5-0.5v-3C11,8.224,10.776,8,10.5,8z"/>
		<path d="M15.5,8C14.672,8,14,8.673,14,9.5s0.673,1.5,1.5,1.5S17,10.327,17,9.5S16.327,8,15.5,8z M15.5,10
			C15.224,10,15,9.775,15,9.5S15.224,9,15.5,9S16,9.225,16,9.5S15.775,10,15.5,10z"/>
	</g>
</g>
<g id="invisible_shape">
	<rect fill="none" width="24" height="24"/>
</g>
</svg>
