<?xml version="1.0" encoding="utf-8"?>
<!-- Generator: Adobe Illustrator 16.0.3, SVG Export Plug-In . SVG Version: 6.00 Build 0)  -->
<!DOCTYPE svg PUBLIC "-//W3C//DTD SVG 1.1//EN" "http://www.w3.org/Graphics/SVG/1.1/DTD/svg11.dtd">
<svg version="1.1" xmlns="http://www.w3.org/2000/svg" xmlns:xlink="http://www.w3.org/1999/xlink" x="0px" y="0px" width="24px"
	 height="24px" viewBox="0 0 24 24" enable-background="new 0 0 24 24" xml:space="preserve">
<g id="Outline_Icons">
	<g>
		<path d="M20.241,16.097L20,15.966V8c0-0.833-1.079-1.359-1.295-1.456c-0.13-0.059-0.279-0.059-0.409,0C18.079,6.641,17,7.167,17,8
			v6.334l-1-0.544V5c0-2.504-3.718-5-4.5-5S7,2.496,7,5v8.791l-1,0.544V8c0-0.833-1.079-1.359-1.295-1.456
			c-0.13-0.059-0.279-0.059-0.409,0C4.079,6.641,3,7.167,3,8v7.968l-0.25,0.136C1.637,16.745,0.5,17.651,0.5,19.5
			c0,0.133,0.053,0.26,0.146,0.354S0.868,20,1,20h1.807l-0.781,2.342c-0.051,0.152-0.025,0.32,0.068,0.45
			C2.188,22.923,2.339,23,2.5,23h4c0.161,0,0.312-0.077,0.406-0.208c0.094-0.13,0.12-0.298,0.068-0.45l-0.781-2.343l2.767-0.001
			l-1.42,3.305c-0.066,0.154-0.051,0.332,0.042,0.473C7.675,23.915,7.832,24,8,24h7c0.168,0,0.325-0.084,0.417-0.225
			c0.093-0.14,0.109-0.316,0.043-0.471l-1.407-3.307l2.754,0.001l-0.781,2.343c-0.051,0.152-0.025,0.32,0.068,0.45
			C16.188,22.923,16.339,23,16.5,23h4c0.161,0,0.312-0.077,0.406-0.208c0.094-0.13,0.12-0.298,0.068-0.45L20.193,20H22
			c0.133,0,0.26-0.053,0.354-0.146S22.5,19.633,22.5,19.5C22.5,17.652,21.364,16.746,20.241,16.097z M18,8.005
			c0.017-0.09,0.232-0.285,0.5-0.442C18.769,7.72,18.984,7.914,19,8v7.422l-1-0.544L18,8.005z M8,5c0-1.8,2.996-3.881,3.454-4.004
			C12.004,1.119,15,3.2,15,5v8.246l-1-0.543V8c0-1.35-1.674-3-2.5-3S9,6.65,9,8v4.703l-1,0.544V5z M11.5,17.5
			c-0.276,0-0.5,0.224-0.5,0.5v1.408c-0.581-0.207-1-0.757-1-1.408V8c0-0.819,1.206-1.932,1.471-2.002C11.794,6.068,13,7.181,13,8
			v10c0,0.651-0.419,1.201-1,1.408V18C12,17.724,11.776,17.5,11.5,17.5z M4,8.005c0.017-0.09,0.232-0.285,0.5-0.442
			C4.769,7.72,4.984,7.914,5,8v6.879l-1,0.545L4,8.005z M3.239,16.976L9,13.842V18c0,0.355,0.077,0.692,0.211,0.998L1.538,19
			C1.671,18.172,2.176,17.589,3.239,16.976z M5.806,22H3.194l0.667-2.001H5.14L5.806,22z M10.04,20.02
			c0.283,0.205,0.606,0.357,0.96,0.43V23H8.759L10.04,20.02z M12,23v-2.551c0.359-0.073,0.687-0.229,0.972-0.438L14.244,23H12z
			 M19.806,22h-2.612l0.667-2.001h1.279L19.806,22z M13.789,18.998C13.923,18.692,14,18.355,14,18v-4.159l5.751,3.128
			c1.071,0.62,1.577,1.203,1.711,2.031L13.789,18.998z"/>
		<path d="M12,9.5C12,9.224,11.776,9,11.5,9S11,9.224,11,9.5v2c0,0.276,0.224,0.5,0.5,0.5s0.5-0.224,0.5-0.5V9.5z"/>
	</g>
</g>
<g id="invisible_shape">
	<rect fill="none" width="24" height="24"/>
</g>
</svg>
