<?xml version="1.0" encoding="utf-8"?>
<!-- Generator: Adobe Illustrator 16.0.3, SVG Export Plug-In . SVG Version: 6.00 Build 0)  -->
<!DOCTYPE svg PUBLIC "-//W3C//DTD SVG 1.1//EN" "http://www.w3.org/Graphics/SVG/1.1/DTD/svg11.dtd">
<svg version="1.1" xmlns="http://www.w3.org/2000/svg" xmlns:xlink="http://www.w3.org/1999/xlink" x="0px" y="0px" width="24px"
	 height="24px" viewBox="0 0 24 24" enable-background="new 0 0 24 24" xml:space="preserve">
<g id="Outline_Icons">
	<path d="M19.47,5.487c0.433-0.417,0.678-0.978,0.689-1.578c0.011-0.602-0.212-1.171-0.628-1.604
		C18.698,1.44,17.21,1.418,16.354,2.24L12.23,6.106c-0.894,0.859-0.921,2.287-0.06,3.182c0.003,0.004,0.008,0.006,0.012,0.01
		c0,0,0,0.001,0,0.001l2.734,2.703l-1.322,1.322l-1.695-1.695c-0.41-0.41-0.968-0.645-1.531-0.645c-0.877,0-1.586,0.538-1.788,1.315
		L4.644,22.334c-0.073,0.186-0.029,0.396,0.112,0.536c0.096,0.096,0.224,0.146,0.354,0.146c0.062,0,0.124-0.012,0.183-0.034
		l9.968-3.924c0.656-0.165,1.134-0.628,1.312-1.27c0.198-0.718-0.023-1.511-0.58-2.068l-1.69-1.689l1.678-1.678
		c0.094-0.094,0.147-0.222,0.146-0.354c0-0.134-0.054-0.261-0.148-0.354L14.243,9.93c0.414-0.084,0.796-0.281,1.103-0.576
		L19.47,5.487z M15.284,16.428c0.298,0.298,0.425,0.729,0.324,1.095c-0.046,0.168-0.185,0.465-0.653,0.586l-8.962,3.523l3.536-9.021
		c0.154-0.581,0.681-0.626,0.839-0.626c0.3,0,0.6,0.128,0.824,0.352l1.695,1.695l-1.615,1.615c-0.195,0.195-0.195,0.512,0,0.707
		c0.098,0.098,0.226,0.146,0.354,0.146s0.256-0.049,0.354-0.146l1.615-1.615L15.284,16.428z M12.897,8.6l-0.01-0.01
		c-0.473-0.498-0.458-1.287,0.032-1.758l4.124-3.866c0.234-0.226,0.542-0.35,0.867-0.35c0.343,0,0.663,0.136,0.9,0.383
		c0.231,0.24,0.355,0.557,0.349,0.891s-0.143,0.646-0.378,0.872l-4.124,3.866C14.179,9.09,13.361,9.073,12.897,8.6z"/>
</g>
<g id="invisible_shape">
	<rect fill="none" width="24" height="24"/>
</g>
</svg>
