<?xml version="1.0" encoding="utf-8"?>
<!-- Generator: Adobe Illustrator 16.0.3, SVG Export Plug-In . SVG Version: 6.00 Build 0)  -->
<!DOCTYPE svg PUBLIC "-//W3C//DTD SVG 1.1//EN" "http://www.w3.org/Graphics/SVG/1.1/DTD/svg11.dtd">
<svg version="1.1" xmlns="http://www.w3.org/2000/svg" xmlns:xlink="http://www.w3.org/1999/xlink" x="0px" y="0px" width="24px"
	 height="24px" viewBox="0 0 24 24" enable-background="new 0 0 24 24" xml:space="preserve">
<g id="Outline_Icons">
	<g>
		<path d="M23.5,4H21V0.5c0-0.157-0.074-0.305-0.199-0.399c-0.125-0.095-0.289-0.127-0.438-0.081l-7,2C13.147,2.081,13,2.276,13,2.5
			V4H0.5C0.223,4,0,4.224,0,4.5v3C0,7.776,0.223,8,0.5,8H3v3.559C1.964,11.807,1.187,12.807,1.187,14c0,1.332,1.256,2.5,2.688,2.5
			c1.354,0,2.375-1.075,2.375-2.5c0-0.276-0.224-0.5-0.5-0.5s-0.5,0.224-0.5,0.5c0,0.869-0.578,1.5-1.375,1.5
			c-0.883,0-1.688-0.715-1.688-1.5c0-0.827,0.589-1.5,1.312-1.5C3.776,12.5,4,12.276,4,12V8h11v15.5c0,0.276,0.224,0.5,0.5,0.5h4
			c0.276,0,0.5-0.224,0.5-0.5V8h0.5h3C23.776,8,24,7.776,24,7.5v-3C24,4.224,23.776,4,23.5,4z M1,5h12v2H1V5z M14,4.5V2.877l6-1.714
			V4.5V7h-6V4.5z M19,23h-3V8h3V23z M23,7h-2V5h2V7z"/>
		<path d="M12.5,18h-12C0.223,18,0,18.224,0,18.5v5C0,23.776,0.223,24,0.5,24h12c0.276,0,0.5-0.224,0.5-0.5v-5
			C13,18.224,12.776,18,12.5,18z M12,23H1v-4h11V23z"/>
		<path d="M16,5.5V4.391l1.621-0.405c0.268-0.067,0.431-0.339,0.364-0.606c-0.067-0.269-0.338-0.432-0.606-0.364l-2,0.5
			C15.156,3.57,15,3.771,15,4v1.5C15,5.776,15.223,6,15.5,6S16,5.776,16,5.5z"/>
	</g>
</g>
<g id="invisible_shape">
	<rect fill="none" width="24" height="24"/>
</g>
</svg>
