<?xml version="1.0" encoding="utf-8"?>
<!-- Generator: Adobe Illustrator 16.0.3, SVG Export Plug-In . SVG Version: 6.00 Build 0)  -->
<!DOCTYPE svg PUBLIC "-//W3C//DTD SVG 1.1//EN" "http://www.w3.org/Graphics/SVG/1.1/DTD/svg11.dtd">
<svg version="1.1" xmlns="http://www.w3.org/2000/svg" xmlns:xlink="http://www.w3.org/1999/xlink" x="0px" y="0px" width="24px"
	 height="24px" viewBox="0 0 24 24" enable-background="new 0 0 24 24" xml:space="preserve">
<g id="Outline_Icons">
	<g>
		<path d="M21.5,3h-5.266c-1.236,0-2.3,0.923-2.475,2.146L13.066,10H10V4.5C10,4.224,9.776,4,9.5,4H8V0.5C8,0.224,7.776,0,7.5,0H5
			C4.723,0,4.5,0.224,4.5,0.5S4.723,1,5,1h2v3H5.5C5.223,4,5,4.224,5,4.5v5.551c-2.244,0.252-4,2.139-4,4.449v2.882
			C0.385,18.086,0,18.994,0,20c0,2.206,1.794,4,4,4c1.858,0,3.411-1.279,3.858-3h4.954c1.039,1.79,2.973,3,5.188,3
			c3.309,0,6-2.691,6-6V5.5C24,4.121,22.878,3,21.5,3z M6,5h3v5H6V5z M4,23c-1.654,0-3-1.346-3-3s1.346-3,3-3s3,1.346,3,3
			S5.654,23,4,23z M18,23c-2.757,0-5-2.243-5-5s2.243-5,5-5s5,2.243,5,5S20.756,23,18,23z M18,12c-3.309,0-6,2.691-6,6
			c0,0.702,0.127,1.373,0.35,2H8c0-2.206-1.794-4-4-4c-0.732,0-1.409,0.212-2,0.557V14.5C2,12.57,3.57,11,5.5,11h4h4
			c0.249,0,0.46-0.183,0.495-0.43l0.755-5.283C14.854,4.554,15.492,4,16.234,4H21.5C22.327,4,23,4.673,23,5.5v9.19
			C21.924,13.07,20.085,12,18,12z"/>
		<path d="M19,5h-2.583c-0.246,0-0.456,0.18-0.494,0.423l-0.386,2.469c-0.042,0.272,0.144,0.528,0.417,0.571
			c0.026,0.004,0.052,0.006,0.078,0.006c0.242,0,0.455-0.176,0.494-0.423L16.844,6H19c0.276,0,0.5-0.224,0.5-0.5S19.276,5,19,5z"/>
		<path d="M4,18.5c-0.827,0-1.5,0.673-1.5,1.5s0.673,1.5,1.5,1.5s1.5-0.673,1.5-1.5S4.827,18.5,4,18.5z M4,20.5
			c-0.276,0-0.5-0.225-0.5-0.5s0.224-0.5,0.5-0.5s0.5,0.225,0.5,0.5S4.275,20.5,4,20.5z"/>
		<path d="M18,15.5c-1.378,0-2.5,1.121-2.5,2.5s1.122,2.5,2.5,2.5s2.5-1.121,2.5-2.5S19.378,15.5,18,15.5z M18,19.5
			c-0.827,0-1.5-0.673-1.5-1.5s0.673-1.5,1.5-1.5s1.5,0.673,1.5,1.5S18.827,19.5,18,19.5z"/>
	</g>
</g>
<g id="invisible_shape">
	<rect fill="none" width="24" height="24"/>
</g>
</svg>
