<?xml version="1.0" encoding="utf-8"?>
<!-- Generator: Adobe Illustrator 16.0.3, SVG Export Plug-In . SVG Version: 6.00 Build 0)  -->
<!DOCTYPE svg PUBLIC "-//W3C//DTD SVG 1.1//EN" "http://www.w3.org/Graphics/SVG/1.1/DTD/svg11.dtd">
<svg version="1.1" xmlns="http://www.w3.org/2000/svg" xmlns:xlink="http://www.w3.org/1999/xlink" x="0px" y="0px" width="24px"
	 height="24px" viewBox="0 0 24 24" enable-background="new 0 0 24 24" xml:space="preserve">
<g id="Outline_Icons">
	<path d="M21.746,0.064c-0.156-0.088-0.349-0.084-0.504,0.008l-19,11.5C2.091,11.663,2,11.825,2,12s0.091,0.337,0.241,0.428l19,11.5
		C21.321,23.976,21.41,24,21.5,24c0.084,0,0.169-0.021,0.246-0.064C21.903,23.847,22,23.681,22,23.5v-23
		C22,0.319,21.903,0.153,21.746,0.064z M21,22.613L3.466,12L21,1.387V22.613z"/>
</g>
<g id="Layer_2">
	<rect fill="none" width="24" height="24"/>
</g>
</svg>
