<?xml version="1.0" encoding="utf-8"?>
<!-- Generator: Adobe Illustrator 16.0.3, SVG Export Plug-In . SVG Version: 6.00 Build 0)  -->
<!DOCTYPE svg PUBLIC "-//W3C//DTD SVG 1.1//EN" "http://www.w3.org/Graphics/SVG/1.1/DTD/svg11.dtd">
<svg version="1.1" xmlns="http://www.w3.org/2000/svg" xmlns:xlink="http://www.w3.org/1999/xlink" x="0px" y="0px" width="24px"
	 height="24px" viewBox="0 0 24 24" enable-background="new 0 0 24 24" xml:space="preserve">
<g id="Outline_Icons">
	<path d="M21.91,10.303L11.855,0.152c-0.194-0.196-0.51-0.198-0.707-0.004L1.074,10.127c-0.978,0.981-0.934,2.621,0.1,3.657
		c0.995,0.995,2.719,1.037,3.656,0.099L9,9.725v12.271c-0.006,0.481,0.173,0.92,0.517,1.268c0.458,0.464,1.199,0.74,1.983,0.74
		c0.759,0,1.491-0.28,1.959-0.748c0.355-0.356,0.542-0.801,0.541-1.284V9.728l4.152,4.329c0.962,0.961,2.681,0.926,3.682-0.076
		C22.868,12.944,22.901,11.294,21.91,10.303z M21.127,13.273c-0.623,0.623-1.692,0.65-2.26,0.084l-5.006-5.22
		c-0.142-0.148-0.358-0.195-0.547-0.118C13.124,8.096,13,8.279,13,8.483v13.489c0,0.22-0.081,0.408-0.249,0.576
		c-0.573,0.576-1.996,0.546-2.522,0.013c-0.156-0.158-0.231-0.34-0.229-0.56V8.521c0-0.202-0.122-0.385-0.308-0.462
		C9.63,8.033,9.564,8.021,9.5,8.021c-0.13,0-0.257,0.051-0.353,0.146l-5.024,5.01c-0.564,0.564-1.624,0.519-2.241-0.099
		c-0.645-0.646-0.689-1.652-0.102-2.241l9.717-9.625l9.705,9.797C21.805,11.611,21.771,12.628,21.127,13.273z"/>
</g>
<g id="Frames-24px">
	<rect fill="none" width="24" height="24"/>
</g>
</svg>
