<?xml version="1.0" encoding="utf-8"?>
<!-- Generator: Adobe Illustrator 16.0.3, SVG Export Plug-In . SVG Version: 6.00 Build 0)  -->
<!DOCTYPE svg PUBLIC "-//W3C//DTD SVG 1.1//EN" "http://www.w3.org/Graphics/SVG/1.1/DTD/svg11.dtd">
<svg version="1.1" xmlns="http://www.w3.org/2000/svg" xmlns:xlink="http://www.w3.org/1999/xlink" x="0px" y="0px" width="24px"
	 height="24px" viewBox="0 0 24 24" enable-background="new 0 0 24 24" xml:space="preserve">
<g id="Outline_Icons">
	<g>
		<path d="M19.953,8.296C19.871,8.12,19.694,8.008,19.5,8.008h-4c-0.154,0-0.3,0.071-0.395,0.193L12,12.193L8.895,8.201
			C8.8,8.079,8.654,8.008,8.5,8.008h-4c-0.194,0-0.371,0.112-0.453,0.288C3.965,8.472,3.992,8.679,4.116,8.828l7.5,9
			c0.095,0.114,0.236,0.18,0.384,0.18s0.289-0.065,0.384-0.18l7.5-9C20.008,8.679,20.035,8.472,19.953,8.296z M12,16.727
			L5.567,9.008h2.688l3.35,4.307c0.189,0.244,0.6,0.244,0.789,0l3.35-4.307h2.688L12,16.727z"/>
		<path d="M12,0.004c-6.617,0-12,5.383-12,12s5.383,12,12,12s12-5.383,12-12S18.617,0.004,12,0.004z M12,23.004
			c-6.065,0-11-4.935-11-11s4.935-11,11-11s11,4.935,11,11S18.065,23.004,12,23.004z"/>
	</g>
</g>
<g id="Frames-24px">
	<rect fill="none" width="24" height="24"/>
</g>
</svg>
