<?xml version="1.0" encoding="utf-8"?>
<!-- Generator: Adobe Illustrator 16.0.3, SVG Export Plug-In . SVG Version: 6.00 Build 0)  -->
<!DOCTYPE svg PUBLIC "-//W3C//DTD SVG 1.1//EN" "http://www.w3.org/Graphics/SVG/1.1/DTD/svg11.dtd">
<svg version="1.1" xmlns="http://www.w3.org/2000/svg" xmlns:xlink="http://www.w3.org/1999/xlink" x="0px" y="0px" width="24px"
	 height="24px" viewBox="0 0 24 24" enable-background="new 0 0 24 24" xml:space="preserve">
<g id="Outline_Icons">
	<g>
		<path d="M19.813,15.095L12.384,6.18c-0.19-0.229-0.578-0.229-0.769,0l-7.5,9c-0.124,0.149-0.151,0.356-0.068,0.532
			C4.129,15.888,4.306,16,4.5,16h4c0.154,0,0.3-0.071,0.395-0.193L12,11.814l3.105,3.992C15.2,15.929,15.346,16,15.5,16h4
			c0.007-0.001,0.014-0.001,0.02,0c0.276,0,0.5-0.224,0.5-0.5C20.02,15.334,19.938,15.186,19.813,15.095z M15.745,15l-3.35-4.307
			c-0.189-0.244-0.6-0.244-0.789,0L8.255,15H5.567L12,7.281L18.433,15H15.745z"/>
		<path d="M12,0.004c-6.617,0-12,5.383-12,12s5.383,12,12,12s12-5.383,12-12S18.617,0.004,12,0.004z M12,23.004
			c-6.065,0-11-4.935-11-11s4.935-11,11-11s11,4.935,11,11S18.065,23.004,12,23.004z"/>
	</g>
</g>
<g id="Frames-24px">
	<rect fill="none" width="24" height="24"/>
</g>
</svg>
