<?xml version="1.0" encoding="utf-8"?>
<!-- Generator: Adobe Illustrator 16.0.3, SVG Export Plug-In . SVG Version: 6.00 Build 0)  -->
<!DOCTYPE svg PUBLIC "-//W3C//DTD SVG 1.1//EN" "http://www.w3.org/Graphics/SVG/1.1/DTD/svg11.dtd">
<svg version="1.1" xmlns="http://www.w3.org/2000/svg" xmlns:xlink="http://www.w3.org/1999/xlink" x="0px" y="0px" width="24px"
	 height="24px" viewBox="0 0 24 24" enable-background="new 0 0 24 24" xml:space="preserve">
<g id="Outline_Icons">
	<path d="M23.509,9.856c-0.38-0.55-0.928-0.853-1.542-0.853H9.74l4.311-4.151c0.995-0.994,0.961-2.646-0.074-3.682
		c-1.001-1-2.722-1.033-3.68-0.077L0.148,11.145c-0.196,0.194-0.198,0.511-0.003,0.707l9.978,10.079
		c0.457,0.454,1.074,0.705,1.737,0.705c0.708,0,1.407-0.294,1.92-0.806c0.514-0.514,0.808-1.214,0.807-1.923
		c-0.001-0.664-0.253-1.279-0.708-1.733l-4.156-4.16h12.276c0.618,0,1.161-0.302,1.53-0.851C23.833,12.711,24,12.121,24,11.504
		C24,10.908,23.821,10.308,23.509,9.856z M22.698,12.604c-0.183,0.271-0.419,0.409-0.702,0.409H8.516
		c-0.202,0-0.384,0.122-0.462,0.309c-0.077,0.187-0.035,0.401,0.108,0.545l5.009,5.015c0.267,0.266,0.415,0.631,0.415,1.026
		c0,0.445-0.187,0.888-0.513,1.215c-0.618,0.615-1.681,0.66-2.243,0.102l-9.623-9.721l9.795-9.701
		c0.583-0.583,1.645-0.548,2.268,0.075c0.646,0.646,0.679,1.663,0.081,2.261L8.153,9.144C8.006,9.285,7.96,9.502,8.036,9.69
		c0.076,0.189,0.26,0.313,0.464,0.313h13.468c0.637,0,1.032,0.778,1.032,1.5C23,11.919,22.89,12.319,22.698,12.604z"/>
</g>
<g id="Frames-24px">
	<rect fill="none" width="24" height="24"/>
</g>
</svg>
