<?xml version="1.0" encoding="utf-8"?>
<!-- Generator: Adobe Illustrator 16.0.3, SVG Export Plug-In . SVG Version: 6.00 Build 0)  -->
<!DOCTYPE svg PUBLIC "-//W3C//DTD SVG 1.1//EN" "http://www.w3.org/Graphics/SVG/1.1/DTD/svg11.dtd">
<svg version="1.1" xmlns="http://www.w3.org/2000/svg" xmlns:xlink="http://www.w3.org/1999/xlink" x="0px" y="0px" width="24px"
	 height="24px" viewBox="0 0 24 24" enable-background="new 0 0 24 24" xml:space="preserve">
<g id="Outline_Icons">
	<g>
		<path d="M23.5,0.004h-23c-0.276,0-0.5,0.224-0.5,0.5v23c0,0.276,0.224,0.5,0.5,0.5h23c0.276,0,0.5-0.224,0.5-0.5v-23
			C24,0.228,23.776,0.004,23.5,0.004z M23,23.004H1v-22h22V23.004z"/>
		<rect x="18.75" y="18.754" width="1.5" height="1.5"/>
		<rect x="15.75" y="18.754" width="1.5" height="1.5"/>
		<rect x="12.75" y="18.754" width="1.5" height="1.5"/>
		<rect x="9.75" y="18.754" width="1.5" height="1.5"/>
		<rect x="15.75" y="15.754" width="1.5" height="1.5"/>
		<rect x="12.75" y="15.754" width="1.5" height="1.5"/>
		<rect x="9.75" y="15.754" width="1.5" height="1.5"/>
		<rect x="15.75" y="12.754" width="1.5" height="1.5"/>
		<rect x="12.75" y="12.754" width="1.5" height="1.5"/>
		<rect x="9.75" y="12.754" width="1.5" height="1.5"/>
		<rect x="6.75" y="18.754" width="1.5" height="1.5"/>
		<rect x="9.75" y="6.754" width="1.5" height="1.5"/>
		<rect x="6.75" y="6.754" width="1.5" height="1.5"/>
		<rect x="3.75" y="6.754" width="1.5" height="1.5"/>
		<rect x="6.75" y="3.754" width="1.5" height="1.5"/>
		<rect x="15.75" y="9.754" width="1.5" height="1.5"/>
		<rect x="12.75" y="9.754" width="1.5" height="1.5"/>
		<rect x="9.75" y="9.754" width="1.5" height="1.5"/>
		<rect x="6.75" y="9.754" width="1.5" height="1.5"/>
		<rect x="18.75" y="6.754" width="1.5" height="1.5"/>
		<rect x="18.75" y="9.754" width="1.5" height="1.5"/>
		<rect x="18.75" y="12.754" width="1.5" height="1.5"/>
		<rect x="18.75" y="15.754" width="1.5" height="1.5"/>
	</g>
</g>
<g id="Frames-24px">
	<rect fill="none" width="24" height="24"/>
</g>
</svg>
