<?xml version="1.0" encoding="utf-8"?>
<!-- Generator: Adobe Illustrator 16.0.3, SVG Export Plug-In . SVG Version: 6.00 Build 0)  -->
<!DOCTYPE svg PUBLIC "-//W3C//DTD SVG 1.1//EN" "http://www.w3.org/Graphics/SVG/1.1/DTD/svg11.dtd">
<svg version="1.1" xmlns="http://www.w3.org/2000/svg" xmlns:xlink="http://www.w3.org/1999/xlink" x="0px" y="0px" width="24px"
	 height="24px" viewBox="0 0 24 24" enable-background="new 0 0 24 24" xml:space="preserve">
<g id="Outline_Icons">
	<path d="M23.873,11.667l-8.5-9.5C15.278,2.061,15.142,2,15,2H8C7.805,2,7.627,2.113,7.546,2.291S7.493,2.677,7.621,2.825L12.913,9
		H0.5C0.224,9,0,9.224,0,9.5v5C0,14.776,0.224,15,0.5,15h12.413l-5.292,6.175c-0.127,0.148-0.156,0.356-0.075,0.534S7.805,22,8,22h7
		c0.142,0,0.278-0.061,0.373-0.167l8.5-9.5C24.042,12.144,24.042,11.856,23.873,11.667z M14.776,21H9.087l5.292-6.175
		c0.127-0.148,0.156-0.356,0.075-0.534S14.195,14,14,14H1v-4h13c0.195,0,0.373-0.113,0.454-0.291s0.053-0.386-0.075-0.534L9.087,3
		h5.689l8.053,9L14.776,21z"/>
</g>
<g id="Frames-24px">
	<rect fill="none" width="24" height="24"/>
</g>
</svg>
