<?xml version="1.0" encoding="utf-8"?>
<!-- Generator: Adobe Illustrator 16.0.3, SVG Export Plug-In . SVG Version: 6.00 Build 0)  -->
<!DOCTYPE svg PUBLIC "-//W3C//DTD SVG 1.1//EN" "http://www.w3.org/Graphics/SVG/1.1/DTD/svg11.dtd">
<svg version="1.1" xmlns="http://www.w3.org/2000/svg" xmlns:xlink="http://www.w3.org/1999/xlink" x="0px" y="0px" width="24px"
	 height="24px" viewBox="0 0 24 24" enable-background="new 0 0 24 24" xml:space="preserve">
<g id="Outline_Icons">
	<path d="M23.691,1.522c-0.186-0.077-0.402-0.034-0.545,0.108L12.018,12.793L0.856,1.639C0.713,1.496,0.499,1.454,0.312,1.53
		C0.125,1.607,0.003,1.79,0.003,1.992v8.571c0,0.133,0.053,0.261,0.147,0.354L11.666,22.37c0.098,0.097,0.225,0.146,0.353,0.146
		c0.128,0,0.256-0.049,0.353-0.146l11.482-11.46C23.947,10.815,24,10.688,24,10.556V1.984C24,1.782,23.878,1.6,23.691,1.522z
		 M23,10.349L12.018,21.31L1.003,10.355V3.199l10.662,10.654C11.758,13.947,11.886,14,12.018,14h0c0.133,0,0.26-0.053,0.354-0.146
		L23,3.194V10.349z"/>
</g>
<g id="Layer_2">
	<rect fill="none" width="24" height="24"/>
</g>
</svg>
