<?xml version="1.0" encoding="utf-8"?>
<!-- Generator: Adobe Illustrator 16.0.3, SVG Export Plug-In . SVG Version: 6.00 Build 0)  -->
<!DOCTYPE svg PUBLIC "-//W3C//DTD SVG 1.1//EN" "http://www.w3.org/Graphics/SVG/1.1/DTD/svg11.dtd">
<svg version="1.1" xmlns="http://www.w3.org/2000/svg" xmlns:xlink="http://www.w3.org/1999/xlink" x="0px" y="0px" width="24px"
	 height="24px" viewBox="0 0 24 24" enable-background="new 0 0 24 24" xml:space="preserve">
<g id="Outline_Icons_1_">
	<g id="Outline_Icons">
		<path d="M22.854,18.666c-0.722-1.084-2.605-1.8-4.786-2.629c-0.446-0.169-0.898-0.342-1.345-0.52
			c-0.396-0.5-0.89-0.938-1.361-1.166L15,14.149V12.69c0.448-0.372,1.407-1.345,1.52-2.936c0.231-0.194,0.413-0.531,0.519-0.979
			c0.154-0.655,0.116-1.51-0.408-2.023c0.027-0.068,0.059-0.146,0.093-0.23c0.385-0.967,1.104-2.766,0.821-4.176
			c-0.331-1.656-2.667-2.297-4.566-2.342c-1.644-0.038-3.65,0.33-4.265,1.458C8.117,1.528,7.657,1.775,7.343,2.199
			C6.474,3.37,7.105,5.45,7.444,6.568C7.463,6.629,7.48,6.686,7.496,6.734c-0.527,0.5-0.617,1.362-0.446,2.088
			c0.1,0.422,0.271,0.741,0.49,0.93c0.108,1.586,1.029,2.56,1.46,2.933v1.466l-0.338,0.188c-0.485,0.236-0.985,0.677-1.384,1.18
			c-0.447,0.178-0.899,0.351-1.346,0.52c-2.181,0.829-4.064,1.545-4.786,2.629C0.077,20.269,0.003,23.359,0,23.49
			c-0.002,0.134,0.049,0.264,0.143,0.359C0.237,23.946,0.366,24,0.5,24h23c0.134,0,0.263-0.054,0.357-0.15
			c0.094-0.096,0.146-0.226,0.143-0.359C23.997,23.359,23.923,20.269,22.854,18.666z M16.454,17.024l0.613,1.825l-3.728-2.153
			c0.595-0.23,1.179-0.563,1.515-0.899C14.947,15.703,15,15.576,15,15.443V15.29C15.594,15.624,16.243,16.392,16.454,17.024z M13,18
			c0,0.552-0.449,1-1,1s-1-0.448-1-1v-0.346l1-0.577l1,0.577V18z M8.53,9.443c0-0.229-0.155-0.423-0.365-0.481
			c-0.1-0.146-0.244-0.61-0.176-1.055c0.027-0.183,0.101-0.42,0.295-0.517C8.453,7.306,8.56,7.133,8.56,6.943
			c0-0.136-0.041-0.277-0.159-0.665C8.155,5.465,7.577,3.562,8.146,2.795C8.321,2.559,8.62,2.443,9.058,2.443
			c0.229,0,0.429-0.156,0.485-0.379c0.136-0.547,1.483-1.115,3.412-1.062c1.953,0.047,3.438,0.68,3.609,1.538
			c0.224,1.12-0.422,2.739-0.77,3.609c-0.175,0.439-0.248,0.621-0.248,0.793c0,0.189,0.107,0.362,0.276,0.447
			c0.151,0.075,0.245,0.243,0.281,0.499c0.063,0.453-0.096,0.926-0.202,1.07c-0.214,0.057-0.371,0.252-0.371,0.483
			c0,1.69-1.253,2.547-1.304,2.581C14.085,12.117,14,12.274,14,12.443v2v0.774C13.5,15.606,12.521,16,12,16s-1.5-0.394-2-0.782
			v-0.774v-2c0-0.166-0.082-0.32-0.219-0.413C9.769,12.021,8.53,11.159,8.53,9.443z M9,15.291v0.152c0,0.133,0.053,0.26,0.146,0.354
			c0.336,0.336,0.919,0.669,1.515,0.899L6.933,18.85l0.613-1.826C7.754,16.398,8.391,15.642,9,15.291z M1.978,19.221
			c0.544-0.818,2.458-1.545,4.309-2.248c0.084-0.032,0.169-0.066,0.254-0.098l-0.977,2.909c-0.066,0.197-0.003,0.415,0.158,0.546
			c0.091,0.075,0.204,0.113,0.316,0.113c0.086,0,0.172-0.022,0.25-0.067l3.734-2.156c0.062,0.558,0.349,1.044,0.773,1.366
			C9.916,20.479,9.355,22.16,9.117,23h-8.09C1.091,22.101,1.303,20.233,1.978,19.221z M10.161,23c0.441-1.412,1.212-3,1.839-3
			s1.398,1.588,1.839,3H10.161z M14.883,23c-0.238-0.84-0.799-2.521-1.679-3.414c0.425-0.322,0.712-0.809,0.773-1.366l3.734,2.156
			c0.078,0.045,0.164,0.067,0.25,0.067c0.113,0,0.225-0.038,0.316-0.113c0.161-0.131,0.224-0.349,0.158-0.546l-0.977-2.91
			c0.084,0.032,0.17,0.066,0.254,0.099c1.851,0.703,3.765,1.43,4.309,2.248c0.675,1.013,0.887,2.88,0.951,3.779H14.883z"/>
	</g>
	<g id="New_icons_1_">
	</g>
</g>
<g id="Invisible_Shape">
	<rect fill="none" width="24" height="24"/>
</g>
</svg>
