<?xml version="1.0" encoding="utf-8"?>
<!-- Generator: Adobe Illustrator 16.0.3, SVG Export Plug-In . SVG Version: 6.00 Build 0)  -->
<!DOCTYPE svg PUBLIC "-//W3C//DTD SVG 1.1//EN" "http://www.w3.org/Graphics/SVG/1.1/DTD/svg11.dtd">
<svg version="1.1" xmlns="http://www.w3.org/2000/svg" xmlns:xlink="http://www.w3.org/1999/xlink" x="0px" y="0px" width="24px"
	 height="24px" viewBox="0 0 24 24" enable-background="new 0 0 24 24" xml:space="preserve">
<g id="Outline_Icons">
	<g>
		<path d="M19,7h-2.987l-2.039-1.869C13.881,5.047,13.761,5,13.636,5h-3.271c-0.125,0-0.246,0.047-0.338,0.131L7.987,7H5
			C3.821,7,3,8.15,3,9.182V16c0,1.103,0.897,2,2,2h14c1.103,0,2-0.897,2-2V9.182C21,8.15,20.179,7,19,7z M20,16c0,0.551-0.449,1-1,1
			H5c-0.551,0-1-0.449-1-1V9.182C4,8.586,4.495,8,5,8h3.182C8.307,8,8.427,7.953,8.52,7.869L10.559,6h2.883l2.039,1.869
			C15.573,7.953,15.693,8,15.818,8H19c0.505,0,1,0.586,1,1.182V16z"/>
		<path d="M19.5,0h-15C2.019,0,0,2.019,0,4.5v15C0,21.982,2.019,24,4.5,24h15c2.481,0,4.5-2.018,4.5-4.5v-15
			C24,2.019,21.981,0,19.5,0z M23,19.5c0,1.93-1.57,3.5-3.5,3.5h-15C2.57,23,1,21.43,1,19.5v-15C1,2.57,2.57,1,4.5,1h15
			C21.43,1,23,2.57,23,4.5V19.5z"/>
		<circle cx="17.5" cy="10.5" r="0.5"/>
		<path d="M12,8.5c-1.792,0-3.25,1.458-3.25,3.25S10.208,15,12,15s3.25-1.458,3.25-3.25S13.792,8.5,12,8.5z M12,14
			c-1.241,0-2.25-1.009-2.25-2.25S10.759,9.5,12,9.5s2.25,1.009,2.25,2.25S13.241,14,12,14z"/>
	</g>
</g>
<g id="Invisible_Shape">
	<rect fill="none" width="24" height="24"/>
</g>
</svg>
