<?xml version="1.0" encoding="utf-8"?>
<!-- Generator: Adobe Illustrator 16.0.3, SVG Export Plug-In . SVG Version: 6.00 Build 0)  -->
<!DOCTYPE svg PUBLIC "-//W3C//DTD SVG 1.1//EN" "http://www.w3.org/Graphics/SVG/1.1/DTD/svg11.dtd">
<svg version="1.1" xmlns="http://www.w3.org/2000/svg" xmlns:xlink="http://www.w3.org/1999/xlink" x="0px" y="0px" width="24px"
	 height="24px" viewBox="0 0 24 24" enable-background="new 0 0 24 24" xml:space="preserve">
<g id="Outline_Icons">
	<g>
		<path d="M16,15.293V13h0.746l2.371,2.822C19.216,15.94,19.358,16,19.5,16c0.113,0,0.228-0.038,0.321-0.117
			c0.211-0.178,0.239-0.493,0.061-0.704l-1.834-2.184C19.129,12.969,20,12.086,20,11c0-1.103-0.897-2-2-2h-2.5
			C15.224,9,15,9.224,15,9.5v3v1.793l-1.075-1.075C13.973,12.986,14,12.746,14,12.5c0-1.93-1.57-3.5-3.5-3.5H9.707L1.354,0.646
			c-0.195-0.195-0.512-0.195-0.707,0s-0.195,0.512,0,0.707L9,9.707V15.5C9,15.776,9.224,16,9.5,16h1c1.297,0,2.419-0.717,3.023-1.77
			l1.623,1.623c0,0,0,0,0,0l6.5,6.5C21.744,22.451,21.872,22.5,22,22.5s0.256-0.049,0.354-0.146c0.195-0.195,0.195-0.512,0-0.707
			L16,15.293z M19,11c0,0.551-0.449,1-1,1h-2v-2h2C18.551,10,19,10.449,19,11z M12.977,12.27l-2.246-2.246
			C11.922,10.134,12.866,11.078,12.977,12.27z M10.5,15H10v-4.293l2.79,2.79C12.404,14.38,11.524,15,10.5,15z"/>
		<path d="M17,19H4.5C2.57,19,1,17.43,1,15.5v-6c0-1.236,0.662-2.394,1.728-3.02c0.238-0.14,0.317-0.446,0.178-0.685
			C2.766,5.558,2.46,5.478,2.221,5.619C0.851,6.423,0,7.911,0,9.5v6C0,17.982,2.019,20,4.5,20H17c0.276,0,0.5-0.224,0.5-0.5
			S17.276,19,17,19z"/>
		<path d="M18.5,5H8C7.724,5,7.5,5.224,7.5,5.5S7.724,6,8,6h10.5C20.43,6,22,7.57,22,9.5v6c0,0.925-0.357,1.798-1.006,2.456
			c-0.194,0.197-0.192,0.513,0.005,0.707c0.098,0.096,0.224,0.144,0.351,0.144c0.129,0,0.258-0.05,0.356-0.148
			C22.541,17.812,23,16.69,23,15.5v-6C23,7.019,20.981,5,18.5,5z"/>
		<path d="M3.5,9C3.224,9,3,9.224,3,9.5v6C3,15.776,3.224,16,3.5,16S4,15.776,4,15.5V13h3v2.5C7,15.776,7.224,16,7.5,16
			S8,15.776,8,15.5v-6C8,9.224,7.776,9,7.5,9S7,9.224,7,9.5V12H4V9.5C4,9.224,3.776,9,3.5,9z"/>
	</g>
</g>
<g id="Invisible_Shape">
	<rect fill="none" width="24" height="24"/>
</g>
</svg>
