<?xml version="1.0" encoding="utf-8"?>
<!-- Generator: Adobe Illustrator 16.0.3, SVG Export Plug-In . SVG Version: 6.00 Build 0)  -->
<!DOCTYPE svg PUBLIC "-//W3C//DTD SVG 1.1//EN" "http://www.w3.org/Graphics/SVG/1.1/DTD/svg11.dtd">
<svg version="1.1" xmlns="http://www.w3.org/2000/svg" xmlns:xlink="http://www.w3.org/1999/xlink" x="0px" y="0px" width="24px"
	 height="24px" viewBox="0 0 24 24" enable-background="new 0 0 24 24" xml:space="preserve">
<g id="Outline_Icons">
	<g>
		<path d="M19.5,3h-15C2.019,3,0,5.019,0,7.5v7C0,16.982,2.019,19,4.5,19h15c2.481,0,4.5-2.018,4.5-4.5v-7C24,5.019,21.981,3,19.5,3
			z M23,14.5c0,1.93-1.57,3.5-3.5,3.5h-15C2.57,18,1,16.43,1,14.5v-7C1,5.57,2.57,4,4.5,4h15C21.43,4,23,5.57,23,7.5V14.5z"/>
		<path d="M13.8,11.385C14.524,10.836,15,9.976,15,9c0-1.654-1.346-3-3-3S9,7.346,9,9c0,0.975,0.475,1.834,1.197,2.383
			C8.612,12.08,7.5,13.66,7.5,15.5C7.5,15.776,7.724,16,8,16h8c0.006,0,0.013,0,0.02,0c0.276,0,0.5-0.224,0.5-0.5
			c0-0.052-0.008-0.102-0.022-0.148C16.439,13.575,15.343,12.062,13.8,11.385z M10,9c0-1.103,0.897-2,2-2s2,0.897,2,2s-0.897,2-2,2
			S10,10.103,10,9z M8.536,15c0.243-1.693,1.704-3,3.464-3s3.221,1.307,3.464,3H8.536z"/>
	</g>
</g>
<g id="Invisible_Shape">
	<rect fill="none" width="24" height="24"/>
</g>
</svg>
