<?xml version="1.0" encoding="utf-8"?>
<!-- Generator: Adobe Illustrator 16.0.3, SVG Export Plug-In . SVG Version: 6.00 Build 0)  -->
<!DOCTYPE svg PUBLIC "-//W3C//DTD SVG 1.1//EN" "http://www.w3.org/Graphics/SVG/1.1/DTD/svg11.dtd">
<svg version="1.1" xmlns="http://www.w3.org/2000/svg" xmlns:xlink="http://www.w3.org/1999/xlink" x="0px" y="0px" width="24px"
	 height="24px" viewBox="0 0 24 24" enable-background="new 0 0 24 24" xml:space="preserve">
<g id="Outline_Icons">
	<g>
		<path d="M3.5,15H2c-0.542,0-1-0.687-1-1.5v-9C1,3.673,1.673,3,2.5,3h14C17.313,3,18,3.458,18,4v1.5C18,5.776,18.224,6,18.5,6
			S19,5.776,19,5.5V4c0-1.103-1.122-2-2.5-2h-14C1.122,2,0,3.122,0,4.5v9C0,14.878,0.897,16,2,16h1.5C3.776,16,4,15.776,4,15.5
			S3.776,15,3.5,15z"/>
		<path d="M3.5,13H3V5h13v0.5C16,5.776,16.224,6,16.5,6S17,5.776,17,5.5v-1C17,4.224,16.776,4,16.5,4h-14C2.224,4,2,4.224,2,4.5v9
			C2,13.776,2.224,14,2.5,14h1C3.776,14,4,13.776,4,13.5S3.776,13,3.5,13z"/>
		<path d="M21.5,7h-14C6.122,7,5,8.122,5,9.5v9C5,19.878,6.122,21,7.5,21h14c1.378,0,2.5-1.122,2.5-2.5v-9C24,8.122,22.878,7,21.5,7
			z M23,18.5c0,0.827-0.673,1.5-1.5,1.5h-14C6.673,20,6,19.327,6,18.5v-9C6,8.673,6.673,8,7.5,8h14C22.327,8,23,8.673,23,9.5V18.5z"
			/>
		<path d="M21.5,9h-14C7.224,9,7,9.224,7,9.5v9C7,18.776,7.224,19,7.5,19h14c0.276,0,0.5-0.224,0.5-0.5v-9C22,9.224,21.776,9,21.5,9
			z M21,18H8v-8h13V18z"/>
	</g>
</g>
<g id="Invisible_Shape">
	<rect fill="none" width="24" height="24"/>
</g>
</svg>
