<?xml version="1.0" encoding="utf-8"?>
<!-- Generator: Adobe Illustrator 16.0.3, SVG Export Plug-In . SVG Version: 6.00 Build 0)  -->
<!DOCTYPE svg PUBLIC "-//W3C//DTD SVG 1.1//EN" "http://www.w3.org/Graphics/SVG/1.1/DTD/svg11.dtd">
<svg version="1.1" xmlns="http://www.w3.org/2000/svg" xmlns:xlink="http://www.w3.org/1999/xlink" x="0px" y="0px" width="24px"
	 height="24px" viewBox="0 0 24 24" enable-background="new 0 0 24 24" xml:space="preserve">
<g id="Outline_Icons">
	<path d="M19.5,17.5c-0.276,0-0.5,0.224-0.5,0.5c0,2.757-2.243,5-5,5s-5-2.243-5-5v-4h6.5c0.276,0,0.5-0.224,0.5-0.5
		S15.776,13,15.5,13H9v-2h8.5c0.276,0,0.5-0.224,0.5-0.5S17.776,10,17.5,10H9V6c0-2.757,2.243-5,5-5s5,2.243,5,5
		c0,0.276,0.224,0.5,0.5,0.5S20,6.276,20,6c0-3.309-2.691-6-6-6S8,2.691,8,6v4H2.5C2.224,10,2,10.224,2,10.5S2.224,11,2.5,11H8v2
		H2.5C2.224,13,2,13.224,2,13.5S2.224,14,2.5,14H8v4c0,3.309,2.691,6,6,6s6-2.691,6-6C20,17.724,19.776,17.5,19.5,17.5z"/>
</g>
<g id="Invisible_Shape">
	<rect fill="none" width="24" height="24"/>
</g>
</svg>
