<?xml version="1.0" encoding="utf-8"?>
<!-- Generator: Adobe Illustrator 16.0.3, SVG Export Plug-In . SVG Version: 6.00 Build 0)  -->
<!DOCTYPE svg PUBLIC "-//W3C//DTD SVG 1.1//EN" "http://www.w3.org/Graphics/SVG/1.1/DTD/svg11.dtd">
<svg version="1.1" xmlns="http://www.w3.org/2000/svg" xmlns:xlink="http://www.w3.org/1999/xlink" x="0px" y="0px" width="24px"
	 height="24px" viewBox="0 0 24 24" enable-background="new 0 0 24 24" xml:space="preserve">
<g id="Outline_Icons_1_">
	<g id="Outline_Icons">
		<g>
			<path d="M7.5,6C6.122,6,5,7.122,5,8.5v8C5,17.878,6.122,19,7.5,19s2.5-1.122,2.5-2.5v-8C10,7.122,8.878,6,7.5,6z M9,16.5
				C9,17.327,8.327,18,7.5,18S6,17.327,6,16.5v-8C6,7.673,6.673,7,7.5,7S9,7.673,9,8.5V16.5z"/>
			<path d="M23.5,12h-12c-0.276,0-0.5,0.224-0.5,0.5s0.224,0.5,0.5,0.5h12c0.276,0,0.5-0.224,0.5-0.5S23.776,12,23.5,12z"/>
			<path d="M3.5,12h-3C0.224,12,0,12.224,0,12.5S0.224,13,0.5,13h3C3.776,13,4,12.776,4,12.5S3.776,12,3.5,12z"/>
		</g>
	</g>
	<g id="New_icons_1_">
	</g>
</g>
<g id="Invisible_Shape">
	<rect fill="none" width="24" height="24"/>
</g>
</svg>
