<?xml version="1.0" encoding="utf-8"?>
<!-- Generator: Adobe Illustrator 16.0.3, SVG Export Plug-In . SVG Version: 6.00 Build 0)  -->
<!DOCTYPE svg PUBLIC "-//W3C//DTD SVG 1.1//EN" "http://www.w3.org/Graphics/SVG/1.1/DTD/svg11.dtd">
<svg version="1.1" xmlns="http://www.w3.org/2000/svg" xmlns:xlink="http://www.w3.org/1999/xlink" x="0px" y="0px" width="24px"
	 height="24px" viewBox="0 0 24 24" enable-background="new 0 0 24 24" xml:space="preserve">
<g id="Outline_Icons_1_">
	<g id="Outline_Icons">
		<g>
			<path d="M23.5,0h-23C0.224,0,0,0.224,0,0.5v23C0,23.776,0.224,24,0.5,24h23c0.276,0,0.5-0.224,0.5-0.5v-23
				C24,0.224,23.776,0,23.5,0z M23,23H1V1h22V23z"/>
			<path d="M8.5,18h7c0.276,0,0.5-0.224,0.5-0.5v-11C16,6.224,15.776,6,15.5,6h-7C8.224,6,8,6.224,8,6.5v11
				C8,17.776,8.224,18,8.5,18z M9,17V9h6v8H9z M15,7v1H9V7H15z"/>
			<path d="M3.5,5C4.327,5,5,4.327,5,3.5S4.327,2,3.5,2S2,2.673,2,3.5S2.673,5,3.5,5z M3.5,3C3.776,3,4,3.224,4,3.5S3.776,4,3.5,4
				S3,3.776,3,3.5S3.224,3,3.5,3z"/>
			<path d="M20.5,5C21.327,5,22,4.327,22,3.5S21.327,2,20.5,2S19,2.673,19,3.5S19.673,5,20.5,5z M20.5,3C20.776,3,21,3.224,21,3.5
				S20.776,4,20.5,4S20,3.776,20,3.5S20.224,3,20.5,3z"/>
			<path d="M3.5,22C4.327,22,5,21.327,5,20.5S4.327,19,3.5,19S2,19.673,2,20.5S2.673,22,3.5,22z M3.5,20C3.776,20,4,20.224,4,20.5
				S3.776,21,3.5,21S3,20.776,3,20.5S3.224,20,3.5,20z"/>
			<path d="M20.5,22c0.827,0,1.5-0.673,1.5-1.5S21.327,19,20.5,19S19,19.673,19,20.5S19.673,22,20.5,22z M20.5,20
				c0.276,0,0.5,0.224,0.5,0.5S20.776,21,20.5,21S20,20.776,20,20.5S20.224,20,20.5,20z"/>
		</g>
	</g>
	<g id="New_icons_1_">
	</g>
</g>
<g id="Invisible_Shape">
	<rect fill="none" width="24" height="24"/>
</g>
</svg>
