<?xml version="1.0" encoding="utf-8"?>
<!-- Generator: Adobe Illustrator 16.0.3, SVG Export Plug-In . SVG Version: 6.00 Build 0)  -->
<!DOCTYPE svg PUBLIC "-//W3C//DTD SVG 1.1//EN" "http://www.w3.org/Graphics/SVG/1.1/DTD/svg11.dtd">
<svg version="1.1" xmlns="http://www.w3.org/2000/svg" xmlns:xlink="http://www.w3.org/1999/xlink" x="0px" y="0px" width="24px"
	 height="24px" viewBox="0 0 24 24" enable-background="new 0 0 24 24" xml:space="preserve">
<g id="Outline_Icons_1_">
	<g id="Outline_Icons">
		<path d="M18.066,15.219l-3.228-3.221l3.229-3.236c1.618,0.547,3.397,0.139,4.616-1.081c1.309-1.309,1.677-3.172,0.961-4.864
			c-0.065-0.155-0.204-0.266-0.37-0.297c-0.166-0.029-0.335,0.024-0.451,0.145L21.057,4.5H19.5V2.943l1.835-1.767
			c0.121-0.117,0.176-0.286,0.145-0.451c-0.031-0.166-0.142-0.304-0.297-0.37c-1.682-0.711-3.605-0.335-4.9,0.96
			c-1.214,1.213-1.615,2.993-1.065,4.618l-3.221,3.228L8.762,5.933C9.308,4.316,8.9,2.537,7.68,1.318
			C6.372,0.009,4.509-0.36,2.817,0.356C2.662,0.422,2.551,0.56,2.52,0.726C2.489,0.891,2.544,1.06,2.665,1.177L4.5,2.943V4.5H2.943
			L1.177,2.665C1.06,2.544,0.889,2.49,0.726,2.52C0.56,2.551,0.421,2.662,0.356,2.817c-0.711,1.682-0.334,3.605,0.96,4.9
			c1.213,1.214,2.995,1.615,4.618,1.065l3.228,3.221l-3.229,3.235c-1.616-0.546-3.396-0.139-4.616,1.082
			c-1.309,1.308-1.677,3.171-0.961,4.863c0.065,0.155,0.204,0.266,0.37,0.297c0.164,0.03,0.334-0.023,0.451-0.145L2.943,19.5H4.5
			v1.557l-1.835,1.766C2.544,22.94,2.49,23.11,2.52,23.274c0.031,0.166,0.142,0.304,0.297,0.369C3.381,23.883,3.973,24,4.56,24
			c1.16,0,2.297-0.455,3.157-1.316c1.214-1.213,1.615-2.993,1.065-4.617l3.222-3.229l3.235,3.229
			c-0.546,1.618-0.139,3.397,1.082,4.615c0.866,0.867,1.976,1.321,3.119,1.321c0.583,0,1.173-0.118,1.745-0.36
			c0.155-0.065,0.266-0.204,0.297-0.369c0.031-0.165-0.024-0.334-0.145-0.451L19.5,21.057V19.5h1.557l1.767,1.835
			c0.116,0.121,0.285,0.174,0.451,0.145c0.166-0.031,0.304-0.142,0.37-0.297c0.711-1.681,0.334-3.605-0.96-4.9
			C21.471,15.069,19.688,14.668,18.066,15.219z M6.412,7.846C6.268,7.703,6.051,7.659,5.864,7.739
			C4.536,8.301,3.027,8.015,2.023,7.01C1.211,6.198,0.864,5.068,1.051,3.977l1.319,1.37C2.464,5.445,2.595,5.5,2.73,5.5H5
			c0.276,0,0.5-0.224,0.5-0.5V2.73c0-0.136-0.055-0.266-0.153-0.36L3.975,1.049c1.084-0.189,2.18,0.156,2.998,0.976
			c1.013,1.011,1.306,2.518,0.747,3.839C7.64,6.051,7.682,6.269,7.827,6.413l3.464,3.457l-1.422,1.425L6.412,7.846z M7.739,18.137
			c0.562,1.329,0.275,2.836-0.729,3.84c-0.812,0.812-1.941,1.162-3.034,0.972l1.371-1.319C5.445,21.536,5.5,21.405,5.5,21.27V19
			c0-0.276-0.224-0.5-0.5-0.5H2.73c-0.136,0-0.266,0.055-0.36,0.153l-1.321,1.373c-0.188-1.082,0.156-2.18,0.976-2.999
			c1.011-1.013,2.519-1.306,3.839-0.747c0.188,0.08,0.405,0.038,0.549-0.107l9.742-9.762c0.144-0.144,0.186-0.36,0.106-0.547
			c-0.562-1.329-0.275-2.837,0.729-3.841c0.812-0.812,1.943-1.158,3.033-0.973l-1.37,1.319C18.555,2.464,18.5,2.595,18.5,2.73V5
			c0,0.276,0.224,0.5,0.5,0.5h2.27c0.136,0,0.266-0.055,0.36-0.153l1.321-1.372c0.188,1.082-0.156,2.18-0.975,2.999
			c-1.011,1.012-2.516,1.307-3.839,0.746c-0.187-0.079-0.405-0.037-0.549,0.108l-9.742,9.762C7.702,17.732,7.66,17.949,7.739,18.137
			z M22.949,20.023l-1.319-1.371c-0.094-0.098-0.225-0.153-0.36-0.153H19c-0.276,0-0.5,0.224-0.5,0.5v2.27
			c0,0.136,0.055,0.266,0.153,0.36l1.372,1.321c-1.082,0.189-2.18-0.156-2.999-0.976c-1.012-1.011-1.305-2.517-0.746-3.838
			c0.08-0.188,0.037-0.405-0.107-0.549l-3.464-3.458l1.422-1.425l3.457,3.449c0.144,0.144,0.36,0.187,0.547,0.106
			c1.33-0.56,2.836-0.275,3.841,0.73C22.789,17.803,23.136,18.932,22.949,20.023z"/>
	</g>
	<g id="New_icons_1_">
	</g>
</g>
<g id="Invisible_Shape">
	<rect fill="none" width="24" height="24"/>
</g>
</svg>
