<?xml version="1.0" encoding="utf-8"?>
<!-- Generator: Adobe Illustrator 16.0.3, SVG Export Plug-In . SVG Version: 6.00 Build 0)  -->
<!DOCTYPE svg PUBLIC "-//W3C//DTD SVG 1.1//EN" "http://www.w3.org/Graphics/SVG/1.1/DTD/svg11.dtd">
<svg version="1.1" xmlns="http://www.w3.org/2000/svg" xmlns:xlink="http://www.w3.org/1999/xlink" x="0px" y="0px" width="24px"
	 height="24px" viewBox="0 0 24 24" enable-background="new 0 0 24 24" xml:space="preserve">
<g id="Outline_Icons">
	<g>
		<path d="M7.336,15.042c-0.014,0-0.097,0.003-0.111,0.004c-0.874,0.073-1.618,0.698-1.768,1.472
			c-0.103,0.455-0.006,0.898,0.272,1.246c0.295,0.369,0.753,0.581,1.255,0.581c0.009,0,0.118-0.004,0.127-0.005
			c0.882-0.048,1.633-0.676,1.785-1.483c0.093-0.452-0.01-0.891-0.291-1.234C8.306,15.254,7.843,15.042,7.336,15.042z M7.916,16.664
			c-0.069,0.369-0.43,0.654-0.931,0.681c-0.194,0-0.372-0.077-0.475-0.205c-0.087-0.108-0.113-0.244-0.074-0.417
			c0.068-0.352,0.444-0.645,0.858-0.68l0.042-0.501v0.5c0.202,0,0.386,0.079,0.495,0.212C7.92,16.363,7.95,16.498,7.916,16.664z"/>
		<path d="M9.669,13.824c-0.483,0-0.926,0.35-1.001,0.77c-0.069,0.283-0.017,0.555,0.147,0.762c0.168,0.214,0.436,0.336,0.734,0.336
			h0c0.488,0,0.904-0.318,1.015-0.793c0.053-0.27-0.014-0.542-0.182-0.745C10.21,13.944,9.95,13.824,9.669,13.824z"/>
		<path d="M19.288,11.987c-0.422-0.283-0.832-0.444-1.35-0.609c-0.015-0.005-0.028-0.01-0.041-0.013
			c0.001-0.005,0.002-0.008,0.004-0.011c0.104-0.297,0.221-0.633,0.262-1.062c0.09-0.732-0.069-1.335-0.472-1.79
			c-0.544-0.615-1.561-0.89-2.727-0.788c-0.759,0.058-1.383,0.243-2.062,0.461C12.79,8.212,12.65,8.27,12.502,8.33
			c-0.05,0.021-0.112,0.047-0.179,0.073c0.32-1.41,0.025-2.512-0.821-3.038c-0.669-0.424-1.935-0.438-2.871-0.107
			C5.005,6.49-1.113,11.871,0.169,16.61c0.237,0.885,0.72,1.695,1.434,2.411c1.42,1.42,3.74,2.45,6.368,2.825
			C8.71,21.948,9.459,22,10.198,22c0.946,0,1.883-0.084,2.783-0.25c2.122-0.388,5.063-1.385,7.031-3.932
			c1.168-1.508,1.647-3.818-0.059-5.327C19.73,12.289,19.529,12.146,19.288,11.987z M11.474,20.732
			c-0.659,0.051-1.284,0.075-1.858,0.075c0,0,0,0,0,0c-3.022,0-4.935-0.662-5.845-2.021c-0.957-1.443-0.218-2.772,0.307-3.437
			c0.645-0.814,1.821-1.575,3.07-1.986c1.022-0.335,2.127-0.513,3.196-0.513c1.582,0,3.025,0.382,4.171,1.103
			c1.198,0.764,2.083,2.209,1.36,3.721C14.905,19.735,12.422,20.508,11.474,20.732z M19.22,17.205
			c-1.143,1.48-2.667,2.379-4.129,2.929c0.671-0.517,1.284-1.174,1.688-2.031c0.839-1.756,0.129-3.81-1.729-4.994
			c-1.308-0.823-2.936-1.258-4.706-1.258c-1.174,0-2.387,0.195-3.508,0.563c-1.447,0.475-2.771,1.341-3.542,2.314
			c-0.959,1.213-1.211,2.549-0.764,3.78c-0.072-0.064-0.151-0.127-0.218-0.194c-0.589-0.59-0.984-1.25-1.176-1.965
			C0.062,12.389,5.642,7.33,8.959,6.203C9.29,6.087,9.71,6.018,10.084,6.018c0.374,0,0.688,0.068,0.887,0.193
			c0.699,0.438,0.466,1.647,0.316,2.195c-0.061,0.167-0.188,0.516,0.024,0.812c0.074,0.116,0.253,0.311,0.611,0.311
			c0.298,0,0.635-0.14,0.961-0.274c0.119-0.049,0.231-0.096,0.324-0.126c0.619-0.198,1.184-0.367,1.837-0.418
			c0.851-0.072,1.575,0.092,1.897,0.456c0.208,0.234,0.282,0.563,0.227,1.018c-0.029,0.3-0.1,0.518-0.208,0.829
			c-0.067,0.178-0.191,0.508-0.044,0.819c0.146,0.307,0.468,0.416,0.709,0.496c0.453,0.145,0.779,0.271,1.106,0.491
			c0.199,0.132,0.365,0.247,0.551,0.416C20.52,14.328,20.143,16.018,19.22,17.205z"/>
		<path d="M17,2.191c-0.739,0-1.471,0.116-2.173,0.345c-0.263,0.086-0.406,0.368-0.321,0.631s0.367,0.403,0.63,0.32
			C15.739,3.291,16.366,3.191,17,3.191c3.309,0,6,2.691,6,6c0,0.323-0.026,0.648-0.077,0.966c-0.044,0.272,0.142,0.529,0.415,0.573
			c0.027,0.004,0.053,0.006,0.08,0.006c0.241,0,0.454-0.175,0.493-0.421C23.97,9.946,24,9.568,24,9.191
			C24,5.332,20.86,2.191,17,2.191z"/>
		<path d="M20.115,10.189c0.053,0.018,0.106,0.025,0.158,0.025c0.209,0,0.404-0.133,0.474-0.342
			c0.119-0.355,0.179-0.729,0.179-1.107c0-1.93-1.57-3.5-3.5-3.5c-0.408,0-0.807,0.069-1.185,0.205
			c-0.26,0.094-0.394,0.381-0.3,0.641c0.093,0.259,0.38,0.393,0.64,0.301c0.268-0.098,0.553-0.146,0.845-0.146
			c1.378,0,2.5,1.121,2.5,2.5c0,0.271-0.043,0.537-0.127,0.791C19.712,9.818,19.854,10.102,20.115,10.189z"/>
	</g>
</g>
<g id="Frames-24px">
	<rect fill="none" width="24" height="24"/>
</g>
</svg>
