<?xml version="1.0" encoding="utf-8"?>
<!-- Generator: Adobe Illustrator 16.0.3, SVG Export Plug-In . SVG Version: 6.00 Build 0)  -->
<!DOCTYPE svg PUBLIC "-//W3C//DTD SVG 1.1//EN" "http://www.w3.org/Graphics/SVG/1.1/DTD/svg11.dtd">
<svg version="1.1" xmlns="http://www.w3.org/2000/svg" xmlns:xlink="http://www.w3.org/1999/xlink" x="0px" y="0px" width="24px"
	 height="24px" viewBox="0 0 24 24" enable-background="new 0 0 24 24" xml:space="preserve">
<g id="Outline_Icons">
	<g>
		<path d="M12,0C5.383,0,0,5.383,0,12s5.383,12,12,12s12-5.383,12-12S18.617,0,12,0z M12,23C5.935,23,1,18.066,1,12
			C1,5.935,5.935,1,12,1s11,4.935,11,11C23,18.066,18.065,23,12,23z"/>
		<path d="M18.681,5.034c-0.191-0.075-0.411-0.023-0.551,0.13l-5.474,6.02l-2.042-1.987c-0.194-0.19-0.508-0.189-0.702,0.005
			L9.11,10.004C8.518,9.367,7.679,8.963,6.742,8.963c-1.789,0-3.244,1.456-3.244,3.246c0,1.119,0.567,2.105,1.43,2.689L4.926,14.9
			l4.986,4.991c0.094,0.094,0.221,0.146,0.354,0.146s0.26-0.053,0.354-0.146l4.986-4.991c0.195-0.195,0.195-0.512,0-0.707
			l-0.646-0.646l3.866-3.327C18.937,10.125,19,9.986,19,9.84V5.5C19,5.294,18.873,5.108,18.681,5.034z M10.271,10.257l1.713,1.667
			l-1.669,1.835l-0.469-0.593c0.094-0.305,0.142-0.627,0.142-0.961c0-0.486-0.115-0.943-0.308-1.357L10.271,10.257z M14.545,14.546
			l-4.279,4.284l-3.384-3.387c0.244-0.011,0.489-0.045,0.731-0.114l2.333,1.975c0.094,0.079,0.208,0.119,0.323,0.119
			c0.116,0,0.232-0.041,0.326-0.121l3.604-3.102L14.545,14.546z M18,9.611l-7.733,6.655l-2.222-1.881
			c-0.092-0.079-0.207-0.119-0.323-0.119c-0.061,0-0.121,0.011-0.18,0.033c-1.518,0.583-3.044-0.587-3.044-2.09
			c0-1.238,1.007-2.246,2.244-2.246c1.238,0,2.245,1.006,2.245,2.243c0,0.307-0.057,0.596-0.167,0.859
			c-0.07,0.168-0.044,0.362,0.068,0.504l1.007,1.273c0.092,0.115,0.229,0.185,0.375,0.189c0.146,0.016,0.289-0.054,0.388-0.163
			L18,6.793V9.611z"/>
	</g>
</g>
<g id="Frames-24px">
	<rect fill="none" width="24" height="24"/>
</g>
</svg>
