<?xml version="1.0" encoding="utf-8"?>
<!-- Generator: Adobe Illustrator 16.0.3, SVG Export Plug-In . SVG Version: 6.00 Build 0)  -->
<!DOCTYPE svg PUBLIC "-//W3C//DTD SVG 1.1//EN" "http://www.w3.org/Graphics/SVG/1.1/DTD/svg11.dtd">
<svg version="1.1" xmlns="http://www.w3.org/2000/svg" xmlns:xlink="http://www.w3.org/1999/xlink" x="0px" y="0px" width="24px"
	 height="24px" viewBox="0 0 24 24" enable-background="new 0 0 24 24" xml:space="preserve">
<g id="Outline_Icons">
	<g>
		<path d="M15.288,17.448c-1.83,1.054-4.761,1.051-6.59-0.008c-0.241-0.14-0.544-0.057-0.683,0.182
			c-0.139,0.239-0.057,0.545,0.182,0.683c1.066,0.618,2.417,0.958,3.803,0.958c1.379,0,2.724-0.336,3.787-0.949
			c0.239-0.138,0.322-0.443,0.184-0.682C15.833,17.393,15.527,17.311,15.288,17.448z"/>
		<path d="M16,11.5c-1.103,0-2,0.897-2,2c0,1.103,0.897,2,2,2s2-0.897,2-2C18,12.397,17.103,11.5,16,11.5z M16,14.5
			c-0.551,0-1-0.449-1-1s0.449-1,1-1s1,0.449,1,1S16.551,14.5,16,14.5z"/>
		<path d="M10,13.5c0-1.103-0.897-2-2-2s-2,0.897-2,2c0,1.103,0.897,2,2,2S10,14.603,10,13.5z M7,13.5c0-0.551,0.449-1,1-1
			s1,0.449,1,1s-0.449,1-1,1S7,14.051,7,13.5z"/>
		<path d="M24,11.5c0-1.654-1.346-3-3-3c-0.964,0-1.863,0.476-2.422,1.241c-1.639-1.006-3.747-1.64-6.064-1.723
			c0.064-1.11,0.4-3.049,1.508-3.686c0.72-0.415,1.733-0.249,3.01,0.478C17.189,6.318,18.452,7.5,20,7.5c1.654,0,3-1.346,3-3
			s-1.346-3-3-3c-1.382,0-2.536,0.944-2.883,2.217C15.688,3,14.479,2.914,13.521,3.466c-1.642,0.945-1.951,3.477-2.008,4.551
			C9.186,8.096,7.067,8.731,5.422,9.741C4.863,8.976,3.964,8.5,3,8.5c-1.654,0-3,1.346-3,3c0,1.319,0.836,2.443,2.047,2.844
			C2.019,14.56,2,14.778,2,15c0,3.86,4.486,7,10,7s10-3.14,10-7c0-0.222-0.019-0.441-0.048-0.658C23.148,13.938,24,12.795,24,11.5z
			 M20,2.5c1.103,0,2,0.897,2,2c0,1.103-0.897,2-2,2s-2-0.897-2-2C18,3.397,18.897,2.5,20,2.5z M1,11.5c0-1.103,0.897-2,2-2
			c0.635,0,1.217,0.318,1.59,0.816c-1.102,0.854-1.907,1.895-2.304,3.05C1.522,13.077,1,12.351,1,11.5z M12,21c-4.962,0-9-2.691-9-6
			c0-3.309,4.038-6,9-6s9,2.691,9,6C21,18.309,16.962,21,12,21z M21.713,13.364c-0.397-1.154-1.201-2.194-2.303-3.048
			C19.784,9.818,20.366,9.5,21,9.5c1.103,0,2,0.897,2,2C23,12.335,22.468,13.072,21.713,13.364z"/>
	</g>
</g>
<g id="Frames-24px">
	<rect fill="none" width="24" height="24"/>
</g>
</svg>
