<?xml version="1.0" encoding="utf-8"?>
<!-- Generator: Adobe Illustrator 16.0.3, SVG Export Plug-In . SVG Version: 6.00 Build 0)  -->
<!DOCTYPE svg PUBLIC "-//W3C//DTD SVG 1.1//EN" "http://www.w3.org/Graphics/SVG/1.1/DTD/svg11.dtd">
<svg version="1.1" xmlns="http://www.w3.org/2000/svg" xmlns:xlink="http://www.w3.org/1999/xlink" x="0px" y="0px" width="24px"
	 height="24px" viewBox="0 0 24 24" enable-background="new 0 0 24 24" xml:space="preserve">
<g id="Outline_Icons">
	<g>
		<path d="M6.491,9h6.469c0.276,0,0.5-0.224,0.5-0.5S13.236,8,12.96,8H6.491c-0.276,0-0.5,0.224-0.5,0.5S6.215,9,6.491,9z"/>
		<path d="M15.102,8.252C15.012,8.096,14.847,8,14.667,8c-0.148-0.01-0.35,0.099-0.438,0.259L10.509,15H5.46l1.316-3h4.027
			c0.276,0,0.5-0.224,0.5-0.5s-0.224-0.5-0.5-0.5H4.335c-0.276,0-0.5,0.224-0.5,0.5s0.224,0.5,0.5,0.5h1.349l-1.447,3.299
			c-0.067,0.155-0.053,0.334,0.039,0.475C4.368,15.914,4.525,16,4.694,16h6.109c0.182,0,0.35-0.098,0.438-0.259l3.434-6.22
			L16.661,13h-2.264c-0.276,0-0.5,0.224-0.5,0.5s0.224,0.5,0.5,0.5h2.835l0.998,1.748C18.323,15.909,18.492,16,18.665,16
			c0.085,0,0.17-0.021,0.248-0.065c0.239-0.138,0.323-0.442,0.187-0.683L15.102,8.252z"/>
		<path d="M12,0C5.383,0,0,5.383,0,12s5.383,12,12,12s12-5.383,12-12S18.617,0,12,0z M12,23C5.935,23,1,18.066,1,12
			C1,5.935,5.935,1,12,1s11,4.935,11,11C23,18.066,18.065,23,12,23z"/>
	</g>
</g>
<g id="Frames-24px">
	<rect fill="none" width="24" height="24"/>
</g>
</svg>
