<?xml version="1.0" encoding="utf-8"?>
<!-- Generator: Adobe Illustrator 16.0.3, SVG Export Plug-In . SVG Version: 6.00 Build 0)  -->
<!DOCTYPE svg PUBLIC "-//W3C//DTD SVG 1.1//EN" "http://www.w3.org/Graphics/SVG/1.1/DTD/svg11.dtd">
<svg version="1.1" xmlns="http://www.w3.org/2000/svg" xmlns:xlink="http://www.w3.org/1999/xlink" x="0px" y="0px" width="24px"
	 height="24px" viewBox="0 0 24 24" enable-background="new 0 0 24 24" xml:space="preserve">
<g id="Outline_Icons">
	<g>
		<path d="M14.5,16H12v-5.051c2.244-0.252,4-2.139,4-4.449V6h5c0.276,0,0.5-0.224,0.5-0.5S21.276,5,21,5h-5V0.5
			C16,0.224,15.776,0,15.5,0S15,0.224,15,0.5V5H8V0.5C8,0.224,7.776,0,7.5,0S7,0.224,7,0.5V5H2C1.724,5,1.5,5.224,1.5,5.5
			S1.724,6,2,6h5v0.5c0,2.311,1.756,4.197,4,4.449V16H8.5C6.57,16,5,17.57,5,19.5v3.896c0,0.276,0.224,0.5,0.5,0.5
			s0.5-0.224,0.5-0.5V19.5C6,18.121,7.122,17,8.5,17H11v6.396c0,0.276,0.224,0.5,0.5,0.5s0.5-0.224,0.5-0.5V17h2.5
			c1.378,0,2.5,1.121,2.5,2.5v3.896c0,0.276,0.224,0.5,0.5,0.5s0.5-0.224,0.5-0.5V19.5C18,17.57,16.43,16,14.5,16z M8,6.5V6h7v0.5
			c0,1.93-1.57,3.5-3.5,3.5S8,8.43,8,6.5z"/>
		<path d="M16.637,10.62c-0.21-0.181-0.525-0.155-0.705,0.056c-0.179,0.21-0.154,0.525,0.056,0.705l4.688,3.999
			C20.77,15.461,20.885,15.5,21,15.5c0.141,0,0.281-0.06,0.38-0.176c0.179-0.209,0.154-0.525-0.056-0.704L16.637,10.62z"/>
		<path d="M7.068,10.676c-0.181-0.211-0.496-0.236-0.705-0.056l-4.688,4c-0.21,0.179-0.235,0.495-0.056,0.704
			C1.719,15.44,1.859,15.5,2,15.5c0.115,0,0.23-0.039,0.325-0.12l4.688-3.999C7.222,11.201,7.247,10.886,7.068,10.676z"/>
	</g>
</g>
<g id="Frames-24px">
	<rect fill="none" width="24" height="24"/>
</g>
</svg>
