<?xml version="1.0" encoding="utf-8"?>
<!-- Generator: Adobe Illustrator 16.0.3, SVG Export Plug-In . SVG Version: 6.00 Build 0)  -->
<!DOCTYPE svg PUBLIC "-//W3C//DTD SVG 1.1//EN" "http://www.w3.org/Graphics/SVG/1.1/DTD/svg11.dtd">
<svg version="1.1" xmlns="http://www.w3.org/2000/svg" xmlns:xlink="http://www.w3.org/1999/xlink" x="0px" y="0px" width="24px"
	 height="24px" viewBox="0 0 24 24" enable-background="new 0 0 24 24" xml:space="preserve">
<g id="Outline_Icons">
	<g>
		<path d="M12,0C5.383,0,0,5.383,0,12s5.383,12,12,12s12-5.383,12-12S18.617,0,12,0z M12,23C5.935,23,1,18.066,1,12
			C1,5.935,5.935,1,12,1s11,4.935,11,11C23,18.066,18.065,23,12,23z"/>
		<path d="M12.005,12.32c2.433,0,4.411-1.979,4.411-4.41S14.438,3.5,12.005,3.5c-2.432,0-4.41,1.979-4.41,4.41
			S9.573,12.32,12.005,12.32z M12.005,4.5c1.881,0,3.411,1.531,3.411,3.41c0,1.88-1.53,3.41-3.411,3.41c-1.88,0-3.41-1.53-3.41-3.41
			C8.595,6.031,10.125,4.5,12.005,4.5z"/>
		<path d="M12.005,10.148c1.234,0,2.238-1.004,2.238-2.238s-1.004-2.238-2.238-2.238c-1.233,0-2.237,1.004-2.237,2.238
			S10.771,10.148,12.005,10.148z M12.005,6.672c0.683,0,1.238,0.556,1.238,1.238s-0.556,1.238-1.238,1.238s-1.237-0.556-1.237-1.238
			S11.322,6.672,12.005,6.672z"/>
		<path d="M17.484,13.457c0.027-0.435-0.131-0.862-0.433-1.174l-0.084-0.087c-0.527-0.544-1.443-0.592-2.064-0.111
			c-1.671,1.307-4.13,1.306-5.801-0.003c-0.614-0.48-1.533-0.436-2.06,0.102l-0.091,0.092c-0.304,0.31-0.463,0.736-0.437,1.169
			c0.024,0.419,0.224,0.808,0.545,1.065c0.618,0.499,1.3,0.896,2.035,1.187L7.372,17.42c-0.702,0.703-0.702,1.848,0,2.553
			c0.682,0.68,1.867,0.68,2.551,0l2.104-2.105l2.104,2.106c0.341,0.339,0.793,0.526,1.274,0.526s0.935-0.188,1.276-0.528
			c0.701-0.704,0.701-1.849-0.001-2.552l-1.736-1.737c0.718-0.286,1.384-0.675,1.987-1.159
			C17.257,14.266,17.457,13.876,17.484,13.457z M16.309,13.743c-0.715,0.573-1.529,0.992-2.421,1.244
			c-0.171,0.049-0.304,0.184-0.348,0.355c-0.045,0.172,0.005,0.354,0.13,0.479l2.305,2.305c0.312,0.313,0.312,0.825,0,1.139
			c-0.303,0.303-0.834,0.303-1.137,0l-2.457-2.459c-0.094-0.094-0.221-0.146-0.354-0.146s-0.26,0.053-0.354,0.146l-2.457,2.459
			c-0.305,0.304-0.836,0.302-1.137,0.001c-0.313-0.314-0.313-0.826-0.001-1.14l2.294-2.293c0.126-0.126,0.175-0.309,0.13-0.48
			s-0.178-0.307-0.349-0.355c-0.909-0.254-1.739-0.68-2.466-1.267c-0.141-0.112-0.17-0.266-0.175-0.347
			c-0.009-0.15,0.047-0.302,0.151-0.408l0.091-0.092c0.283-0.288,0.539-0.167,0.729-0.017c2.027,1.586,5.007,1.587,7.032,0.005
			c0.19-0.148,0.449-0.273,0.731,0.019l0.085,0.088c0.106,0.109,0.162,0.261,0.152,0.414C16.481,13.475,16.451,13.629,16.309,13.743
			z"/>
	</g>
</g>
<g id="Frames-24px">
	<rect fill="none" width="24" height="24"/>
</g>
</svg>
