<?xml version="1.0" encoding="utf-8"?>
<!-- Generator: Adobe Illustrator 16.0.3, SVG Export Plug-In . SVG Version: 6.00 Build 0)  -->
<!DOCTYPE svg PUBLIC "-//W3C//DTD SVG 1.1//EN" "http://www.w3.org/Graphics/SVG/1.1/DTD/svg11.dtd">
<svg version="1.1" xmlns="http://www.w3.org/2000/svg" xmlns:xlink="http://www.w3.org/1999/xlink" x="0px" y="0px" width="24px"
	 height="24px" viewBox="0 0 24 24" enable-background="new 0 0 24 24" xml:space="preserve">
<g id="Outline_Icons">
	<g>
		<path d="M12,0C5.383,0,0,5.383,0,12s5.383,12,12,12s12-5.383,12-12S18.617,0,12,0z M12,23C5.935,23,1,18.066,1,12
			C1,5.935,5.935,1,12,1s11,4.935,11,11C23,18.066,18.065,23,12,23z"/>
		<path d="M8.922,10.387c1.255,0,2.276-1.02,2.276-2.273c0-1.256-1.021-2.277-2.276-2.277S6.646,6.857,6.646,8.113
			C6.646,9.367,7.667,10.387,8.922,10.387z M8.922,6.836c0.716,0,1.276,0.562,1.276,1.277c0,0.702-0.572,1.273-1.276,1.273
			c-0.703,0-1.275-0.571-1.275-1.273C7.646,7.409,8.219,6.836,8.922,6.836z"/>
		<path d="M20.056,12.276c-1.702-0.918-4.152-1.444-6.723-1.444c-0.711,0-1.414,0.04-2.093,0.12
			c-2.271,0.277-5.823,1.454-6.605,3.198c-0.226,0.494-0.197,1.021,0.076,1.446c0.279,0.435,0.77,0.692,1.311,0.692
			c0.507,0,1.009-0.23,1.412-0.649c1.513-1.566,3.452-3.017,7.509-2.881c1.687,0.049,3.115,0.276,4.495,0.716
			c0.484,0.158,0.926-0.03,1.026-0.41C20.525,12.832,20.454,12.503,20.056,12.276z M6.714,14.945
			c-0.273,0.284-0.527,0.344-0.692,0.344c-0.197,0-0.377-0.09-0.47-0.234c-0.089-0.137-0.091-0.307-0.006-0.493
			c0.518-1.154,3.497-2.333,5.813-2.617c0.491-0.058,0.997-0.094,1.511-0.107C9.782,12.192,8.03,13.582,6.714,14.945z"/>
	</g>
</g>
<g id="Frames-24px">
	<rect fill="none" width="24" height="24"/>
</g>
</svg>
