<?xml version="1.0" encoding="utf-8"?>
<!-- Generator: Adobe Illustrator 16.0.3, SVG Export Plug-In . SVG Version: 6.00 Build 0)  -->
<!DOCTYPE svg PUBLIC "-//W3C//DTD SVG 1.1//EN" "http://www.w3.org/Graphics/SVG/1.1/DTD/svg11.dtd">
<svg version="1.1" xmlns="http://www.w3.org/2000/svg" xmlns:xlink="http://www.w3.org/1999/xlink" x="0px" y="0px" width="24px"
	 height="24px" viewBox="0 0 24 24" enable-background="new 0 0 24 24" xml:space="preserve">
<g id="Outline_Icons">
	<path d="M22.5,19.521h-4.631l-1.891-6.147c-0.064-0.209-0.258-0.353-0.478-0.353H14v-6h2.5c0.276,0,0.5-0.224,0.5-0.5v-3
		c0-0.276-0.224-0.5-0.5-0.5H14v-2.5c0-0.276-0.224-0.5-0.5-0.5h-3c-0.276,0-0.5,0.224-0.5,0.5v2.5H7.5c-0.276,0-0.5,0.224-0.5,0.5
		v3c0,0.276,0.224,0.5,0.5,0.5H10v6H8.5c-0.22,0-0.414,0.144-0.478,0.353L6.13,19.521H1.5c-0.276,0-0.5,0.224-0.5,0.5v3.5
		c0,0.276,0.224,0.5,0.5,0.5h21c0.276,0,0.5-0.224,0.5-0.5v-3.5C23,19.744,22.776,19.521,22.5,19.521z M10.5,6.021H8v-2h2.5
		c0.276,0,0.5-0.224,0.5-0.5v-2.5h2v2.5c0,0.276,0.224,0.5,0.5,0.5H16v2h-2.5c-0.276,0-0.5,0.224-0.5,0.5v6.5h-2v-6.5
		C11,6.244,10.776,6.021,10.5,6.021z M8.869,14.021h6.262l1.692,5.5H7.177L8.869,14.021z M22,23.021H2v-2.5h20V23.021z"/>
</g>
<g id="invisible_shape">
	<rect fill="none" width="24" height="24"/>
</g>
</svg>
