<?xml version="1.0" encoding="utf-8"?>
<!-- Generator: Adobe Illustrator 16.0.3, SVG Export Plug-In . SVG Version: 6.00 Build 0)  -->
<!DOCTYPE svg PUBLIC "-//W3C//DTD SVG 1.1//EN" "http://www.w3.org/Graphics/SVG/1.1/DTD/svg11.dtd">
<svg version="1.1" xmlns="http://www.w3.org/2000/svg" xmlns:xlink="http://www.w3.org/1999/xlink" x="0px" y="0px" width="24px"
	 height="24px" viewBox="0 0 24 24" enable-background="new 0 0 24 24" xml:space="preserve">
<g id="Outline_Icons">
	<path d="M21.866,17.159l-3.115-5.139l3.177-5.241c0.093-0.154,0.097-0.347,0.008-0.504c-0.088-0.157-0.255-0.255-0.436-0.255
		h-6.385l-3.188-5.259c-0.182-0.299-0.674-0.299-0.855,0L7.885,6.021H1.5c-0.181,0-0.347,0.098-0.436,0.255
		c-0.089,0.157-0.085,0.35,0.008,0.504l3.177,5.241l-3.177,5.241c-0.093,0.154-0.097,0.347-0.008,0.504
		c0.088,0.157,0.255,0.255,0.436,0.255h6.385l3.187,5.259c0.091,0.149,0.253,0.241,0.428,0.241s0.337-0.092,0.428-0.241l3.187-5.259
		H21.5c0.007-0.001,0.013-0.001,0.02,0c0.276,0,0.5-0.224,0.5-0.5C22.02,17.379,21.961,17.25,21.866,17.159z M20.612,7.021
		l-2.446,4.035l-2.446-4.035H20.612z M17.582,12.021l-3.03,5H8.448l-3.03-5l3.03-5h6.104L17.582,12.021z M11.5,1.985l2.445,4.035
		H9.055L11.5,1.985z M2.388,7.021h4.892l-2.446,4.035L2.388,7.021z M2.388,17.021l2.446-4.035l2.446,4.035H2.388z M11.5,22.056
		l-2.445-4.035h4.891L11.5,22.056z M15.721,17.021l2.446-4.035l2.446,4.035H15.721z"/>
</g>
<g id="invisible_shape">
	<rect fill="none" width="24" height="24"/>
</g>
</svg>
