<?xml version="1.0" encoding="utf-8"?>
<!-- Generator: Adobe Illustrator 16.0.3, SVG Export Plug-In . SVG Version: 6.00 Build 0)  -->
<!DOCTYPE svg PUBLIC "-//W3C//DTD SVG 1.1//EN" "http://www.w3.org/Graphics/SVG/1.1/DTD/svg11.dtd">
<svg version="1.1" xmlns="http://www.w3.org/2000/svg" xmlns:xlink="http://www.w3.org/1999/xlink" x="0px" y="0px" width="24px"
	 height="24px" viewBox="0 0 24 24" enable-background="new 0 0 24 24" xml:space="preserve">
<g id="Outline_Icons">
	<g>
		<path d="M12,0.021c-6.617,0-12,5.383-12,12s5.383,12,12,12s12-5.383,12-12S18.617,0.021,12,0.021z M12,23.021
			c-6.065,0-11-4.935-11-11s4.935-11,11-11s11,4.935,11,11S18.065,23.021,12,23.021z"/>
		<path d="M13.59,3.17c-0.143-0.022-0.296,0.012-0.41,0.108C13.066,3.373,13,3.514,13,3.662v5.713c0,0.134,0.054,0.262,0.148,0.355
			l6.24,6.164c0.095,0.094,0.221,0.145,0.352,0.145c0.03,0,0.061-0.003,0.09-0.008c0.161-0.03,0.297-0.137,0.365-0.285
			C20.729,14.573,21,13.32,21,12.021C21,7.683,17.884,3.96,13.59,3.17z M19.557,14.655L14,9.166V4.285c3.511,0.919,6,4.081,6,7.735
			C20,12.93,19.851,13.812,19.557,14.655z"/>
		<path d="M13.853,13.261c-0.142-0.142-0.357-0.183-0.545-0.107C13.122,13.23,13,13.413,13,13.615v6.771
			c0,0.148,0.065,0.289,0.179,0.384c0.091,0.075,0.205,0.116,0.321,0.116c0.029,0,0.059-0.003,0.088-0.008
			c1.8-0.324,3.437-1.172,4.733-2.452c0.095-0.093,0.148-0.221,0.149-0.354c0-0.133-0.053-0.261-0.147-0.355L13.853,13.261z
			 M14,19.766v-4.946l3.25,3.238C16.312,18.873,15.205,19.455,14,19.766z"/>
		<path d="M10.411,3.163C6.117,3.938,3,7.662,3,12.021c0,0.826,0.235,2.943,0.934,3.854c0.087,0.114,0.22,0.185,0.364,0.194
			c0.011,0.001,0.021,0.001,0.032,0.001c0.132,0,0.26-0.053,0.354-0.147l6.17-6.194C10.948,9.634,11,9.507,11,9.375v-5.72
			c0-0.148-0.066-0.289-0.179-0.384C10.707,3.178,10.56,3.14,10.411,3.163z M10,9.169l-5.543,5.564C4.172,13.96,4,12.75,4,12.021
			c0-3.672,2.489-6.838,6-7.744V9.169z"/>
		<path d="M10.691,13.153c-0.187-0.076-0.401-0.034-0.545,0.108l-4.463,4.463c-0.094,0.094-0.147,0.223-0.146,0.355
			c0,0.134,0.054,0.261,0.149,0.354c1.274,1.255,2.953,2.122,4.725,2.442c0.03,0.005,0.059,0.008,0.089,0.008
			c0.116,0,0.23-0.041,0.321-0.116C10.934,20.674,11,20.533,11,20.385v-6.77C11,13.413,10.878,13.23,10.691,13.153z M10,19.763
			c-1.192-0.311-2.314-0.898-3.241-1.699L10,14.822V19.763z"/>
	</g>
</g>
<g id="invisible_shape">
	<rect fill="none" width="24" height="24"/>
</g>
</svg>
