<?xml version="1.0" encoding="utf-8"?>
<!-- Generator: Adobe Illustrator 16.0.3, SVG Export Plug-In . SVG Version: 6.00 Build 0)  -->
<!DOCTYPE svg PUBLIC "-//W3C//DTD SVG 1.1//EN" "http://www.w3.org/Graphics/SVG/1.1/DTD/svg11.dtd">
<svg version="1.1" xmlns="http://www.w3.org/2000/svg" xmlns:xlink="http://www.w3.org/1999/xlink" x="0px" y="0px" width="24px"
	 height="24px" viewBox="0 0 24 24" enable-background="new 0 0 24 24" xml:space="preserve">
<g id="Outline_Icons">
	<g>
		<path d="M23.462,16.33c-0.071-0.197-0.259-0.33-0.47-0.33h-3.19l-1.854-3.723c-0.168-0.339-0.727-0.339-0.895,0L15.198,16h-3.206
			c-0.211,0-0.398,0.132-0.471,0.331c-0.071,0.198-0.011,0.42,0.151,0.554l2.752,2.281l-1.406,4.174
			c-0.068,0.204,0,0.428,0.172,0.558c0.171,0.13,0.407,0.137,0.584,0.015l3.725-2.546l3.71,2.545C21.295,23.971,21.394,24,21.492,24
			c0.106,0,0.212-0.034,0.301-0.101c0.172-0.129,0.241-0.354,0.174-0.558l-1.393-4.176l2.738-2.281
			C23.474,16.75,23.534,16.528,23.462,16.33z M19.672,18.616c-0.158,0.132-0.219,0.347-0.154,0.543l1.029,3.086l-2.764-1.896
			c-0.086-0.059-0.185-0.088-0.283-0.088s-0.197,0.029-0.282,0.087l-2.775,1.897l1.039-3.085c0.066-0.196,0.005-0.412-0.154-0.544
			L13.379,17h2.129c0.189,0,0.363-0.107,0.447-0.277l1.545-3.102l1.545,3.102C19.129,16.893,19.303,17,19.492,17h2.119
			L19.672,18.616z"/>
		<path d="M11.5,21H1V1h10v4.5C11,5.776,11.224,6,11.5,6H16v4.5c0,0.276,0.224,0.5,0.5,0.5s0.5-0.224,0.5-0.5v-5
			c0-0.067-0.014-0.132-0.039-0.192c-0.025-0.061-0.062-0.116-0.108-0.162l-4.998-4.999c-0.046-0.045-0.101-0.083-0.162-0.107
			C11.632,0.014,11.566,0,11.5,0h-11C0.224,0,0,0.224,0,0.5v21C0,21.776,0.224,22,0.5,22h11c0.276,0,0.5-0.224,0.5-0.5
			S11.776,21,11.5,21z M12,1.707L15.293,5H12V1.707z"/>
		<path d="M9,7.564l2.18,1.82c0.212,0.176,0.527,0.149,0.704-0.064c0.177-0.212,0.148-0.527-0.063-0.704l-3-2.504
			c-0.149-0.124-0.356-0.15-0.532-0.068C8.112,6.125,8,6.303,8,6.496v5.559C7.472,11.712,6.779,11.5,6,11.5c-1.683,0-3,0.96-3,2.187
			c0,1.227,1.317,2.187,3,2.187s3-0.96,3-2.187c0-0.039-0.013-0.074-0.015-0.112C8.989,13.549,9,13.526,9,13.5V7.564z M6,14.874
			c-1.084,0-2-0.543-2-1.187C4,13.044,4.916,12.5,6,12.5s2,0.544,2,1.187C8,14.33,7.084,14.874,6,14.874z"/>
	</g>
</g>
<g id="Invisible_Shape">
	<rect fill="none" width="24" height="24"/>
</g>
</svg>
