<?xml version="1.0" encoding="utf-8"?>
<!-- Generator: Adobe Illustrator 16.0.3, SVG Export Plug-In . SVG Version: 6.00 Build 0)  -->
<!DOCTYPE svg PUBLIC "-//W3C//DTD SVG 1.1//EN" "http://www.w3.org/Graphics/SVG/1.1/DTD/svg11.dtd">
<svg version="1.1" xmlns="http://www.w3.org/2000/svg" xmlns:xlink="http://www.w3.org/1999/xlink" x="0px" y="0px" width="24px"
	 height="24px" viewBox="0 0 24 24" enable-background="new 0 0 24 24" xml:space="preserve">
<g id="Outline_Icons_1_">
	<g id="Outline_Icons">
		<g>
			<path d="M8,6h10c0.276,0,0.5-0.224,0.5-0.5S18.276,5,18,5H8C7.724,5,7.5,5.224,7.5,5.5S7.724,6,8,6z"/>
			<path d="M8,4h10c0.276,0,0.5-0.224,0.5-0.5S18.276,3,18,3H8C7.724,3,7.5,3.224,7.5,3.5S7.724,4,8,4z"/>
			<path d="M4,5.5c0.827,0,1.5-0.673,1.5-1.5S4.827,2.5,4,2.5S2.5,3.173,2.5,4S3.173,5.5,4,5.5z M4,3.5c0.275,0,0.5,0.225,0.5,0.5
				S4.275,4.5,4,4.5S3.5,4.275,3.5,4S3.725,3.5,4,3.5z"/>
			<path d="M10,12H8c-0.276,0-0.5,0.224-0.5,0.5S7.724,13,8,13h2c0.276,0,0.5-0.224,0.5-0.5S10.276,12,10,12z"/>
			<path d="M8,10c-0.276,0-0.5,0.224-0.5,0.5S7.724,11,8,11h3c0.276,0,0.5-0.224,0.5-0.5S11.276,10,11,10H8z"/>
			<path d="M2.5,11c0,0.827,0.673,1.5,1.5,1.5s1.5-0.673,1.5-1.5S4.827,9.5,4,9.5S2.5,10.173,2.5,11z M4.5,11
				c0,0.275-0.225,0.5-0.5,0.5S3.5,11.275,3.5,11s0.225-0.5,0.5-0.5S4.5,10.725,4.5,11z"/>
			<path d="M10,21H1.5C1.225,21,1,20.775,1,20.5v-5C1,15.225,1.225,15,1.5,15H9c0.276,0,0.5-0.224,0.5-0.5S9.276,14,9,14H1.5
				C1.225,14,1,13.775,1,13.5v-5C1,8.225,1.225,8,1.5,8h19C20.775,8,21,8.225,21,8.5V10c0,0.276,0.224,0.5,0.5,0.5S22,10.276,22,10
				V8.5c0-0.386-0.15-0.734-0.39-1C21.85,7.234,22,6.886,22,6.5v-5C22,0.673,21.327,0,20.5,0h-19C0.673,0,0,0.673,0,1.5v5
				c0,0.386,0.15,0.734,0.391,1C0.15,7.766,0,8.114,0,8.5v5c0,0.386,0.15,0.734,0.391,1C0.15,14.766,0,15.114,0,15.5v5
				C0,21.327,0.673,22,1.5,22H10c0.276,0,0.5-0.224,0.5-0.5S10.276,21,10,21z M1,1.5C1,1.225,1.225,1,1.5,1h19
				C20.775,1,21,1.225,21,1.5v5C21,6.775,20.775,7,20.5,7h-19C1.225,7,1,6.775,1,6.5V1.5z"/>
			<path d="M2.5,18c0,0.827,0.673,1.5,1.5,1.5s1.5-0.673,1.5-1.5S4.827,16.5,4,16.5S2.5,17.173,2.5,18z M4.5,18
				c0,0.275-0.225,0.5-0.5,0.5S3.5,18.275,3.5,18s0.225-0.5,0.5-0.5S4.5,17.725,4.5,18z"/>
			<path d="M17.5,11c-3.584,0-6.5,2.916-6.5,6.5s2.916,6.5,6.5,6.5s6.5-2.916,6.5-6.5S21.084,11,17.5,11z M17.5,23
				c-3.032,0-5.5-2.468-5.5-5.5s2.468-5.5,5.5-5.5s5.5,2.468,5.5,5.5S20.532,23,17.5,23z"/>
			<path d="M17.5,15.146c0.491,0,0.891,0.399,0.891,0.891c0,0.276,0.224,0.5,0.5,0.5s0.5-0.224,0.5-0.5
				c0-0.869-0.592-1.594-1.391-1.815v-0.503c0-0.276-0.224-0.5-0.5-0.5s-0.5,0.224-0.5,0.5v0.503
				c-0.799,0.222-1.391,0.946-1.391,1.815c0,1.043,0.848,1.891,1.891,1.891c0.491,0,0.891,0.4,0.891,0.893
				c0,0.491-0.399,0.891-0.891,0.891s-0.891-0.399-0.891-0.891c0-0.276-0.224-0.5-0.5-0.5s-0.5,0.224-0.5,0.5
				c0,0.869,0.592,1.595,1.391,1.815v0.501c0,0.276,0.224,0.5,0.5,0.5s0.5-0.224,0.5-0.5v-0.501
				c0.799-0.221,1.391-0.946,1.391-1.815c0-1.044-0.848-1.893-1.891-1.893c-0.491,0-0.891-0.399-0.891-0.891
				S17.009,15.146,17.5,15.146z"/>
		</g>
	</g>
	<g id="New_icons_1_">
	</g>
</g>
<g id="Invisible_Shape">
	<rect fill="none" width="24" height="24"/>
</g>
</svg>
