<?xml version="1.0" encoding="utf-8"?>
<!-- Generator: Adobe Illustrator 16.0.3, SVG Export Plug-In . SVG Version: 6.00 Build 0)  -->
<!DOCTYPE svg PUBLIC "-//W3C//DTD SVG 1.1//EN" "http://www.w3.org/Graphics/SVG/1.1/DTD/svg11.dtd">
<svg version="1.1" xmlns="http://www.w3.org/2000/svg" xmlns:xlink="http://www.w3.org/1999/xlink" x="0px" y="0px" width="24px"
	 height="24px" viewBox="0 0 24 24" enable-background="new 0 0 24 24" xml:space="preserve">
<g id="Outline_Icons_1_">
	<g id="Outline_Icons">
	</g>
	<g id="New_icons_1_">
		<g>
			<path d="M23.5,15H22v-0.5c0-1.93-1.57-3.5-3.5-3.5S15,12.57,15,14.5V15h-1.5c-0.276,0-0.5,0.224-0.5,0.5v8
				c0,0.276,0.224,0.5,0.5,0.5h10c0.276,0,0.5-0.224,0.5-0.5v-8C24,15.224,23.776,15,23.5,15z M16,14.5c0-1.379,1.121-2.5,2.5-2.5
				s2.5,1.121,2.5,2.5V15h-5V14.5z M23,23h-9v-7h9V23z"/>
			<path d="M18.5,17.5c-0.552,0-1,0.448-1,1c0,0.365,0.207,0.672,0.5,0.847V21c0,0.276,0.224,0.5,0.5,0.5S19,21.276,19,21v-1.653
				c0.293-0.175,0.5-0.481,0.5-0.847C19.5,17.948,19.052,17.5,18.5,17.5z"/>
			<circle cx="9.5" cy="8" r="1"/>
			<circle cx="12.5" cy="8" r="1"/>
			<circle cx="15.5" cy="8" r="1"/>
			<path d="M2,8c0,0.827,0.673,1.5,1.5,1.5S5,8.827,5,8S4.327,6.5,3.5,6.5S2,7.173,2,8z M4,8c0,0.275-0.225,0.5-0.5,0.5S3,8.275,3,8
				s0.225-0.5,0.5-0.5S4,7.725,4,8z"/>
			<circle cx="9.5" cy="3" r="1"/>
			<circle cx="12.5" cy="3" r="1"/>
			<circle cx="15.5" cy="3" r="1"/>
			<path d="M3.5,4.5C4.327,4.5,5,3.827,5,3S4.327,1.5,3.5,1.5S2,2.173,2,3S2.673,4.5,3.5,4.5z M3.5,2.5C3.775,2.5,4,2.725,4,3
				S3.775,3.5,3.5,3.5S3,3.275,3,3S3.225,2.5,3.5,2.5z"/>
			<path d="M11.5,16c0.276,0,0.5-0.224,0.5-0.5S11.776,15,11.5,15H1v-4h13c0.276,0,0.5-0.224,0.5-0.5S14.276,10,14,10H1V6h17v3.5
				c0,0.276,0.224,0.5,0.5,0.5S19,9.776,19,9.5v-9C19,0.224,18.776,0,18.5,0h-18C0.224,0,0,0.224,0,0.5v15C0,15.776,0.224,16,0.5,16
				H9v3H5.5C5.224,19,5,19.224,5,19.5S5.224,20,5.5,20h6c0.276,0,0.5-0.224,0.5-0.5S11.776,19,11.5,19H10v-3H11.5z M18,1v4H1V1H18z"
				/>
			<circle cx="9.5" cy="13" r="1"/>
			<path d="M2,13c0,0.827,0.673,1.5,1.5,1.5S5,13.827,5,13s-0.673-1.5-1.5-1.5S2,12.173,2,13z M4,13c0,0.275-0.225,0.5-0.5,0.5
				S3,13.275,3,13s0.225-0.5,0.5-0.5S4,12.725,4,13z"/>
			<circle cx="1.5" cy="19.5" r="0.5"/>
			<circle cx="3.5" cy="19.5" r="0.5"/>
		</g>
	</g>
</g>
<g id="Invisible_Shape">
	<rect fill="none" width="24" height="24"/>
</g>
</svg>
