<?xml version="1.0" encoding="utf-8"?>
<!-- Generator: Adobe Illustrator 16.0.3, SVG Export Plug-In . SVG Version: 6.00 Build 0)  -->
<!DOCTYPE svg PUBLIC "-//W3C//DTD SVG 1.1//EN" "http://www.w3.org/Graphics/SVG/1.1/DTD/svg11.dtd">
<svg version="1.1" xmlns="http://www.w3.org/2000/svg" xmlns:xlink="http://www.w3.org/1999/xlink" x="0px" y="0px" width="24px"
	 height="24px" viewBox="0 0 24 24" enable-background="new 0 0 24 24" xml:space="preserve">
<g id="Outline_Icons_1_">
	<g id="Outline_Icons">
	</g>
	<g id="New_icons_1_">
		<g>
			<path d="M14,19h-1.787C11.104,17.846,9.947,17,8,17H5v-0.5C5,16.224,4.776,16,4.5,16h-4C0.224,16,0,16.224,0,16.5v7
				C0,23.776,0.224,24,0.5,24h4C4.776,24,5,23.776,5,23.5V23h16.5c0.276,0,0.5-0.224,0.5-0.5C22,20.438,17.784,19,14,19z M4,23H1v-6
				h3V23z M5,22v-4h3c1.289,0,2.165,0.498,2.77,1H7c-0.276,0-0.5,0.224-0.5,0.5S6.724,20,7,20h7c3.36,0,6.021,1.073,6.781,2H5z"/>
			<path d="M23.5,0h-11C12.224,0,12,0.224,12,0.5v8v4c0,0.276,0.224,0.5,0.5,0.5h11c0.276,0,0.5-0.224,0.5-0.5v-4v-8
				C24,0.224,23.776,0,23.5,0z M13,5h10v3H13V5z M23,1v3H13V1H23z M23,12H13V9h10V12z"/>
			<path d="M15.5,6h-1C14.224,6,14,6.224,14,6.5S14.224,7,14.5,7h1C15.776,7,16,6.776,16,6.5S15.776,6,15.5,6z"/>
			<path d="M18.5,6h-1C17.224,6,17,6.224,17,6.5S17.224,7,17.5,7h1C18.776,7,19,6.776,19,6.5S18.776,6,18.5,6z"/>
			<path d="M14.5,3h1C15.776,3,16,2.776,16,2.5S15.776,2,15.5,2h-1C14.224,2,14,2.224,14,2.5S14.224,3,14.5,3z"/>
			<path d="M17.5,3h1C18.776,3,19,2.776,19,2.5S18.776,2,18.5,2h-1C17.224,2,17,2.224,17,2.5S17.224,3,17.5,3z"/>
			<path d="M14.5,11h1c0.276,0,0.5-0.224,0.5-0.5S15.776,10,15.5,10h-1c-0.276,0-0.5,0.224-0.5,0.5S14.224,11,14.5,11z"/>
			<path d="M17.5,11h1c0.276,0,0.5-0.224,0.5-0.5S18.776,10,18.5,10h-1c-0.276,0-0.5,0.224-0.5,0.5S17.224,11,17.5,11z"/>
		</g>
	</g>
</g>
<g id="Invisible_Shape">
	<rect fill="none" width="24" height="24"/>
</g>
</svg>
