<?xml version="1.0" encoding="utf-8"?>
<!-- Generator: Adobe Illustrator 16.0.3, SVG Export Plug-In . SVG Version: 6.00 Build 0)  -->
<!DOCTYPE svg PUBLIC "-//W3C//DTD SVG 1.1//EN" "http://www.w3.org/Graphics/SVG/1.1/DTD/svg11.dtd">
<svg version="1.1" xmlns="http://www.w3.org/2000/svg" xmlns:xlink="http://www.w3.org/1999/xlink" x="0px" y="0px" width="24px"
	 height="24px" viewBox="0 0 24 24" enable-background="new 0 0 24 24" xml:space="preserve">
<g id="Outline_Icons">
	<path d="M23.5,23H19V0.5C19,0.224,18.776,0,18.5,0C12.167,0,6.854,4.389,5.404,10.28c-0.032,0.064-0.053,0.134-0.055,0.211
		C5.128,11.46,5,12.465,5,13.5V23H0.5C0.224,23,0,23.224,0,23.5S0.224,24,0.5,24h23c0.276,0,0.5-0.224,0.5-0.5S23.776,23,23.5,23z
		 M6,23v-6h5c0.276,0,0.5-0.224,0.5-0.5S11.276,16,11,16H6v-2h7c0.276,0,0.5-0.224,0.5-0.5S13.276,13,13,13H6.024
		c0.027-0.681,0.097-1.351,0.229-2H13c0.276,0,0.5-0.224,0.5-0.5S13.276,10,13,10H6.505c0.203-0.695,0.47-1.361,0.785-2h8.21
		C15.776,8,16,7.776,16,7.5S15.776,7,15.5,7H7.841C9.958,3.542,13.698,1.18,18,1.01V23H6z"/>
</g>
<g id="invisible_shape">
	<rect fill="none" width="24" height="24"/>
</g>
</svg>
