<?xml version="1.0" encoding="utf-8"?>
<!-- Generator: Adobe Illustrator 16.0.3, SVG Export Plug-In . SVG Version: 6.00 Build 0)  -->
<!DOCTYPE svg PUBLIC "-//W3C//DTD SVG 1.1//EN" "http://www.w3.org/Graphics/SVG/1.1/DTD/svg11.dtd">
<svg version="1.1" xmlns="http://www.w3.org/2000/svg" xmlns:xlink="http://www.w3.org/1999/xlink" x="0px" y="0px" width="24px"
	 height="24px" viewBox="0 0 24 24" enable-background="new 0 0 24 24" xml:space="preserve">
<g id="Outline_Icons">
	<g>
		<path d="M12.5,13H12v-0.5c0-0.276-0.224-0.5-0.5-0.5S11,12.224,11,12.5V13h-0.5c-0.276,0-0.5,0.224-0.5,0.5s0.224,0.5,0.5,0.5H11
			v0.5c0,0.276,0.224,0.5,0.5,0.5s0.5-0.224,0.5-0.5V14h0.5c0.276,0,0.5-0.224,0.5-0.5S12.776,13,12.5,13z"/>
		<path d="M23.5,13h-3c-0.276,0-0.5,0.224-0.5,0.5V15h-1.209l-0.714-5H19c1.103,0,2-0.897,2-2V4.5C21,4.224,20.776,4,20.5,4h-2
			C18.224,4,18,4.224,18,4.5V5c0,0.551-0.449,1-1,1s-1-0.449-1-1V4.5C16,4.224,15.776,4,15.5,4h-2C13.224,4,13,4.224,13,4.5V5
			c0,0.471-0.432,0.848-1,0.954V2c0.041,0,0.082-0.005,0.121-0.015l2-0.5C14.344,1.429,14.5,1.229,14.5,1s-0.156-0.429-0.379-0.485
			l-2-0.5C12.082,0.005,12.041,0,12,0h-0.5C11.224,0,11,0.224,11,0.5v1v4.29c-0.296-0.183-0.5-0.46-0.5-0.79V4.5
			C10.5,4.224,10.276,4,10,4H8C7.724,4,7.5,4.224,7.5,4.5V5c0,0.551-0.351,1-0.781,1C6.329,6,6,5.542,6,5V4.5C6,4.224,5.776,4,5.5,4
			h-2C3.224,4,3,4.224,3,4.5V8c0,1.103,0.897,2,2,2h0.923l-0.714,5H4v-1.5C4,13.224,3.776,13,3.5,13h-3C0.224,13,0,13.224,0,13.5v10
			C0,23.776,0.224,24,0.5,24h10c0.276,0,0.5-0.224,0.5-0.5v-4c0-0.551,0.449-1,1-1s1,0.449,1,1v4c0,0.276,0.224,0.5,0.5,0.5h10
			c0.276,0,0.5-0.224,0.5-0.5v-10C24,13.224,23.776,13,23.5,13z M4,8V5h1c0,1.103,0.771,2,1.719,2C7.701,7,8.5,6.103,8.5,5h1
			c0,0.987,0.793,1.804,1.83,1.966C11.384,6.986,11.439,7,11.5,7c0.022,0,0.042-0.009,0.063-0.013C11.61,6.99,11.655,7,11.703,7
			C12.97,7,14,6.103,14,5h1c0,1.103,0.897,2,2,2s2-0.897,2-2h1v3c0,0.551-0.449,1-1,1H5C4.449,9,4,8.551,4,8z M1,14h2v1.5
			C3,15.776,3.224,16,3.5,16h1.566l-1,7H1V14z M14,23v-3.5c0-1.103-0.897-2-2-2s-2,0.897-2,2V23H5.077l1.857-13h10.133l1.857,13H14z
			 M23,23h-3.066l-1-7H20.5c0.276,0,0.5-0.224,0.5-0.5V14h2V23z"/>
	</g>
</g>
<g id="invisible_shape">
	<rect fill="none" width="24" height="24"/>
</g>
</svg>
