<?xml version="1.0" encoding="utf-8"?>
<!-- Generator: Adobe Illustrator 16.0.3, SVG Export Plug-In . SVG Version: 6.00 Build 0)  -->
<!DOCTYPE svg PUBLIC "-//W3C//DTD SVG 1.1//EN" "http://www.w3.org/Graphics/SVG/1.1/DTD/svg11.dtd">
<svg version="1.1" xmlns="http://www.w3.org/2000/svg" xmlns:xlink="http://www.w3.org/1999/xlink" x="0px" y="0px" width="24px"
	 height="24px" viewBox="0 0 24 24" enable-background="new 0 0 24 24" xml:space="preserve">
<g id="Outline_Icons">
	<g>
		<path d="M17.961,8.309c-0.025-0.062-0.062-0.117-0.108-0.163l-2.93-2.93c-0.011-0.017-0.018-0.035-0.031-0.05l-2.445-4.89
			c-0.17-0.339-0.725-0.339-0.895,0L9.089,5.204L6.147,8.146C6.101,8.192,6.064,8.248,6.039,8.309C6.013,8.37,6,8.436,6,8.5v11
			C6,19.776,6.224,20,6.5,20H7v3.5C7,23.776,7.224,24,7.5,24h9c0.276,0,0.5-0.224,0.5-0.5V20h0.5c0.276,0,0.5-0.224,0.5-0.5v-11
			C18,8.436,17.987,8.37,17.961,8.309z M9.707,6h4.586l2,2H7.707L9.707,6z M12,1.619L13.691,5h-3.382L12,1.619z M16,23H8v-3h8V23z
			 M17,19H7V9h10V19z"/>
		<path d="M12,18c2.206,0,4-1.794,4-4s-1.794-4-4-4s-4,1.794-4,4S9.794,18,12,18z M12,11c1.654,0,3,1.346,3,3s-1.346,3-3,3
			s-3-1.346-3-3S10.346,11,12,11z"/>
		<path d="M11.5,15H13c0.276,0,0.5-0.224,0.5-0.5S13.276,14,13,14h-1v-1.5c0-0.276-0.224-0.5-0.5-0.5S11,12.224,11,12.5v2
			C11,14.776,11.224,15,11.5,15z"/>
	</g>
</g>
<g id="invisible_shape">
	<rect fill="none" width="24" height="24"/>
</g>
</svg>
