<?xml version="1.0" encoding="utf-8"?>
<!-- Generator: Adobe Illustrator 16.0.3, SVG Export Plug-In . SVG Version: 6.00 Build 0)  -->
<!DOCTYPE svg PUBLIC "-//W3C//DTD SVG 1.1//EN" "http://www.w3.org/Graphics/SVG/1.1/DTD/svg11.dtd">
<svg version="1.1" xmlns="http://www.w3.org/2000/svg" xmlns:xlink="http://www.w3.org/1999/xlink" x="0px" y="0px" width="24px"
	 height="24px" viewBox="0 0 24 24" enable-background="new 0 0 24 24" xml:space="preserve">
<g id="Outline_Icons">
	<g>
		<path d="M20.5,21H19V0.5C19,0.224,18.776,0,18.5,0h-14C4.224,0,4,0.224,4,0.5V21H2.5C2.224,21,2,21.224,2,21.5v2
			C2,23.776,2.224,24,2.5,24h18c0.276,0,0.5-0.224,0.5-0.5v-2C21,21.224,20.776,21,20.5,21z M5,1h13v20H5V1z M20,23H3v-1h17V23z"/>
		<path d="M16.082,8.007c-0.268-0.047-0.518,0.135-0.568,0.404c-0.05,0.268,0.13,0.527,0.396,0.581
			c0.036,0.007,0.087,0.029,0.09,0.01V12c-0.276,0-0.5,0.224-0.5,0.5S15.724,13,16,13c0.485,0,1-0.35,1-1V9
			C17,8.422,16.524,8.08,16.082,8.007z"/>
	</g>
</g>
<g id="invisible_shape">
	<rect fill="none" width="24" height="24"/>
</g>
</svg>
