<?xml version="1.0" encoding="utf-8"?>
<!-- Generator: Adobe Illustrator 16.0.3, SVG Export Plug-In . SVG Version: 6.00 Build 0)  -->
<!DOCTYPE svg PUBLIC "-//W3C//DTD SVG 1.1//EN" "http://www.w3.org/Graphics/SVG/1.1/DTD/svg11.dtd">
<svg version="1.1" xmlns="http://www.w3.org/2000/svg" xmlns:xlink="http://www.w3.org/1999/xlink" x="0px" y="0px" width="24px"
	 height="24px" viewBox="0 0 24 24" enable-background="new 0 0 24 24" xml:space="preserve">
<g id="Outline_Icons">
	<path d="M12.005,0c-0.175,0-0.349,0.003-0.52,0.011C4.938,0.275,0,5.322,0,11.75C0,18.505,5.369,24,11.968,24
		C18.603,24,24,18.598,24,11.957C24,5.364,18.619,0,12.005,0z M1.012,12h5.545c0.057,1.647,0.364,3.321,0.921,5H2.275
		C1.5,15.501,1.051,13.803,1.012,12z M6.551,11H1.036c0.123-1.844,0.69-3.544,1.612-5h4.869C6.921,7.613,6.598,9.288,6.551,11z
		 M8.547,6h6.916c0.65,1.61,0.99,3.286,1.042,5h-9C7.556,9.286,7.896,7.61,8.547,6z M7.51,12h8.99c-0.062,1.642-0.388,3.314-0.99,5
		h-7.01C7.897,15.314,7.571,13.642,7.51,12z M17.452,12h5.546c-0.007,1.801-0.453,3.499-1.228,5h-5.24
		C17.088,15.321,17.395,13.647,17.452,12z M17.458,11c-0.047-1.712-0.37-3.387-0.966-5h4.728c0.957,1.464,1.571,3.167,1.731,5
		H17.458z M20.492,5h-4.409c-0.601-1.34-1.394-2.631-2.386-3.856C16.417,1.566,18.815,2.972,20.492,5z M12.277,1.015
		C13.419,2.278,14.323,3.613,15.004,5H9.006c0.682-1.39,1.589-2.728,2.734-3.994C11.828,1.004,11.916,1,12.005,1
		C12.097,1,12.186,1.012,12.277,1.015z M10.331,1.123C9.33,2.354,8.531,3.652,7.927,5H3.359C5.029,2.942,7.476,1.527,10.331,1.123z
		 M2.854,18h4.981c0.64,1.636,1.52,3.27,2.634,4.883C7.302,22.436,4.56,20.608,2.854,18z M11.764,22.99
		c-1.222-1.658-2.172-3.327-2.87-4.99h6.22c-0.697,1.662-1.647,3.33-2.867,4.986C12.153,22.989,12.062,23,11.968,23
		C11.898,23,11.832,22.991,11.764,22.99z M13.544,22.875c1.111-1.61,1.99-3.242,2.628-4.875h5.019
		C19.492,20.589,16.737,22.414,13.544,22.875z"/>
</g>
<g id="invisible_shape">
	<rect fill="none" width="24" height="24"/>
</g>
</svg>
