<?xml version="1.0" encoding="utf-8"?>
<!-- Generator: Adobe Illustrator 16.0.3, SVG Export Plug-In . SVG Version: 6.00 Build 0)  -->
<!DOCTYPE svg PUBLIC "-//W3C//DTD SVG 1.1//EN" "http://www.w3.org/Graphics/SVG/1.1/DTD/svg11.dtd">
<svg version="1.1" xmlns="http://www.w3.org/2000/svg" xmlns:xlink="http://www.w3.org/1999/xlink" x="0px" y="0px" width="24px"
	 height="24px" viewBox="0 0 24 24" enable-background="new 0 0 24 24" xml:space="preserve">
<g id="Outline_Icons">
	<path d="M22.919,23.25L12.096,6.6l1.823-2.805c0.15-0.231,0.084-0.541-0.147-0.692s-0.542-0.085-0.692,0.147L11.5,5.682L9.919,3.25
		c-0.15-0.232-0.46-0.298-0.692-0.147S8.93,3.563,9.081,3.795L10.904,6.6L0.081,23.25c-0.1,0.154-0.107,0.35-0.02,0.511
		s0.256,0.262,0.439,0.262h22c0.184,0,0.352-0.101,0.439-0.262S23.019,23.404,22.919,23.25z M16,22.315l-3.293-3.293H16V22.315z
		 M15.293,23.022H12v-3.293L15.293,23.022z M11,8.286v14.737H1.421L11,8.286z M17,23.022v-4.5c0-0.276-0.224-0.5-0.5-0.5H12V8.286
		l9.579,14.737H17z"/>
</g>
<g id="invisible_shape">
	<rect fill="none" width="24" height="24"/>
</g>
</svg>
