<?xml version="1.0" encoding="utf-8"?>
<!-- Generator: Adobe Illustrator 16.0.3, SVG Export Plug-In . SVG Version: 6.00 Build 0)  -->
<!DOCTYPE svg PUBLIC "-//W3C//DTD SVG 1.1//EN" "http://www.w3.org/Graphics/SVG/1.1/DTD/svg11.dtd">
<svg version="1.1" xmlns="http://www.w3.org/2000/svg" xmlns:xlink="http://www.w3.org/1999/xlink" x="0px" y="0px" width="24px"
	 height="24px" viewBox="0 0 24 24" enable-background="new 0 0 24 24" xml:space="preserve">
<g id="Outline_Icons">
	<path d="M21.947,4.276l-2-4C19.862,0.107,19.689,0,19.5,0h-14C5.311,0,5.138,0.107,5.053,0.276l-2,4
		C2.975,4.431,2.983,4.615,3.075,4.763C3.166,4.911,3.327,5,3.5,5H6v10H4.5C4.224,15,4,15.224,4,15.5v8C4,23.776,4.224,24,4.5,24h16
		c0.276,0,0.5-0.224,0.5-0.5v-8c0-0.276-0.224-0.5-0.5-0.5H19V5h2.5c0.173,0,0.334-0.089,0.425-0.237
		C22.017,4.615,22.025,4.431,21.947,4.276z M8,16v3H5v-3H8z M10,20v3H7v-3H10z M11,20h3v3h-3V20z M15,20h3v3h-3V20z M13,19v-3h3v3
		H13z M12,19H9v-3h3V19z M5,20h1v3H5V20z M19,23v-3h1v3H19z M20,19h-3v-3h3V19z M18,15H7V5h5v3H9.5C9.35,8,9.208,8.067,9.113,8.183
		C9.019,8.299,8.98,8.451,9.01,8.598l1,5C10.057,13.832,10.262,14,10.5,14h4c0.238,0,0.443-0.168,0.49-0.402l1-5
		c0.029-0.147-0.009-0.299-0.104-0.415C15.792,8.067,15.65,8,15.5,8H13V5h5V15z M14.89,9l-0.8,4H10.91l-0.8-4H14.89z M4.309,4l1.5-3
		h13.382l1.5,3H4.309z"/>
</g>
<g id="invisible_shape">
	<rect fill="none" width="24" height="24"/>
</g>
</svg>
