<?xml version="1.0" encoding="utf-8"?>
<!-- Generator: Adobe Illustrator 16.0.3, SVG Export Plug-In . SVG Version: 6.00 Build 0)  -->
<!DOCTYPE svg PUBLIC "-//W3C//DTD SVG 1.1//EN" "http://www.w3.org/Graphics/SVG/1.1/DTD/svg11.dtd">
<svg version="1.1" xmlns="http://www.w3.org/2000/svg" xmlns:xlink="http://www.w3.org/1999/xlink" x="0px" y="0px" width="24px"
	 height="24px" viewBox="0 0 24 24" enable-background="new 0 0 24 24" xml:space="preserve">
<g id="Outline_Icons">
	<g>
		<path d="M21.5,4H21V0.5C21,0.224,20.776,0,20.5,0h-14C5.121,0,4,1.121,4,2.5v19C4,22.879,5.121,24,6.5,24h15
			c0.276,0,0.5-0.224,0.5-0.5v-19C22,4.224,21.776,4,21.5,4z M6.5,1H20v3h-1V2.5C19,2.224,18.776,2,18.5,2h-12
			C6.224,2,6,2.224,6,2.5S6.224,3,6.5,3H18v1H6.5C5.673,4,5,3.327,5,2.5S5.673,1,6.5,1z M21,23H6.5C5.673,23,5,22.327,5,21.5V4.499
			C5.418,4.813,5.938,5,6.5,5H21V23z"/>
		<path d="M15,10c0-1.103-0.897-2-2-2s-2,0.897-2,2v2.5c0,0.276,0.224,0.5,0.5,0.5s0.5-0.224,0.5-0.5V12h2v0.5
			c0,0.276,0.224,0.5,0.5,0.5s0.5-0.224,0.5-0.5V10z M12,11v-1c0-0.552,0.448-1,1-1s1,0.448,1,1v1H12z"/>
		<path d="M9.5,15h-2C7.224,15,7,15.224,7,15.5v4C7,19.776,7.224,20,7.5,20h2c0.827,0,1.5-0.673,1.5-1.5
			c0-0.384-0.145-0.734-0.383-1c0.238-0.266,0.383-0.616,0.383-1C11,15.673,10.327,15,9.5,15z M9.5,19H8v-1h1.5
			c0.275,0,0.5,0.225,0.5,0.5S9.775,19,9.5,19z M9.5,17H8v-1h1.5c0.275,0,0.5,0.225,0.5,0.5S9.775,17,9.5,17z"/>
		<path d="M17.5,15c-1.379,0-2.5,1.121-2.5,2.5s1.121,2.5,2.5,2.5h1c0.276,0,0.5-0.224,0.5-0.5S18.776,19,18.5,19h-1
			c-0.827,0-1.5-0.673-1.5-1.5s0.673-1.5,1.5-1.5h1c0.276,0,0.5-0.224,0.5-0.5S18.776,15,18.5,15H17.5z"/>
	</g>
</g>
<g id="invisible_shape">
	<rect fill="none" width="24" height="24"/>
</g>
</svg>
