<?xml version="1.0" encoding="utf-8"?>
<!-- Generator: Adobe Illustrator 16.0.3, SVG Export Plug-In . SVG Version: 6.00 Build 0)  -->
<!DOCTYPE svg PUBLIC "-//W3C//DTD SVG 1.1//EN" "http://www.w3.org/Graphics/SVG/1.1/DTD/svg11.dtd">
<svg version="1.1" xmlns="http://www.w3.org/2000/svg" xmlns:xlink="http://www.w3.org/1999/xlink" x="0px" y="0px" width="24px"
	 height="24px" viewBox="0 0 24 24" enable-background="new 0 0 24 24" xml:space="preserve">
<g id="Outline_Icons">
	<g>
		<path d="M23.5,14H22V0.5C22,0.224,21.776,0,21.5,0h-19C2.224,0,2,0.224,2,0.5V14H0.5C0.224,14,0,14.224,0,14.5v2
			C0,16.776,0.224,17,0.5,17H2v5.5C2,22.776,2.224,23,2.5,23S3,22.776,3,22.5V21h18v1.5c0,0.276,0.224,0.5,0.5,0.5
			s0.5-0.224,0.5-0.5V17h1.5c0.276,0,0.5-0.224,0.5-0.5v-2C24,14.224,23.776,14,23.5,14z M3,1h18v13H3V1z M21,20H3v-3h18V20z M23,16
			H1v-1h1.5h19H23V16z"/>
		<path d="M18.691,3.038c-0.186-0.077-0.401-0.035-0.545,0.108l-2,2c-0.195,0.195-0.195,0.512,0,0.707s0.512,0.195,0.707,0L18,4.707
			V11.5c0,0.276,0.224,0.5,0.5,0.5s0.5-0.224,0.5-0.5v-8C19,3.298,18.878,3.115,18.691,3.038z"/>
		<path d="M10,11H6.593C7.83,9.533,10,6.778,10,5.5C10,4.533,9.321,3,7.5,3C5.657,3,5,4.291,5,5.5C5,5.776,5.224,6,5.5,6
			S6,5.776,6,5.5C6,4.815,6.26,4,7.5,4C8.73,4,9,5.083,9,5.5c0,0.903-2.266,3.858-3.874,5.668c-0.131,0.147-0.163,0.357-0.082,0.537
			S5.303,12,5.5,12H10c0.276,0,0.5-0.224,0.5-0.5S10.276,11,10,11z"/>
		<path d="M15.5,7H14V5.5C14,5.224,13.776,5,13.5,5S13,5.224,13,5.5V7h-1.5C11.224,7,11,7.224,11,7.5S11.224,8,11.5,8H13v1.5
			c0,0.276,0.224,0.5,0.5,0.5S14,9.776,14,9.5V8h1.5C15.776,8,16,7.776,16,7.5S15.776,7,15.5,7z"/>
	</g>
</g>
<g id="invisible_shape">
	<rect fill="none" width="24" height="24"/>
</g>
</svg>
