<?xml version="1.0" encoding="utf-8"?>
<!-- Generator: Adobe Illustrator 16.0.3, SVG Export Plug-In . SVG Version: 6.00 Build 0)  -->
<!DOCTYPE svg PUBLIC "-//W3C//DTD SVG 1.1//EN" "http://www.w3.org/Graphics/SVG/1.1/DTD/svg11.dtd">
<svg version="1.1" xmlns="http://www.w3.org/2000/svg" xmlns:xlink="http://www.w3.org/1999/xlink" x="0px" y="0px" width="24px"
	 height="24px" viewBox="0 0 24 24" enable-background="new 0 0 24 24" xml:space="preserve">
<g id="Outline_Icons">
	<g>
		<path d="M6,11h12c1.103,0,2-0.897,2-2V3c0-1.103-0.897-2-2-2H6C4.897,1,4,1.897,4,3v6C4,10.103,4.897,11,6,11z M5,3
			c0-0.552,0.448-1,1-1h12c0.552,0,1,0.448,1,1v6c0,0.552-0.448,1-1,1H6c-0.552,0-1-0.448-1-1V3z"/>
		<path d="M8,8c1.103,0,2-0.897,2-2S9.103,4,8,4S6,4.897,6,6S6.897,8,8,8z M8,5c0.552,0,1,0.448,1,1S8.552,7,8,7S7,6.552,7,6
			S7.448,5,8,5z"/>
		<path d="M16,8c1.103,0,2-0.897,2-2s-0.897-2-2-2s-2,0.897-2,2S14.897,8,16,8z M16,5c0.552,0,1,0.448,1,1s-0.448,1-1,1
			s-1-0.448-1-1S15.448,5,16,5z"/>
		<path d="M13.5,12h-3c-0.276,0-0.5,0.224-0.5,0.5s0.224,0.5,0.5,0.5h3c0.276,0,0.5-0.224,0.5-0.5S13.776,12,13.5,12z"/>
		<path d="M13.5,14h-3c-0.276,0-0.5,0.224-0.5,0.5s0.224,0.5,0.5,0.5h3c0.276,0,0.5-0.224,0.5-0.5S13.776,14,13.5,14z"/>
		<path d="M24,12c0-0.656-0.208-1.279-0.602-1.803c-0.166-0.223-0.481-0.265-0.7-0.099c-0.221,0.166-0.265,0.479-0.099,0.7
			C22.861,11.146,23,11.562,23,12c0,1.103-0.897,2-2,2c-0.635,0-1.218-0.291-1.6-0.799c-0.165-0.221-0.48-0.266-0.7-0.099
			c-0.221,0.166-0.265,0.479-0.099,0.7C19.174,14.563,20.048,15,21,15c0.2,0,0.396-0.021,0.586-0.06l0.357,1.61l-2.336,1.836
			l0.382-1.782c0.031-0.147-0.006-0.302-0.101-0.419S19.651,16,19.5,16h-15c-0.151,0-0.294,0.068-0.389,0.186
			s-0.132,0.271-0.101,0.419l0.382,1.782l-2.336-1.836l0.357-1.61C2.604,14.979,2.8,15,3,15c0.952,0,1.826-0.437,2.398-1.197
			c0.166-0.221,0.122-0.534-0.099-0.7c-0.219-0.166-0.534-0.123-0.7,0.099C4.218,13.709,3.635,14,3,14c-1.103,0-2-0.897-2-2
			c0-0.438,0.139-0.854,0.4-1.201c0.166-0.221,0.122-0.534-0.099-0.7c-0.219-0.166-0.534-0.124-0.7,0.099
			C0.208,10.721,0,11.344,0,12c0,1.094,0.595,2.044,1.473,2.568l-0.461,2.073c-0.042,0.188,0.028,0.383,0.18,0.502l3.5,2.75
			l0.019-0.024l0.801,3.735C5.561,23.835,5.765,24,6,24h2.5h7H18c0.235,0,0.439-0.165,0.489-0.396l0.801-3.735l0.019,0.024l3.5-2.75
			c0.151-0.119,0.222-0.314,0.18-0.502l-0.461-2.073C23.405,14.044,24,13.094,24,12z M9,23v-3h6v3H9z M17.596,23H16v-3.5
			c0-0.276-0.224-0.5-0.5-0.5h-7C8.224,19,8,19.224,8,19.5V23H6.404l-1.286-6h13.764L17.596,23z"/>
	</g>
</g>
<g id="invisible_shape">
	<rect fill="none" width="24" height="24"/>
</g>
</svg>
