<?xml version="1.0" encoding="utf-8"?>
<!-- Generator: Adobe Illustrator 16.0.3, SVG Export Plug-In . SVG Version: 6.00 Build 0)  -->
<!DOCTYPE svg PUBLIC "-//W3C//DTD SVG 1.1//EN" "http://www.w3.org/Graphics/SVG/1.1/DTD/svg11.dtd">
<svg version="1.1" xmlns="http://www.w3.org/2000/svg" xmlns:xlink="http://www.w3.org/1999/xlink" x="0px" y="0px" width="24px"
	 height="24px" viewBox="0 0 24 24" enable-background="new 0 0 24 24" xml:space="preserve">
<g id="Outline_Icons">
	<g>
		<path d="M20,10.5C20,6.364,16.636,3,12.5,3S5,6.364,5,10.5c0,2.872,1.624,5.368,4,6.628V19.5C9,19.776,9.224,20,9.5,20H10v1.5
			c0,0.276,0.224,0.5,0.5,0.5H12v1.5c0,0.276,0.224,0.5,0.5,0.5s0.5-0.224,0.5-0.5V22h1.5c0.276,0,0.5-0.224,0.5-0.5V20h0.5
			c0.276,0,0.5-0.224,0.5-0.5v-2.372C18.376,15.868,20,13.372,20,10.5z M14,21h-3v-1h3V21z M15,19h-0.5h-4H10v-1.438
			C10.783,17.841,11.622,18,12.5,18s1.717-0.159,2.5-0.438V19z M12.513,16.888c-0.008,0.034-0.012,0.068-0.013,0.103
			c-0.001-0.034-0.005-0.068-0.013-0.103L11.59,13h1.82L12.513,16.888z M13.534,16.91L14.437,13H15.5c0.827,0,1.5-0.673,1.5-1.5
			S16.327,10,15.5,10c-0.822,0-1.526,0.561-1.712,1.362L13.641,12h-2.281l-0.147-0.638C11.026,10.561,10.322,10,9.5,10
			C8.673,10,8,10.673,8,11.5S8.673,13,9.5,13h1.063l0.902,3.91C8.373,16.412,6,13.731,6,10.5C6,6.916,8.916,4,12.5,4
			S19,6.916,19,10.5C19,13.731,16.627,16.412,13.534,16.91z M14.667,12l0.096-0.413C14.843,11.241,15.146,11,15.5,11
			c0.275,0,0.5,0.225,0.5,0.5S15.775,12,15.5,12H14.667z M10.333,12H9.5C9.225,12,9,11.775,9,11.5S9.225,11,9.5,11
			c0.354,0,0.657,0.241,0.737,0.587L10.333,12z"/>
		<path d="M12.5,2C12.776,2,13,1.776,13,1.5v-1C13,0.224,12.776,0,12.5,0S12,0.224,12,0.5v1C12,1.776,12.224,2,12.5,2z"/>
		<path d="M19.218,3.075l-0.707,0.707c-0.195,0.195-0.195,0.512,0,0.707c0.098,0.098,0.226,0.146,0.354,0.146
			s0.256-0.049,0.354-0.146l0.707-0.707c0.195-0.195,0.195-0.512,0-0.707S19.413,2.88,19.218,3.075z"/>
		<path d="M22.5,10h-1c-0.276,0-0.5,0.224-0.5,0.5s0.224,0.5,0.5,0.5h1c0.276,0,0.5-0.224,0.5-0.5S22.776,10,22.5,10z"/>
		<path d="M19.218,16.511c-0.195-0.195-0.512-0.195-0.707,0s-0.195,0.512,0,0.707l0.707,0.707c0.098,0.098,0.226,0.146,0.354,0.146
			s0.256-0.049,0.354-0.146c0.195-0.195,0.195-0.512,0-0.707L19.218,16.511z"/>
		<path d="M5.782,4.489C5.88,4.587,6.008,4.636,6.136,4.636s0.256-0.049,0.354-0.146c0.195-0.195,0.195-0.512,0-0.707L5.782,3.075
			c-0.195-0.195-0.512-0.195-0.707,0s-0.195,0.512,0,0.707L5.782,4.489z"/>
		<path d="M3.5,10h-1C2.224,10,2,10.224,2,10.5S2.224,11,2.5,11h1C3.776,11,4,10.776,4,10.5S3.776,10,3.5,10z"/>
		<path d="M5.782,16.511l-0.707,0.707c-0.195,0.195-0.195,0.512,0,0.707c0.098,0.098,0.226,0.146,0.354,0.146
			s0.256-0.049,0.354-0.146l0.707-0.707c0.195-0.195,0.195-0.512,0-0.707S5.978,16.315,5.782,16.511z"/>
	</g>
</g>
<g id="invisible_shape">
	<rect fill="none" width="24" height="24"/>
</g>
</svg>
