<?xml version="1.0" encoding="utf-8"?>
<!-- Generator: Adobe Illustrator 16.0.3, SVG Export Plug-In . SVG Version: 6.00 Build 0)  -->
<!DOCTYPE svg PUBLIC "-//W3C//DTD SVG 1.1//EN" "http://www.w3.org/Graphics/SVG/1.1/DTD/svg11.dtd">
<svg version="1.1" xmlns="http://www.w3.org/2000/svg" xmlns:xlink="http://www.w3.org/1999/xlink" x="0px" y="0px" width="24px"
	 height="24px" viewBox="0 0 24 24" enable-background="new 0 0 24 24" xml:space="preserve">
<g id="Outline_Icons">
	<g>
		<path d="M2.5,17h3C5.776,17,6,16.776,6,16.5S5.776,16,5.5,16H3v-1h1.5C4.776,15,5,14.776,5,14.5S4.776,14,4.5,14H3v-1h2.5
			C5.776,13,6,12.776,6,12.5S5.776,12,5.5,12h-3C2.224,12,2,12.224,2,12.5v4C2,16.776,2.224,17,2.5,17z"/>
		<path d="M17.5,17h2c0.276,0,0.5-0.224,0.5-0.5S19.776,16,19.5,16h-2c-0.275,0-0.5-0.225-0.5-0.5v-2c0-0.275,0.225-0.5,0.5-0.5h2
			c0.276,0,0.5-0.224,0.5-0.5S19.776,12,19.5,12h-2c-0.827,0-1.5,0.673-1.5,1.5v2C16,16.327,16.673,17,17.5,17z"/>
		<path d="M7,14h2.5c0.276,0,0.5-0.224,0.5-0.5S9.776,13,9.5,13H7c-0.276,0-0.5,0.224-0.5,0.5S6.724,14,7,14z"/>
		<path d="M7,16h2.5c0.276,0,0.5-0.224,0.5-0.5S9.776,15,9.5,15H7c-0.276,0-0.5,0.224-0.5,0.5S6.724,16,7,16z"/>
		<path d="M11.5,17c0.276,0,0.5-0.224,0.5-0.5V14l0.6,0.8c0.189,0.252,0.611,0.252,0.801,0L14,14v2.5c0,0.276,0.224,0.5,0.5,0.5
			s0.5-0.224,0.5-0.5v-4c0-0.215-0.138-0.406-0.342-0.475c-0.202-0.063-0.429,0.002-0.559,0.175L13,13.667L11.9,12.2
			c-0.13-0.173-0.355-0.239-0.559-0.175C11.138,12.094,11,12.285,11,12.5v4C11,16.776,11.224,17,11.5,17z"/>
		<path d="M18,8.5c0.276,0,0.5-0.224,0.5-0.5c0-0.733,0.598-1,1-1c0.495,0,1,0.407,1.001,0.796c-0.062,0.359-1.352,1.423-2.76,2.276
			c-0.192,0.116-0.283,0.346-0.223,0.562C17.579,10.851,17.775,11,18,11h3c0.276,0,0.5-0.224,0.5-0.5S21.276,10,21,10h-1.34
			c0.952-0.697,1.84-1.526,1.84-2.193C21.5,6.742,20.446,6,19.5,6c-0.97,0-2,0.701-2,2C17.5,8.276,17.724,8.5,18,8.5z"/>
		<path d="M23.5,4h-23C0.224,4,0,4.224,0,4.5v15C0,19.776,0.224,20,0.5,20h23c0.276,0,0.5-0.224,0.5-0.5v-15
			C24,4.224,23.776,4,23.5,4z M23,19H1V5h22V19z"/>
	</g>
</g>
<g id="invisible_shape">
	<rect fill="none" width="24" height="24"/>
</g>
</svg>
