<?xml version="1.0" encoding="utf-8"?>
<!-- Generator: Adobe Illustrator 16.0.3, SVG Export Plug-In . SVG Version: 6.00 Build 0)  -->
<!DOCTYPE svg PUBLIC "-//W3C//DTD SVG 1.1//EN" "http://www.w3.org/Graphics/SVG/1.1/DTD/svg11.dtd">
<svg version="1.1" xmlns="http://www.w3.org/2000/svg" xmlns:xlink="http://www.w3.org/1999/xlink" x="0px" y="0px" width="24px"
	 height="24px" viewBox="0 0 24 24" enable-background="new 0 0 24 24" xml:space="preserve">
<g id="Outline_Icons">
	<g>
		<path d="M23.5,12h-2.727l-4.158-6.469l1.775-2.219c0.172-0.216,0.138-0.53-0.078-0.703c-0.216-0.17-0.529-0.137-0.703,0.078
			L15.76,5H8.24l-1.85-2.312C6.219,2.474,5.905,2.439,5.688,2.609c-0.216,0.173-0.25,0.487-0.078,0.703l1.775,2.219L3.227,12H0.5
			C0.224,12,0,12.224,0,12.5S0.224,13,0.5,13h2.727l4.158,6.469l-1.775,2.219c-0.172,0.216-0.138,0.53,0.078,0.703
			C5.78,22.464,5.89,22.5,6,22.5c0.146,0,0.292-0.064,0.391-0.188L8.24,20h7.52l1.85,2.312C17.708,22.436,17.854,22.5,18,22.5
			c0.109,0,0.22-0.036,0.312-0.109c0.216-0.173,0.25-0.487,0.078-0.703l-1.775-2.219L20.773,13H23.5c0.276,0,0.5-0.224,0.5-0.5
			S23.776,12,23.5,12z M15.727,19H8.273l-4.179-6.5L8.273,6h7.453l4.179,6.5L15.727,19z"/>
		<path d="M11,10.25c0,1.792,1.458,3.25,3.25,3.25s3.25-1.458,3.25-3.25S16.042,7,14.25,7S11,8.458,11,10.25z M16.5,10.25
			c0,1.24-1.01,2.25-2.25,2.25S12,11.49,12,10.25S13.01,8,14.25,8S16.5,9.01,16.5,10.25z"/>
		<path d="M9.75,14C8.785,14,8,14.785,8,15.75s0.785,1.75,1.75,1.75s1.75-0.785,1.75-1.75S10.715,14,9.75,14z M9.75,16.5
			C9.337,16.5,9,16.163,9,15.75S9.337,15,9.75,15s0.75,0.337,0.75,0.75S10.163,16.5,9.75,16.5z"/>
	</g>
</g>
<g id="invisible_shape">
	<rect fill="none" width="24" height="24"/>
</g>
</svg>
