<?xml version="1.0" encoding="utf-8"?>
<!-- Generator: Adobe Illustrator 16.0.3, SVG Export Plug-In . SVG Version: 6.00 Build 0)  -->
<!DOCTYPE svg PUBLIC "-//W3C//DTD SVG 1.1//EN" "http://www.w3.org/Graphics/SVG/1.1/DTD/svg11.dtd">
<svg version="1.1" xmlns="http://www.w3.org/2000/svg" xmlns:xlink="http://www.w3.org/1999/xlink" x="0px" y="0px" width="24px"
	 height="24px" viewBox="0 0 24 24" enable-background="new 0 0 24 24" xml:space="preserve">
<g id="Outline_Icons_1_">
	<g id="Outline_Icons">
		<g>
			<path d="M17.107,15.017L13,13.632V7.991c0-1.103-0.901-2-2.008-2C9.894,5.991,9,6.88,9,7.974v9.422
				c-1.481-1.961-2.493-2.398-3.561-2.398c-0.507,0-0.914,0.234-1.144,0.659c-0.355,0.655-0.172,1.583,0.183,2.128l4.016,6.015
				c0.093,0.139,0.249,0.222,0.416,0.222h7.984c0.241,0,0.447-0.172,0.492-0.409l1.022-5.493
				C18.686,16.915,18.395,15.43,17.107,15.017z M17.429,17.915l-0.95,5.106H9.178l-3.864-5.788c-0.21-0.322-0.276-0.846-0.139-1.101
				c0.036-0.065,0.088-0.135,0.265-0.135c0.77,0,1.686,0.252,3.641,3.265c0.121,0.186,0.349,0.269,0.562,0.208
				C9.854,19.407,10,19.212,10,18.991V7.974c0-0.542,0.445-0.983,0.992-0.983c0.556,0,1.008,0.449,1.008,1v6
				c0,0.215,0.137,0.405,0.34,0.474l4.454,1.502C17.487,16.189,17.612,17.122,17.429,17.915z"/>
			<path d="M7.792,0.899c-0.225-0.162-0.537-0.11-0.698,0.115L2.416,7.535L0.854,5.974c-0.195-0.195-0.512-0.195-0.707,0
				s-0.195,0.512,0,0.708l1.979,1.978c0.1,0.1,0.24,0.157,0.394,0.145c0.146-0.012,0.28-0.087,0.366-0.207l5.021-7
				C8.067,1.372,8.016,1.06,7.792,0.899z"/>
			<path d="M19.707,4.805l3.146-3.146c0.195-0.195,0.195-0.512,0-0.707s-0.512-0.195-0.707,0L19,4.098l-3.146-3.146
				c-0.195-0.195-0.512-0.195-0.707,0s-0.195,0.512,0,0.707l3.146,3.146l-3.146,3.146c-0.195,0.195-0.195,0.512,0,0.707
				s0.512,0.195,0.707,0L19,5.512l3.146,3.146c0.195,0.195,0.512,0.195,0.707,0s0.195-0.512,0-0.707L19.707,4.805z"/>
		</g>
	</g>
</g>
<g id="Invisible_Shape">
	<rect fill="none" width="24" height="24"/>
</g>
</svg>
