<?xml version="1.0" encoding="utf-8"?>
<!-- Generator: Adobe Illustrator 16.0.3, SVG Export Plug-In . SVG Version: 6.00 Build 0)  -->
<!DOCTYPE svg PUBLIC "-//W3C//DTD SVG 1.1//EN" "http://www.w3.org/Graphics/SVG/1.1/DTD/svg11.dtd">
<svg version="1.1" xmlns="http://www.w3.org/2000/svg" xmlns:xlink="http://www.w3.org/1999/xlink" x="0px" y="0px" width="24px"
	 height="24px" viewBox="0 0 24 24" enable-background="new 0 0 24 24" xml:space="preserve">
<g id="Outline_Icons">
	<path d="M23.809,5.945c-0.515-1.242-1.993-1.882-3.274-1.349l-4.3,1.871L9.772,3.799c-0.122-0.049-0.26-0.05-0.382,0L5.695,5.331
		c-0.187,0.078-0.309,0.26-0.309,0.462s0.122,0.385,0.309,0.462l5.65,2.339l-4.264,1.854L4.291,9.053
		C4.16,8.987,4.006,8.983,3.87,9.041l-3.5,1.5c-0.153,0.065-0.263,0.203-0.294,0.365c-0.031,0.163,0.021,0.331,0.138,0.448l4.5,4.5
		c0.142,0.142,0.354,0.185,0.539,0.111l6.449-2.58l-2.603,6.939c-0.072,0.193-0.019,0.41,0.134,0.547
		C9.326,20.956,9.446,21,9.567,21c0.076,0,0.153-0.017,0.224-0.053l4-2c0.097-0.048,0.175-0.127,0.224-0.224l3.912-7.823
		l4.529-1.688c0.617-0.255,1.098-0.736,1.354-1.353C24.065,7.242,24.065,6.562,23.809,5.945z M7.193,5.792l2.389-0.99l5.376,2.219
		L12.62,8.039L7.193,5.792z M22.885,7.476c-0.153,0.371-0.442,0.659-0.796,0.805l-4.697,1.75c-0.119,0.044-0.216,0.132-0.273,0.245
		l-3.925,7.851l-2.712,1.356l2.553-6.808c0.069-0.186,0.023-0.395-0.119-0.533C12.821,12.049,12.695,12,12.567,12
		c-0.062,0-0.125,0.012-0.186,0.036l-7.194,2.877l-3.745-3.745l2.608-1.118l2.792,1.396c0.133,0.066,0.288,0.07,0.423,0.011
		l13.659-5.942c0.752-0.312,1.651,0.067,1.96,0.812C23.039,6.698,23.039,7.105,22.885,7.476z"/>
</g>
<g id="invisible_shape">
	<rect fill="none" width="24" height="24"/>
</g>
</svg>
