<?xml version="1.0" encoding="utf-8"?>
<!-- Generator: Adobe Illustrator 19.2.1, SVG Export Plug-In . SVG Version: 6.00 Build 0)  -->
<svg version="1.1" xmlns="http://www.w3.org/2000/svg" xmlns:xlink="http://www.w3.org/1999/xlink" x="0px" y="0px" width="24px"
	 height="24px" viewBox="0 0 24 24" enable-background="new 0 0 24 24" xml:space="preserve">
<g id="Outline_Icons">
	<path d="M23.749,18.807l-4.597-3.182c-0.104-0.072-0.231-0.099-0.358-0.083l-2.23,0.333l-3.874-3.873l4.673-4.672l2.228,0.317
		c0.024,0.003,0.047,0.005,0.07,0.005c0.198,0,0.38-0.117,0.46-0.303l2.121-4.95c0.08-0.188,0.038-0.406-0.106-0.55
		c-0.145-0.145-0.363-0.186-0.551-0.106l-4.949,2.122c-0.207,0.089-0.33,0.306-0.298,0.53l0.318,2.228l-4.673,4.672L7.31,6.622
		l0.318-2.228C7.66,4.169,7.537,3.952,7.33,3.863L2.381,1.741C2.193,1.661,1.976,1.703,1.83,1.847
		C1.686,1.992,1.644,2.21,1.724,2.398l2.121,4.95c0.08,0.186,0.262,0.303,0.46,0.303c0.023,0,0.047-0.001,0.07-0.005l2.227-0.317
		l4.673,4.672l-3.874,3.873l-2.23-0.333c-0.128-0.018-0.254,0.011-0.358,0.083l-4.597,3.182c-0.146,0.101-0.227,0.27-0.215,0.446
		c0.013,0.176,0.116,0.333,0.274,0.412l2.219,1.117l-0.865,0.865c-0.195,0.195-0.195,0.512,0,0.707
		C1.727,22.451,1.855,22.5,1.983,22.5s0.256-0.049,0.353-0.146l0.871-0.871l1.129,2.242c0.079,0.158,0.235,0.262,0.411,0.274
		C4.759,24,4.771,24,4.782,24c0.163,0,0.317-0.08,0.411-0.215l3.183-4.596c0.072-0.104,0.103-0.233,0.083-0.359L8.12,16.57
		l3.862-3.862l3.862,3.862l-0.339,2.26c-0.02,0.126,0.011,0.254,0.083,0.359l3.183,4.596C18.865,23.92,19.02,24,19.183,24
		c0.012,0,0.023,0,0.035-0.001c0.176-0.013,0.332-0.117,0.411-0.274l1.129-2.242l0.871,0.871c0.098,0.098,0.226,0.146,0.353,0.146
		c0.128,0,0.256-0.049,0.354-0.146c0.195-0.195,0.195-0.512,0-0.707l-0.865-0.865l2.219-1.117c0.158-0.08,0.262-0.236,0.274-0.412
		C23.976,19.077,23.895,18.907,23.749,18.807z M20.829,3.153l-1.478,3.449l-1.724-0.246l-0.247-1.725L20.829,3.153z M3.136,3.153
		l3.448,1.478L6.337,6.356L4.613,6.602L3.136,3.153z M1.477,19.15l3.742-2.59l1.303,0.195l-3.283,3.283L1.477,19.15z M4.851,22.523
		l-0.899-1.785l3.29-3.29l0.2,1.334L4.851,22.523z M19.114,22.523l-2.591-3.741l0.2-1.334l3.29,3.29L19.114,22.523z M20.727,20.037
		l-3.283-3.283l1.303-0.195l3.742,2.59L20.727,20.037z"/>
</g>
<g id="invisible_shape">
	<rect fill="none" width="24" height="24"/>
</g>
</svg>
