<?xml version="1.0" encoding="utf-8"?>
<!-- Generator: Adobe Illustrator 16.0.3, SVG Export Plug-In . SVG Version: 6.00 Build 0)  -->
<!DOCTYPE svg PUBLIC "-//W3C//DTD SVG 1.1//EN" "http://www.w3.org/Graphics/SVG/1.1/DTD/svg11.dtd">
<svg version="1.1" xmlns="http://www.w3.org/2000/svg" xmlns:xlink="http://www.w3.org/1999/xlink" x="0px" y="0px" width="24px"
	 height="24px" viewBox="0 0 24 24" enable-background="new 0 0 24 24" xml:space="preserve">
<g id="Outline_Icons">
	<path d="M21.5,13H20v-2.5c0-0.276-0.224-0.5-0.5-0.5h-0.949c0.824-0.725,1.355-1.775,1.355-2.956c0-3.051-2.209-5.859-5.138-6.533
		C14.531,0.457,14.3,0.574,14.202,0.79c-0.1,0.215-0.033,0.471,0.158,0.611c1.039,0.764,1.202,2.137,0.985,3.041
		c-0.105-0.147-0.173-0.301-0.192-0.478c-0.018-0.154-0.106-0.292-0.24-0.371C14.78,3.512,14.616,3.5,14.472,3.556
		c-1.572,0.623-2.474,1.895-2.474,3.488c0,1.181,0.531,2.231,1.355,2.956H12.5c-0.276,0-0.5,0.224-0.5,0.5V13H9V0.5
		C9,0.224,8.776,0,8.5,0h-2C4.019,0,2,2.019,2,4.5v5C2,11.982,4.019,14,6.5,14H8v7.5c0,1.378,1.121,2.5,2.5,2.5h9
		c1.379,0,2.5-1.122,2.5-2.5v-8C22,13.224,21.776,13,21.5,13z M12.998,7.044c0-1.004,0.476-1.813,1.352-2.321
		c0.199,0.401,0.521,0.708,0.854,0.98c0.11,0.09,0.253,0.13,0.392,0.107c0.14-0.021,0.264-0.101,0.342-0.219
		c0.525-0.794,0.695-2.213,0.2-3.449c1.652,1.018,2.769,2.898,2.769,4.901c0,1.628-1.325,2.954-2.954,2.954
		S12.998,8.672,12.998,7.044z M13,11h6v2h-6V11z M3,9.5v-5C3,2.57,4.57,1,6.5,1H8v12H6.5C4.57,13,3,11.43,3,9.5z M21,21.5
		c0,0.827-0.673,1.5-1.5,1.5h-9C9.673,23,9,22.327,9,21.5V14h12V21.5z"/>
</g>
<g id="invisible_shape">
	<rect fill="none" width="24" height="24"/>
</g>
</svg>
