<?xml version="1.0" encoding="utf-8"?>
<!-- Generator: Adobe Illustrator 16.0.3, SVG Export Plug-In . SVG Version: 6.00 Build 0)  -->
<!DOCTYPE svg PUBLIC "-//W3C//DTD SVG 1.1//EN" "http://www.w3.org/Graphics/SVG/1.1/DTD/svg11.dtd">
<svg version="1.1" xmlns="http://www.w3.org/2000/svg" xmlns:xlink="http://www.w3.org/1999/xlink" x="0px" y="0px" width="24px"
	 height="24px" viewBox="0 0 24 24" enable-background="new 0 0 24 24" xml:space="preserve">
<g id="Outline_Icons">
	<g>
		<path d="M23.311,10.608c-0.185-0.147-0.449-0.144-0.63,0.007l-4.396,3.66C18.143,14.42,17.953,14.5,17.75,14.5
			c-0.413,0-0.75-0.337-0.75-0.75c0-0.163,0.052-0.318,0.155-0.458l2.562-3.596C19.897,9.51,20,9.26,20,9c0-0.552-0.448-1-1-1
			c-0.192,0-0.38,0.055-0.46,0.117L17,8.752V8.5c0-3.859-3.141-7-7-7s-7,3.141-7,7v0.253L1.517,8.145C1.36,8.05,1.184,8,1,8
			C0.448,8,0,8.448,0,9c0,0.219,0.069,0.426,0.206,0.607l2.796,3.568C3.058,15.41,4.169,17.451,6,18.73v0.77
			C6,20.879,7.121,22,8.5,22c1.164,0,2.136-0.803,2.413-1.881l1.466,0.366c2.047,0.512,2.333,0.514,3.079,0.514
			c0.003,0,0.007,0,0.01,0c1.911,0,3.628-1.063,4.479-2.775l3.5-7C23.553,11.012,23.496,10.755,23.311,10.608z M8.5,21
			C7.673,21,7,20.327,7,19.5V15h1v3.5C8,18.776,8.224,19,8.5,19S9,18.776,9,18.5V15h1v4.5C10,20.327,9.327,21,8.5,21z
			 M19.053,17.777c-0.682,1.37-2.056,2.222-3.589,2.222c-0.646,0.008-0.906,0-2.843-0.484L11,19.109V15h0.5
			c0.276,0,0.5-0.224,0.5-0.5S11.776,14,11.5,14h-6C5.224,14,5,14.224,5,14.5S5.224,15,5.5,15H6v2.46C4.738,16.331,4,14.728,4,13
			c0-0.111-0.037-0.221-0.106-0.309L0.998,9c0.03,0.021,0.062,0.038,0.097,0.053l2.216,0.909c0.151,0.061,0.329,0.046,0.468-0.048
			C3.917,9.821,4,9.666,4,9.499V8.5c0-3.309,2.691-6,6-6s6,2.691,6,6v0.999c0,0.167,0.083,0.322,0.222,0.415
			c0.14,0.094,0.314,0.11,0.469,0.047l2.309-0.96c-0.026,0.023-0.05,0.05-0.07,0.079l-2.581,3.622C16.12,13.007,16,13.369,16,13.75
			c0,0.965,0.785,1.75,1.75,1.75c0.473,0,0.916-0.186,1.211-0.489l2.525-2.101L19.053,17.777z"/>
		<path d="M12.723,7.084l-3,2C9.493,9.237,9.431,9.548,9.584,9.777C9.681,9.922,9.839,10,10,10c0.096,0,0.192-0.027,0.277-0.084
			L11,9.435V10.5c0,0.276,0.224,0.5,0.5,0.5s0.5-0.224,0.5-0.5V8.768l1.277-0.852c0.229-0.153,0.292-0.464,0.139-0.693
			C13.262,6.991,12.95,6.932,12.723,7.084z"/>
		<path d="M5.277,7.084C5.049,6.932,4.738,6.992,4.584,7.223c-0.153,0.229-0.091,0.54,0.139,0.693L6,8.768V10.5
			C6,10.776,6.224,11,6.5,11S7,10.776,7,10.5V9.435l0.723,0.481C7.808,9.973,7.904,10,8,10c0.161,0,0.319-0.078,0.416-0.223
			c0.153-0.229,0.091-0.54-0.139-0.693L5.277,7.084z"/>
	</g>
</g>
<g id="invisible_shape">
	<rect fill="none" width="24" height="24"/>
</g>
</svg>
