<?xml version="1.0" encoding="utf-8"?>
<!-- Generator: Adobe Illustrator 16.0.3, SVG Export Plug-In . SVG Version: 6.00 Build 0)  -->
<!DOCTYPE svg PUBLIC "-//W3C//DTD SVG 1.1//EN" "http://www.w3.org/Graphics/SVG/1.1/DTD/svg11.dtd">
<svg version="1.1" xmlns="http://www.w3.org/2000/svg" xmlns:xlink="http://www.w3.org/1999/xlink" x="0px" y="0px" width="24px"
	 height="24px" viewBox="0 0 24 24" enable-background="new 0 0 24 24" xml:space="preserve">
<g id="Outline_Icons">
	<g>
		<path d="M17.5,12H15v-0.5c0-1.378-1.122-2.5-2.5-2.5h-1C10.122,9,9,10.122,9,11.5V12H6.5C4.57,12,3,13.57,3,15.5v5
			C3,22.43,4.57,24,6.5,24h11c1.93,0,3.5-1.57,3.5-3.5v-5C21,13.57,19.43,12,17.5,12z M7,13h2v10H7V13z M10,13h4v10h-4V13z M15,13h2
			v10h-2V13z M10,11.5c0-0.827,0.673-1.5,1.5-1.5h1c0.827,0,1.5,0.673,1.5,1.5V12h-4V11.5z M4,20.5v-5c0-1.207,0.86-2.217,2-2.449
			v9.898C4.86,22.717,4,21.707,4,20.5z M20,20.5c0,1.207-0.86,2.217-2,2.449v-9.898c1.14,0.232,2,1.242,2,2.449V20.5z"/>
		<path d="M5,2.516c-1.103,0-2,0.897-2,2c0,1.104,0.897,2,2,2s2-0.896,2-2C7,3.413,6.103,2.516,5,2.516z M5,5.516
			c-0.551,0-1-0.449-1-1c0-0.551,0.449-1,1-1s1,0.449,1,1C6,5.067,5.551,5.516,5,5.516z"/>
		<path d="M22.5,3H9.252C8.634,1.225,6.939,0.016,5,0.016c-2.481,0-4.5,2.019-4.5,4.5s2.019,4.5,4.5,4.5
			c1.919,0,3.611-1.222,4.243-3.016H14v1.5C14,7.776,14.224,8,14.5,8h2C16.776,8,17,7.776,17,7.5V6h1v1.5C18,7.776,18.224,8,18.5,8
			h2C20.776,8,21,7.776,21,7.5V6h1.5C23.327,6,24,5.327,24,4.5S23.327,3,22.5,3z M22.5,5h-2C20.224,5,20,5.224,20,5.5V7h-1V5.5
			C19,5.224,18.776,5,18.5,5h-2C16.224,5,16,5.224,16,5.5V7h-1V5.5C15,5.224,14.776,5,14.5,5H8.873C8.645,5,8.446,5.154,8.389,5.375
			C7.987,6.93,6.594,8.016,5,8.016c-1.93,0-3.5-1.57-3.5-3.5s1.57-3.5,3.5-3.5c1.614,0,3.01,1.072,3.395,2.606
			C8.451,3.844,8.65,4,8.88,4H22.5C22.776,4,23,4.224,23,4.5C23,4.776,22.776,5,22.5,5z"/>
	</g>
</g>
<g id="invisible_shape">
	<rect fill="none" width="24" height="24"/>
</g>
</svg>
