<?xml version="1.0" encoding="utf-8"?>
<!-- Generator: Adobe Illustrator 16.0.3, SVG Export Plug-In . SVG Version: 6.00 Build 0)  -->
<!DOCTYPE svg PUBLIC "-//W3C//DTD SVG 1.1//EN" "http://www.w3.org/Graphics/SVG/1.1/DTD/svg11.dtd">
<svg version="1.1" xmlns="http://www.w3.org/2000/svg" xmlns:xlink="http://www.w3.org/1999/xlink" x="0px" y="0px" width="24px"
	 height="24px" viewBox="0 0 24 24" enable-background="new 0 0 24 24" xml:space="preserve">
<g id="Outline_Icons">
	<g>
		<path d="M22.691,0.038c-0.186-0.076-0.401-0.035-0.545,0.108c-1.018,1.018-5.191,1.728-10.149,1.728
			c-4.955,0-9.126-0.71-10.144-1.728C1.711,0.004,1.494-0.037,1.309,0.038C1.122,0.115,1,0.298,1,0.5V12c0,6.753,8.773,12,11,12
			s11-5.247,11-12V0.5C23,0.298,22.878,0.115,22.691,0.038z M22,12c0,5.925-8.101,11-10,11S2,17.925,2,12V1.438
			c2.085,1.047,6.343,1.436,9.997,1.436c3.657,0,7.918-0.389,10.003-1.436V12z"/>
		<path d="M10,6.998c0-0.276-0.224-0.5-0.5-0.5S9,6.722,9,6.998c0,0.827-0.673,1.5-1.5,1.5S6,7.825,6,6.998
			c0-0.276-0.224-0.5-0.5-0.5S5,6.722,5,6.998c0,1.379,1.121,2.5,2.5,2.5S10,8.377,10,6.998z"/>
		<path d="M16.5,9.498c1.379,0,2.5-1.121,2.5-2.5c0-0.276-0.224-0.5-0.5-0.5S18,6.722,18,6.998c0,0.827-0.673,1.5-1.5,1.5
			S15,7.825,15,6.998c0-0.276-0.224-0.5-0.5-0.5S14,6.722,14,6.998C14,8.377,15.121,9.498,16.5,9.498z"/>
		<path d="M7.5,17.998c0,0.276,0.224,0.5,0.5,0.5s0.5-0.224,0.5-0.5c0-1.93,1.57-3.5,3.5-3.5s3.5,1.57,3.5,3.5
			c0,0.276,0.224,0.5,0.5,0.5s0.5-0.224,0.5-0.5c0-2.481-2.019-4.5-4.5-4.5S7.5,15.517,7.5,17.998z"/>
	</g>
</g>
<g id="invisble_shape">
	<rect fill="none" width="24" height="24"/>
</g>
</svg>
