<?xml version="1.0" encoding="utf-8"?>
<!-- Generator: Adobe Illustrator 16.0.3, SVG Export Plug-In . SVG Version: 6.00 Build 0)  -->
<!DOCTYPE svg PUBLIC "-//W3C//DTD SVG 1.1//EN" "http://www.w3.org/Graphics/SVG/1.1/DTD/svg11.dtd">
<svg version="1.1" xmlns="http://www.w3.org/2000/svg" xmlns:xlink="http://www.w3.org/1999/xlink" x="0px" y="0px" width="24px"
	 height="24px" viewBox="0 0 24 24" enable-background="new 0 0 24 24" xml:space="preserve">
<g id="Outline_Icons">
	<g>
		<path d="M12.759,3h0.833C13.799,3.581,14.349,4,15,4h4c0.827,0,1.5-0.673,1.5-1.5S19.827,1,19,1h-4c-0.651,0-1.201,0.419-1.408,1
			h-0.833C9.823,2,7.41,4.296,7.27,7.193L5.719,20H4.5c-0.215,0-0.406,0.138-0.475,0.342l-1,3C2.975,23.494,3,23.662,3.095,23.792
			C3.188,23.923,3.339,24,3.5,24h5c0.161,0,0.312-0.077,0.405-0.208c0.095-0.13,0.12-0.298,0.069-0.451l-1-3
			C7.906,20.138,7.715,20,7.5,20H6.725l0.484-4H16.5c0.263,0.002,0.483,0.191,0.523,0.45l0.404,2.622
			c-1.103,0.26-1.928,1.247-1.928,2.428c0,1.378,1.121,2.5,2.5,2.5s2.5-1.122,2.5-2.5c0-1.229-0.894-2.248-2.064-2.456l-0.424-2.747
			c-0.116-0.747-0.75-1.292-1.515-1.297H7.33l0.935-7.723C8.383,4.879,10.356,3,12.759,3z M15,2h4c0.275,0,0.5,0.224,0.5,0.5
			C19.5,2.776,19.275,3,19,3h-4c-0.275,0-0.5-0.224-0.5-0.5C14.5,2.224,14.725,2,15,2z M7.807,23H4.193l0.667-2H7.14L7.807,23z
			 M19.5,21.5c0,0.827-0.673,1.5-1.5,1.5s-1.5-0.673-1.5-1.5S17.173,20,18,20S19.5,20.673,19.5,21.5z"/>
	</g>
</g>
<g id="invisible_shape">
	<rect fill="none" width="24" height="24"/>
</g>
</svg>
