<?xml version="1.0" encoding="utf-8"?>
<!-- Generator: Adobe Illustrator 16.0.3, SVG Export Plug-In . SVG Version: 6.00 Build 0)  -->
<!DOCTYPE svg PUBLIC "-//W3C//DTD SVG 1.1//EN" "http://www.w3.org/Graphics/SVG/1.1/DTD/svg11.dtd">
<svg version="1.1" xmlns="http://www.w3.org/2000/svg" xmlns:xlink="http://www.w3.org/1999/xlink" x="0px" y="0px" width="24px"
	 height="24px" viewBox="0 0 24 24" enable-background="new 0 0 24 24" xml:space="preserve">
<g id="Outline_Icons">
	<g>
		<path d="M23.5,5H14V4.5C14,3.121,12.878,2,11.5,2S9,3.121,9,4.5v1V9H5C4.818,9,4.65,9.099,4.562,9.257l-2.466,4.439l-1.95,1.95
			C0.052,15.74,0,15.867,0,16v5.5C0,21.776,0.223,22,0.5,22h2.05c0.232,1.14,1.242,2,2.45,2s2.217-0.86,2.45-2h9.101
			c0.232,1.14,1.242,2,2.45,2s2.217-0.86,2.45-2h2.05c0.276,0,0.5-0.224,0.5-0.5v-16C24,5.224,23.776,5,23.5,5z M23,19H10V9.5V6h3.5
			H23V19z M16.55,21H7.449c-0.076-0.372-0.241-0.708-0.462-1h10.025C16.791,20.292,16.626,20.628,16.55,21z M10,4.5
			C10,3.673,10.672,3,11.5,3S13,3.673,13,4.5V5h-3V4.5z M2.853,14.354c0.033-0.033,0.061-0.07,0.083-0.11L5.294,10H9v9H1v-2.793
			L2.853,14.354z M1,20h2.013c-0.221,0.292-0.386,0.628-0.462,1H1V20z M5,23c-0.827,0-1.5-0.673-1.5-1.5S4.172,20,5,20
			s1.5,0.673,1.5,1.5S5.827,23,5,23z M19,23c-0.827,0-1.5-0.673-1.5-1.5S18.172,20,19,20s1.5,0.673,1.5,1.5S19.827,23,19,23z
			 M21.449,21c-0.076-0.372-0.241-0.708-0.462-1H23v1H21.449z"/>
		<path d="M4.276,14.947C4.348,14.983,4.424,15,4.499,15c0.184,0,0.36-0.102,0.448-0.276L6.309,12H7.5C7.776,12,8,11.776,8,11.5
			S7.776,11,7.5,11H6c-0.189,0-0.362,0.107-0.447,0.276l-1.5,3C3.929,14.523,4.029,14.823,4.276,14.947z"/>
		<path d="M11,12.5c0,0.276,0.224,0.5,0.5,0.5h3.071c0.059,0.227,0.151,0.439,0.28,0.628l-2.001,2.294
			c-0.181,0.208-0.16,0.524,0.048,0.706c1.044,0.911,2.323,1.367,3.603,1.367c1.279,0,2.559-0.456,3.603-1.367
			c0.208-0.182,0.229-0.498,0.048-0.706l-2.001-2.294c0.129-0.188,0.221-0.401,0.28-0.628H21.5c0.276,0,0.5-0.224,0.5-0.5
			c0-2.144-1.267-4.104-3.229-4.998c-0.12-0.056-0.258-0.06-0.382-0.013c-0.125,0.046-0.225,0.14-0.28,0.261l-1.266,2.785
			c-0.112-0.02-0.226-0.035-0.343-0.035s-0.231,0.016-0.343,0.035L14.89,7.75c-0.055-0.121-0.155-0.215-0.28-0.261
			c-0.124-0.047-0.262-0.043-0.382,0.013C12.267,8.396,11,10.356,11,12.5z M13.949,16.183l1.66-1.901
			c0.27,0.135,0.569,0.219,0.891,0.219s0.622-0.084,0.891-0.219l1.66,1.901C17.507,17.263,15.491,17.263,13.949,16.183z
			 M18.801,8.645c1.207,0.721,2.013,1.967,2.17,3.355h-2.542c-0.109-0.42-0.35-0.781-0.677-1.047L18.801,8.645z M17.5,12.5
			c0,0.552-0.449,1-1,1s-1-0.448-1-1s0.449-1,1-1S17.5,11.948,17.5,12.5z M14.198,8.645l1.049,2.309
			C14.92,11.219,14.68,11.58,14.57,12h-2.542C12.186,10.611,12.992,9.365,14.198,8.645z"/>
	</g>
</g>
<g id="invisible_shape">
	<rect fill="none" width="24" height="24"/>
</g>
</svg>
