<?xml version="1.0" encoding="utf-8"?>
<!-- Generator: Adobe Illustrator 16.0.3, SVG Export Plug-In . SVG Version: 6.00 Build 0)  -->
<!DOCTYPE svg PUBLIC "-//W3C//DTD SVG 1.1//EN" "http://www.w3.org/Graphics/SVG/1.1/DTD/svg11.dtd">
<svg version="1.1" xmlns="http://www.w3.org/2000/svg" xmlns:xlink="http://www.w3.org/1999/xlink" x="0px" y="0px" width="24px"
	 height="24px" viewBox="0 0 24 24" enable-background="new 0 0 24 24" xml:space="preserve">
<g id="Outline_Icons">
	<g>
		<path d="M22.067,2.293c-1.2-1.2-2.854-1.861-4.657-1.861c-2.149,0-4.318,0.936-5.95,2.567c-2.036,2.036-2.869,4.769-2.45,7.181
			l-0.014-0.001c-0.277,2.655-0.994,5.099-1.159,5.636l-2.741,2.742l-0.283-0.283C4.72,18.18,4.593,18.127,4.46,18.127
			s-0.26,0.053-0.354,0.146l-3.182,3.183c-0.585,0.585-0.585,1.536-0.001,2.12c0.282,0.283,0.659,0.439,1.062,0.439
			s0.78-0.156,1.061-0.438l3.182-3.182c0.195-0.195,0.195-0.512,0-0.707l-0.424-0.425l2.741-2.742
			c0.538-0.164,2.986-0.882,5.655-1.16c0.394,0.067,0.797,0.106,1.209,0.106c2.15,0,4.318-0.937,5.951-2.569
			C24.479,9.779,24.796,5.021,22.067,2.293z M2.339,22.871c-0.186,0.188-0.52,0.188-0.707-0.001c-0.195-0.195-0.195-0.512,0-0.707
			l2.829-2.829l0.708,0.708L2.339,22.871z M22.554,9.143l-1.191-1.191l1.535-1.537C22.974,7.307,22.858,8.236,22.554,9.143z
			 M11.851,13.217l2.438-2.439l1.42,1.421l-1.998,2.001C13.022,13.993,12.396,13.663,11.851,13.217z M10.268,6.755l1.21,1.21
			L9.926,9.523C9.843,8.619,9.959,7.675,10.268,6.755z M17.825,5.828l-1.414,1.414l-1.405-1.404l1.411-1.418L17.825,5.828z
			 M17.123,3.712l1.999-2.008c0.686,0.206,1.308,0.535,1.849,0.979l-2.438,2.438L17.123,3.712z M18.532,6.535l1.416,1.416
			l-1.412,1.416l-1.418-1.418L18.532,6.535z M15.704,7.949L14.29,9.363l-1.4-1.399l1.411-1.418L15.704,7.949z M14.299,5.131
			l-1.761-1.762c0.519-0.459,1.085-0.842,1.684-1.145l1.488,1.488L14.299,5.131z M13.594,5.839l-1.411,1.418l-1.498-1.498
			c0.298-0.591,0.68-1.158,1.146-1.684L13.594,5.839z M12.185,8.672l1.398,1.398l-2.454,2.455c-0.446-0.542-0.768-1.158-0.97-1.818
			L12.185,8.672z M14.997,10.07l1.415-1.414l1.418,1.418l-1.413,1.416L14.997,10.07z M18.537,10.782l1.746,1.746
			c-0.519,0.46-1.085,0.843-1.684,1.146l-1.476-1.476L18.537,10.782z M19.243,10.074l1.413-1.415l1.48,1.479
			c-0.298,0.592-0.68,1.158-1.145,1.684L19.243,10.074z M22.672,5.224l-2.017,2.021l-1.416-1.416l2.454-2.453
			C22.146,3.924,22.47,4.551,22.672,5.224z M17.934,1.479l-1.518,1.525l-1.201-1.201c0.716-0.241,1.458-0.372,2.196-0.372
			C17.59,1.432,17.759,1.465,17.934,1.479z M9.016,15.345c0.2-0.728,0.476-1.845,0.702-3.134c0.276,0.503,0.616,0.975,1.036,1.396
			c0.413,0.413,0.883,0.757,1.391,1.038C10.857,14.87,9.742,15.146,9.016,15.345z M14.904,14.422l1.513-1.516l1.189,1.189
			c-0.717,0.241-1.458,0.372-2.197,0.372C15.237,14.468,15.073,14.436,14.904,14.422z"/>
		<path d="M4.375,6.985c1.654,0,3-1.346,3-3s-1.346-3-3-3s-3,1.346-3,3S2.721,6.985,4.375,6.985z M4.375,1.985c1.103,0,2,0.897,2,2
			s-0.897,2-2,2s-2-0.897-2-2S3.272,1.985,4.375,1.985z"/>
	</g>
</g>
<g id="invisible_shape">
	<rect fill="none" width="24" height="24"/>
</g>
</svg>
