<?xml version="1.0" encoding="utf-8"?>
<!-- Generator: Adobe Illustrator 16.0.3, SVG Export Plug-In . SVG Version: 6.00 Build 0)  -->
<!DOCTYPE svg PUBLIC "-//W3C//DTD SVG 1.1//EN" "http://www.w3.org/Graphics/SVG/1.1/DTD/svg11.dtd">
<svg version="1.1" xmlns="http://www.w3.org/2000/svg" xmlns:xlink="http://www.w3.org/1999/xlink" x="0px" y="0px" width="24px"
	 height="24px" viewBox="0 0 24 24" enable-background="new 0 0 24 24" xml:space="preserve">
<g id="Outline_Icons_1_">
	<g id="Outline_Icons">
		<g>
			<path d="M12,12c-2.206,0-4,1.794-4,4s1.794,4,4,4c0.923,0,1.762-0.326,2.439-0.853l2.707,2.706c0.195,0.195,0.512,0.195,0.707,0
				s0.195-0.512,0-0.707l-2.707-2.706C15.674,17.763,16,16.923,16,16C16,13.794,14.206,12,12,12z M9,16c0-1.654,1.346-3,3-3
				s3,1.346,3,3s-1.346,3-3,3S9,17.654,9,16z"/>
			<path d="M18.853,6.308C17.607,3.95,15.202,2.5,12.5,2.5c-3.617,0-6.647,2.698-7.123,6.237C3.033,8.551,1,10.343,1,12.725
				c0,2.808,2.012,3.639,3.21,3.885c0.265,0.053,0.534-0.119,0.591-0.39c0.055-0.271-0.119-0.535-0.39-0.591
				C2.812,15.302,2,14.324,2,12.725c0-1.979,1.818-3.326,3.723-2.931c0.302,0.062,0.582-0.157,0.601-0.46
				C6.518,6.062,9.23,3.5,12.5,3.5c2.42,0,4.563,1.351,5.593,3.523c0.085,0.18,0.236,0.278,0.471,0.286
				C21.041,7.224,23,9.148,23,11.535c0,3.711-3.702,4.169-3.859,4.187c-0.273,0.031-0.472,0.277-0.441,0.552
				c0.028,0.269,0.27,0.472,0.55,0.442C19.296,16.711,24,16.151,24,11.535C24,8.668,21.721,6.37,18.853,6.308z"/>
		</g>
	</g>
	<g id="New_icons_1_">
	</g>
</g>
<g id="Invisible_Shape">
	<rect fill="none" width="24" height="24"/>
</g>
</svg>
