<?xml version="1.0" encoding="utf-8"?>
<!-- Generator: Adobe Illustrator 16.0.3, SVG Export Plug-In . SVG Version: 6.00 Build 0)  -->
<!DOCTYPE svg PUBLIC "-//W3C//DTD SVG 1.1//EN" "http://www.w3.org/Graphics/SVG/1.1/DTD/svg11.dtd">
<svg version="1.1" xmlns="http://www.w3.org/2000/svg" xmlns:xlink="http://www.w3.org/1999/xlink" x="0px" y="0px" width="24px"
	 height="24px" viewBox="0 0 24 24" enable-background="new 0 0 24 24" xml:space="preserve">
<g id="Outline_Icons_1_">
	<g id="Outline_Icons">
		<g>
			<path d="M18.853,6.308C17.607,3.95,15.202,2.5,12.5,2.5c-3.618,0-6.648,2.699-7.123,6.238C3.028,8.555,1,10.342,1,12.725
				c0,2.809,2.012,3.639,3.211,3.884c0.266,0.056,0.534-0.119,0.59-0.391c0.055-0.271-0.12-0.534-0.391-0.59
				C2.811,15.302,2,14.325,2,12.725c0-1.988,1.828-3.327,3.722-2.93c0.312,0.061,0.584-0.163,0.602-0.46
				C6.517,6.063,9.229,3.5,12.5,3.5c2.42,0,4.563,1.351,5.593,3.523c0.086,0.18,0.249,0.287,0.471,0.286
				C20.95,7.21,23,9.078,23,11.535c0,3.712-3.702,4.17-3.859,4.188c-0.273,0.031-0.472,0.277-0.441,0.552
				c0.028,0.269,0.27,0.472,0.55,0.442C19.296,16.712,24,16.152,24,11.535C24,8.668,21.721,6.37,18.853,6.308z"/>
			<path d="M15.5,22c0.276,0,0.5-0.224,0.5-0.5v-6c0-0.149-0.086-0.293-0.164-0.365c-0.004-0.004-0.006-0.011-0.011-0.015l-3.5-3
				C12.234,12.043,12.119,12,12,12H8.5C8.224,12,8,12.224,8,12.5v9C8,21.776,8.224,22,8.5,22H15.5z M14.148,15H12v-1.842L14.148,15z
				 M9,13h2v2.5c0,0.276,0.224,0.5,0.5,0.5H15v5H9V13z"/>
		</g>
	</g>
	<g id="New_icons_1_">
	</g>
</g>
<g id="Invisible_Shape">
	<rect fill="none" width="24" height="24"/>
</g>
</svg>
