<?xml version="1.0" encoding="utf-8"?>
<!-- Generator: Adobe Illustrator 16.0.3, SVG Export Plug-In . SVG Version: 6.00 Build 0)  -->
<!DOCTYPE svg PUBLIC "-//W3C//DTD SVG 1.1//EN" "http://www.w3.org/Graphics/SVG/1.1/DTD/svg11.dtd">
<svg version="1.1" xmlns="http://www.w3.org/2000/svg" xmlns:xlink="http://www.w3.org/1999/xlink" x="0px" y="0px" width="24px"
	 height="24px" viewBox="0 0 24 24" enable-background="new 0 0 24 24" xml:space="preserve">
<g id="Outline_Icons_1_">
	<g id="Outline_Icons">
		<g>
			<g>
				<path d="M12.5,11C9.468,11,7,13.468,7,16.5S9.468,22,12.5,22s5.5-2.468,5.5-5.5S15.532,11,12.5,11z M12.5,21
					C10.019,21,8,18.981,8,16.5s2.019-4.5,4.5-4.5s4.5,2.019,4.5,4.5S14.981,21,12.5,21z"/>
				<circle cx="12.5" cy="19.494" r="0.494"/>
				<path d="M12.5,13c-1.103,0-2,0.897-2,2c0,0.276,0.224,0.5,0.5,0.5s0.5-0.224,0.5-0.5c0-0.552,0.448-1,1-1s1,0.448,1,1
					s-0.448,1-1,1c-0.276,0-0.5,0.224-0.5,0.5V18c0,0.276,0.224,0.5,0.5,0.5S13,18.276,13,18v-1.063
					c0.861-0.223,1.5-1.006,1.5-1.937C14.5,13.897,13.603,13,12.5,13z"/>
			</g>
			<path d="M5.334,16.892c0.275-0.004,0.496-0.231,0.492-0.508c-0.004-0.273-0.228-0.492-0.5-0.492c-0.002,0-0.005,0-0.008,0
				C3.585,15.892,2,14.939,2,12.805c0-1.96,1.799-3.422,3.724-3.021c0.312,0.062,0.584-0.162,0.602-0.46
				C6.518,6.058,9.23,3.5,12.5,3.5c2.377,0,4.572,1.394,5.594,3.55c0.085,0.18,0.266,0.277,0.471,0.286
				C21.017,7.248,23,9.2,23,11.608c0,3.09-2.527,3.994-3.614,4.24c-0.27,0.061-0.438,0.328-0.377,0.598
				c0.06,0.27,0.324,0.439,0.598,0.377C20.637,16.591,24,15.526,24,11.608c0-2.882-2.295-5.209-5.146-5.274
				c-1.24-2.34-3.7-3.834-6.354-3.834c-3.617,0-6.647,2.694-7.121,6.228C3.01,8.567,1,10.428,1,12.805
				C1,15.433,2.977,16.892,5.334,16.892z"/>
		</g>
	</g>
	<g id="New_icons_1_">
	</g>
</g>
<g id="Invisible_Shape">
	<rect fill="none" width="24" height="24"/>
</g>
</svg>
