<?xml version="1.0" encoding="utf-8"?>
<!-- Generator: Adobe Illustrator 16.0.3, SVG Export Plug-In . SVG Version: 6.00 Build 0)  -->
<!DOCTYPE svg PUBLIC "-//W3C//DTD SVG 1.1//EN" "http://www.w3.org/Graphics/SVG/1.1/DTD/svg11.dtd">
<svg version="1.1" xmlns="http://www.w3.org/2000/svg" xmlns:xlink="http://www.w3.org/1999/xlink" x="0px" y="0px" width="24px"
	 height="24px" viewBox="0 0 24 24" enable-background="new 0 0 24 24" xml:space="preserve">
<g id="Outline_Icons">
	<path d="M15.854,5.146l-4.999-5c-0.047-0.046-0.103-0.082-0.163-0.107c-0.123-0.051-0.26-0.051-0.383,0
		c-0.061,0.025-0.116,0.062-0.163,0.107l-4.999,5c-0.195,0.195-0.195,0.512,0,0.707s0.512,0.195,0.707,0L10,1.707V23.5
		c0,0.276,0.224,0.5,0.5,0.5s0.5-0.224,0.5-0.5V1.707l4.146,4.146C15.244,5.951,15.372,6,15.5,6s0.256-0.049,0.354-0.146
		C16.049,5.658,16.049,5.342,15.854,5.146z"/>
</g>
<g id="Invisible_Shape">
	<rect fill="none" width="24" height="24"/>
</g>
</svg>
