<?xml version="1.0" encoding="utf-8"?>
<!-- Generator: Adobe Illustrator 16.0.3, SVG Export Plug-In . SVG Version: 6.00 Build 0)  -->
<!DOCTYPE svg PUBLIC "-//W3C//DTD SVG 1.1//EN" "http://www.w3.org/Graphics/SVG/1.1/DTD/svg11.dtd">
<svg version="1.1" xmlns="http://www.w3.org/2000/svg" xmlns:xlink="http://www.w3.org/1999/xlink" x="0px" y="0px" width="24px"
	 height="24px" viewBox="0 0 24 24" enable-background="new 0 0 24 24" xml:space="preserve">
<g id="Outline_Icons">
	<g>
		<path d="M19.5,0h-15C2.019,0,0,2.019,0,4.5v15C0,21.981,2.019,24,4.5,24h15c2.481,0,4.5-2.019,4.5-4.5v-15
			C24,2.019,21.981,0,19.5,0z M23,19.5c0,1.93-1.57,3.5-3.5,3.5h-15C2.57,23,1,21.43,1,19.5v-15C1,2.57,2.57,1,4.5,1h15
			C21.43,1,23,2.57,23,4.5V19.5z"/>
		<path d="M8.98,8.362c-0.123-0.428-0.838-0.428-0.961,0l-2,7c-0.076,0.266,0.077,0.543,0.343,0.618
			c0.267,0.079,0.542-0.078,0.618-0.343L7.448,14h2.104l0.468,1.638C10.082,15.857,10.282,16,10.5,16
			c0.045,0,0.092-0.006,0.138-0.02c0.266-0.075,0.419-0.353,0.343-0.618L8.98,8.362z M7.734,13L8.5,10.32L9.266,13H7.734z"/>
		<path d="M12.5,8C12.224,8,12,8.224,12,8.5v7c0,0.276,0.224,0.5,0.5,0.5s0.5-0.224,0.5-0.5v-7C13,8.224,12.776,8,12.5,8z"/>
		<path d="M16.5,11c0.276,0,0.5-0.224,0.5-0.5S16.776,10,16.5,10H16V8.5C16,8.224,15.776,8,15.5,8S15,8.224,15,8.5V10h-0.5
			c-0.276,0-0.5,0.224-0.5,0.5s0.224,0.5,0.5,0.5H15v3.5c0,0.827,0.673,1.5,1.5,1.5c0.276,0,0.5-0.224,0.5-0.5S16.776,15,16.5,15
			c-0.275,0-0.5-0.225-0.5-0.5V11H16.5z"/>
	</g>
</g>
<g id="Invisible_Shape">
	<rect fill="none" width="24" height="24"/>
</g>
</svg>
