<?xml version="1.0" encoding="utf-8"?>
<!-- Generator: Adobe Illustrator 16.0.3, SVG Export Plug-In . SVG Version: 6.00 Build 0)  -->
<!DOCTYPE svg PUBLIC "-//W3C//DTD SVG 1.1//EN" "http://www.w3.org/Graphics/SVG/1.1/DTD/svg11.dtd">
<svg version="1.1" xmlns="http://www.w3.org/2000/svg" xmlns:xlink="http://www.w3.org/1999/xlink" x="0px" y="0px" width="24px"
	 height="24px" viewBox="0 0 24 24" enable-background="new 0 0 24 24" xml:space="preserve">
<g id="Outline_Icons">
	<g>
		<path d="M8.5,6.5c-1.103,0-2-0.897-2-2c0-1.103,0.897-2,2-2s2,0.897,2,2C10.5,5.603,9.603,6.5,8.5,6.5z M8.5,3.5
			c-0.551,0-1,0.449-1,1s0.449,1,1,1s1-0.449,1-1S9.051,3.5,8.5,3.5z"/>
		<path d="M8.5,13.5c-1.103,0-2-0.897-2-2c0-1.103,0.897-2,2-2s2,0.897,2,2C10.5,12.603,9.603,13.5,8.5,13.5z M8.5,10.5
			c-0.551,0-1,0.449-1,1s0.449,1,1,1s1-0.449,1-1S9.051,10.5,8.5,10.5z"/>
		<path d="M8.5,20.5c-1.103,0-2-0.897-2-2c0-1.103,0.897-2,2-2s2,0.897,2,2C10.5,19.603,9.603,20.5,8.5,20.5z M8.5,17.5
			c-0.551,0-1,0.449-1,1s0.449,1,1,1s1-0.449,1-1S9.051,17.5,8.5,17.5z"/>
		<path d="M2.5,7C1.122,7,0,5.878,0,4.5S1.122,2,2.5,2S5,3.122,5,4.5S3.878,7,2.5,7z M2.5,3C1.673,3,1,3.673,1,4.5S1.673,6,2.5,6
			S4,5.327,4,4.5S3.327,3,2.5,3z"/>
		<path d="M2.5,14C1.122,14,0,12.878,0,11.5S1.122,9,2.5,9S5,10.122,5,11.5S3.878,14,2.5,14z M2.5,10C1.673,10,1,10.673,1,11.5
			S1.673,13,2.5,13S4,12.327,4,11.5S3.327,10,2.5,10z"/>
		<path d="M2.5,21C1.122,21,0,19.878,0,18.5S1.122,16,2.5,16S5,17.122,5,18.5S3.878,21,2.5,21z M2.5,17C1.673,17,1,17.673,1,18.5
			S1.673,20,2.5,20S4,19.327,4,18.5S3.327,17,2.5,17z"/>
		<path d="M13.5,6C12.673,6,12,5.327,12,4.5S12.673,3,13.5,3S15,3.673,15,4.5S14.327,6,13.5,6z M13.5,4C13.224,4,13,4.224,13,4.5
			C13,4.776,13.224,5,13.5,5S14,4.776,14,4.5C14,4.224,13.776,4,13.5,4z"/>
		<path d="M13.5,13c-0.827,0-1.5-0.673-1.5-1.5s0.673-1.5,1.5-1.5s1.5,0.673,1.5,1.5S14.327,13,13.5,13z M13.5,11
			c-0.276,0-0.5,0.224-0.5,0.5c0,0.276,0.224,0.5,0.5,0.5s0.5-0.224,0.5-0.5C14,11.224,13.776,11,13.5,11z"/>
		<path d="M13.5,20c-0.827,0-1.5-0.673-1.5-1.5s0.673-1.5,1.5-1.5s1.5,0.673,1.5,1.5S14.327,20,13.5,20z M13.5,18
			c-0.276,0-0.5,0.224-0.5,0.5c0,0.276,0.224,0.5,0.5,0.5s0.5-0.224,0.5-0.5C14,18.224,13.776,18,13.5,18z"/>
		<circle cx="18.5" cy="4.5" r="1"/>
		<circle cx="18.5" cy="11.5" r="1"/>
		<circle cx="18.5" cy="18.5" r="1"/>
		<path d="M22.5,4C22.224,4,22,4.224,22,4.5S22.224,5,22.5,5S23,4.776,23,4.5S22.776,4,22.5,4L22.5,4z"/>
		<path d="M22.5,11c-0.276,0-0.5,0.224-0.5,0.5s0.224,0.5,0.5,0.5s0.5-0.224,0.5-0.5S22.776,11,22.5,11L22.5,11z"/>
		<path d="M22.5,18c-0.276,0-0.5,0.224-0.5,0.5s0.224,0.5,0.5,0.5s0.5-0.224,0.5-0.5S22.776,18,22.5,18L22.5,18z"/>
	</g>
</g>
<g id="Invisible_Shape">
	<rect x="0" fill="none" width="24" height="24"/>
</g>
</svg>
