<?xml version="1.0" encoding="utf-8"?>
<!-- Generator: Adobe Illustrator 16.0.3, SVG Export Plug-In . SVG Version: 6.00 Build 0)  -->
<!DOCTYPE svg PUBLIC "-//W3C//DTD SVG 1.1//EN" "http://www.w3.org/Graphics/SVG/1.1/DTD/svg11.dtd">
<svg version="1.1" xmlns="http://www.w3.org/2000/svg" xmlns:xlink="http://www.w3.org/1999/xlink" x="0px" y="0px" width="24px"
	 height="24px" viewBox="0 0 24 24" enable-background="new 0 0 24 24" xml:space="preserve">
<g id="Outline_Icons">
	<path d="M23.5,6H18V0.5C18,0.224,17.776,0,17.5,0h-17C0.224,0,0,0.224,0,0.5v17C0,17.776,0.224,18,0.5,18H6v5.5
		C6,23.776,6.224,24,6.5,24h17c0.276,0,0.5-0.224,0.5-0.5v-17C24,6.224,23.776,6,23.5,6z M1,17V1h16v5H6.5C6.224,6,6,6.224,6,6.5V17
		H1z M23,23H7V7h16V23z"/>
</g>
<g id="Invisible_Shape">
	<rect x="0" fill="none" width="24" height="24"/>
</g>
</svg>
