<?xml version="1.0" encoding="utf-8"?>
<!-- Generator: Adobe Illustrator 16.0.3, SVG Export Plug-In . SVG Version: 6.00 Build 0)  -->
<!DOCTYPE svg PUBLIC "-//W3C//DTD SVG 1.1//EN" "http://www.w3.org/Graphics/SVG/1.1/DTD/svg11.dtd">
<svg version="1.1" xmlns="http://www.w3.org/2000/svg" xmlns:xlink="http://www.w3.org/1999/xlink" x="0px" y="0px" width="24px"
	 height="24px" viewBox="0 0 24 24" enable-background="new 0 0 24 24" xml:space="preserve">
<g id="Outline_Icons">
	<g>
		<path d="M6.5,2h-4C2.224,2,2,2.224,2,2.5v4C2,6.776,2.224,7,2.5,7h4C6.776,7,7,6.776,7,6.5v-4C7,2.224,6.776,2,6.5,2z M6,6H3V3h3
			V6z"/>
		<path d="M6.5,8h-4C2.224,8,2,8.224,2,8.5v4C2,12.776,2.224,13,2.5,13h4C6.776,13,7,12.776,7,12.5v-4C7,8.224,6.776,8,6.5,8z M6,12
			H3V9h3V12z"/>
		<path d="M6.5,14h-4C2.224,14,2,14.224,2,14.5v4C2,18.776,2.224,19,2.5,19h4C6.776,19,7,18.776,7,18.5v-4C7,14.224,6.776,14,6.5,14
			z M6,18H3v-3h3V18z"/>
		<path d="M4.5,19.5C3.673,19.5,3,20.173,3,21s0.673,1.5,1.5,1.5S6,21.827,6,21S5.327,19.5,4.5,19.5z M4.5,21.5
			C4.224,21.5,4,21.276,4,21c0-0.276,0.224-0.5,0.5-0.5S5,20.724,5,21C5,21.276,4.776,21.5,4.5,21.5z"/>
		<path d="M20.787,7.147l-4.549-3.908c-0.222-0.192-0.492-0.31-0.777-0.347c-0.167-0.224-0.396-0.405-0.676-0.509L9.16,0.298
			C8.885,0.196,8.593,0.18,8.313,0.243C8.078,0.091,7.8,0,7.5,0h-6C0.673,0,0,0.673,0,1.5v21C0,23.327,0.673,24,1.5,24h6
			c0.287,0,0.552-0.085,0.78-0.225c0.075-0.028,0.146-0.069,0.202-0.135l0.047-0.054c0.077-0.073,0.148-0.152,0.208-0.239
			L20.946,9.263C21.485,8.637,21.415,7.688,20.787,7.147z M14.437,3.32c0.259,0.096,0.392,0.385,0.296,0.643L9,19.422V1.5
			c0-0.069-0.011-0.135-0.021-0.202L14.437,3.32z M1.5,23C1.224,23,1,22.776,1,22.5v-21C1,1.224,1.224,1,1.5,1h6
			C7.776,1,8,1.224,8,1.5v20.73c0,0,0,0.001,0,0.001V22.5c0,0.107-0.042,0.202-0.1,0.283l-0.079,0.093C7.733,22.951,7.624,23,7.5,23
			H1.5z M20.189,8.609L9.506,20.932L15.67,4.311c0.024-0.065,0.037-0.131,0.051-0.197l4.413,3.792
			C20.344,8.086,20.368,8.402,20.189,8.609z"/>
	</g>
</g>
<g id="Invisible_Shape">
	<rect x="0" fill="none" width="24" height="24"/>
</g>
</svg>
