<?xml version="1.0" encoding="utf-8"?>
<!-- Generator: Adobe Illustrator 16.0.3, SVG Export Plug-In . SVG Version: 6.00 Build 0)  -->
<!DOCTYPE svg PUBLIC "-//W3C//DTD SVG 1.1//EN" "http://www.w3.org/Graphics/SVG/1.1/DTD/svg11.dtd">
<svg version="1.1" xmlns="http://www.w3.org/2000/svg" xmlns:xlink="http://www.w3.org/1999/xlink" x="0px" y="0px" width="24px"
	 height="24px" viewBox="0 0 24 24" enable-background="new 0 0 24 24" xml:space="preserve">
<g id="Outline_Icons">
	<g>
		<path d="M20.462,12.691c0.078-0.187,0.035-0.402-0.108-0.545l-9-9C11.256,3.049,11.128,3,11,3V2.5C11,1.122,9.878,0,8.5,0
			S6,1.122,6,2.5v5.293l-3.854,3.854c-0.975,0.975-0.975,2.561,0,3.536l4.672,4.671c0.472,0.472,1.1,0.732,1.768,0.732
			s1.295-0.26,1.768-0.732L17.207,13H20C20.202,13,20.385,12.878,20.462,12.691z M7,2.5C7,1.673,7.673,1,8.5,1S10,1.673,10,2.5
			v1.293l-3,3V2.5z M17,12c-0.133,0-0.26,0.053-0.354,0.146l-7,7c-0.566,0.566-1.555,0.566-2.121,0l-4.672-4.671
			c-0.585-0.585-0.585-1.537,0-2.122L10,5.207V10.5c0,0.276,0.224,0.5,0.5,0.5s0.5-0.224,0.5-0.5V4.207L18.793,12H17z"/>
		<path d="M21.427,15.241c-0.181-0.299-0.674-0.299-0.854,0C20.309,15.674,18,19.522,18,21c0,1.654,1.346,3,3,3s3-1.346,3-3
			C24,19.522,21.691,15.674,21.427,15.241z M21,23c-1.103,0-2-0.897-2-2c0-0.775,1.096-2.939,2-4.515c0.904,1.576,2,3.74,2,4.515
			C23,22.103,22.103,23,21,23z"/>
	</g>
</g>
<g id="Invisible_Shape">
	<rect x="0" fill="none" width="24" height="24"/>
</g>
</svg>
