<?xml version="1.0" encoding="utf-8"?>
<!-- Generator: Adobe Illustrator 16.0.3, SVG Export Plug-In . SVG Version: 6.00 Build 0)  -->
<!DOCTYPE svg PUBLIC "-//W3C//DTD SVG 1.1//EN" "http://www.w3.org/Graphics/SVG/1.1/DTD/svg11.dtd">
<svg version="1.1" xmlns="http://www.w3.org/2000/svg" xmlns:xlink="http://www.w3.org/1999/xlink" x="0px" y="0px" width="24px"
	 height="24px" viewBox="0 0 24 24" enable-background="new 0 0 24 24" xml:space="preserve">
<g id="Outline_Icons">
	<path d="M23.336,23.256l-1.462-2.467l0.698-0.425c0.114-0.069,0.196-0.182,0.227-0.312c0.031-0.13,0.008-0.267-0.063-0.381
		L15,7.356V3.5C15,1.57,13.43,0,11.5,0S8,1.57,8,3.5v3.911L5.931,13H5V5.531c0-1.378-1.122-2.5-2.5-2.5S0,4.153,0,5.531V13.5v2
		v3.531c0,0.07,0.015,0.139,0.043,0.203l2,4.5c0.081,0.18,0.259,0.297,0.457,0.297s0.376-0.117,0.457-0.297l2-4.5
		C4.985,19.17,5,19.102,5,19.031V16h3.5c0.208,0,0.395-0.129,0.468-0.324l2.641-7.043l7.971,12.968
		c0.094,0.153,0.258,0.238,0.426,0.238c0.088,0,0.178-0.023,0.259-0.073l0.753-0.458l1.457,2.458
		c0.093,0.158,0.26,0.245,0.431,0.245c0.087,0,0.174-0.022,0.254-0.07C23.399,23.8,23.477,23.493,23.336,23.256z M9,3.5
		C9,2.122,10.122,1,11.5,1S14,2.122,14,3.5V7H9V3.5z M1,13V7.031h3V13H1z M2.5,4.031c0.827,0,1.5,0.673,1.5,1.5v0.5H1v-0.5
		C1,4.704,1.673,4.031,2.5,4.031z M2.5,22.3L1.478,20h2.045L2.5,22.3z M4,18.925L3.967,19H1.033L1,18.925V16h3V18.925z M8.153,15H1
		v-1h5.279c0.209,0,0.396-0.13,0.469-0.326L8.848,8h1.93L8.153,15z M20.171,20.653L12.394,8h1.83l7.396,11.774L20.171,20.653z"/>
</g>
<g id="Invisible_Shape">
	<rect x="0" fill="none" width="24" height="24"/>
</g>
</svg>
