<?xml version="1.0" encoding="utf-8"?>
<!-- Generator: Adobe Illustrator 16.0.3, SVG Export Plug-In . SVG Version: 6.00 Build 0)  -->
<!DOCTYPE svg PUBLIC "-//W3C//DTD SVG 1.1//EN" "http://www.w3.org/Graphics/SVG/1.1/DTD/svg11.dtd">
<svg version="1.1" xmlns="http://www.w3.org/2000/svg" xmlns:xlink="http://www.w3.org/1999/xlink" x="0px" y="0px" width="24px"
	 height="24px" viewBox="0 0 24 24" enable-background="new 0 0 24 24" xml:space="preserve">
<g id="Outline_Icons">
	<g>
		<path d="M1.089,20.216C0.761,20.69,0,21.86,0,22.5C0,23.327,0.673,24,1.5,24S3,23.327,3,22.5c0-0.64-0.761-1.81-1.089-2.284
			C1.725,19.945,1.275,19.945,1.089,20.216z M1.5,23C1.224,23,1,22.776,1,22.5c0.004-0.153,0.212-0.588,0.5-1.074
			C1.788,21.912,1.996,22.348,2,22.5C2,22.776,1.776,23,1.5,23z"/>
		<path d="M21.092,7.217l-7.071-7.071c-0.195-0.195-0.512-0.195-0.707,0L5.889,7.571C5.838,7.623,5.802,7.683,5.777,7.748
			C5.771,7.765,5.771,7.785,5.766,7.804C5.754,7.852,5.745,7.899,5.747,7.948c0,0.007-0.003,0.014-0.002,0.021l0.337,3.709
			l-4.495,6.569c-0.136,0.2-0.111,0.466,0.059,0.636l0.707,0.707c0.097,0.097,0.225,0.146,0.354,0.146
			c0.098,0,0.197-0.029,0.282-0.087l6.569-4.494l3.71,0.337c0.007,0,0.014-0.003,0.021-0.003c0.008,0,0.016,0.005,0.024,0.005
			c0.04,0,0.078-0.013,0.116-0.022c0.021-0.005,0.042-0.004,0.062-0.012c0.064-0.024,0.124-0.061,0.175-0.112l7.425-7.425
			c0.094-0.094,0.146-0.221,0.146-0.354S21.186,7.311,21.092,7.217z M9.649,14.16l-2.571-2.572L6.866,9.254l5.118,5.119L9.649,14.16
			z M2.767,18.591l-0.12-0.12l4.021-5.878l1.977,1.977L2.767,18.591z M13.313,14.289L6.95,7.924l6.717-6.718l6.364,6.364
			L13.313,14.289z"/>
	</g>
</g>
<g id="Invisible_Shape">
	<rect x="0" fill="none" width="24" height="24"/>
</g>
</svg>
