<?xml version="1.0" encoding="utf-8"?>
<!-- Generator: Adobe Illustrator 16.0.3, SVG Export Plug-In . SVG Version: 6.00 Build 0)  -->
<!DOCTYPE svg PUBLIC "-//W3C//DTD SVG 1.1//EN" "http://www.w3.org/Graphics/SVG/1.1/DTD/svg11.dtd">
<svg version="1.1" xmlns="http://www.w3.org/2000/svg" xmlns:xlink="http://www.w3.org/1999/xlink" x="0px" y="0px" width="24px"
	 height="24px" viewBox="0 0 24 24" enable-background="new 0 0 24 24" xml:space="preserve">
<g id="Outline_Icons">
	<path d="M21.5,3H21V0.5C21,0.224,20.776,0,20.5,0h-15C5.224,0,5,0.224,5,0.5V3H4.5C3.673,3,3,3.673,3,4.5v4
		C3,9.327,3.673,10,4.5,10h8c0.271,0,0.5,0.229,0.5,0.5v2.52c-0.932,0.203-2,0.923-2,1.936v7.5C11,23.399,12.418,24,13.159,24h1
		C14.993,24,16,23.312,16,22.456v-7.5c0-1.013-1.068-1.733-2-1.936V10.5C14,9.673,13.327,9,12.5,9h-8C4.224,9,4,8.776,4,8.5v-4
		C4,4.229,4.229,4,4.5,4H5v2.5C5,6.776,5.224,7,5.5,7h15C20.776,7,21,6.776,21,6.5V4h0.5C21.776,4,22,3.776,22,3.5S21.776,3,21.5,3z
		 M15,14.956v7.5C15,22.653,14.514,23,14.159,23h-1c-0.397,0-1.101-0.367-1.159-0.544v-7.5c0-0.483,0.88-1,1.5-1
		S15,14.473,15,14.956z M20,6H6V1h14V6z"/>
</g>
<g id="Invisible_Shape">
	<rect x="0" fill="none" width="24" height="24"/>
</g>
</svg>
