<?xml version="1.0" encoding="utf-8"?>
<!-- Generator: Adobe Illustrator 16.0.3, SVG Export Plug-In . SVG Version: 6.00 Build 0)  -->
<!DOCTYPE svg PUBLIC "-//W3C//DTD SVG 1.1//EN" "http://www.w3.org/Graphics/SVG/1.1/DTD/svg11.dtd">
<svg version="1.1" xmlns="http://www.w3.org/2000/svg" xmlns:xlink="http://www.w3.org/1999/xlink" x="0px" y="0px" width="24px"
	 height="24px" viewBox="0 0 24 24" enable-background="new 0 0 24 24" xml:space="preserve">
<g id="Outline_Icons">
	<path d="M22.958,23.301l-9.99-22.989c-0.079-0.183-0.259-0.301-0.458-0.301s-0.379,0.118-0.458,0.301l-10,22.989
		C1.984,23.456,2,23.633,2.092,23.774C2.185,23.915,2.342,24,2.51,24H22.5c0.168,0,0.326-0.085,0.418-0.226
		C23.011,23.633,23.026,23.456,22.958,23.301z M12,17.217l-8.408,5.05l8.417-19.349L12,17.217z M12.5,18.083L20.695,23H4.313
		L12.5,18.083z M13,17.217l0.009-14.305l8.411,19.356L13,17.217z"/>
</g>
<g id="Invisible_Shape">
	<rect x="0" fill="none" width="24" height="24"/>
</g>
</svg>
