<?xml version="1.0" encoding="utf-8"?>
<!-- Generator: Adobe Illustrator 16.0.3, SVG Export Plug-In . SVG Version: 6.00 Build 0)  -->
<!DOCTYPE svg PUBLIC "-//W3C//DTD SVG 1.1//EN" "http://www.w3.org/Graphics/SVG/1.1/DTD/svg11.dtd">
<svg version="1.1" xmlns="http://www.w3.org/2000/svg" xmlns:xlink="http://www.w3.org/1999/xlink" x="0px" y="0px" width="24px"
	 height="24px" viewBox="0 0 24 24" enable-background="new 0 0 24 24" xml:space="preserve">
<g id="Outline_Icons">
	<path d="M23.962,14.507l-2.475-8.839c-0.002-0.009-0.009-0.016-0.013-0.024c-0.011-0.031-0.028-0.061-0.046-0.09
		c-0.017-0.028-0.032-0.056-0.054-0.08c-0.006-0.007-0.009-0.017-0.016-0.024l-2.828-2.828c-0.007-0.006-0.016-0.009-0.022-0.015
		c-0.025-0.023-0.054-0.038-0.084-0.056c-0.029-0.017-0.057-0.034-0.088-0.044c-0.009-0.004-0.015-0.011-0.024-0.013L9.474,0.019
		c-0.174-0.049-0.36,0-0.488,0.128l-1.061,1.06c-0.195,0.196-0.195,0.512,0,0.708l5.302,5.305L0.146,20.299
		c-0.195,0.195-0.195,0.512,0,0.708l2.828,2.828C3.072,23.932,3.2,23.98,3.328,23.98s0.256-0.049,0.354-0.146l11.065-11.065
		c0-0.001,0.001-0.001,0.001-0.001s0-0.001,0.001-0.001l2.027-2.027l5.289,5.316c0.094,0.095,0.221,0.147,0.354,0.147h0
		c0.133,0,0.26-0.053,0.354-0.146l1.061-1.061C23.962,14.867,24.011,14.681,23.962,14.507z M8.985,1.561l0.5-0.5l7.734,2.165
		l-3.286,3.286L8.985,1.561z M3.328,22.774l-2.121-2.122L18.178,3.682l2.121,2.121l-3.873,3.873c0,0.001-0.001,0.001-0.001,0.001
		c0,0,0,0-0.001,0.001l-2.028,2.028l-1.016-1.02c-0.195-0.196-0.512-0.195-0.707-0.001c-0.196,0.195-0.196,0.512-0.001,0.708
		l1.017,1.02l-1.408,1.408l-1.024-1.015c-0.196-0.194-0.512-0.193-0.707,0.004c-0.194,0.196-0.192,0.513,0.004,0.707l1.021,1.011
		l-1.415,1.415l-1.023-1.015c-0.195-0.194-0.512-0.193-0.707,0.003c-0.194,0.196-0.193,0.512,0.003,0.708l1.02,1.012l-1.414,1.414
		l-1.023-1.015c-0.195-0.193-0.512-0.193-0.707,0.003c-0.194,0.196-0.193,0.513,0.003,0.707l1.021,1.012l-1.415,1.415L4.894,19.17
		c-0.196-0.194-0.512-0.193-0.707,0.002c-0.195,0.196-0.194,0.513,0.002,0.707l1.02,1.014L3.328,22.774z M22.421,14.995
		l-4.938-4.963l3.271-3.271l2.166,7.734L22.421,14.995z"/>
</g>
<g id="Invisible_Shape">
	<rect x="0" fill="none" width="24" height="24"/>
</g>
</svg>
