<?xml version="1.0" encoding="utf-8"?>
<!-- Generator: Adobe Illustrator 16.0.3, SVG Export Plug-In . SVG Version: 6.00 Build 0)  -->
<!DOCTYPE svg PUBLIC "-//W3C//DTD SVG 1.1//EN" "http://www.w3.org/Graphics/SVG/1.1/DTD/svg11.dtd">
<svg version="1.1" xmlns="http://www.w3.org/2000/svg" xmlns:xlink="http://www.w3.org/1999/xlink" x="0px" y="0px" width="24px"
	 height="24px" viewBox="0 0 24 24" enable-background="new 0 0 24 24" xml:space="preserve">
<g id="Outline_Icons">
	<g>
		<path d="M10,9c-3.309,0-6,2.691-6,6s2.691,6,6,6s6-2.691,6-6S13.309,9,10,9z M10,20c-2.757,0-5-2.243-5-5s2.243-5,5-5s5,2.243,5,5
			S12.757,20,10,20z"/>
		<path d="M12,13H8c-0.276,0-0.5,0.224-0.5,0.5S7.724,14,8,14h4c0.276,0,0.5-0.224,0.5-0.5S12.276,13,12,13z"/>
		<path d="M12,16H8c-0.276,0-0.5,0.224-0.5,0.5S7.724,17,8,17h4c0.276,0,0.5-0.224,0.5-0.5S12.276,16,12,16z"/>
		<path d="M19.961,6.308c-0.025-0.062-0.062-0.115-0.108-0.162l-5.998-5.999c-0.046-0.045-0.101-0.082-0.162-0.107
			C13.632,0.014,13.566,0,13.5,0h-13C0.224,0,0,0.224,0,0.5v23C0,23.776,0.224,24,0.5,24h19c0.276,0,0.5-0.224,0.5-0.5v-17
			C20,6.434,19.986,6.368,19.961,6.308z M14,1.707L18.293,6H14V1.707z M1,23V1h12v5.5C13,6.776,13.224,7,13.5,7H19v16H1z"/>
	</g>
</g>
<g id="Invisible_Shape">
	<rect fill="none" width="24" height="24"/>
</g>
</svg>
