<?xml version="1.0" encoding="utf-8"?>
<!-- Generator: Adobe Illustrator 16.0.3, SVG Export Plug-In . SVG Version: 6.00 Build 0)  -->
<!DOCTYPE svg PUBLIC "-//W3C//DTD SVG 1.1//EN" "http://www.w3.org/Graphics/SVG/1.1/DTD/svg11.dtd">
<svg version="1.1" xmlns="http://www.w3.org/2000/svg" xmlns:xlink="http://www.w3.org/1999/xlink" x="0px" y="0px" width="24px"
	 height="24px" viewBox="0 0 24 24" enable-background="new 0 0 24 24" xml:space="preserve">
<g id="Outline_Icons_1_">
	<g id="Outline_Icons">
		<g>
			<path d="M16.557,7H13V4.503c0-1.139-0.426-1.471-0.783-1.549c-0.563-0.124-1.083,0.376-1.339,0.931C9.904,6.001,8.984,8,7.473,8
				H6.5C6.224,8,6,8.224,6,8.5v4.164c0,0.276,0.224,0.5,0.5,0.5c2.222,0,2.808,0.254,3.325,0.478C10.25,13.826,10.652,14,11.625,14
				h2.004c1.09,0,1.976-0.545,2.368-1.458l1.797-4.127c0.028-0.063,0.042-0.131,0.042-0.2C17.836,7.522,17.286,7,16.557,7z
				 M15.081,12.142c-0.001,0.001-0.001,0.001-0.001,0.002C14.85,12.68,14.308,13,13.629,13h-2.004c-0.766,0-1.033-0.115-1.403-0.276
				C9.688,12.493,9.031,12.208,7,12.169V9h0.473c2.152,0,3.251-2.388,4.313-4.697c0.056-0.12,0.119-0.209,0.174-0.27
				C11.98,4.129,12,4.278,12,4.503V7.5C12,7.776,12.224,8,12.5,8h4.057c0.04,0,0.218,0.008,0.267,0.14L15.081,12.142z"/>
			<path d="M23.933,20.232l-3.586-6.2C21.082,12.685,21.5,11.14,21.5,9.5C21.5,4.262,17.238,0,12,0S2.5,4.262,2.5,9.5
				c0,1.64,0.418,3.185,1.153,4.532l-3.586,6.2c-0.098,0.168-0.089,0.376,0.021,0.535c0.111,0.16,0.301,0.239,0.495,0.208
				l3.439-0.583l1.192,3.278c0.065,0.182,0.23,0.309,0.423,0.327C5.654,24,5.67,24,5.686,24c0.175,0,0.339-0.092,0.43-0.244
				l3.083-5.178C10.085,18.852,11.025,19,12,19s1.915-0.148,2.802-0.422l3.083,5.178C17.976,23.908,18.14,24,18.314,24
				c0.016,0,0.031,0,0.047-0.002c0.192-0.019,0.357-0.146,0.423-0.327l1.192-3.278l3.439,0.583c0.196,0.029,0.385-0.049,0.495-0.208
				S24.03,20.4,23.933,20.232z M5.795,22.339l-0.975-2.68c-0.082-0.227-0.31-0.36-0.554-0.322l-2.801,0.475l2.791-4.827
				c1.004,1.413,2.38,2.543,3.988,3.239L5.795,22.339z M3.5,9.5C3.5,4.812,7.313,1,12,1s8.5,3.812,8.5,8.5
				c0,4.687-3.813,8.5-8.5,8.5S3.5,14.187,3.5,9.5z M19.733,19.337c-0.243-0.038-0.472,0.096-0.554,0.322l-0.975,2.68l-2.45-4.115
				c1.608-0.695,2.984-1.826,3.988-3.239l2.791,4.827L19.733,19.337z"/>
		</g>
	</g>
	<g id="New_icons_1_">
	</g>
</g>
<g id="Invisible_Shape">
	<rect fill="none" width="24" height="24"/>
</g>
</svg>
