<?xml version="1.0" encoding="utf-8"?>
<!-- Generator: Adobe Illustrator 16.0.3, SVG Export Plug-In . SVG Version: 6.00 Build 0)  -->
<!DOCTYPE svg PUBLIC "-//W3C//DTD SVG 1.1//EN" "http://www.w3.org/Graphics/SVG/1.1/DTD/svg11.dtd">
<svg version="1.1" xmlns="http://www.w3.org/2000/svg" xmlns:xlink="http://www.w3.org/1999/xlink" x="0px" y="0px" width="24px"
	 height="24px" viewBox="0 0 24 24" enable-background="new 0 0 24 24" xml:space="preserve">
<g id="Outline_Icons_1_">
	<g id="Outline_Icons">
		<g>
			<path d="M23.947,23.276l-6-12c-0.17-0.339-0.725-0.339-0.895,0l-6,12c-0.077,0.155-0.069,0.339,0.021,0.486
				C11.166,23.91,11.327,24,11.5,24h12c0.173,0,0.334-0.09,0.426-0.237C24.017,23.615,24.024,23.432,23.947,23.276z M12.309,23
				L17.5,12.618L22.691,23H12.309z"/>
			<path d="M17,16.5V20c0,0.276,0.224,0.5,0.5,0.5S18,20.276,18,20v-3.5c0-0.276-0.224-0.5-0.5-0.5S17,16.224,17,16.5z"/>
			<circle cx="17.5" cy="21.5" r="0.5"/>
			<path d="M11.516,5.388c0.512-3.325,2.901-4.336,4.797-4.19c2.335,0.179,4.699,2.119,4.699,5.482c0,0.818-0.155,1.691-0.462,2.595
				c-0.089,0.262,0.052,0.545,0.313,0.634c0.262,0.089,0.546-0.052,0.634-0.313c0.342-1.008,0.515-1.989,0.515-2.917
				c0-3.971-2.828-6.266-5.623-6.479c-2.063-0.153-4.313,0.821-5.365,3.265C9.936,0.9,7.553-0.143,5.505,0.016
				C2.868,0.218,0.031,2.39,0.031,6.68c0,5.515,5.295,10.697,8.452,13.294c0.093,0.077,0.205,0.114,0.317,0.114
				c0.144,0,0.287-0.062,0.386-0.182c0.176-0.213,0.146-0.528-0.068-0.704c-3.02-2.485-8.087-7.417-8.087-12.522
				c0-3.674,2.285-5.493,4.55-5.667c2.085-0.161,4.446,1.128,4.946,4.375c0.037,0.244,0.247,0.424,0.494,0.424
				S11.479,5.631,11.516,5.388z"/>
		</g>
	</g>
	<g id="New_icons_1_">
	</g>
</g>
<g id="Invisible_Shape">
	<rect fill="none" width="24" height="24"/>
</g>
</svg>
