<?xml version="1.0" encoding="utf-8"?>
<!-- Generator: Adobe Illustrator 16.0.3, SVG Export Plug-In . SVG Version: 6.00 Build 0)  -->
<!DOCTYPE svg PUBLIC "-//W3C//DTD SVG 1.1//EN" "http://www.w3.org/Graphics/SVG/1.1/DTD/svg11.dtd">
<svg version="1.1" xmlns="http://www.w3.org/2000/svg" xmlns:xlink="http://www.w3.org/1999/xlink" x="0px" y="0px" width="24px"
	 height="24px" viewBox="0 0 24 24" enable-background="new 0 0 24 24" xml:space="preserve">
<g id="Outline_Icons_1_">
	<g id="Outline_Icons">
		<g>
			<path d="M20.076,10.043c-0.275-0.04-0.528,0.145-0.57,0.419c-0.042,0.272,0.146,0.527,0.418,0.569C21.455,11.266,22,12.719,22,14
				v7c0,1.5-0.753,1.5-1,1.5s-1,0-1-1.5v-4.5c0-0.276-0.224-0.5-0.5-0.5S19,16.224,19,16.5v2c0,0.551-0.448,1-1,1s-1-0.449-1-1v-1
				c0-0.276-0.224-0.5-0.5-0.5S16,17.224,16,17.5v1c0,1.103,0.897,2,2,2c0.364,0,0.706-0.098,1-0.269V21c0,1.565,0.748,2.5,2,2.5
				s2-0.935,2-2.5v-7C23,11.869,21.853,10.316,20.076,10.043z"/>
			<path d="M7.5,17C7.224,17,7,17.224,7,17.5v1c0,0.551-0.448,1-1,1s-1-0.449-1-1v-2C5,16.224,4.776,16,4.5,16S4,16.224,4,16.5V21
				c0,1.5-0.753,1.5-1,1.5s-1,0-1-1.5v-7c0-1.281,0.545-2.734,2.076-2.969c0.272-0.042,0.46-0.297,0.418-0.569
				c-0.042-0.274-0.289-0.458-0.57-0.419C2.147,10.316,1,11.869,1,14v7c0,1.565,0.748,2.5,2,2.5s2-0.935,2-2.5v-0.769
				C5.294,20.402,5.636,20.5,6,20.5c1.103,0,2-0.897,2-2v-1C8,17.224,7.776,17,7.5,17z"/>
			<path d="M12,5c2.229,0,6-0.421,6-2c0-1.578-3.771-2-6-2S6,1.422,6,3C6,4.579,9.771,5,12,5z M12,2c2.963,0,4.791,0.64,4.993,1
				C16.791,3.361,14.963,4,12,4C8.979,4,7.137,3.335,6.997,3.021C7.137,2.665,8.978,2,12,2z"/>
			<path d="M15.252,6.859c-1.16-0.089-2.5,0.458-3.245,1.811c-0.756-1.436-2.142-2.023-3.339-1.925
				c-1.583,0.125-3.18,1.43-3.18,4.059c0,4.774,5.997,8.469,6.252,8.624C11.82,19.476,11.91,19.5,12,19.5
				c0.096,0,0.192-0.028,0.275-0.083c0.255-0.168,6.235-4.172,6.235-8.613C18.511,8.272,16.821,6.985,15.252,6.859z M11.989,18.398
				c-1.142-0.761-5.501-3.91-5.501-7.595c0-2.127,1.217-2.979,2.259-3.062c0.057-0.004,0.114-0.007,0.172-0.007
				c1.076,0,2.297,0.79,2.587,2.602c0.039,0.243,0.249,0.421,0.494,0.421s0.455-0.178,0.494-0.421
				c0.295-1.837,1.56-2.565,2.679-2.479c1.164,0.093,2.338,1.04,2.338,2.947C17.511,14.22,13.124,17.585,11.989,18.398z"/>
		</g>
	</g>
	<g id="New_icons_1_">
	</g>
</g>
<g id="Invisible_Shape">
	<rect fill="none" width="24" height="24"/>
</g>
</svg>
