<?xml version="1.0" encoding="utf-8"?>
<!-- Generator: Adobe Illustrator 16.0.3, SVG Export Plug-In . SVG Version: 6.00 Build 0)  -->
<!DOCTYPE svg PUBLIC "-//W3C//DTD SVG 1.1//EN" "http://www.w3.org/Graphics/SVG/1.1/DTD/svg11.dtd">
<svg version="1.1" xmlns="http://www.w3.org/2000/svg" xmlns:xlink="http://www.w3.org/1999/xlink" x="0px" y="0px" width="24px"
	 height="24px" viewBox="0 0 24 24" enable-background="new 0 0 24 24" xml:space="preserve">
<g id="Outline_Icons_1_">
	<g id="Outline_Icons">
		<g>
			<path d="M23.5,15H22v-0.5c0-1.93-1.57-3.5-3.5-3.5S15,12.57,15,14.5V15h-1.5c-0.276,0-0.5,0.224-0.5,0.5v8
				c0,0.276,0.224,0.5,0.5,0.5h10c0.276,0,0.5-0.224,0.5-0.5v-8C24,15.224,23.776,15,23.5,15z M16,14.5c0-1.378,1.121-2.5,2.5-2.5
				s2.5,1.122,2.5,2.5V15h-5V14.5z M23,23h-9v-7h9V23z"/>
			<path d="M18.5,17.5c-0.552,0-1,0.449-1,1c0,0.365,0.207,0.672,0.5,0.847V21c0,0.276,0.224,0.5,0.5,0.5S19,21.276,19,21v-1.653
				c0.293-0.175,0.5-0.481,0.5-0.847C19.5,17.949,19.052,17.5,18.5,17.5z M18.5,18.5C18.5,18.5,18.5,18.5,18.5,18.5H19H18.5z"/>
			<path d="M20.98,6.681c0,0.815-0.155,1.689-0.462,2.596C20.43,9.538,20.57,9.822,20.832,9.91c0.263,0.09,0.546-0.052,0.634-0.313
				c0.342-1.01,0.515-1.992,0.515-2.916c0-3.972-2.829-6.267-5.623-6.48c-2.068-0.153-4.313,0.821-5.365,3.265
				C9.904,0.901,7.521-0.143,5.475,0.017C2.838,0.219,0,2.39,0,6.681c0,6.255,6.758,12.05,9.663,14.251
				c0.09,0.068,0.196,0.102,0.302,0.102c0.15,0,0.3-0.068,0.398-0.198c0.167-0.22,0.124-0.534-0.097-0.7
				C7.48,18.024,1,12.487,1,6.681c0-3.674,2.286-5.494,4.551-5.667c2.106-0.157,4.446,1.13,4.945,4.374
				c0.037,0.244,0.247,0.424,0.494,0.424s0.457-0.18,0.494-0.424c0.512-3.325,2.904-4.336,4.797-4.19
				C18.616,1.376,20.98,3.317,20.98,6.681z"/>
		</g>
	</g>
	<g id="New_icons_1_">
	</g>
</g>
<g id="Invisible_Shape">
	<rect fill="none" width="24" height="24"/>
</g>
</svg>
