<?xml version="1.0" encoding="utf-8"?>
<!-- Generator: Adobe Illustrator 16.0.3, SVG Export Plug-In . SVG Version: 6.00 Build 0)  -->
<!DOCTYPE svg PUBLIC "-//W3C//DTD SVG 1.1//EN" "http://www.w3.org/Graphics/SVG/1.1/DTD/svg11.dtd">
<svg version="1.1" xmlns="http://www.w3.org/2000/svg" xmlns:xlink="http://www.w3.org/1999/xlink" x="0px" y="0px" width="24px"
	 height="24px" viewBox="0 0 24 24" enable-background="new 0 0 24 24" xml:space="preserve">
<g id="Outline_Icons_1_">
	<g id="Outline_Icons">
		<g>
			<path d="M23.854,23.146L21,20.293c0.616-0.77,1-1.732,1-2.793c0-2.481-2.019-4.5-4.499-4.5C15.02,13,13,15.019,13,17.5
				s2.02,4.5,4.501,4.5c1.06,0,2.022-0.384,2.792-1l2.854,2.854C23.244,23.951,23.372,24,23.5,24s0.256-0.049,0.354-0.146
				C24.049,23.658,24.049,23.342,23.854,23.146z M14,17.5c0-1.93,1.57-3.5,3.501-3.5C19.431,14,21,15.57,21,17.5
				S19.431,21,17.501,21C15.57,21,14,19.43,14,17.5z"/>
			<path d="M20.98,6.681c0,0.815-0.155,1.689-0.462,2.596C20.43,9.538,20.57,9.822,20.832,9.91c0.264,0.09,0.546-0.052,0.634-0.313
				c0.342-1.01,0.515-1.992,0.515-2.916c0-3.972-2.829-6.267-5.623-6.48c-2.068-0.153-4.313,0.821-5.365,3.265
				C9.904,0.901,7.521-0.143,5.475,0.017C2.838,0.219,0,2.39,0,6.681c0,6.255,6.758,12.05,9.663,14.251
				c0.09,0.068,0.196,0.102,0.302,0.102c0.15,0,0.3-0.068,0.398-0.198c0.167-0.22,0.124-0.534-0.097-0.7
				C7.48,18.024,1,12.487,1,6.681c0-3.674,2.286-5.494,4.551-5.667c2.103-0.157,4.446,1.13,4.945,4.374
				c0.037,0.244,0.247,0.424,0.494,0.424s0.457-0.18,0.494-0.424c0.512-3.325,2.902-4.336,4.797-4.19
				C18.616,1.376,20.98,3.317,20.98,6.681z"/>
		</g>
	</g>
	<g id="New_icons_1_">
	</g>
</g>
<g id="Invisible_Shape">
	<rect fill="none" width="24" height="24"/>
</g>
</svg>
