<?xml version="1.0" encoding="utf-8"?>
<!-- Generator: Adobe Illustrator 16.0.3, SVG Export Plug-In . SVG Version: 6.00 Build 0)  -->
<!DOCTYPE svg PUBLIC "-//W3C//DTD SVG 1.1//EN" "http://www.w3.org/Graphics/SVG/1.1/DTD/svg11.dtd">
<svg version="1.1" xmlns="http://www.w3.org/2000/svg" xmlns:xlink="http://www.w3.org/1999/xlink" x="0px" y="0px" width="24px"
	 height="24px" viewBox="0 0 24 24" enable-background="new 0 0 24 24" xml:space="preserve">
<g id="Outline_Icons_1_">
	<g id="Outline_Icons">
		<g>
			<path d="M19.646,17.646L18,19.293V14.5c0-0.276-0.224-0.5-0.5-0.5S17,14.224,17,14.5v4.793l-1.646-1.646
				c-0.195-0.195-0.512-0.195-0.707,0s-0.195,0.512,0,0.707l2.499,2.499c0.047,0.047,0.103,0.083,0.164,0.109
				C17.37,20.987,17.435,21,17.5,21s0.13-0.013,0.191-0.038c0.061-0.026,0.116-0.062,0.163-0.109l2.499-2.499
				c0.195-0.195,0.195-0.512,0-0.707S19.842,17.451,19.646,17.646z"/>
			<path d="M17.5,11c-3.584,0-6.5,2.916-6.5,6.5s2.916,6.5,6.5,6.5s6.5-2.916,6.5-6.5S21.084,11,17.5,11z M17.5,23
				c-3.032,0-5.5-2.467-5.5-5.5c0-3.033,2.468-5.5,5.5-5.5s5.5,2.467,5.5,5.5C23,20.533,20.532,23,17.5,23z"/>
			<path d="M1,6.681c0-3.674,2.285-5.494,4.551-5.667c2.108-0.157,4.446,1.13,4.945,4.374c0.037,0.244,0.247,0.424,0.494,0.424
				s0.457-0.18,0.494-0.424c0.512-3.324,2.902-4.336,4.796-4.19c2.335,0.179,4.699,2.119,4.699,5.483
				c0,0.959-0.214,1.992-0.635,3.069c-0.101,0.257,0.026,0.547,0.284,0.647c0.257,0.101,0.547-0.027,0.647-0.284
				c0.467-1.193,0.703-2.348,0.703-3.433c0-3.972-2.829-6.266-5.623-6.479c-2.055-0.155-4.313,0.819-5.364,3.264
				C9.905,0.902,7.523-0.138,5.475,0.017C2.838,0.219,0,2.39,0,6.681c0,6.735,7.816,12.922,10.212,14.658
				c0.088,0.064,0.19,0.095,0.293,0.095c0.154,0,0.307-0.072,0.405-0.206c0.162-0.224,0.111-0.537-0.112-0.699
				C9.162,19.343,1,13.104,1,6.681z"/>
		</g>
	</g>
	<g id="New_icons_1_">
	</g>
</g>
<g id="Invisible_Shape">
	<rect fill="none" width="24" height="24"/>
</g>
</svg>
