<?xml version="1.0" encoding="utf-8"?>
<!-- Generator: Adobe Illustrator 16.0.3, SVG Export Plug-In . SVG Version: 6.00 Build 0)  -->
<!DOCTYPE svg PUBLIC "-//W3C//DTD SVG 1.1//EN" "http://www.w3.org/Graphics/SVG/1.1/DTD/svg11.dtd">
<svg version="1.1" xmlns="http://www.w3.org/2000/svg" xmlns:xlink="http://www.w3.org/1999/xlink" x="0px" y="0px" width="24px"
	 height="24px" viewBox="0 0 24 24" enable-background="new 0 0 24 24" xml:space="preserve">
<g id="Outline_Icons_1_">
	<g id="Outline_Icons">
		<g>
			<path d="M17,10h-3.17l-1.363-3.193c-0.079-0.185-0.259-0.304-0.459-0.304h-0.001c-0.199,0-0.38,0.119-0.459,0.302L10.171,10H7
				c-0.211,0-0.398,0.132-0.47,0.33c-0.072,0.199-0.012,0.42,0.149,0.555l2.728,2.272l-1.375,3.667
				c-0.078,0.208-0.01,0.443,0.169,0.576c0.089,0.066,0.193,0.1,0.299,0.1c0.106,0,0.212-0.034,0.302-0.101l3.204-2.42l3.192,2.419
				c0.177,0.135,0.422,0.135,0.601,0.002c0.179-0.133,0.247-0.368,0.169-0.577l-1.375-3.667l2.728-2.272
				c0.161-0.135,0.222-0.356,0.149-0.555C17.398,10.132,17.211,10,17,10z M13.68,12.616c-0.163,0.136-0.223,0.361-0.147,0.561
				l0.893,2.381l-2.116-1.604c-0.178-0.136-0.424-0.135-0.604,0l-2.133,1.61l0.896-2.387c0.075-0.199,0.016-0.424-0.147-0.561
				L8.381,11H10.5c0.199,0,0.38-0.119,0.459-0.302l1.046-2.427l1.035,2.425C13.119,10.88,13.3,11,13.5,11h2.119L13.68,12.616z"/>
			<path d="M24,12c0-0.148-0.065-0.289-0.18-0.384l-1.905-1.587l1.152-2.197c0.069-0.131,0.076-0.287,0.02-0.424
				s-0.172-0.242-0.313-0.286l-2.368-0.737l0.225-2.47c0.014-0.148-0.04-0.293-0.145-0.399c-0.104-0.104-0.252-0.158-0.398-0.145
				l-2.471,0.224l-0.738-2.369c-0.044-0.142-0.149-0.256-0.286-0.313c-0.139-0.057-0.294-0.049-0.424,0.02l-2.196,1.153L12.384,0.18
				c-0.189-0.228-0.578-0.228-0.768,0l-1.588,1.906L7.832,0.933c-0.131-0.069-0.286-0.077-0.424-0.02
				C7.271,0.971,7.166,1.085,7.122,1.227L6.384,3.595L3.913,3.371c-0.145-0.013-0.294,0.04-0.398,0.145
				C3.41,3.621,3.356,3.767,3.37,3.915l0.225,2.47L1.227,7.122C1.085,7.166,0.97,7.271,0.913,7.408S0.863,7.7,0.933,7.832
				l1.152,2.197L0.18,11.616C0.065,11.711,0,11.852,0,12s0.065,0.289,0.18,0.384l1.905,1.588l-1.152,2.196
				c-0.069,0.132-0.076,0.287-0.02,0.424s0.172,0.242,0.313,0.286l2.368,0.738L3.37,20.087c-0.014,0.148,0.04,0.294,0.145,0.399
				s0.254,0.162,0.398,0.145l2.471-0.225l0.738,2.369c0.044,0.142,0.149,0.256,0.286,0.313c0.138,0.056,0.293,0.049,0.424-0.019
				l2.196-1.153l1.588,1.905C11.711,23.934,11.852,24,12,24s0.289-0.066,0.384-0.18l1.588-1.905l2.196,1.153
				c0.13,0.068,0.285,0.075,0.424,0.019c0.137-0.057,0.242-0.171,0.286-0.313l0.738-2.369l2.471,0.225
				c0.146,0.017,0.294-0.04,0.398-0.145s0.158-0.251,0.145-0.399l-0.225-2.471l2.368-0.738c0.142-0.044,0.257-0.149,0.313-0.286
				s0.05-0.292-0.02-0.424l-1.152-2.196l1.905-1.588C23.935,12.289,24,12.148,24,12z M20.964,13.462
				c-0.181,0.151-0.232,0.408-0.122,0.617l1.062,2.023l-2.181,0.679c-0.226,0.07-0.371,0.288-0.35,0.523l0.207,2.276l-2.276-0.207
				c-0.234-0.028-0.453,0.124-0.522,0.349l-0.68,2.183l-2.022-1.062c-0.208-0.108-0.465-0.059-0.616,0.123L12,22.719l-1.463-1.755
				c-0.098-0.117-0.239-0.18-0.384-0.18c-0.079,0-0.159,0.019-0.232,0.057l-2.022,1.062l-0.68-2.183
				c-0.07-0.225-0.292-0.375-0.522-0.349L4.42,19.58l0.207-2.276c0.021-0.235-0.124-0.453-0.35-0.523l-2.181-0.679l1.062-2.023
				c0.11-0.208,0.059-0.466-0.122-0.617L1.281,12l1.755-1.462c0.181-0.151,0.232-0.408,0.122-0.617L2.097,7.898l2.181-0.679
				c0.226-0.07,0.371-0.288,0.35-0.522L4.42,4.422l2.276,0.206c0.229,0.02,0.452-0.125,0.522-0.349l0.68-2.182l2.022,1.062
				c0.207,0.109,0.465,0.058,0.616-0.122L12,1.281l1.463,1.756c0.151,0.18,0.408,0.231,0.616,0.122l2.022-1.062l0.68,2.182
				c0.07,0.225,0.29,0.371,0.522,0.349l2.276-0.206l-0.207,2.274c-0.021,0.234,0.124,0.452,0.35,0.522l2.181,0.679l-1.062,2.023
				c-0.11,0.209-0.059,0.466,0.122,0.617L22.719,12L20.964,13.462z"/>
		</g>
	</g>
	<g id="New_icons_1_">
	</g>
</g>
<g id="Invisible_Shape">
	<rect fill="none" width="24" height="24"/>
</g>
</svg>
