<?xml version="1.0" encoding="utf-8"?>
<!-- Generator: Adobe Illustrator 16.0.3, SVG Export Plug-In . SVG Version: 6.00 Build 0)  -->
<!DOCTYPE svg PUBLIC "-//W3C//DTD SVG 1.1//EN" "http://www.w3.org/Graphics/SVG/1.1/DTD/svg11.dtd">
<svg version="1.1" xmlns="http://www.w3.org/2000/svg" xmlns:xlink="http://www.w3.org/1999/xlink" x="0px" y="0px" width="24px"
	 height="24px" viewBox="0 0 24 24" enable-background="new 0 0 24 24" xml:space="preserve">
<g id="Outline_Icons_1_">
	<g id="Outline_Icons">
		<g>
			<path d="M19,9h-4.675l-1.868-4.203c-0.16-0.361-0.754-0.361-0.914,0L9.675,9H5C4.798,9,4.615,9.122,4.538,9.309
				C4.461,9.496,4.504,9.71,4.646,9.854l3.795,3.795l-1.424,5.221c-0.057,0.207,0.026,0.428,0.205,0.547
				c0.178,0.119,0.414,0.111,0.584-0.021L12,16.133l4.193,3.261c0.09,0.07,0.198,0.105,0.307,0.105c0.097,0,0.193-0.028,0.277-0.084
				c0.179-0.119,0.262-0.34,0.205-0.547l-1.424-5.221l3.795-3.795c0.143-0.143,0.186-0.358,0.108-0.544C19.385,9.122,19.202,9,19,9z
				 M14.646,13.146c-0.127,0.127-0.176,0.312-0.129,0.485l1.105,4.054l-3.316-2.58C12.217,15.035,12.108,15,12,15
				s-0.217,0.035-0.307,0.105l-3.316,2.58l1.105-4.054c0.047-0.173-0.002-0.357-0.129-0.485L6.207,10H10
				c0.197,0,0.377-0.116,0.457-0.297L12,6.231l1.543,3.472C13.623,9.884,13.803,10,14,10h3.793L14.646,13.146z"/>
			<path d="M12,0C5.383,0,0,5.383,0,12s5.383,12,12,12s12-5.383,12-12S18.617,0,12,0z M12,23C5.935,23,1,18.066,1,12
				C1,5.935,5.935,1,12,1s11,4.935,11,11C23,18.066,18.065,23,12,23z"/>
		</g>
	</g>
	<g id="New_icons_1_">
	</g>
</g>
<g id="Invisible_Shape">
	<rect fill="none" width="24" height="24"/>
</g>
</svg>
