<?xml version="1.0" encoding="utf-8"?>
<!-- Generator: Adobe Illustrator 16.0.3, SVG Export Plug-In . SVG Version: 6.00 Build 0)  -->
<!DOCTYPE svg PUBLIC "-//W3C//DTD SVG 1.1//EN" "http://www.w3.org/Graphics/SVG/1.1/DTD/svg11.dtd">
<svg version="1.1" xmlns="http://www.w3.org/2000/svg" xmlns:xlink="http://www.w3.org/1999/xlink" x="0px" y="0px" width="24px"
	 height="24px" viewBox="0 0 24 24" enable-background="new 0 0 24 24" xml:space="preserve">
<g id="Outline_Icons_1_">
	<g id="Outline_Icons">
		<g>
			<path d="M12.254,12.069c-0.158-0.091-0.35-0.091-0.508,0l-8.5,5C3.094,17.159,3,17.323,3,17.5c0,1.492,0.364,2.577,1.114,3.314
				c1.34,1.318,3.66,1.278,6.342,1.237c1.002-0.017,2.086-0.017,3.088,0c0.47,0.008,0.929,0.015,1.373,0.015
				c2.093,0,3.863-0.165,4.969-1.252C20.636,20.077,21,18.992,21,17.5c0-0.177-0.094-0.341-0.246-0.431L12.254,12.069z
				 M19.184,20.102c-1.041,1.024-3.166,0.989-5.623,0.95c-0.506-0.008-1.027-0.017-1.561-0.017s-1.055,0.009-1.561,0.017
				c-2.46,0.037-4.583,0.074-5.623-0.95c-0.506-0.498-0.772-1.258-0.812-2.319L12,13.08l7.995,4.703
				C19.956,18.844,19.689,19.604,19.184,20.102z"/>
			<path d="M12.254,6.069c-0.158-0.091-0.35-0.091-0.508,0l-8.5,5C3.094,11.159,3,11.323,3,11.5v3c0,0.179,0.096,0.345,0.252,0.434
				s0.348,0.087,0.502-0.002L12,10.08l8.246,4.852C20.324,14.978,20.412,15,20.5,15c0.086,0,0.171-0.022,0.248-0.066
				C20.904,14.845,21,14.679,21,14.5v-3c0-0.177-0.094-0.341-0.246-0.431L12.254,6.069z M20,13.626l-7.746-4.557
				C12.175,9.023,12.088,9,12,9s-0.175,0.023-0.254,0.069L4,13.626v-1.84l8-4.706l8,4.706V13.626z"/>
			<path d="M20.754,5.069l-8.5-5c-0.158-0.091-0.35-0.091-0.508,0l-8.5,5C3.094,5.159,3,5.323,3,5.5v3
				c0,0.179,0.096,0.345,0.252,0.434S3.6,9.021,3.754,8.932L12,4.08l8.246,4.852C20.324,8.978,20.412,9,20.5,9
				c0.086,0,0.171-0.022,0.248-0.066C20.904,8.845,21,8.679,21,8.5v-3C21,5.323,20.906,5.159,20.754,5.069z M20,7.626l-7.746-4.557
				C12.175,3.023,12.088,3,12,3s-0.175,0.023-0.254,0.069L4,7.626v-1.84l8-4.706l8,4.706V7.626z"/>
		</g>
	</g>
	<g id="New_icons_1_">
	</g>
</g>
<g id="Invisible_Shape">
	<rect fill="none" width="24" height="24"/>
</g>
</svg>
