<?xml version="1.0" encoding="utf-8"?>
<!-- Generator: Adobe Illustrator 16.0.3, SVG Export Plug-In . SVG Version: 6.00 Build 0)  -->
<!DOCTYPE svg PUBLIC "-//W3C//DTD SVG 1.1//EN" "http://www.w3.org/Graphics/SVG/1.1/DTD/svg11.dtd">
<svg version="1.1" xmlns="http://www.w3.org/2000/svg" xmlns:xlink="http://www.w3.org/1999/xlink" x="0px" y="0px" width="24px"
	 height="24px" viewBox="0 0 24 24" enable-background="new 0 0 24 24" xml:space="preserve">
<g id="Outline_Icons_1_">
	<g id="Outline_Icons">
	</g>
	<g id="New_icons_1_">
		<g>
			<path d="M24,12c0-0.148-0.065-0.289-0.18-0.384l-1.905-1.587l1.152-2.196c0.069-0.131,0.076-0.286,0.02-0.424
				s-0.172-0.242-0.313-0.286l-2.368-0.737l0.225-2.47c0.014-0.148-0.04-0.293-0.145-0.399c-0.104-0.105-0.25-0.159-0.398-0.145
				l-2.471,0.224l-0.738-2.368c-0.044-0.142-0.149-0.257-0.286-0.313c-0.138-0.058-0.294-0.05-0.424,0.02l-2.196,1.153L12.384,0.18
				c-0.189-0.229-0.578-0.229-0.768,0l-1.588,1.906L7.832,0.934c-0.131-0.069-0.287-0.077-0.424-0.02
				C7.271,0.971,7.166,1.086,7.122,1.228L6.384,3.595L3.913,3.371C3.771,3.356,3.619,3.41,3.515,3.516S3.356,3.767,3.37,3.915
				l0.225,2.47L1.227,7.122C1.085,7.167,0.97,7.271,0.913,7.408s-0.05,0.293,0.02,0.424l1.152,2.196L0.18,11.616
				C0.065,11.711,0,11.852,0,12s0.065,0.289,0.18,0.385l1.905,1.587L0.933,16.17c-0.069,0.131-0.076,0.287-0.02,0.424
				c0.057,0.137,0.172,0.242,0.313,0.286l2.368,0.736L3.37,20.087c-0.014,0.148,0.04,0.294,0.145,0.399s0.256,0.16,0.398,0.145
				l2.471-0.225l0.738,2.369c0.044,0.142,0.149,0.256,0.286,0.313s0.293,0.049,0.424-0.019l2.196-1.153l1.588,1.904
				C11.711,23.934,11.852,24,12,24s0.289-0.066,0.384-0.18l1.588-1.904l2.196,1.153c0.13,0.068,0.286,0.076,0.424,0.019
				c0.137-0.057,0.242-0.171,0.286-0.313l0.738-2.369l2.471,0.225c0.148,0.016,0.295-0.04,0.398-0.145
				c0.104-0.105,0.158-0.251,0.145-0.399l-0.225-2.471l2.368-0.736c0.142-0.044,0.257-0.149,0.313-0.286
				c0.057-0.137,0.05-0.292-0.02-0.424l-1.152-2.198l1.905-1.587C23.935,12.289,24,12.148,24,12z M20.964,13.462
				c-0.181,0.151-0.232,0.408-0.122,0.617l1.062,2.023l-2.181,0.679c-0.226,0.07-0.371,0.288-0.35,0.523l0.207,2.277l-2.276-0.208
				c-0.236-0.022-0.453,0.125-0.522,0.35l-0.68,2.182l-2.022-1.062c-0.207-0.11-0.466-0.059-0.616,0.122L12,22.719l-1.463-1.754
				c-0.098-0.117-0.239-0.18-0.384-0.18c-0.079,0-0.159,0.019-0.232,0.058l-2.022,1.062l-0.68-2.182
				c-0.069-0.225-0.295-0.37-0.522-0.35L4.42,19.581l0.207-2.277c0.021-0.235-0.124-0.453-0.35-0.523l-2.181-0.679l1.062-2.023
				c0.11-0.209,0.059-0.466-0.122-0.617L1.281,12l1.755-1.462c0.181-0.151,0.232-0.408,0.122-0.617L2.097,7.898l2.181-0.68
				c0.226-0.07,0.371-0.288,0.35-0.522L4.42,4.422l2.276,0.206c0.226,0.019,0.452-0.125,0.522-0.349l0.68-2.181L9.921,3.16
				c0.206,0.109,0.465,0.058,0.616-0.123L12,1.281l1.463,1.756c0.15,0.181,0.409,0.231,0.616,0.123l2.022-1.062l0.68,2.181
				c0.069,0.224,0.288,0.37,0.522,0.349l2.276-0.206l-0.207,2.274c-0.021,0.234,0.124,0.452,0.35,0.522l2.181,0.68l-1.062,2.022
				c-0.11,0.209-0.059,0.466,0.122,0.617L22.719,12L20.964,13.462z"/>
			<path d="M14.568,8.336C13.724,8.238,12.673,8.565,12,9.681c-0.672-1.114-1.72-1.441-2.568-1.345C8.224,8.479,7,9.544,7,11.303
				c0,2.604,4.225,5.752,4.706,6.102C11.794,17.469,11.896,17.5,12,17.5s0.206-0.031,0.294-0.096C12.775,17.055,17,13.907,17,11.303
				C17,9.544,15.776,8.479,14.568,8.336z M12,16.375c-1.342-1.034-4-3.424-4-5.072c0-1.176,0.779-1.882,1.55-1.974
				c0.057-0.007,0.115-0.01,0.174-0.01c0.683,0,1.466,0.473,1.79,1.821c0.109,0.451,0.863,0.451,0.973,0
				c0.352-1.465,1.245-1.899,1.964-1.811C15.221,9.42,16,10.127,16,11.303C16,12.949,13.342,15.34,12,16.375z"/>
		</g>
	</g>
</g>
<g id="Invisible_Shape">
	<rect fill="none" width="24" height="24"/>
</g>
</svg>
