<?xml version="1.0" encoding="utf-8"?>
<!-- Generator: Adobe Illustrator 16.0.3, SVG Export Plug-In . SVG Version: 6.00 Build 0)  -->
<!DOCTYPE svg PUBLIC "-//W3C//DTD SVG 1.1//EN" "http://www.w3.org/Graphics/SVG/1.1/DTD/svg11.dtd">
<svg version="1.1" xmlns="http://www.w3.org/2000/svg" xmlns:xlink="http://www.w3.org/1999/xlink" x="0px" y="0px" width="24px"
	 height="24px" viewBox="0 0 24 24" enable-background="new 0 0 24 24" xml:space="preserve">
<g id="Outline_Icons_1_">
	<g id="Outline_Icons">
		<path d="M18.219,7.611L13.486,5.46l0.432-4.697c0.02-0.21-0.095-0.409-0.286-0.499c-0.188-0.088-0.416-0.05-0.565,0.099
			l-2.984,2.983l-4.28-1.718c-0.187-0.074-0.398-0.031-0.539,0.11C5.121,1.88,5.077,2.092,5.15,2.277L6.858,6.57L3.873,9.555
			c-0.148,0.149-0.188,0.375-0.1,0.566c0.089,0.189,0.277,0.306,0.499,0.285l4.698-0.431l1.894,4.168l-3.485,0.872
			C7.156,15.071,7,15.271,7,15.5V21H5.5C5.224,21,5,21.224,5,21.5v2C5,23.776,5.224,24,5.5,24h12c0.276,0,0.5-0.224,0.5-0.5v-2
			c0-0.276-0.224-0.5-0.5-0.5H16v-5.5c0-0.229-0.156-0.429-0.379-0.484l-3.479-0.87l0.791-4.725l5.161-0.861
			c0.217-0.036,0.385-0.21,0.414-0.428C18.536,7.914,18.419,7.702,18.219,7.611z M17,23H6v-1h1.5h8H17V23z M15,21H8v-5.109
			l3.5-0.875l3.5,0.875V21z M12.416,8.493c-0.211,0.035-0.376,0.2-0.411,0.411l-0.652,3.896L9.734,9.239
			C9.653,9.059,9.474,8.945,9.279,8.945c-0.015,0-0.03,0-0.046,0.002L5.558,9.284l2.24-2.239c0.142-0.141,0.185-0.353,0.111-0.538
			L6.511,2.991l3.505,1.406c0.187,0.076,0.398,0.032,0.54-0.11l2.24-2.239l-0.338,3.674c-0.02,0.212,0.098,0.413,0.291,0.501
			l3.563,1.62L12.416,8.493z"/>
	</g>
	<g id="New_icons_1_">
	</g>
</g>
<g id="Invisible_Shape">
	<rect fill="none" width="24" height="24"/>
</g>
</svg>
