<?xml version="1.0" encoding="utf-8"?>
<!-- Generator: Adobe Illustrator 16.0.3, SVG Export Plug-In . SVG Version: 6.00 Build 0)  -->
<!DOCTYPE svg PUBLIC "-//W3C//DTD SVG 1.1//EN" "http://www.w3.org/Graphics/SVG/1.1/DTD/svg11.dtd">
<svg version="1.1" xmlns="http://www.w3.org/2000/svg" xmlns:xlink="http://www.w3.org/1999/xlink" x="0px" y="0px" width="24px"
	 height="24px" viewBox="0 0 24 24" enable-background="new 0 0 24 24" xml:space="preserve">
<g id="Outline_Icons">
	<g>
		<path d="M13,4V1h2v3h2V1h2v8.5c0,0.276,0.224,0.5,0.5,0.5S20,9.776,20,9.5v-9C20,0.224,19.776,0,19.5,0h-19C0.224,0,0,0.224,0,0.5
			v20C0,20.776,0.224,21,0.5,21h9c0.276,0,0.5-0.224,0.5-0.5S9.776,20,9.5,20H1V1h2v3h2V1h2v3h2V1h2v3H13z"/>
		<path d="M17.5,19h-4c-0.276,0-0.5,0.224-0.5,0.5v4c0,0.276,0.224,0.5,0.5,0.5h4c0.276,0,0.5-0.224,0.5-0.5v-4
			C18,19.224,17.776,19,17.5,19z M17,23h-3v-3h3V23z"/>
		<path d="M23.5,19h-4c-0.276,0-0.5,0.224-0.5,0.5v4c0,0.276,0.224,0.5,0.5,0.5h4c0.276,0,0.5-0.224,0.5-0.5v-4
			C24,19.224,23.776,19,23.5,19z M23,23h-3v-3h3V23z"/>
		<path d="M16,13.5v4c0,0.276,0.224,0.5,0.5,0.5h4c0.276,0,0.5-0.224,0.5-0.5v-4c0-0.276-0.224-0.5-0.5-0.5h-4
			C16.224,13,16,13.224,16,13.5z M17,14h3v3h-3V14z"/>
	</g>
</g>
<g id="Invisible_Shape">
	<rect fill="none" width="24" height="24"/>
</g>
</svg>
