<?xml version="1.0" encoding="utf-8"?>
<!-- Generator: Adobe Illustrator 16.0.3, SVG Export Plug-In . SVG Version: 6.00 Build 0)  -->
<!DOCTYPE svg PUBLIC "-//W3C//DTD SVG 1.1//EN" "http://www.w3.org/Graphics/SVG/1.1/DTD/svg11.dtd">
<svg version="1.1" xmlns="http://www.w3.org/2000/svg" xmlns:xlink="http://www.w3.org/1999/xlink" x="0px" y="0px" width="24px"
	 height="24px" viewBox="0 0 24 24" enable-background="new 0 0 24 24" xml:space="preserve">
<g id="Outline_Icons">
	<g>
		<path d="M23.5,15H22v-0.5c0-1.93-1.57-3.5-3.5-3.5S15,12.57,15,14.5V15h-1.5c-0.276,0-0.5,0.224-0.5,0.5v8
			c0,0.276,0.224,0.5,0.5,0.5h10c0.276,0,0.5-0.224,0.5-0.5v-8C24,15.224,23.776,15,23.5,15z M16,14.5c0-1.379,1.122-2.5,2.5-2.5
			s2.5,1.121,2.5,2.5V15h-5V14.5z M23,23h-9v-7h9V23z"/>
		<path d="M18.5,17.5c-0.551,0-1,0.448-1,1c0,0.365,0.207,0.672,0.5,0.847V21c0,0.276,0.224,0.5,0.5,0.5S19,21.276,19,21v-1.653
			c0.293-0.175,0.5-0.481,0.5-0.847C19.5,17.948,19.051,17.5,18.5,17.5z"/>
		<path d="M13,4V1h2v3h2V1h2v7.5C19,8.776,19.224,9,19.5,9S20,8.776,20,8.5v-8C20,0.224,19.776,0,19.5,0h-19C0.224,0,0,0.224,0,0.5
			v20C0,20.776,0.224,21,0.5,21h10c0.276,0,0.5-0.224,0.5-0.5S10.776,20,10.5,20H1V1h2v3h2V1h2v3h2V1h2v3H13z"/>
	</g>
</g>
<g id="Invisible_Shape">
	<rect fill="none" width="24" height="24"/>
</g>
</svg>
