<?xml version="1.0" encoding="utf-8"?>
<!-- Generator: Adobe Illustrator 16.0.3, SVG Export Plug-In . SVG Version: 6.00 Build 0)  -->
<!DOCTYPE svg PUBLIC "-//W3C//DTD SVG 1.1//EN" "http://www.w3.org/Graphics/SVG/1.1/DTD/svg11.dtd">
<svg version="1.1" xmlns="http://www.w3.org/2000/svg" xmlns:xlink="http://www.w3.org/1999/xlink" x="0px" y="0px" width="24px"
	 height="24px" viewBox="0 0 24 24" enable-background="new 0 0 24 24" xml:space="preserve">
<g id="Outline_Icons">
	<g>
		<path d="M22.379,19.16c-1.099-0.414-2.373,0.054-2.992,1.011l-3.426-1.284C15.981,18.76,16,18.632,16,18.499
			c0-0.224-0.039-0.437-0.095-0.644l3.645-1.82C20.018,16.631,20.72,17,21.501,17c0.39,0,0.765-0.089,1.116-0.264
			c0.597-0.298,1.042-0.811,1.254-1.445c0.211-0.633,0.164-1.311-0.135-1.908c-0.6-1.201-2.145-1.722-3.354-1.12
			c-1.08,0.54-1.599,1.761-1.297,2.885l-3.63,1.813c-0.458-0.582-1.16-0.962-1.956-0.962c-1.378,0-2.5,1.122-2.5,2.5
			s1.122,2.5,2.5,2.5c0.891,0,1.668-0.472,2.111-1.174l3.42,1.282c-0.183,1.149,0.46,2.31,1.589,2.734
			c0.283,0.106,0.578,0.16,0.878,0.16c1.036,0,1.977-0.651,2.341-1.622C24.325,21.09,23.669,19.645,22.379,19.16z M20.83,13.157
			c0.21-0.105,0.435-0.159,0.667-0.159c0.573,0,1.088,0.319,1.344,0.831c0.179,0.357,0.208,0.764,0.081,1.144
			c-0.126,0.38-0.394,0.688-0.752,0.867c-0.727,0.364-1.646,0.05-2.008-0.664c-0.001-0.003-0.001-0.004-0.002-0.007
			c-0.001-0.002-0.003-0.003-0.004-0.005C19.791,14.425,20.092,13.526,20.83,13.157z M13.5,19.999c-0.827,0-1.5-0.673-1.5-1.5
			s0.673-1.5,1.5-1.5s1.5,0.673,1.5,1.5S14.327,19.999,13.5,19.999z M22.904,22.027c-0.281,0.75-1.171,1.163-1.931,0.877
			c-0.773-0.291-1.167-1.157-0.877-1.931c0-0.001,0.001-0.001,0.001-0.002l0-0.001c0.219-0.581,0.782-0.971,1.401-0.971
			c0.18,0,0.357,0.033,0.528,0.098C22.801,20.387,23.195,21.254,22.904,22.027z"/>
		<path d="M9.5,17H3.722C3.894,16.704,4,16.365,4,16V5h16v5.5c0,0.276,0.224,0.5,0.5,0.5s0.5-0.224,0.5-0.5v-6
			C21,4.223,20.776,4,20.5,4H19V2.5C19,2.223,18.776,2,18.5,2H6V0.5C6,0.223,5.776,0,5.5,0h-5C0.224,0,0,0.223,0,0.5V16
			c0,1.103,0.897,2,2,2h7.5c0.276,0,0.5-0.224,0.5-0.5S9.776,17,9.5,17z M1,16V1h4v1.5C5,2.776,5.224,3,5.5,3H18v1H3.5
			C3.224,4,3,4.223,3,4.5V16c0,0.551-0.449,1-1,1S1,16.551,1,16z"/>
	</g>
</g>
<g id="Invisible_Shape">
	<rect fill="none" width="24" height="24"/>
</g>
</svg>
