<?xml version="1.0" encoding="utf-8"?>
<!-- Generator: Adobe Illustrator 16.0.3, SVG Export Plug-In . SVG Version: 6.00 Build 0)  -->
<!DOCTYPE svg PUBLIC "-//W3C//DTD SVG 1.1//EN" "http://www.w3.org/Graphics/SVG/1.1/DTD/svg11.dtd">
<svg version="1.1" xmlns="http://www.w3.org/2000/svg" xmlns:xlink="http://www.w3.org/1999/xlink" x="0px" y="0px" width="24px"
	 height="24px" viewBox="0 0 24 24" enable-background="new 0 0 24 24" xml:space="preserve">
<g id="Outline_Icons">
	<g>
		<path d="M17.5,11c-3.584,0-6.5,2.916-6.5,6.5s2.916,6.5,6.5,6.5s6.5-2.916,6.5-6.5S21.084,11,17.5,11z M17.5,23
			c-3.033,0-5.5-2.467-5.5-5.5s2.467-5.5,5.5-5.5s5.5,2.467,5.5,5.5S20.533,23,17.5,23z"/>
		<path d="M20.354,14.646c-0.195-0.195-0.512-0.195-0.707,0L17.5,16.792l-2.146-2.146c-0.195-0.195-0.512-0.195-0.707,0
			s-0.195,0.512,0,0.707l2.146,2.147l-2.146,2.146c-0.195,0.195-0.195,0.512,0,0.707C14.744,20.451,14.872,20.5,15,20.5
			s0.256-0.049,0.354-0.147l2.146-2.146l2.146,2.146C19.744,20.451,19.872,20.5,20,20.5s0.256-0.049,0.354-0.147
			c0.195-0.195,0.195-0.511,0-0.707L18.207,17.5l2.146-2.147C20.549,15.158,20.549,14.841,20.354,14.646z"/>
		<path d="M9,17H3.523C3.824,16.521,4,15.958,4,15.5V5h16v4c0,0.276,0.224,0.5,0.5,0.5S21,9.276,21,9V4.5C21,4.223,20.776,4,20.5,4
			H19V2.5C19,2.223,18.776,2,18.5,2H6V0.5C6,0.223,5.776,0,5.5,0h-5C0.224,0,0,0.223,0,0.5v15C0,16.495,0.798,18,2,18h7
			c0.276,0,0.5-0.224,0.5-0.5S9.276,17,9,17z M1,15.5V1h4v1.5C5,2.776,5.224,3,5.5,3H18v1H3.5C3.224,4,3,4.223,3,4.5v11
			c0,0.62-0.517,1.5-1,1.5S1,16.119,1,15.5z"/>
	</g>
</g>
<g id="Invisible_Shape">
	<rect fill="none" width="24" height="24"/>
</g>
</svg>
