<?xml version="1.0" encoding="utf-8"?>
<!-- Generator: Adobe Illustrator 16.0.3, SVG Export Plug-In . SVG Version: 6.00 Build 0)  -->
<!DOCTYPE svg PUBLIC "-//W3C//DTD SVG 1.1//EN" "http://www.w3.org/Graphics/SVG/1.1/DTD/svg11.dtd">
<svg version="1.1" xmlns="http://www.w3.org/2000/svg" xmlns:xlink="http://www.w3.org/1999/xlink" x="0px" y="0px" width="24px"
	 height="24px" viewBox="0 0 24 24" enable-background="new 0 0 24 24" xml:space="preserve">
<g id="Outline_Icons">
	<g>
		<path d="M22.658,5.526l-10.5-3.5c-0.1-0.033-0.204-0.035-0.304-0.004l-11.5,3.5C0.144,5.586,0,5.78,0,6v2.5C0,8.776,0.224,9,0.5,9
			H2v13.5C2,22.776,2.224,23,2.5,23S3,22.776,3,22.5V9h17v13.5c0,0.276,0.224,0.5,0.5,0.5s0.5-0.224,0.5-0.5V9h1.5
			C22.776,9,23,8.776,23,8.5V6C23,5.785,22.862,5.594,22.658,5.526z M22,8H1V6.371l10.993-3.346L22,6.36V8z"/>
		<path d="M18.5,16h-2H15v-5.5c0-0.276-0.224-0.5-0.5-0.5h-2h-3h-2C7.224,10,7,10.224,7,10.5V16H6.5h-2C4.224,16,4,16.224,4,16.5v6
			C4,22.776,4.224,23,4.5,23h7h7c0.276,0,0.5-0.224,0.5-0.5v-6C19,16.224,18.776,16,18.5,16z M14,17h0.5H16v2h-2V17z M12,11v2h-2v-2
			H12z M8,11h1v2.5C9,13.776,9.224,14,9.5,14h3c0.276,0,0.5-0.224,0.5-0.5V11h1v5h-0.5h-2h-2H8V11z M7.5,17H9v2H7v-2H7.5z M5,17h1
			v2.5C6,19.776,6.224,20,6.5,20h3c0.276,0,0.5-0.224,0.5-0.5V17h1v5H5V17z M18,22h-6v-5h1v2.5c0,0.276,0.224,0.5,0.5,0.5h3
			c0.276,0,0.5-0.224,0.5-0.5V17h1V22z"/>
	</g>
</g>
<g id="Invisible_Shape">
	<rect fill="none" width="24" height="24"/>
</g>
</svg>
