<?xml version="1.0" encoding="utf-8"?>
<!-- Generator: Adobe Illustrator 16.0.3, SVG Export Plug-In . SVG Version: 6.00 Build 0)  -->
<!DOCTYPE svg PUBLIC "-//W3C//DTD SVG 1.1//EN" "http://www.w3.org/Graphics/SVG/1.1/DTD/svg11.dtd">
<svg version="1.1" xmlns="http://www.w3.org/2000/svg" xmlns:xlink="http://www.w3.org/1999/xlink" x="0px" y="0px" width="24px"
	 height="24px" viewBox="0 0 24 24" enable-background="new 0 0 24 24" xml:space="preserve">
<g id="Outline_Icons">
	<g>
		<path d="M7.5,15H1V5h13v1.5C14,6.776,14.224,7,14.5,7S15,6.776,15,6.5V4.597c0.007-0.032,0.02-0.062,0.02-0.097
			c0-0.141-0.068-0.256-0.162-0.347c-0.003-0.003-0.006-0.007-0.01-0.01c-0.023-0.021-0.039-0.053-0.067-0.07l-3.927-3.926
			C10.76,0.053,10.633,0,10.5,0h-6C4.367,0,4.24,0.053,4.146,0.146l-3.999,4C0.086,4.207,0.049,4.287,0.025,4.373
			C0.02,4.395,0.016,4.413,0.013,4.436C0.01,4.458,0,4.478,0,4.5v11C0,15.776,0.224,16,0.5,16h7C7.776,16,8,15.776,8,15.5
			S7.776,15,7.5,15z M13.293,4H8V1h2.293L13.293,4z M4.707,1H7v3H1.707L4.707,1z"/>
		<path d="M22.892,23.201l-6.944-13.89c-0.17-0.339-0.725-0.339-0.895,0l-7,14c-0.077,0.155-0.069,0.339,0.021,0.487
			c0.092,0.147,0.253,0.237,0.426,0.237h14c0.008,0.001,0.015,0,0.02,0c0.276,0,0.5-0.224,0.5-0.5
			C23.02,23.407,22.972,23.29,22.892,23.201z M9.309,23.035L15.5,10.653l6.191,12.382H9.309z"/>
		<path d="M15,14v5.5c0,0.276,0.224,0.5,0.5,0.5s0.5-0.224,0.5-0.5V14c0-0.276-0.224-0.5-0.5-0.5S15,13.724,15,14z"/>
		<circle cx="15.5" cy="21.5" r="0.5"/>
	</g>
</g>
<g id="Invisible_Shape">
	<rect fill="none" width="24" height="24"/>
</g>
</svg>
