<?xml version="1.0" encoding="utf-8"?>
<!-- Generator: Adobe Illustrator 16.0.3, SVG Export Plug-In . SVG Version: 6.00 Build 0)  -->
<!DOCTYPE svg PUBLIC "-//W3C//DTD SVG 1.1//EN" "http://www.w3.org/Graphics/SVG/1.1/DTD/svg11.dtd">
<svg version="1.1" xmlns="http://www.w3.org/2000/svg" xmlns:xlink="http://www.w3.org/1999/xlink" x="0px" y="0px" width="24px"
	 height="24px" viewBox="0 0 24 24" enable-background="new 0 0 24 24" xml:space="preserve">
<g id="Outline_Icons">
	<path d="M23.5,12h-4c-0.276,0-0.5,0.224-0.5,0.5V13h-1V2.5C18,2.224,17.776,2,17.5,2h-14C3.224,2,3,2.224,3,2.5v12.462
		c-1.011-0.109-1.878,0.272-2.854,1.247c-0.113,0.114-0.166,0.275-0.14,0.434c0.025,0.159,0.126,0.295,0.27,0.367
		c2.035,1.018,3.63,1.866,4.911,2.547c3.091,1.643,4.515,2.386,6.138,2.386c1.33,0,2.795-0.499,5.419-1.41
		c0.666-0.231,1.415-0.491,2.256-0.775V20.5c0,0.276,0.224,0.5,0.5,0.5h4c0.276,0,0.5-0.224,0.5-0.5v-8C24,12.224,23.776,12,23.5,12
		z M8,3h5v6.444l-2.184-1.789c-0.184-0.151-0.449-0.151-0.633,0L8,9.444V3z M7,3v7.5c0,0.194,0.111,0.369,0.286,0.452
		c0.176,0.083,0.382,0.057,0.53-0.065L10.5,8.688l2.684,2.198C13.274,10.962,13.387,11,13.5,11c0.072,0,0.146-0.016,0.214-0.048
		C13.889,10.869,14,10.694,14,10.5V3h3v10h-0.5c-1.773,0-3.163,1.017-3.993,1.625C12.292,14.782,12.025,14.978,12,15H8.5
		c-0.647,0-1.133,0.505-1.229,1.232L4,15.196V3H7z M16.416,19.588c-5.471,1.9-5.47,1.898-10.759-0.915
		c-1.146-0.609-2.54-1.351-4.275-2.228c0.752-0.58,1.32-0.592,1.967-0.407l4.097,1.297C7.662,17.745,8.04,18,8.5,18H14
		c0.276,0,0.5-0.224,0.5-0.5S14.276,17,14,17H8.5c-0.173,0-0.25-0.292-0.25-0.5S8.327,16,8.5,16H12c0.321,0,0.613-0.214,1.098-0.568
		C13.876,14.862,15.054,14,16.5,14H19v4.703C18.024,19.03,17.167,19.328,16.416,19.588z M23,20h-3v-7h3V20z"/>
</g>
<g id="Invisible_Shape">
	<rect fill="none" width="24" height="24"/>
</g>
</svg>
