<?xml version="1.0" encoding="utf-8"?>
<!-- Generator: Adobe Illustrator 16.0.3, SVG Export Plug-In . SVG Version: 6.00 Build 0)  -->
<!DOCTYPE svg PUBLIC "-//W3C//DTD SVG 1.1//EN" "http://www.w3.org/Graphics/SVG/1.1/DTD/svg11.dtd">
<svg version="1.1" xmlns="http://www.w3.org/2000/svg" xmlns:xlink="http://www.w3.org/1999/xlink" x="0px" y="0px" width="24px"
	 height="24px" viewBox="0 0 24 24" enable-background="new 0 0 24 24" xml:space="preserve">
<g id="Outline_Icons">
	<g>
		<path d="M14,5v1.5C14,6.776,14.224,7,14.5,7S15,6.776,15,6.5V4.597c0.007-0.032,0.02-0.062,0.02-0.097
			c0-0.141-0.068-0.256-0.162-0.347c-0.003-0.003-0.006-0.007-0.01-0.01c-0.023-0.021-0.039-0.053-0.067-0.07l-3.927-3.926
			C10.76,0.053,10.633,0,10.5,0h-6C4.367,0,4.24,0.053,4.146,0.146l-3.999,4C0.086,4.207,0.049,4.287,0.025,4.373
			C0.02,4.395,0.016,4.413,0.013,4.436C0.01,4.458,0,4.478,0,4.5v11C0,15.776,0.224,16,0.5,16h6C6.776,16,7,15.776,7,15.5
			S6.776,15,6.5,15H1V5H14z M13.293,4H8V1h2.293L13.293,4z M4.707,1H7v3H1.707L4.707,1z"/>
		<path d="M13.999,11.009V9.5c0-0.192-0.11-0.367-0.283-0.451c-0.175-0.084-0.379-0.06-0.529,0.061l-5,4
			c-0.118,0.095-0.188,0.238-0.188,0.39c0,0.152,0.069,0.295,0.188,0.391l5,4c0.15,0.119,0.354,0.144,0.529,0.06
			c0.173-0.083,0.283-0.258,0.283-0.451v-1.491c7.537,0.277,8.952,6.806,9.01,7.089c0.048,0.235,0.255,0.401,0.49,0.401
			c0.017,0,0.033,0,0.05-0.002c0.256-0.026,0.45-0.24,0.45-0.497C23.999,22.882,23.884,11.384,13.999,11.009z M13.499,15
			c-0.276,0-0.5,0.224-0.5,0.5v0.959L9.3,13.5l3.699-2.959V11.5c0,0.276,0.224,0.5,0.5,0.5c6.05,0,8.247,4.393,9.046,7.63
			C21.128,17.456,18.435,15,13.499,15z"/>
	</g>
</g>
<g id="Invisible_Shape">
	<rect fill="none" width="24" height="24"/>
</g>
</svg>
