<?xml version="1.0" encoding="utf-8"?>
<!-- Generator: Adobe Illustrator 16.0.3, SVG Export Plug-In . SVG Version: 6.00 Build 0)  -->
<!DOCTYPE svg PUBLIC "-//W3C//DTD SVG 1.1//EN" "http://www.w3.org/Graphics/SVG/1.1/DTD/svg11.dtd">
<svg version="1.1" xmlns="http://www.w3.org/2000/svg" xmlns:xlink="http://www.w3.org/1999/xlink" x="0px" y="0px" width="24px"
	 height="24px" viewBox="0 0 24 24" enable-background="new 0 0 24 24" xml:space="preserve">
<g id="Outline_Icons">
	<g>
		<path d="M14,5v1.5C14,6.776,14.224,7,14.5,7S15,6.776,15,6.5V4.597c0.007-0.032,0.02-0.062,0.02-0.097
			c0-0.141-0.068-0.256-0.162-0.347c-0.003-0.003-0.006-0.007-0.01-0.01c-0.023-0.021-0.039-0.053-0.067-0.07l-3.927-3.926
			C10.76,0.053,10.633,0,10.5,0h-6C4.367,0,4.24,0.053,4.146,0.146l-3.999,4C0.086,4.207,0.049,4.287,0.025,4.373
			C0.02,4.395,0.016,4.413,0.013,4.436C0.01,4.458,0,4.478,0,4.5v11C0,15.776,0.224,16,0.5,16h6C6.776,16,7,15.776,7,15.5
			S6.776,15,6.5,15H1V5H14z M13.293,4H8V1h2.293L13.293,4z M4.707,1H7v3H1.707L4.707,1z"/>
		<path d="M16.5,9C12.364,9,9,12.365,9,16.5c0,4.136,3.364,7.5,7.5,7.5s7.5-3.364,7.5-7.5C24,12.365,20.636,9,16.5,9z M16.5,23
			c-3.584,0-6.5-2.916-6.5-6.5s2.916-6.5,6.5-6.5s6.5,2.916,6.5,6.5S20.084,23,16.5,23z"/>
		<path d="M19.146,17.146L17,19.293V13.5c0-0.276-0.224-0.5-0.5-0.5S16,13.224,16,13.5v5.793l-2.146-2.146
			c-0.195-0.195-0.512-0.195-0.707,0s-0.195,0.512,0,0.707l2.999,3c0.047,0.046,0.103,0.083,0.163,0.109
			C16.37,20.987,16.435,21,16.5,21s0.13-0.013,0.191-0.038c0.061-0.026,0.116-0.062,0.163-0.109l2.999-3
			c0.195-0.195,0.195-0.512,0-0.707S19.342,16.951,19.146,17.146z"/>
	</g>
</g>
<g id="Invisible_Shape">
	<rect fill="none" width="24" height="24"/>
</g>
</svg>
