<?xml version="1.0" encoding="utf-8"?>
<!-- Generator: Adobe Illustrator 16.0.3, SVG Export Plug-In . SVG Version: 6.00 Build 0)  -->
<!DOCTYPE svg PUBLIC "-//W3C//DTD SVG 1.1//EN" "http://www.w3.org/Graphics/SVG/1.1/DTD/svg11.dtd">
<svg version="1.1" xmlns="http://www.w3.org/2000/svg" xmlns:xlink="http://www.w3.org/1999/xlink" x="0px" y="0px" width="24px"
	 height="24px" viewBox="0 0 24 24" enable-background="new 0 0 24 24" xml:space="preserve">
<g id="Outline_Icons">
	<g>
		<path d="M19.496,7.934l-1-7.5C18.463,0.186,18.251,0,18,0h-7.5C10.224,0,10,0.224,10,0.5V2H8.5C8.224,2,8,2.224,8,2.5V5H6.5
			C6.262,5,6.057,5.168,6.01,5.402L5.5,8c0,3.691,2.874,6.716,6.5,6.975V23H9.5C9.224,23,9,23.224,9,23.5S9.224,24,9.5,24h6
			c0.276,0,0.5-0.224,0.5-0.5S15.776,23,15.5,23H13v-8.025C16.626,14.716,19.5,11.688,19.496,7.934z M12.5,14
			c-3.309,0-6-2.691-6.01-5.902L6.91,6H8.5C8.776,6,9,5.776,9,5.5V3h1.5C10.776,3,11,2.776,11,2.5V1h6.562L18.5,8
			C18.5,11.309,15.809,14,12.5,14z"/>
		<path d="M7,2.5v-2C7,0.224,6.776,0,6.5,0H2C1.748,0,1.535,0.188,1.504,0.438l-0.5,4C0.986,4.58,1.03,4.724,1.125,4.832
			C1.22,4.938,1.356,5,1.5,5h3C4.776,5,5,4.776,5,4.5V3h1.5C6.776,3,7,2.776,7,2.5z M6,2H4.5C4.224,2,4,2.224,4,2.5V4H2.066l0.375-3
			H6V2z"/>
	</g>
</g>
<g id="Invisible_Shape">
	<rect fill="none" width="24" height="24"/>
</g>
</svg>
