<?xml version="1.0" encoding="utf-8"?>
<!-- Generator: Adobe Illustrator 16.0.3, SVG Export Plug-In . SVG Version: 6.00 Build 0)  -->
<!DOCTYPE svg PUBLIC "-//W3C//DTD SVG 1.1//EN" "http://www.w3.org/Graphics/SVG/1.1/DTD/svg11.dtd">
<svg version="1.1" xmlns="http://www.w3.org/2000/svg" xmlns:xlink="http://www.w3.org/1999/xlink" x="0px" y="0px" width="24px"
	 height="24px" viewBox="0 0 24 24" enable-background="new 0 0 24 24" xml:space="preserve">
<g id="Outline_Icons">
	<g>
		<path d="M5.5,11C8.532,11,11,8.533,11,5.5S8.532,0,5.5,0S0,2.467,0,5.5S2.468,11,5.5,11z M5.5,1C7.981,1,10,3.019,10,5.5
			C10,7.982,7.981,10,5.5,10S1,7.982,1,5.5C1,3.019,3.019,1,5.5,1z"/>
		<path d="M5.5,7h2C7.776,7,8,6.776,8,6.5S7.776,6,7.5,6H6V3c0-0.276-0.224-0.5-0.5-0.5S5,2.724,5,3v3.5C5,6.776,5.224,7,5.5,7z"/>
		<path d="M3.501,14.005l-3-0.005H0.5C0.225,14,0,14.223,0,14.499C0,14.775,0.223,15,0.499,15l3,0.005H3.5
			c0.275,0,0.5-0.223,0.5-0.499C4,14.229,3.777,14.006,3.501,14.005z"/>
		<path d="M3.502,16.005L2.002,16c0,0-0.001,0-0.002,0c-0.275,0-0.499,0.223-0.5,0.499c-0.001,0.276,0.223,0.5,0.498,0.501
			l1.5,0.005c0.001,0,0.001,0,0.001,0c0.276,0,0.5-0.222,0.501-0.499C4.001,16.23,3.777,16.006,3.502,16.005z"/>
		<path d="M3.505,18.005L3.005,18c-0.301,0.021-0.502,0.219-0.505,0.495S2.719,18.997,2.995,19l0.5,0.005c0.002,0,0.003,0,0.005,0
			c0.274,0,0.497-0.221,0.5-0.495C4.003,18.234,3.781,18.008,3.505,18.005z"/>
		<path d="M23.932,16.263c-0.005-0.009-0.003-0.02-0.008-0.028l-2.5-4C21.333,12.089,21.173,12,21,12h-3.997L17,9.5
			C17,9.224,16.776,9,16.5,9h-5C11.224,9,11,9.224,11,9.5s0.224,0.5,0.5,0.5h4.501l0.003,2.483C16.003,12.489,16,12.494,16,12.5
			c0,0.006,0.003,0.011,0.004,0.017l0.003,3.947C16.006,16.477,16,16.487,16,16.5s0.007,0.024,0.008,0.037L16.01,19h-4.788
			c-0.347-0.595-0.985-1-1.722-1s-1.375,0.405-1.722,1H6v-6.5C6,12.224,5.776,12,5.5,12S5,12.224,5,12.5v7C5,19.776,5.224,20,5.5,20
			h2c0,1.103,0.897,2,2,2s2-0.897,2-2h5.011H17.5c0,1.103,0.897,2,2,2s2-0.897,2-2h2c0.276,0,0.5-0.224,0.5-0.5v-3
			C24,16.412,23.972,16.334,23.932,16.263z M9.5,21c-0.552,0-1-0.449-1-1s0.448-1,1-1s1,0.449,1,1S10.052,21,9.5,21z M20.723,13
			l1.875,3h-5.591l-0.003-3H20.723z M19.5,21c-0.552,0-1-0.449-1-1s0.448-1,1-1s1,0.449,1,1S20.052,21,19.5,21z M21.222,19
			c-0.347-0.595-0.985-1-1.722-1s-1.375,0.405-1.722,1H17.01l-0.002-2H23v2H21.222z"/>
	</g>
</g>
<g id="Invisible_Shape">
	<rect fill="none" width="24" height="24"/>
</g>
</svg>
